[DEBUG] 2017-09-02 14:26:54,049 | /home/tyler/frappe-bench/apps/frappe/frappe/utils/scheduler.py:
Site: silverbell
Queued events for site silverbell
[DEBUG] 2017-09-02 14:30:54,516 | /home/tyler/frappe-bench/apps/frappe/frappe/utils/scheduler.py:
Site: silverbell
Queued events for site silverbell
[DEBUG] 2017-09-02 14:34:54,857 | /home/tyler/frappe-bench/apps/frappe/frappe/utils/scheduler.py:
Site: silverbell
Queued events for site silverbell
[DEBUG] 2017-09-02 14:38:55,200 | /home/tyler/frappe-bench/apps/frappe/frappe/utils/scheduler.py:
Site: silverbell
Queued events for site silverbell
[DEBUG] 2017-09-02 14:42:55,534 | /home/tyler/frappe-bench/apps/frappe/frappe/utils/scheduler.py:
Site: silverbell
Queued events for site silverbell
[DEBUG] 2017-09-02 14:46:55,869 | /home/tyler/frappe-bench/apps/frappe/frappe/utils/scheduler.py:
Site: silverbell
Queued events for site silverbell
[DEBUG] 2017-09-02 14:50:56,203 | /home/tyler/frappe-bench/apps/frappe/frappe/utils/scheduler.py:
Site: silverbell
Queued events for site silverbell
[DEBUG] 2017-09-02 14:54:56,540 | /home/tyler/frappe-bench/apps/frappe/frappe/utils/scheduler.py:
Site: silverbell
Queued events for site silverbell
[DEBUG] 2017-09-02 14:58:56,868 | /home/tyler/frappe-bench/apps/frappe/frappe/utils/scheduler.py:
Site: silverbell
Queued events for site silverbell
[DEBUG] 2017-09-02 15:02:57,210 | /home/tyler/frappe-bench/apps/frappe/frappe/utils/scheduler.py:
Site: silverbell
Queued events for site silverbell
[DEBUG] 2017-09-02 15:06:57,540 | /home/tyler/frappe-bench/apps/frappe/frappe/utils/scheduler.py:
Site: silverbell
Queued events for site silverbell
[DEBUG] 2017-09-02 15:10:57,867 | /home/tyler/frappe-bench/apps/frappe/frappe/utils/scheduler.py:
Site: silverbell
Queued events for site silverbell
[DEBUG] 2017-09-02 15:14:58,213 | /home/tyler/frappe-bench/apps/frappe/frappe/utils/scheduler.py:
Site: silverbell
Queued events for site silverbell
[DEBUG] 2017-09-02 15:18:58,557 | /home/tyler/frappe-bench/apps/frappe/frappe/utils/scheduler.py:
Site: silverbell
Queued events for site silverbell
[DEBUG] 2017-09-02 15:22:58,900 | /home/tyler/frappe-bench/apps/frappe/frappe/utils/scheduler.py:
Site: silverbell
Queued events for site silverbell
[DEBUG] 2017-09-02 15:26:59,242 | /home/tyler/frappe-bench/apps/frappe/frappe/utils/scheduler.py:
Site: silverbell
Queued events for site silverbell
[DEBUG] 2017-09-02 15:30:59,569 | /home/tyler/frappe-bench/apps/frappe/frappe/utils/scheduler.py:
Site: silverbell
Queued events for site silverbell
[DEBUG] 2017-09-02 15:34:59,904 | /home/tyler/frappe-bench/apps/frappe/frappe/utils/scheduler.py:
Site: silverbell
Queued events for site silverbell
[DEBUG] 2017-09-02 15:39:00,239 | /home/tyler/frappe-bench/apps/frappe/frappe/utils/scheduler.py:
Site: silverbell
Queued events for site silverbell
[DEBUG] 2017-09-02 15:43:00,577 | /home/tyler/frappe-bench/apps/frappe/frappe/utils/scheduler.py:
Site: silverbell
Queued events for site silverbell
[DEBUG] 2017-09-02 15:47:00,905 | /home/tyler/frappe-bench/apps/frappe/frappe/utils/scheduler.py:
Site: silverbell
Queued events for site silverbell
[DEBUG] 2017-09-02 15:51:01,233 | /home/tyler/frappe-bench/apps/frappe/frappe/utils/scheduler.py:
Site: silverbell
Queued events for site silverbell
[DEBUG] 2017-09-02 15:55:01,559 | /home/tyler/frappe-bench/apps/frappe/frappe/utils/scheduler.py:
Site: silverbell
Queued events for site silverbell
[DEBUG] 2017-09-02 15:59:01,896 | /home/tyler/frappe-bench/apps/frappe/frappe/utils/scheduler.py:
Site: silverbell
Queued events for site silverbell
[DEBUG] 2017-09-02 16:03:02,252 | /home/tyler/frappe-bench/apps/frappe/frappe/utils/scheduler.py:
Site: silverbell
Queued events for site silverbell
[DEBUG] 2017-09-02 16:07:02,593 | /home/tyler/frappe-bench/apps/frappe/frappe/utils/scheduler.py:
Site: silverbell
Queued events for site silverbell
[DEBUG] 2017-09-02 16:11:02,927 | /home/tyler/frappe-bench/apps/frappe/frappe/utils/scheduler.py:
Site: silverbell
Queued events for site silverbell
[DEBUG] 2017-09-02 16:15:03,265 | /home/tyler/frappe-bench/apps/frappe/frappe/utils/scheduler.py:
Site: silverbell
Queued events for site silverbell
[DEBUG] 2017-09-02 16:19:03,612 | /home/tyler/frappe-bench/apps/frappe/frappe/utils/scheduler.py:
Site: silverbell
Queued events for site silverbell
[DEBUG] 2017-09-02 16:23:03,954 | /home/tyler/frappe-bench/apps/frappe/frappe/utils/scheduler.py:
Site: silverbell
Queued events for site silverbell
[DEBUG] 2017-09-02 16:27:04,283 | /home/tyler/frappe-bench/apps/frappe/frappe/utils/scheduler.py:
Site: silverbell
Queued events for site silverbell
[DEBUG] 2017-09-02 16:31:04,625 | /home/tyler/frappe-bench/apps/frappe/frappe/utils/scheduler.py:
Site: silverbell
Queued events for site silverbell
[DEBUG] 2017-09-02 16:35:04,946 | /home/tyler/frappe-bench/apps/frappe/frappe/utils/scheduler.py:
Site: silverbell
Queued events for site silverbell
[DEBUG] 2017-09-02 16:39:05,276 | /home/tyler/frappe-bench/apps/frappe/frappe/utils/scheduler.py:
Site: silverbell
Queued events for site silverbell
[DEBUG] 2017-09-02 16:43:05,598 | /home/tyler/frappe-bench/apps/frappe/frappe/utils/scheduler.py:
Site: silverbell
Queued events for site silverbell
[DEBUG] 2017-09-02 16:47:05,936 | /home/tyler/frappe-bench/apps/frappe/frappe/utils/scheduler.py:
Site: silverbell
Queued events for site silverbell
[DEBUG] 2017-09-02 16:51:06,266 | /home/tyler/frappe-bench/apps/frappe/frappe/utils/scheduler.py:
Site: silverbell
Queued events for site silverbell
[DEBUG] 2017-09-02 16:55:06,610 | /home/tyler/frappe-bench/apps/frappe/frappe/utils/scheduler.py:
Site: silverbell
Queued events for site silverbell
[DEBUG] 2017-09-02 16:59:06,948 | /home/tyler/frappe-bench/apps/frappe/frappe/utils/scheduler.py:
Site: silverbell
Queued events for site silverbell
[DEBUG] 2017-09-02 17:03:07,309 | /home/tyler/frappe-bench/apps/frappe/frappe/utils/scheduler.py:
Site: silverbell
Queued events for site silverbell
[DEBUG] 2017-09-02 17:07:07,654 | /home/tyler/frappe-bench/apps/frappe/frappe/utils/scheduler.py:
Site: silverbell
Queued events for site silverbell
[DEBUG] 2017-09-02 17:11:07,997 | /home/tyler/frappe-bench/apps/frappe/frappe/utils/scheduler.py:
Site: silverbell
Queued events for site silverbell
[DEBUG] 2017-09-02 17:15:08,324 | /home/tyler/frappe-bench/apps/frappe/frappe/utils/scheduler.py:
Site: silverbell
Queued events for site silverbell
[DEBUG] 2017-09-02 17:19:08,655 | /home/tyler/frappe-bench/apps/frappe/frappe/utils/scheduler.py:
Site: silverbell
Queued events for site silverbell
[DEBUG] 2017-09-02 17:23:08,989 | /home/tyler/frappe-bench/apps/frappe/frappe/utils/scheduler.py:
Site: silverbell
Queued events for site silverbell
[DEBUG] 2017-09-02 17:27:09,318 | /home/tyler/frappe-bench/apps/frappe/frappe/utils/scheduler.py:
Site: silverbell
Queued events for site silverbell
[DEBUG] 2017-09-02 17:31:09,644 | /home/tyler/frappe-bench/apps/frappe/frappe/utils/scheduler.py:
Site: silverbell
Queued events for site silverbell
[DEBUG] 2017-09-02 17:35:09,987 | /home/tyler/frappe-bench/apps/frappe/frappe/utils/scheduler.py:
Site: silverbell
Queued events for site silverbell
[DEBUG] 2017-09-02 17:39:10,323 | /home/tyler/frappe-bench/apps/frappe/frappe/utils/scheduler.py:
Site: silverbell
Queued events for site silverbell
[DEBUG] 2017-09-02 17:43:10,657 | /home/tyler/frappe-bench/apps/frappe/frappe/utils/scheduler.py:
Site: silverbell
Queued events for site silverbell
[DEBUG] 2017-09-02 17:47:10,983 | /home/tyler/frappe-bench/apps/frappe/frappe/utils/scheduler.py:
Site: silverbell
Queued events for site silverbell
[DEBUG] 2017-09-02 17:51:11,310 | /home/tyler/frappe-bench/apps/frappe/frappe/utils/scheduler.py:
Site: silverbell
Queued events for site silverbell
[DEBUG] 2017-09-02 17:55:11,654 | /home/tyler/frappe-bench/apps/frappe/frappe/utils/scheduler.py:
Site: silverbell
Queued events for site silverbell
[DEBUG] 2017-09-02 17:59:11,990 | /home/tyler/frappe-bench/apps/frappe/frappe/utils/scheduler.py:
Site: silverbell
Queued events for site silverbell
[DEBUG] 2017-09-02 18:03:12,340 | /home/tyler/frappe-bench/apps/frappe/frappe/utils/scheduler.py:
Site: silverbell
Queued events for site silverbell
[DEBUG] 2017-09-02 18:07:12,668 | /home/tyler/frappe-bench/apps/frappe/frappe/utils/scheduler.py:
Site: silverbell
Queued events for site silverbell
[DEBUG] 2017-09-02 18:11:13,004 | /home/tyler/frappe-bench/apps/frappe/frappe/utils/scheduler.py:
Site: silverbell
Queued events for site silverbell
[DEBUG] 2017-09-02 18:15:13,339 | /home/tyler/frappe-bench/apps/frappe/frappe/utils/scheduler.py:
Site: silverbell
Queued events for site silverbell
[DEBUG] 2017-09-02 18:19:13,669 | /home/tyler/frappe-bench/apps/frappe/frappe/utils/scheduler.py:
Site: silverbell
Queued events for site silverbell
[DEBUG] 2017-09-02 18:23:14,013 | /home/tyler/frappe-bench/apps/frappe/frappe/utils/scheduler.py:
Site: silverbell
Queued events for site silverbell
[DEBUG] 2017-09-02 18:27:14,334 | /home/tyler/frappe-bench/apps/frappe/frappe/utils/scheduler.py:
Site: silverbell
Queued events for site silverbell
[DEBUG] 2017-09-02 18:31:14,668 | /home/tyler/frappe-bench/apps/frappe/frappe/utils/scheduler.py:
Site: silverbell
Queued events for site silverbell
[DEBUG] 2017-09-02 18:35:15,004 | /home/tyler/frappe-bench/apps/frappe/frappe/utils/scheduler.py:
Site: silverbell
Queued events for site silverbell
[DEBUG] 2017-09-02 18:39:15,322 | /home/tyler/frappe-bench/apps/frappe/frappe/utils/scheduler.py:
Site: silverbell
Queued events for site silverbell
[DEBUG] 2017-09-02 18:43:15,651 | /home/tyler/frappe-bench/apps/frappe/frappe/utils/scheduler.py:
Site: silverbell
Queued events for site silverbell
[DEBUG] 2017-09-02 18:47:15,995 | /home/tyler/frappe-bench/apps/frappe/frappe/utils/scheduler.py:
Site: silverbell
Queued events for site silverbell
[DEBUG] 2017-09-02 18:51:16,323 | /home/tyler/frappe-bench/apps/frappe/frappe/utils/scheduler.py:
Site: silverbell
Queued events for site silverbell
[DEBUG] 2017-09-02 18:55:16,650 | /home/tyler/frappe-bench/apps/frappe/frappe/utils/scheduler.py:
Site: silverbell
Queued events for site silverbell
[DEBUG] 2017-09-02 18:59:16,984 | /home/tyler/frappe-bench/apps/frappe/frappe/utils/scheduler.py:
Site: silverbell
Queued events for site silverbell
[DEBUG] 2017-09-02 19:03:17,337 | /home/tyler/frappe-bench/apps/frappe/frappe/utils/scheduler.py:
Site: silverbell
Queued events for site silverbell
[DEBUG] 2017-09-02 19:07:17,672 | /home/tyler/frappe-bench/apps/frappe/frappe/utils/scheduler.py:
Site: silverbell
Queued events for site silverbell
[DEBUG] 2017-09-02 19:11:18,006 | /home/tyler/frappe-bench/apps/frappe/frappe/utils/scheduler.py:
Site: silverbell
Queued events for site silverbell
[DEBUG] 2017-09-02 19:15:18,392 | /home/tyler/frappe-bench/apps/frappe/frappe/utils/scheduler.py:
Site: silverbell
Queued events for site silverbell
[DEBUG] 2017-09-02 19:19:18,712 | /home/tyler/frappe-bench/apps/frappe/frappe/utils/scheduler.py:
Site: silverbell
Queued events for site silverbell
[DEBUG] 2017-09-02 19:23:19,049 | /home/tyler/frappe-bench/apps/frappe/frappe/utils/scheduler.py:
Site: silverbell
Queued events for site silverbell
[DEBUG] 2017-09-02 19:27:19,374 | /home/tyler/frappe-bench/apps/frappe/frappe/utils/scheduler.py:
Site: silverbell
Queued events for site silverbell
[DEBUG] 2017-09-02 19:31:19,701 | /home/tyler/frappe-bench/apps/frappe/frappe/utils/scheduler.py:
Site: silverbell
Queued events for site silverbell
[DEBUG] 2017-09-02 19:35:20,016 | /home/tyler/frappe-bench/apps/frappe/frappe/utils/scheduler.py:
Site: silverbell
Queued events for site silverbell
[DEBUG] 2017-09-02 19:39:20,335 | /home/tyler/frappe-bench/apps/frappe/frappe/utils/scheduler.py:
Site: silverbell
Queued events for site silverbell
[DEBUG] 2017-09-02 19:43:20,635 | /home/tyler/frappe-bench/apps/frappe/frappe/utils/scheduler.py:
Site: silverbell
Queued events for site silverbell
[DEBUG] 2017-09-02 19:47:21,002 | /home/tyler/frappe-bench/apps/frappe/frappe/utils/scheduler.py:
Site: silverbell
Queued events for site silverbell
[DEBUG] 2017-09-02 19:51:21,350 | /home/tyler/frappe-bench/apps/frappe/frappe/utils/scheduler.py:
Site: silverbell
Queued events for site silverbell
[DEBUG] 2017-09-02 19:55:21,662 | /home/tyler/frappe-bench/apps/frappe/frappe/utils/scheduler.py:
Site: silverbell
Queued events for site silverbell
[DEBUG] 2017-09-02 19:59:22,001 | /home/tyler/frappe-bench/apps/frappe/frappe/utils/scheduler.py:
Site: silverbell
Queued events for site silverbell
[DEBUG] 2017-09-02 20:03:22,424 | /home/tyler/frappe-bench/apps/frappe/frappe/utils/scheduler.py:
Site: silverbell
Queued events for site silverbell
[DEBUG] 2017-09-02 20:07:22,759 | /home/tyler/frappe-bench/apps/frappe/frappe/utils/scheduler.py:
Site: silverbell
Queued events for site silverbell
[DEBUG] 2017-09-02 20:11:23,102 | /home/tyler/frappe-bench/apps/frappe/frappe/utils/scheduler.py:
Site: silverbell
Queued events for site silverbell
[DEBUG] 2017-09-02 20:15:23,442 | /home/tyler/frappe-bench/apps/frappe/frappe/utils/scheduler.py:
Site: silverbell
Queued events for site silverbell
[DEBUG] 2017-09-02 20:19:23,780 | /home/tyler/frappe-bench/apps/frappe/frappe/utils/scheduler.py:
Site: silverbell
Queued events for site silverbell
[DEBUG] 2017-09-02 20:23:24,141 | /home/tyler/frappe-bench/apps/frappe/frappe/utils/scheduler.py:
Site: silverbell
Queued events for site silverbell
[DEBUG] 2017-09-02 20:27:24,497 | /home/tyler/frappe-bench/apps/frappe/frappe/utils/scheduler.py:
Site: silverbell
Queued events for site silverbell
[DEBUG] 2017-09-02 20:31:24,846 | /home/tyler/frappe-bench/apps/frappe/frappe/utils/scheduler.py:
Site: silverbell
Queued events for site silverbell
[DEBUG] 2017-09-02 20:35:25,195 | /home/tyler/frappe-bench/apps/frappe/frappe/utils/scheduler.py:
Site: silverbell
Queued events for site silverbell
[ERROR] 2017-09-02 20:37:17,140 | /home/tyler/frappe-bench/apps/frappe/frappe/app.py:
Site: silverbell
Form Dict: {
 "0": "[", 
 "1": "{", 
 "10": "t", 
 "100": "C", 
 "101": "o", 
 "102": "l", 
 "103": "l", 
 "104": "e", 
 "105": "c", 
 "106": "t", 
 "107": "i", 
 "108": "o", 
 "109": "n", 
 "11": "i", 
 "110": " ", 
 "111": "A", 
 "112": "p", 
 "113": "p", 
 "114": "\"", 
 "115": "}", 
 "116": ",", 
 "117": "{", 
 "118": "\"", 
 "119": "d", 
 "12": "o", 
 "120": "e", 
 "121": "s", 
 "122": "c", 
 "123": "r", 
 "124": "i", 
 "125": "p", 
 "126": "t", 
 "127": "i", 
 "128": "o", 
 "129": "n", 
 "13": "n", 
 "130": "\"", 
 "131": ":", 
 "132": "\"", 
 "133": "P", 
 "134": "o", 
 "135": "r", 
 "136": "t", 
 "137": " ", 
 "138": "D", 
 "139": "D", 
 "14": "\"", 
 "140": "F", 
 "141": "s", 
 "142": " ", 
 "143": "t", 
 "144": "o", 
 "145": " ", 
 "146": "M", 
 "147": "i", 
 "148": "l", 
 "149": "k", 
 "15": ":", 
 "150": "i", 
 "151": "n", 
 "152": "g", 
 "153": " ", 
 "154": "A", 
 "155": "p", 
 "156": "p", 
 "157": "\"", 
 "158": "}", 
 "159": "]", 
 "16": "\"", 
 "17": "M", 
 "18": "a", 
 "19": "k", 
 "2": "\"", 
 "20": "e", 
 "21": " ", 
 "22": "D", 
 "23": "y", 
 "24": "n", 
 "25": "a", 
 "26": "m", 
 "27": "i", 
 "28": "c", 
 "29": " ", 
 "3": "d", 
 "30": "D", 
 "31": "o", 
 "32": "c", 
 "33": "f", 
 "34": "i", 
 "35": "e", 
 "36": "l", 
 "37": "d", 
 "38": "s", 
 "39": " ", 
 "4": "e", 
 "40": "m", 
 "41": "a", 
 "42": "g", 
 "43": "i", 
 "44": "c", 
 "45": "a", 
 "46": "l", 
 "47": "l", 
 "48": "y", 
 "49": " ", 
 "5": "s", 
 "50": "a", 
 "51": "p", 
 "52": "p", 
 "53": "e", 
 "54": "a", 
 "55": "r", 
 "56": " ", 
 "57": "i", 
 "58": "n", 
 "59": " ", 
 "6": "c", 
 "60": "H", 
 "61": "T", 
 "62": "M", 
 "63": "L", 
 "64": "\"", 
 "65": "}", 
 "66": ",", 
 "67": "{", 
 "68": "\"", 
 "69": "d", 
 "7": "r", 
 "70": "e", 
 "71": "s", 
 "72": "c", 
 "73": "r", 
 "74": "i", 
 "75": "p", 
 "76": "t", 
 "77": "i", 
 "78": "o", 
 "79": "n", 
 "8": "i", 
 "80": "\"", 
 "81": ":", 
 "82": "\"", 
 "83": "P", 
 "84": "o", 
 "85": "r", 
 "86": "t", 
 "87": " ", 
 "88": "D", 
 "89": "D", 
 "9": "p", 
 "90": "F", 
 "91": "s", 
 "92": " ", 
 "93": "t", 
 "94": "o", 
 "95": " ", 
 "96": "E", 
 "97": "g", 
 "98": "g", 
 "99": " ", 
 "args": "[{\"description\":\"Make Dynamic Docfields magically appear in HTML\"},{\"description\":\"Port DDFs to Egg Collection App\"},{\"description\":\"Port DDFs to Milking App\"}]", 
 "cmd": "runserverobj", 
 "docs": "{\"modified_by\":\"Administrator\",\"name\":\"Dynamic Docfield Loading\",\"parent\":null,\"creation\":\"2017-08-30 20:21:08.483161\",\"modified\":\"2017-09-02 20:35:33.287413\",\"doctype\":\"Dynamic Docfield Loading\",\"idx\":\"0\",\"parenttype\":null,\"owner\":\"Administrator\",\"docstatus\":0,\"parentfield\":null,\"__last_sync_on\":\"2017-09-03T00:35:33.671Z\"}", 
 "format": "undefined", 
 "method": "handle_ddf_inputs"
}
Request Error
Traceback (most recent call last):
  File "/home/tyler/frappe-bench/apps/frappe/frappe/app.py", line 55, in application
    response = frappe.handler.handle()
  File "/home/tyler/frappe-bench/apps/frappe/frappe/handler.py", line 21, in handle
    data = execute_cmd(cmd)
  File "/home/tyler/frappe-bench/apps/frappe/frappe/handler.py", line 52, in execute_cmd
    return frappe.call(method, **frappe.form_dict)
  File "/home/tyler/frappe-bench/apps/frappe/frappe/__init__.py", line 907, in call
    return fn(*args, **newargs)
  File "/home/tyler/frappe-bench/apps/frappe/frappe/handler.py", line 80, in runserverobj
    frappe.desk.form.run_method.runserverobj(method, docs=docs, dt=dt, dn=dn, arg=arg, args=args)
  File "/home/tyler/frappe-bench/apps/frappe/frappe/desk/form/run_method.py", line 38, in runserverobj
    r = doc.run_method(method, args)
  File "/home/tyler/frappe-bench/apps/frappe/frappe/model/document.py", line 666, in run_method
    out = Document.hook(fn)(self, *args, **kwargs)
  File "/home/tyler/frappe-bench/apps/frappe/frappe/model/document.py", line 892, in composer
    return composed(self, method, *args, **kwargs)
  File "/home/tyler/frappe-bench/apps/frappe/frappe/model/document.py", line 875, in runner
    add_to_return_value(self, fn(self, *args, **kwargs))
  File "/home/tyler/frappe-bench/apps/frappe/frappe/model/document.py", line 660, in <lambda>
    fn = lambda self, *args, **kwargs: getattr(self, method)(*args, **kwargs)
  File "/home/tyler/frappe-bench/apps/at_livestock/at_livestock/livestock/doctype/dynamic_docfield_loading/dynamic_docfield_loading.py", line 19, in handle_ddf_inputs
    setattr(self, ddf_dict_01, ddf_dict['ddf_dict_01'])
NameError: global name 'ddf_dict_01' is not defined
[ERROR] 2017-09-02 20:37:17,186 | /home/tyler/frappe-bench/apps/frappe/frappe/utils/error.py:
New Exception collected with id: 2017-09-02 20:37:17.141678-127.0.0.1-599
[ERROR] 2017-09-02 20:37:35,125 | /home/tyler/frappe-bench/apps/frappe/frappe/app.py:
Site: silverbell
Form Dict: {
 "0": "[", 
 "1": "{", 
 "10": "t", 
 "100": "C", 
 "101": "o", 
 "102": "l", 
 "103": "l", 
 "104": "e", 
 "105": "c", 
 "106": "t", 
 "107": "i", 
 "108": "o", 
 "109": "n", 
 "11": "i", 
 "110": " ", 
 "111": "A", 
 "112": "p", 
 "113": "p", 
 "114": "\"", 
 "115": "}", 
 "116": ",", 
 "117": "{", 
 "118": "\"", 
 "119": "d", 
 "12": "o", 
 "120": "e", 
 "121": "s", 
 "122": "c", 
 "123": "r", 
 "124": "i", 
 "125": "p", 
 "126": "t", 
 "127": "i", 
 "128": "o", 
 "129": "n", 
 "13": "n", 
 "130": "\"", 
 "131": ":", 
 "132": "\"", 
 "133": "P", 
 "134": "o", 
 "135": "r", 
 "136": "t", 
 "137": " ", 
 "138": "D", 
 "139": "D", 
 "14": "\"", 
 "140": "F", 
 "141": "s", 
 "142": " ", 
 "143": "t", 
 "144": "o", 
 "145": " ", 
 "146": "M", 
 "147": "i", 
 "148": "l", 
 "149": "k", 
 "15": ":", 
 "150": "i", 
 "151": "n", 
 "152": "g", 
 "153": " ", 
 "154": "A", 
 "155": "p", 
 "156": "p", 
 "157": "\"", 
 "158": "}", 
 "159": "]", 
 "16": "\"", 
 "17": "M", 
 "18": "a", 
 "19": "k", 
 "2": "\"", 
 "20": "e", 
 "21": " ", 
 "22": "D", 
 "23": "y", 
 "24": "n", 
 "25": "a", 
 "26": "m", 
 "27": "i", 
 "28": "c", 
 "29": " ", 
 "3": "d", 
 "30": "D", 
 "31": "o", 
 "32": "c", 
 "33": "f", 
 "34": "i", 
 "35": "e", 
 "36": "l", 
 "37": "d", 
 "38": "s", 
 "39": " ", 
 "4": "e", 
 "40": "m", 
 "41": "a", 
 "42": "g", 
 "43": "i", 
 "44": "c", 
 "45": "a", 
 "46": "l", 
 "47": "l", 
 "48": "y", 
 "49": " ", 
 "5": "s", 
 "50": "a", 
 "51": "p", 
 "52": "p", 
 "53": "e", 
 "54": "a", 
 "55": "r", 
 "56": " ", 
 "57": "i", 
 "58": "n", 
 "59": " ", 
 "6": "c", 
 "60": "H", 
 "61": "T", 
 "62": "M", 
 "63": "L", 
 "64": "\"", 
 "65": "}", 
 "66": ",", 
 "67": "{", 
 "68": "\"", 
 "69": "d", 
 "7": "r", 
 "70": "e", 
 "71": "s", 
 "72": "c", 
 "73": "r", 
 "74": "i", 
 "75": "p", 
 "76": "t", 
 "77": "i", 
 "78": "o", 
 "79": "n", 
 "8": "i", 
 "80": "\"", 
 "81": ":", 
 "82": "\"", 
 "83": "P", 
 "84": "o", 
 "85": "r", 
 "86": "t", 
 "87": " ", 
 "88": "D", 
 "89": "D", 
 "9": "p", 
 "90": "F", 
 "91": "s", 
 "92": " ", 
 "93": "t", 
 "94": "o", 
 "95": " ", 
 "96": "E", 
 "97": "g", 
 "98": "g", 
 "99": " ", 
 "args": "[{\"description\":\"Make Dynamic Docfields magically appear in HTML\"},{\"description\":\"Port DDFs to Egg Collection App\"},{\"description\":\"Port DDFs to Milking App\"}]", 
 "cmd": "runserverobj", 
 "docs": "{\"modified_by\":\"Administrator\",\"name\":\"Dynamic Docfield Loading\",\"parent\":null,\"creation\":\"2017-08-30 20:21:08.483161\",\"modified\":\"2017-09-02 20:37:17.061883\",\"doctype\":\"Dynamic Docfield Loading\",\"idx\":\"0\",\"parenttype\":null,\"owner\":\"Administrator\",\"docstatus\":0,\"parentfield\":null,\"__last_sync_on\":\"2017-09-03T00:37:17.362Z\"}", 
 "format": "undefined", 
 "method": "handle_ddf_inputs"
}
Request Error
Traceback (most recent call last):
  File "/home/tyler/frappe-bench/apps/frappe/frappe/app.py", line 55, in application
    response = frappe.handler.handle()
  File "/home/tyler/frappe-bench/apps/frappe/frappe/handler.py", line 21, in handle
    data = execute_cmd(cmd)
  File "/home/tyler/frappe-bench/apps/frappe/frappe/handler.py", line 52, in execute_cmd
    return frappe.call(method, **frappe.form_dict)
  File "/home/tyler/frappe-bench/apps/frappe/frappe/__init__.py", line 907, in call
    return fn(*args, **newargs)
  File "/home/tyler/frappe-bench/apps/frappe/frappe/handler.py", line 80, in runserverobj
    frappe.desk.form.run_method.runserverobj(method, docs=docs, dt=dt, dn=dn, arg=arg, args=args)
  File "/home/tyler/frappe-bench/apps/frappe/frappe/desk/form/run_method.py", line 38, in runserverobj
    r = doc.run_method(method, args)
  File "/home/tyler/frappe-bench/apps/frappe/frappe/model/document.py", line 666, in run_method
    out = Document.hook(fn)(self, *args, **kwargs)
  File "/home/tyler/frappe-bench/apps/frappe/frappe/model/document.py", line 892, in composer
    return composed(self, method, *args, **kwargs)
  File "/home/tyler/frappe-bench/apps/frappe/frappe/model/document.py", line 875, in runner
    add_to_return_value(self, fn(self, *args, **kwargs))
  File "/home/tyler/frappe-bench/apps/frappe/frappe/model/document.py", line 660, in <lambda>
    fn = lambda self, *args, **kwargs: getattr(self, method)(*args, **kwargs)
  File "/home/tyler/frappe-bench/apps/at_livestock/at_livestock/livestock/doctype/dynamic_docfield_loading/dynamic_docfield_loading.py", line 19, in handle_ddf_inputs
    setattr(self, 'ddf_dict_01', ddf_dict['ddf_dict_01'])
NameError: global name 'ddf_dict' is not defined
[ERROR] 2017-09-02 20:37:35,183 | /home/tyler/frappe-bench/apps/frappe/frappe/utils/error.py:
New Exception collected with id: 2017-09-02 20:37:35.126017-127.0.0.1-c36
[ERROR] 2017-09-02 20:37:56,047 | /home/tyler/frappe-bench/apps/frappe/frappe/app.py:
Site: silverbell
Form Dict: {
 "0": "[", 
 "1": "{", 
 "10": "t", 
 "100": "C", 
 "101": "o", 
 "102": "l", 
 "103": "l", 
 "104": "e", 
 "105": "c", 
 "106": "t", 
 "107": "i", 
 "108": "o", 
 "109": "n", 
 "11": "i", 
 "110": " ", 
 "111": "A", 
 "112": "p", 
 "113": "p", 
 "114": "\"", 
 "115": "}", 
 "116": ",", 
 "117": "{", 
 "118": "\"", 
 "119": "d", 
 "12": "o", 
 "120": "e", 
 "121": "s", 
 "122": "c", 
 "123": "r", 
 "124": "i", 
 "125": "p", 
 "126": "t", 
 "127": "i", 
 "128": "o", 
 "129": "n", 
 "13": "n", 
 "130": "\"", 
 "131": ":", 
 "132": "\"", 
 "133": "P", 
 "134": "o", 
 "135": "r", 
 "136": "t", 
 "137": " ", 
 "138": "D", 
 "139": "D", 
 "14": "\"", 
 "140": "F", 
 "141": "s", 
 "142": " ", 
 "143": "t", 
 "144": "o", 
 "145": " ", 
 "146": "M", 
 "147": "i", 
 "148": "l", 
 "149": "k", 
 "15": ":", 
 "150": "i", 
 "151": "n", 
 "152": "g", 
 "153": " ", 
 "154": "A", 
 "155": "p", 
 "156": "p", 
 "157": "\"", 
 "158": "}", 
 "159": "]", 
 "16": "\"", 
 "17": "M", 
 "18": "a", 
 "19": "k", 
 "2": "\"", 
 "20": "e", 
 "21": " ", 
 "22": "D", 
 "23": "y", 
 "24": "n", 
 "25": "a", 
 "26": "m", 
 "27": "i", 
 "28": "c", 
 "29": " ", 
 "3": "d", 
 "30": "D", 
 "31": "o", 
 "32": "c", 
 "33": "f", 
 "34": "i", 
 "35": "e", 
 "36": "l", 
 "37": "d", 
 "38": "s", 
 "39": " ", 
 "4": "e", 
 "40": "m", 
 "41": "a", 
 "42": "g", 
 "43": "i", 
 "44": "c", 
 "45": "a", 
 "46": "l", 
 "47": "l", 
 "48": "y", 
 "49": " ", 
 "5": "s", 
 "50": "a", 
 "51": "p", 
 "52": "p", 
 "53": "e", 
 "54": "a", 
 "55": "r", 
 "56": " ", 
 "57": "i", 
 "58": "n", 
 "59": " ", 
 "6": "c", 
 "60": "H", 
 "61": "T", 
 "62": "M", 
 "63": "L", 
 "64": "\"", 
 "65": "}", 
 "66": ",", 
 "67": "{", 
 "68": "\"", 
 "69": "d", 
 "7": "r", 
 "70": "e", 
 "71": "s", 
 "72": "c", 
 "73": "r", 
 "74": "i", 
 "75": "p", 
 "76": "t", 
 "77": "i", 
 "78": "o", 
 "79": "n", 
 "8": "i", 
 "80": "\"", 
 "81": ":", 
 "82": "\"", 
 "83": "P", 
 "84": "o", 
 "85": "r", 
 "86": "t", 
 "87": " ", 
 "88": "D", 
 "89": "D", 
 "9": "p", 
 "90": "F", 
 "91": "s", 
 "92": " ", 
 "93": "t", 
 "94": "o", 
 "95": " ", 
 "96": "E", 
 "97": "g", 
 "98": "g", 
 "99": " ", 
 "args": "[{\"description\":\"Make Dynamic Docfields magically appear in HTML\"},{\"description\":\"Port DDFs to Egg Collection App\"},{\"description\":\"Port DDFs to Milking App\"}]", 
 "cmd": "runserverobj", 
 "docs": "{\"modified_by\":\"Administrator\",\"name\":\"Dynamic Docfield Loading\",\"parent\":null,\"creation\":\"2017-08-30 20:21:08.483161\",\"modified\":\"2017-09-02 20:37:35.120200\",\"doctype\":\"Dynamic Docfield Loading\",\"idx\":\"0\",\"parenttype\":null,\"owner\":\"Administrator\",\"docstatus\":0,\"parentfield\":null,\"__last_sync_on\":\"2017-09-03T00:37:35.413Z\"}", 
 "format": "undefined", 
 "method": "handle_ddf_inputs"
}
Request Error
Traceback (most recent call last):
  File "/home/tyler/frappe-bench/apps/frappe/frappe/app.py", line 55, in application
    response = frappe.handler.handle()
  File "/home/tyler/frappe-bench/apps/frappe/frappe/handler.py", line 21, in handle
    data = execute_cmd(cmd)
  File "/home/tyler/frappe-bench/apps/frappe/frappe/handler.py", line 52, in execute_cmd
    return frappe.call(method, **frappe.form_dict)
  File "/home/tyler/frappe-bench/apps/frappe/frappe/__init__.py", line 907, in call
    return fn(*args, **newargs)
  File "/home/tyler/frappe-bench/apps/frappe/frappe/handler.py", line 80, in runserverobj
    frappe.desk.form.run_method.runserverobj(method, docs=docs, dt=dt, dn=dn, arg=arg, args=args)
  File "/home/tyler/frappe-bench/apps/frappe/frappe/desk/form/run_method.py", line 38, in runserverobj
    r = doc.run_method(method, args)
  File "/home/tyler/frappe-bench/apps/frappe/frappe/model/document.py", line 666, in run_method
    out = Document.hook(fn)(self, *args, **kwargs)
  File "/home/tyler/frappe-bench/apps/frappe/frappe/model/document.py", line 892, in composer
    return composed(self, method, *args, **kwargs)
  File "/home/tyler/frappe-bench/apps/frappe/frappe/model/document.py", line 875, in runner
    add_to_return_value(self, fn(self, *args, **kwargs))
  File "/home/tyler/frappe-bench/apps/frappe/frappe/model/document.py", line 660, in <lambda>
    fn = lambda self, *args, **kwargs: getattr(self, method)(*args, **kwargs)
  File "/home/tyler/frappe-bench/apps/at_livestock/at_livestock/livestock/doctype/dynamic_docfield_loading/dynamic_docfield_loading.py", line 19, in handle_ddf_inputs
    setattr(self, 'ddf_dict_01', ddf_dict['ddf_dict_01'])
TypeError: list indices must be integers, not unicode
[ERROR] 2017-09-02 20:37:56,100 | /home/tyler/frappe-bench/apps/frappe/frappe/utils/error.py:
New Exception collected with id: 2017-09-02 20:37:56.048164-127.0.0.1-cd9
[ERROR] 2017-09-02 20:38:24,508 | /home/tyler/frappe-bench/apps/frappe/frappe/app.py:
Site: silverbell
Form Dict: {
 "0": "{", 
 "1": "\"", 
 "10": "_", 
 "11": "0", 
 "12": "1", 
 "13": "\"", 
 "14": ":", 
 "15": "\"", 
 "16": "S", 
 "17": "i", 
 "18": "g", 
 "19": "g", 
 "2": "d", 
 "20": "i", 
 "21": "\"", 
 "22": "}", 
 "3": "d", 
 "4": "f", 
 "5": "_", 
 "6": "d", 
 "7": "i", 
 "8": "c", 
 "9": "t", 
 "args": "{\"ddf_dict_01\":\"Siggi\"}", 
 "cmd": "runserverobj", 
 "docs": "{\"modified_by\":\"Administrator\",\"name\":\"Dynamic Docfield Loading\",\"creation\":\"2017-08-30 20:21:08.483161\",\"modified\":\"2017-09-02 20:38:17.594631\",\"doctype\":\"Dynamic Docfield Loading\",\"idx\":\"0\",\"owner\":\"Administrator\",\"docstatus\":0,\"__last_sync_on\":\"2017-09-03T00:38:22.879Z\"}", 
 "format": "undefined", 
 "method": "handle_ddf_inputs"
}
Request Error
Traceback (most recent call last):
  File "/home/tyler/frappe-bench/apps/frappe/frappe/app.py", line 55, in application
    response = frappe.handler.handle()
  File "/home/tyler/frappe-bench/apps/frappe/frappe/handler.py", line 21, in handle
    data = execute_cmd(cmd)
  File "/home/tyler/frappe-bench/apps/frappe/frappe/handler.py", line 52, in execute_cmd
    return frappe.call(method, **frappe.form_dict)
  File "/home/tyler/frappe-bench/apps/frappe/frappe/__init__.py", line 907, in call
    return fn(*args, **newargs)
  File "/home/tyler/frappe-bench/apps/frappe/frappe/handler.py", line 80, in runserverobj
    frappe.desk.form.run_method.runserverobj(method, docs=docs, dt=dt, dn=dn, arg=arg, args=args)
  File "/home/tyler/frappe-bench/apps/frappe/frappe/desk/form/run_method.py", line 41, in runserverobj
    r = doc.run_method(method, **args)
  File "/home/tyler/frappe-bench/apps/frappe/frappe/model/document.py", line 666, in run_method
    out = Document.hook(fn)(self, *args, **kwargs)
  File "/home/tyler/frappe-bench/apps/frappe/frappe/model/document.py", line 892, in composer
    return composed(self, method, *args, **kwargs)
  File "/home/tyler/frappe-bench/apps/frappe/frappe/model/document.py", line 875, in runner
    add_to_return_value(self, fn(self, *args, **kwargs))
  File "/home/tyler/frappe-bench/apps/frappe/frappe/model/document.py", line 660, in <lambda>
    fn = lambda self, *args, **kwargs: getattr(self, method)(*args, **kwargs)
TypeError: handle_ddf_inputs() got an unexpected keyword argument 'ddf_dict_01'
[ERROR] 2017-09-02 20:38:24,593 | /home/tyler/frappe-bench/apps/frappe/frappe/utils/error.py:
New Exception collected with id: 2017-09-02 20:38:24.510792-127.0.0.1-22f
[ERROR] 2017-09-02 20:38:44,181 | /home/tyler/frappe-bench/apps/frappe/frappe/app.py:
Site: silverbell
Form Dict: {
 "0": "{", 
 "1": "\"", 
 "10": "_", 
 "11": "0", 
 "12": "1", 
 "13": "\"", 
 "14": ":", 
 "15": "\"", 
 "16": "S", 
 "17": "i", 
 "18": "g", 
 "19": "g", 
 "2": "d", 
 "20": "i", 
 "21": "\"", 
 "22": "}", 
 "3": "d", 
 "4": "f", 
 "5": "_", 
 "6": "d", 
 "7": "i", 
 "8": "c", 
 "9": "t", 
 "args": "{\"ddf_dict_01\":\"Siggi\"}", 
 "cmd": "runserverobj", 
 "docs": "{\"modified_by\":\"Administrator\",\"name\":\"Dynamic Docfield Loading\",\"parent\":null,\"creation\":\"2017-08-30 20:21:08.483161\",\"modified\":\"2017-09-02 20:38:24.526978\",\"doctype\":\"Dynamic Docfield Loading\",\"idx\":\"0\",\"parenttype\":null,\"owner\":\"Administrator\",\"docstatus\":0,\"parentfield\":null,\"__last_sync_on\":\"2017-09-03T00:38:24.928Z\"}", 
 "format": "undefined", 
 "method": "handle_ddf_inputs"
}
Request Error
Traceback (most recent call last):
  File "/home/tyler/frappe-bench/apps/frappe/frappe/app.py", line 55, in application
    response = frappe.handler.handle()
  File "/home/tyler/frappe-bench/apps/frappe/frappe/handler.py", line 21, in handle
    data = execute_cmd(cmd)
  File "/home/tyler/frappe-bench/apps/frappe/frappe/handler.py", line 52, in execute_cmd
    return frappe.call(method, **frappe.form_dict)
  File "/home/tyler/frappe-bench/apps/frappe/frappe/__init__.py", line 907, in call
    return fn(*args, **newargs)
  File "/home/tyler/frappe-bench/apps/frappe/frappe/handler.py", line 80, in runserverobj
    frappe.desk.form.run_method.runserverobj(method, docs=docs, dt=dt, dn=dn, arg=arg, args=args)
  File "/home/tyler/frappe-bench/apps/frappe/frappe/desk/form/run_method.py", line 35, in runserverobj
    r = doc.run_method(method)
  File "/home/tyler/frappe-bench/apps/frappe/frappe/model/document.py", line 666, in run_method
    out = Document.hook(fn)(self, *args, **kwargs)
  File "/home/tyler/frappe-bench/apps/frappe/frappe/model/document.py", line 892, in composer
    return composed(self, method, *args, **kwargs)
  File "/home/tyler/frappe-bench/apps/frappe/frappe/model/document.py", line 875, in runner
    add_to_return_value(self, fn(self, *args, **kwargs))
  File "/home/tyler/frappe-bench/apps/frappe/frappe/model/document.py", line 660, in <lambda>
    fn = lambda self, *args, **kwargs: getattr(self, method)(*args, **kwargs)
  File "/home/tyler/frappe-bench/apps/at_livestock/at_livestock/livestock/doctype/dynamic_docfield_loading/dynamic_docfield_loading.py", line 19, in handle_ddf_inputs
    setattr(self, 'ddf_dict_01', ddf_dict[0])
NameError: global name 'ddf_dict' is not defined
[ERROR] 2017-09-02 20:38:44,242 | /home/tyler/frappe-bench/apps/frappe/frappe/utils/error.py:
New Exception collected with id: 2017-09-02 20:38:44.181866-127.0.0.1-2ea
[ERROR] 2017-09-02 20:38:55,550 | /home/tyler/frappe-bench/apps/frappe/frappe/app.py:
Site: silverbell
Form Dict: {
 "0": "{", 
 "1": "\"", 
 "10": "_", 
 "11": "0", 
 "12": "1", 
 "13": "\"", 
 "14": ":", 
 "15": "\"", 
 "16": "S", 
 "17": "i", 
 "18": "g", 
 "19": "g", 
 "2": "d", 
 "20": "i", 
 "21": "\"", 
 "22": "}", 
 "3": "d", 
 "4": "f", 
 "5": "_", 
 "6": "d", 
 "7": "i", 
 "8": "c", 
 "9": "t", 
 "args": "{\"ddf_dict_01\":\"Siggi\"}", 
 "cmd": "runserverobj", 
 "docs": "{\"modified_by\":\"Administrator\",\"name\":\"Dynamic Docfield Loading\",\"parent\":null,\"creation\":\"2017-08-30 20:21:08.483161\",\"modified\":\"2017-09-02 20:38:44.178340\",\"doctype\":\"Dynamic Docfield Loading\",\"idx\":\"0\",\"parenttype\":null,\"owner\":\"Administrator\",\"docstatus\":0,\"parentfield\":null,\"__last_sync_on\":\"2017-09-03T00:38:44.424Z\"}", 
 "format": "undefined", 
 "method": "handle_ddf_inputs"
}
Request Error
Traceback (most recent call last):
  File "/home/tyler/frappe-bench/apps/frappe/frappe/app.py", line 55, in application
    response = frappe.handler.handle()
  File "/home/tyler/frappe-bench/apps/frappe/frappe/handler.py", line 21, in handle
    data = execute_cmd(cmd)
  File "/home/tyler/frappe-bench/apps/frappe/frappe/handler.py", line 52, in execute_cmd
    return frappe.call(method, **frappe.form_dict)
  File "/home/tyler/frappe-bench/apps/frappe/frappe/__init__.py", line 907, in call
    return fn(*args, **newargs)
  File "/home/tyler/frappe-bench/apps/frappe/frappe/handler.py", line 80, in runserverobj
    frappe.desk.form.run_method.runserverobj(method, docs=docs, dt=dt, dn=dn, arg=arg, args=args)
  File "/home/tyler/frappe-bench/apps/frappe/frappe/desk/form/run_method.py", line 22, in runserverobj
    doc.check_if_latest()
  File "/home/tyler/frappe-bench/apps/frappe/frappe/model/document.py", line 517, in check_if_latest
    where doctype=%s and field='modified' for update''', self.doctype)
  File "/home/tyler/frappe-bench/apps/frappe/frappe/database.py", line 138, in sql
    self._cursor.execute(query, values)
  File "/home/tyler/frappe-bench/env/local/lib/python2.7/site-packages/MySQLdb/cursors.py", line 250, in execute
    self.errorhandler(self, exc, value)
  File "/home/tyler/frappe-bench/env/local/lib/python2.7/site-packages/MySQLdb/connections.py", line 42, in defaulterrorhandler
    raise errorvalue
OperationalError: (1213, 'Deadlock found when trying to get lock; try restarting transaction')
[ERROR] 2017-09-02 20:38:55,702 | /home/tyler/frappe-bench/apps/frappe/frappe/utils/error.py:
Could not take error snapshot: 'connection'
Traceback (most recent call last):
  File "/home/tyler/frappe-bench/apps/frappe/frappe/utils/error.py", line 36, in make_error_snapshot
    snapshot = get_snapshot(exception)
  File "/home/tyler/frappe-bench/apps/frappe/frappe/utils/error.py", line 81, in get_snapshot
    call = inspect.formatargvalues(args, varargs, varkw, locals, formatvalue=lambda value: '={}'.format(pydoc.text.repr(value)))
  File "/usr/lib/python2.7/inspect.py", line 888, in formatargvalues
    specs.append(strseq(args[i], convert, join))
  File "/usr/lib/python2.7/inspect.py", line 843, in strseq
    return convert(object)
  File "/usr/lib/python2.7/inspect.py", line 885, in convert
    return formatarg(name) + formatvalue(locals[name])
KeyError: 'connection'
[ERROR] 2017-09-02 20:39:01,711 | /home/tyler/frappe-bench/apps/frappe/frappe/app.py:
Site: silverbell
Form Dict: {
 "0": "{", 
 "1": "\"", 
 "10": "_", 
 "11": "0", 
 "12": "1", 
 "13": "\"", 
 "14": ":", 
 "15": "\"", 
 "16": "S", 
 "17": "i", 
 "18": "g", 
 "19": "g", 
 "2": "d", 
 "20": "i", 
 "21": "\"", 
 "22": "}", 
 "3": "d", 
 "4": "f", 
 "5": "_", 
 "6": "d", 
 "7": "i", 
 "8": "c", 
 "9": "t", 
 "args": "{\"ddf_dict_01\":\"Siggi\"}", 
 "cmd": "runserverobj", 
 "docs": "{\"modified_by\":\"Administrator\",\"name\":\"Dynamic Docfield Loading\",\"creation\":\"2017-08-30 20:21:08.483161\",\"modified\":\"2017-09-02 20:38:55.390581\",\"doctype\":\"Dynamic Docfield Loading\",\"idx\":\"0\",\"owner\":\"Administrator\",\"docstatus\":0,\"__last_sync_on\":\"2017-09-03T00:39:00.410Z\"}", 
 "format": "undefined", 
 "method": "handle_ddf_inputs"
}
Request Error
Traceback (most recent call last):
  File "/home/tyler/frappe-bench/apps/frappe/frappe/app.py", line 55, in application
    response = frappe.handler.handle()
  File "/home/tyler/frappe-bench/apps/frappe/frappe/handler.py", line 21, in handle
    data = execute_cmd(cmd)
  File "/home/tyler/frappe-bench/apps/frappe/frappe/handler.py", line 52, in execute_cmd
    return frappe.call(method, **frappe.form_dict)
  File "/home/tyler/frappe-bench/apps/frappe/frappe/__init__.py", line 907, in call
    return fn(*args, **newargs)
  File "/home/tyler/frappe-bench/apps/frappe/frappe/handler.py", line 80, in runserverobj
    frappe.desk.form.run_method.runserverobj(method, docs=docs, dt=dt, dn=dn, arg=arg, args=args)
  File "/home/tyler/frappe-bench/apps/frappe/frappe/desk/form/run_method.py", line 35, in runserverobj
    r = doc.run_method(method)
  File "/home/tyler/frappe-bench/apps/frappe/frappe/model/document.py", line 666, in run_method
    out = Document.hook(fn)(self, *args, **kwargs)
  File "/home/tyler/frappe-bench/apps/frappe/frappe/model/document.py", line 892, in composer
    return composed(self, method, *args, **kwargs)
  File "/home/tyler/frappe-bench/apps/frappe/frappe/model/document.py", line 875, in runner
    add_to_return_value(self, fn(self, *args, **kwargs))
  File "/home/tyler/frappe-bench/apps/frappe/frappe/model/document.py", line 660, in <lambda>
    fn = lambda self, *args, **kwargs: getattr(self, method)(*args, **kwargs)
  File "/home/tyler/frappe-bench/apps/at_livestock/at_livestock/livestock/doctype/dynamic_docfield_loading/dynamic_docfield_loading.py", line 19, in handle_ddf_inputs
    setattr(self, 'ddf_dict_01', ddf_dict[0])
KeyError: 0
[ERROR] 2017-09-02 20:39:01,738 | /home/tyler/frappe-bench/apps/frappe/frappe/utils/error.py:
New Exception collected with id: 2017-09-02 20:39:01.711844-127.0.0.1-7ae
[DEBUG] 2017-09-02 20:39:25,509 | /home/tyler/frappe-bench/apps/frappe/frappe/utils/scheduler.py:
Site: silverbell
Queued events for site silverbell
[ERROR] 2017-09-02 20:41:16,576 | /home/tyler/frappe-bench/apps/frappe/frappe/app.py:
Site: silverbell
Form Dict: {
 "args": "{\"ddf_dict\":\"{\\\"ddf_dict_01\\\":\\\"Siggi\\\"}\"}", 
 "cmd": "runserverobj", 
 "ddf_dict": "{\"ddf_dict_01\":\"Siggi\"}", 
 "docs": "{\"modified_by\":\"Administrator\",\"name\":\"Dynamic Docfield Loading\",\"parent\":null,\"creation\":\"2017-08-30 20:21:08.483161\",\"modified\":\"2017-09-02 20:40:44.151618\",\"doctype\":\"Dynamic Docfield Loading\",\"idx\":\"0\",\"parenttype\":null,\"owner\":\"Administrator\",\"docstatus\":0,\"parentfield\":null,\"__last_sync_on\":\"2017-09-03T00:40:44.396Z\"}", 
 "method": "handle_ddf_inputs"
}
Request Error
Traceback (most recent call last):
  File "/home/tyler/frappe-bench/apps/frappe/frappe/app.py", line 55, in application
    response = frappe.handler.handle()
  File "/home/tyler/frappe-bench/apps/frappe/frappe/handler.py", line 21, in handle
    data = execute_cmd(cmd)
  File "/home/tyler/frappe-bench/apps/frappe/frappe/handler.py", line 52, in execute_cmd
    return frappe.call(method, **frappe.form_dict)
  File "/home/tyler/frappe-bench/apps/frappe/frappe/__init__.py", line 907, in call
    return fn(*args, **newargs)
  File "/home/tyler/frappe-bench/apps/frappe/frappe/handler.py", line 80, in runserverobj
    frappe.desk.form.run_method.runserverobj(method, docs=docs, dt=dt, dn=dn, arg=arg, args=args)
  File "/home/tyler/frappe-bench/apps/frappe/frappe/desk/form/run_method.py", line 41, in runserverobj
    r = doc.run_method(method, **args)
  File "/home/tyler/frappe-bench/apps/frappe/frappe/model/document.py", line 666, in run_method
    out = Document.hook(fn)(self, *args, **kwargs)
  File "/home/tyler/frappe-bench/apps/frappe/frappe/model/document.py", line 892, in composer
    return composed(self, method, *args, **kwargs)
  File "/home/tyler/frappe-bench/apps/frappe/frappe/model/document.py", line 875, in runner
    add_to_return_value(self, fn(self, *args, **kwargs))
  File "/home/tyler/frappe-bench/apps/frappe/frappe/model/document.py", line 660, in <lambda>
    fn = lambda self, *args, **kwargs: getattr(self, method)(*args, **kwargs)
  File "/home/tyler/frappe-bench/apps/at_livestock/at_livestock/livestock/doctype/dynamic_docfield_loading/dynamic_docfield_loading.py", line 20, in handle_ddf_inputs
    setattr(self, 'ddf_dict_01', ddf_dict[0])
KeyError: 0
[ERROR] 2017-09-02 20:41:16,634 | /home/tyler/frappe-bench/apps/frappe/frappe/utils/error.py:
New Exception collected with id: 2017-09-02 20:41:16.578639-127.0.0.1-940
[DEBUG] 2017-09-02 20:43:25,829 | /home/tyler/frappe-bench/apps/frappe/frappe/utils/scheduler.py:
Site: silverbell
Queued events for site silverbell
[DEBUG] 2017-09-02 20:47:26,233 | /home/tyler/frappe-bench/apps/frappe/frappe/utils/scheduler.py:
Site: silverbell
Queued events for site silverbell
[DEBUG] 2017-09-02 20:51:26,545 | /home/tyler/frappe-bench/apps/frappe/frappe/utils/scheduler.py:
Site: silverbell
Queued events for site silverbell
[ERROR] 2017-09-02 20:52:30,827 | /home/tyler/frappe-bench/apps/frappe/frappe/app.py:
Site: silverbell
Form Dict: {
 "0": "{\"description\":\"Make Dynamic Docfields magically appear in HTML\"}", 
 "1": "{\"description\":\"Port DDFs to Egg Collection App\"}", 
 "2": "{\"description\":\"Port DDFs to Milking App\"}", 
 "args": "[{\"description\":\"Make Dynamic Docfields magically appear in HTML\"},{\"description\":\"Port DDFs to Egg Collection App\"},{\"description\":\"Port DDFs to Milking App\"}]", 
 "cmd": "runserverobj", 
 "docs": "{\"modified_by\":\"Administrator\",\"name\":\"Dynamic Docfield Loading\",\"creation\":\"2017-08-30 20:21:08.483161\",\"modified\":\"2017-09-02 20:41:29.907321\",\"doctype\":\"Dynamic Docfield Loading\",\"idx\":\"0\",\"owner\":\"Administrator\",\"docstatus\":0,\"__last_sync_on\":\"2017-09-03T00:52:22.349Z\"}", 
 "method": "handle_ddf_inputs"
}
Request Error
Traceback (most recent call last):
  File "/home/tyler/frappe-bench/apps/frappe/frappe/app.py", line 55, in application
    response = frappe.handler.handle()
  File "/home/tyler/frappe-bench/apps/frappe/frappe/handler.py", line 21, in handle
    data = execute_cmd(cmd)
  File "/home/tyler/frappe-bench/apps/frappe/frappe/handler.py", line 52, in execute_cmd
    return frappe.call(method, **frappe.form_dict)
  File "/home/tyler/frappe-bench/apps/frappe/frappe/__init__.py", line 907, in call
    return fn(*args, **newargs)
  File "/home/tyler/frappe-bench/apps/frappe/frappe/handler.py", line 80, in runserverobj
    frappe.desk.form.run_method.runserverobj(method, docs=docs, dt=dt, dn=dn, arg=arg, args=args)
  File "/home/tyler/frappe-bench/apps/frappe/frappe/desk/form/run_method.py", line 38, in runserverobj
    r = doc.run_method(method, args)
  File "/home/tyler/frappe-bench/apps/frappe/frappe/model/document.py", line 666, in run_method
    out = Document.hook(fn)(self, *args, **kwargs)
  File "/home/tyler/frappe-bench/apps/frappe/frappe/model/document.py", line 892, in composer
    return composed(self, method, *args, **kwargs)
  File "/home/tyler/frappe-bench/apps/frappe/frappe/model/document.py", line 875, in runner
    add_to_return_value(self, fn(self, *args, **kwargs))
  File "/home/tyler/frappe-bench/apps/frappe/frappe/model/document.py", line 660, in <lambda>
    fn = lambda self, *args, **kwargs: getattr(self, method)(*args, **kwargs)
  File "/home/tyler/frappe-bench/apps/at_livestock/at_livestock/livestock/doctype/dynamic_docfield_loading/dynamic_docfield_loading.py", line 19, in handle_ddf_inputs
    ddf_dict = json.loads(ddf_dict) # unwind JSON
  File "/usr/lib/python2.7/json/__init__.py", line 339, in loads
    return _default_decoder.decode(s)
  File "/usr/lib/python2.7/json/decoder.py", line 364, in decode
    obj, end = self.raw_decode(s, idx=_w(s, 0).end())
TypeError: expected string or buffer
[ERROR] 2017-09-02 20:52:30,893 | /home/tyler/frappe-bench/apps/frappe/frappe/utils/error.py:
New Exception collected with id: 2017-09-02 20:52:30.828202-127.0.0.1-9de
[ERROR] 2017-09-02 20:53:10,429 | /home/tyler/frappe-bench/apps/frappe/frappe/app.py:
Site: silverbell
Form Dict: {
 "0": "[", 
 "1": "{", 
 "10": "t", 
 "100": "C", 
 "101": "o", 
 "102": "l", 
 "103": "l", 
 "104": "e", 
 "105": "c", 
 "106": "t", 
 "107": "i", 
 "108": "o", 
 "109": "n", 
 "11": "i", 
 "110": " ", 
 "111": "A", 
 "112": "p", 
 "113": "p", 
 "114": "\"", 
 "115": "}", 
 "116": ",", 
 "117": "{", 
 "118": "\"", 
 "119": "d", 
 "12": "o", 
 "120": "e", 
 "121": "s", 
 "122": "c", 
 "123": "r", 
 "124": "i", 
 "125": "p", 
 "126": "t", 
 "127": "i", 
 "128": "o", 
 "129": "n", 
 "13": "n", 
 "130": "\"", 
 "131": ":", 
 "132": "\"", 
 "133": "P", 
 "134": "o", 
 "135": "r", 
 "136": "t", 
 "137": " ", 
 "138": "D", 
 "139": "D", 
 "14": "\"", 
 "140": "F", 
 "141": "s", 
 "142": " ", 
 "143": "t", 
 "144": "o", 
 "145": " ", 
 "146": "M", 
 "147": "i", 
 "148": "l", 
 "149": "k", 
 "15": ":", 
 "150": "i", 
 "151": "n", 
 "152": "g", 
 "153": " ", 
 "154": "A", 
 "155": "p", 
 "156": "p", 
 "157": "\"", 
 "158": "}", 
 "159": "]", 
 "16": "\"", 
 "17": "M", 
 "18": "a", 
 "19": "k", 
 "2": "\"", 
 "20": "e", 
 "21": " ", 
 "22": "D", 
 "23": "y", 
 "24": "n", 
 "25": "a", 
 "26": "m", 
 "27": "i", 
 "28": "c", 
 "29": " ", 
 "3": "d", 
 "30": "D", 
 "31": "o", 
 "32": "c", 
 "33": "f", 
 "34": "i", 
 "35": "e", 
 "36": "l", 
 "37": "d", 
 "38": "s", 
 "39": " ", 
 "4": "e", 
 "40": "m", 
 "41": "a", 
 "42": "g", 
 "43": "i", 
 "44": "c", 
 "45": "a", 
 "46": "l", 
 "47": "l", 
 "48": "y", 
 "49": " ", 
 "5": "s", 
 "50": "a", 
 "51": "p", 
 "52": "p", 
 "53": "e", 
 "54": "a", 
 "55": "r", 
 "56": " ", 
 "57": "i", 
 "58": "n", 
 "59": " ", 
 "6": "c", 
 "60": "H", 
 "61": "T", 
 "62": "M", 
 "63": "L", 
 "64": "\"", 
 "65": "}", 
 "66": ",", 
 "67": "{", 
 "68": "\"", 
 "69": "d", 
 "7": "r", 
 "70": "e", 
 "71": "s", 
 "72": "c", 
 "73": "r", 
 "74": "i", 
 "75": "p", 
 "76": "t", 
 "77": "i", 
 "78": "o", 
 "79": "n", 
 "8": "i", 
 "80": "\"", 
 "81": ":", 
 "82": "\"", 
 "83": "P", 
 "84": "o", 
 "85": "r", 
 "86": "t", 
 "87": " ", 
 "88": "D", 
 "89": "D", 
 "9": "p", 
 "90": "F", 
 "91": "s", 
 "92": " ", 
 "93": "t", 
 "94": "o", 
 "95": " ", 
 "96": "E", 
 "97": "g", 
 "98": "g", 
 "99": " ", 
 "args": "[{\"description\":\"Make Dynamic Docfields magically appear in HTML\"},{\"description\":\"Port DDFs to Egg Collection App\"},{\"description\":\"Port DDFs to Milking App\"}]", 
 "cmd": "runserverobj", 
 "docs": "{\"modified_by\":\"Administrator\",\"name\":\"Dynamic Docfield Loading\",\"creation\":\"2017-08-30 20:21:08.483161\",\"modified\":\"2017-09-02 20:52:30.811246\",\"doctype\":\"Dynamic Docfield Loading\",\"idx\":\"0\",\"owner\":\"Administrator\",\"docstatus\":0,\"__last_sync_on\":\"2017-09-03T00:53:06.081Z\"}", 
 "format": "undefined", 
 "method": "handle_ddf_inputs"
}
Request Error
Traceback (most recent call last):
  File "/home/tyler/frappe-bench/apps/frappe/frappe/app.py", line 55, in application
    response = frappe.handler.handle()
  File "/home/tyler/frappe-bench/apps/frappe/frappe/handler.py", line 21, in handle
    data = execute_cmd(cmd)
  File "/home/tyler/frappe-bench/apps/frappe/frappe/handler.py", line 52, in execute_cmd
    return frappe.call(method, **frappe.form_dict)
  File "/home/tyler/frappe-bench/apps/frappe/frappe/__init__.py", line 907, in call
    return fn(*args, **newargs)
  File "/home/tyler/frappe-bench/apps/frappe/frappe/handler.py", line 80, in runserverobj
    frappe.desk.form.run_method.runserverobj(method, docs=docs, dt=dt, dn=dn, arg=arg, args=args)
  File "/home/tyler/frappe-bench/apps/frappe/frappe/desk/form/run_method.py", line 38, in runserverobj
    r = doc.run_method(method, args)
  File "/home/tyler/frappe-bench/apps/frappe/frappe/model/document.py", line 666, in run_method
    out = Document.hook(fn)(self, *args, **kwargs)
  File "/home/tyler/frappe-bench/apps/frappe/frappe/model/document.py", line 892, in composer
    return composed(self, method, *args, **kwargs)
  File "/home/tyler/frappe-bench/apps/frappe/frappe/model/document.py", line 875, in runner
    add_to_return_value(self, fn(self, *args, **kwargs))
  File "/home/tyler/frappe-bench/apps/frappe/frappe/model/document.py", line 660, in <lambda>
    fn = lambda self, *args, **kwargs: getattr(self, method)(*args, **kwargs)
  File "/home/tyler/frappe-bench/apps/at_livestock/at_livestock/livestock/doctype/dynamic_docfield_loading/dynamic_docfield_loading.py", line 19, in handle_ddf_inputs
    ddf_dict = json.loads(ddf_dict) # unwind JSON
  File "/usr/lib/python2.7/json/__init__.py", line 339, in loads
    return _default_decoder.decode(s)
  File "/usr/lib/python2.7/json/decoder.py", line 364, in decode
    obj, end = self.raw_decode(s, idx=_w(s, 0).end())
TypeError: expected string or buffer
[ERROR] 2017-09-02 20:53:10,458 | /home/tyler/frappe-bench/apps/frappe/frappe/utils/error.py:
New Exception collected with id: 2017-09-02 20:53:10.447716-127.0.0.1-f3a
[ERROR] 2017-09-02 20:53:53,108 | /home/tyler/frappe-bench/apps/frappe/frappe/app.py:
Site: silverbell
Form Dict: {
 "args": "{\"ddf_dict\":\"[{\\\"description\\\":\\\"Make Dynamic Docfields magically appear in HTML\\\"},{\\\"description\\\":\\\"Port DDFs to Egg Collection App\\\"},{\\\"description\\\":\\\"Port DDFs to Milking App\\\"}]\"}", 
 "cmd": "runserverobj", 
 "ddf_dict": "[{\"description\":\"Make Dynamic Docfields magically appear in HTML\"},{\"description\":\"Port DDFs to Egg Collection App\"},{\"description\":\"Port DDFs to Milking App\"}]", 
 "docs": "{\"modified_by\":\"Administrator\",\"name\":\"Dynamic Docfield Loading\",\"creation\":\"2017-08-30 20:21:08.483161\",\"modified\":\"2017-09-02 20:53:10.448605\",\"doctype\":\"Dynamic Docfield Loading\",\"idx\":\"0\",\"owner\":\"Administrator\",\"docstatus\":0,\"__last_sync_on\":\"2017-09-03T00:53:48.592Z\"}", 
 "method": "handle_ddf_inputs"
}
Request Error
Traceback (most recent call last):
  File "/home/tyler/frappe-bench/apps/frappe/frappe/app.py", line 55, in application
    response = frappe.handler.handle()
  File "/home/tyler/frappe-bench/apps/frappe/frappe/handler.py", line 21, in handle
    data = execute_cmd(cmd)
  File "/home/tyler/frappe-bench/apps/frappe/frappe/handler.py", line 52, in execute_cmd
    return frappe.call(method, **frappe.form_dict)
  File "/home/tyler/frappe-bench/apps/frappe/frappe/__init__.py", line 907, in call
    return fn(*args, **newargs)
  File "/home/tyler/frappe-bench/apps/frappe/frappe/handler.py", line 80, in runserverobj
    frappe.desk.form.run_method.runserverobj(method, docs=docs, dt=dt, dn=dn, arg=arg, args=args)
  File "/home/tyler/frappe-bench/apps/frappe/frappe/desk/form/run_method.py", line 41, in runserverobj
    r = doc.run_method(method, **args)
  File "/home/tyler/frappe-bench/apps/frappe/frappe/model/document.py", line 666, in run_method
    out = Document.hook(fn)(self, *args, **kwargs)
  File "/home/tyler/frappe-bench/apps/frappe/frappe/model/document.py", line 892, in composer
    return composed(self, method, *args, **kwargs)
  File "/home/tyler/frappe-bench/apps/frappe/frappe/model/document.py", line 875, in runner
    add_to_return_value(self, fn(self, *args, **kwargs))
  File "/home/tyler/frappe-bench/apps/frappe/frappe/model/document.py", line 660, in <lambda>
    fn = lambda self, *args, **kwargs: getattr(self, method)(*args, **kwargs)
  File "/home/tyler/frappe-bench/apps/at_livestock/at_livestock/livestock/doctype/dynamic_docfield_loading/dynamic_docfield_loading.py", line 21, in handle_ddf_inputs
    setattr(self, 'ddf_dict_01', ddf_dict['ddf_dict_01'])
TypeError: list indices must be integers, not unicode
[ERROR] 2017-09-02 20:53:53,119 | /home/tyler/frappe-bench/apps/frappe/frappe/utils/error.py:
New Exception collected with id: 2017-09-02 20:53:53.109153-127.0.0.1-f50
[ERROR] 2017-09-02 20:54:22,373 | /home/tyler/frappe-bench/apps/frappe/frappe/app.py:
Site: silverbell
Form Dict: {
 "args": "{\"ddf_dict\":\"[{\\\"description\\\":\\\"Make Dynamic Docfields magically appear in HTML\\\"},{\\\"description\\\":\\\"Port DDFs to Egg Collection App\\\"},{\\\"description\\\":\\\"Port DDFs to Milking App\\\"}]\"}", 
 "cmd": "runserverobj", 
 "ddf_dict": "[{\"description\":\"Make Dynamic Docfields magically appear in HTML\"},{\"description\":\"Port DDFs to Egg Collection App\"},{\"description\":\"Port DDFs to Milking App\"}]", 
 "docs": "{\"modified_by\":\"Administrator\",\"name\":\"Dynamic Docfield Loading\",\"parent\":null,\"creation\":\"2017-08-30 20:21:08.483161\",\"modified\":\"2017-09-02 20:53:53.143211\",\"doctype\":\"Dynamic Docfield Loading\",\"idx\":\"0\",\"parenttype\":null,\"owner\":\"Administrator\",\"docstatus\":0,\"parentfield\":null,\"__last_sync_on\":\"2017-09-03T00:53:53.607Z\"}", 
 "method": "handle_ddf_inputs"
}
Request Error
Traceback (most recent call last):
  File "/home/tyler/frappe-bench/apps/frappe/frappe/app.py", line 55, in application
    response = frappe.handler.handle()
  File "/home/tyler/frappe-bench/apps/frappe/frappe/handler.py", line 21, in handle
    data = execute_cmd(cmd)
  File "/home/tyler/frappe-bench/apps/frappe/frappe/handler.py", line 52, in execute_cmd
    return frappe.call(method, **frappe.form_dict)
  File "/home/tyler/frappe-bench/apps/frappe/frappe/__init__.py", line 907, in call
    return fn(*args, **newargs)
  File "/home/tyler/frappe-bench/apps/frappe/frappe/handler.py", line 80, in runserverobj
    frappe.desk.form.run_method.runserverobj(method, docs=docs, dt=dt, dn=dn, arg=arg, args=args)
  File "/home/tyler/frappe-bench/apps/frappe/frappe/desk/form/run_method.py", line 41, in runserverobj
    r = doc.run_method(method, **args)
  File "/home/tyler/frappe-bench/apps/frappe/frappe/model/document.py", line 666, in run_method
    out = Document.hook(fn)(self, *args, **kwargs)
  File "/home/tyler/frappe-bench/apps/frappe/frappe/model/document.py", line 892, in composer
    return composed(self, method, *args, **kwargs)
  File "/home/tyler/frappe-bench/apps/frappe/frappe/model/document.py", line 875, in runner
    add_to_return_value(self, fn(self, *args, **kwargs))
  File "/home/tyler/frappe-bench/apps/frappe/frappe/model/document.py", line 660, in <lambda>
    fn = lambda self, *args, **kwargs: getattr(self, method)(*args, **kwargs)
  File "/home/tyler/frappe-bench/apps/at_livestock/at_livestock/livestock/doctype/dynamic_docfield_loading/dynamic_docfield_loading.py", line 21, in handle_ddf_inputs
    setattr(self, 'ddf_dict_01', ddf_dict['ddf_dict_01'])
TypeError: list indices must be integers, not unicode
[ERROR] 2017-09-02 20:54:22,401 | /home/tyler/frappe-bench/apps/frappe/frappe/utils/error.py:
New Exception collected with id: 2017-09-02 20:54:22.375808-127.0.0.1-c3d
[ERROR] 2017-09-02 20:55:00,764 | /home/tyler/frappe-bench/apps/frappe/frappe/app.py:
Site: silverbell
Form Dict: {
 "args": "{\"ddf_dict\":\"[{\\\"description\\\":\\\"Make Dynamic Docfields magically appear in HTML\\\"},{\\\"description\\\":\\\"Port DDFs to Egg Collection App\\\"},{\\\"description\\\":\\\"Port DDFs to Milking App\\\"}]\"}", 
 "cmd": "runserverobj", 
 "ddf_dict": "[{\"description\":\"Make Dynamic Docfields magically appear in HTML\"},{\"description\":\"Port DDFs to Egg Collection App\"},{\"description\":\"Port DDFs to Milking App\"}]", 
 "docs": "{\"modified_by\":\"Administrator\",\"name\":\"Dynamic Docfield Loading\",\"parent\":null,\"creation\":\"2017-08-30 20:21:08.483161\",\"modified\":\"2017-09-02 20:54:22.392433\",\"doctype\":\"Dynamic Docfield Loading\",\"idx\":\"0\",\"parenttype\":null,\"owner\":\"Administrator\",\"docstatus\":0,\"parentfield\":null,\"__last_sync_on\":\"2017-09-03T00:54:22.625Z\"}", 
 "method": "handle_ddf_inputs"
}
Request Error
Traceback (most recent call last):
  File "/home/tyler/frappe-bench/apps/frappe/frappe/app.py", line 55, in application
    response = frappe.handler.handle()
  File "/home/tyler/frappe-bench/apps/frappe/frappe/handler.py", line 21, in handle
    data = execute_cmd(cmd)
  File "/home/tyler/frappe-bench/apps/frappe/frappe/handler.py", line 52, in execute_cmd
    return frappe.call(method, **frappe.form_dict)
  File "/home/tyler/frappe-bench/apps/frappe/frappe/__init__.py", line 907, in call
    return fn(*args, **newargs)
  File "/home/tyler/frappe-bench/apps/frappe/frappe/handler.py", line 80, in runserverobj
    frappe.desk.form.run_method.runserverobj(method, docs=docs, dt=dt, dn=dn, arg=arg, args=args)
  File "/home/tyler/frappe-bench/apps/frappe/frappe/desk/form/run_method.py", line 41, in runserverobj
    r = doc.run_method(method, **args)
  File "/home/tyler/frappe-bench/apps/frappe/frappe/model/document.py", line 666, in run_method
    out = Document.hook(fn)(self, *args, **kwargs)
  File "/home/tyler/frappe-bench/apps/frappe/frappe/model/document.py", line 892, in composer
    return composed(self, method, *args, **kwargs)
  File "/home/tyler/frappe-bench/apps/frappe/frappe/model/document.py", line 875, in runner
    add_to_return_value(self, fn(self, *args, **kwargs))
  File "/home/tyler/frappe-bench/apps/frappe/frappe/model/document.py", line 660, in <lambda>
    fn = lambda self, *args, **kwargs: getattr(self, method)(*args, **kwargs)
  File "/home/tyler/frappe-bench/apps/at_livestock/at_livestock/livestock/doctype/dynamic_docfield_loading/dynamic_docfield_loading.py", line 21, in handle_ddf_inputs
    setattr(self, ddf_dict[0], None)
TypeError: attribute name must be string, not 'dict'
[ERROR] 2017-09-02 20:55:00,895 | /home/tyler/frappe-bench/apps/frappe/frappe/utils/error.py:
New Exception collected with id: 2017-09-02 20:55:00.765695-127.0.0.1-12a
[ERROR] 2017-09-02 20:55:21,530 | /home/tyler/frappe-bench/apps/frappe/frappe/app.py:
Site: silverbell
Form Dict: {
 "args": "{\"ddf_dict\":\"[{\\\"description\\\":\\\"Make Dynamic Docfields magically appear in HTML\\\"},{\\\"description\\\":\\\"Port DDFs to Egg Collection App\\\"},{\\\"description\\\":\\\"Port DDFs to Milking App\\\"}]\"}", 
 "cmd": "runserverobj", 
 "ddf_dict": "[{\"description\":\"Make Dynamic Docfields magically appear in HTML\"},{\"description\":\"Port DDFs to Egg Collection App\"},{\"description\":\"Port DDFs to Milking App\"}]", 
 "docs": "{\"modified_by\":\"Administrator\",\"name\":\"Dynamic Docfield Loading\",\"parent\":null,\"creation\":\"2017-08-30 20:21:08.483161\",\"modified\":\"2017-09-02 20:55:00.756185\",\"doctype\":\"Dynamic Docfield Loading\",\"idx\":\"0\",\"parenttype\":null,\"owner\":\"Administrator\",\"docstatus\":0,\"parentfield\":null,\"__last_sync_on\":\"2017-09-03T00:55:01.139Z\"}", 
 "method": "handle_ddf_inputs"
}
Request Error
Traceback (most recent call last):
  File "/home/tyler/frappe-bench/apps/frappe/frappe/app.py", line 55, in application
    response = frappe.handler.handle()
  File "/home/tyler/frappe-bench/apps/frappe/frappe/handler.py", line 21, in handle
    data = execute_cmd(cmd)
  File "/home/tyler/frappe-bench/apps/frappe/frappe/handler.py", line 52, in execute_cmd
    return frappe.call(method, **frappe.form_dict)
  File "/home/tyler/frappe-bench/apps/frappe/frappe/__init__.py", line 907, in call
    return fn(*args, **newargs)
  File "/home/tyler/frappe-bench/apps/frappe/frappe/handler.py", line 80, in runserverobj
    frappe.desk.form.run_method.runserverobj(method, docs=docs, dt=dt, dn=dn, arg=arg, args=args)
  File "/home/tyler/frappe-bench/apps/frappe/frappe/desk/form/run_method.py", line 41, in runserverobj
    r = doc.run_method(method, **args)
  File "/home/tyler/frappe-bench/apps/frappe/frappe/model/document.py", line 666, in run_method
    out = Document.hook(fn)(self, *args, **kwargs)
  File "/home/tyler/frappe-bench/apps/frappe/frappe/model/document.py", line 892, in composer
    return composed(self, method, *args, **kwargs)
  File "/home/tyler/frappe-bench/apps/frappe/frappe/model/document.py", line 875, in runner
    add_to_return_value(self, fn(self, *args, **kwargs))
  File "/home/tyler/frappe-bench/apps/frappe/frappe/model/document.py", line 660, in <lambda>
    fn = lambda self, *args, **kwargs: getattr(self, method)(*args, **kwargs)
  File "/home/tyler/frappe-bench/apps/at_livestock/at_livestock/livestock/doctype/dynamic_docfield_loading/dynamic_docfield_loading.py", line 22, in handle_ddf_inputs
    frappe.msgprint(str(self.ddf_dict_01))
AttributeError: 'DynamicDocfieldLoading' object has no attribute 'ddf_dict_01'
[ERROR] 2017-09-02 20:55:21,582 | /home/tyler/frappe-bench/apps/frappe/frappe/utils/error.py:
New Exception collected with id: 2017-09-02 20:55:21.530595-127.0.0.1-96a
[DEBUG] 2017-09-02 20:55:27,064 | /home/tyler/frappe-bench/apps/frappe/frappe/utils/scheduler.py:
Site: silverbell
Queued events for site silverbell
[ERROR] 2017-09-02 20:55:52,346 | /home/tyler/frappe-bench/apps/frappe/frappe/app.py:
Site: silverbell
Form Dict: {
 "args": "{\"ddf_dict\":\"[{\\\"description\\\":\\\"Make Dynamic Docfields magically appear in HTML\\\"},{\\\"description\\\":\\\"Port DDFs to Egg Collection App\\\"},{\\\"description\\\":\\\"Port DDFs to Milking App\\\"}]\"}", 
 "cmd": "runserverobj", 
 "ddf_dict": "[{\"description\":\"Make Dynamic Docfields magically appear in HTML\"},{\"description\":\"Port DDFs to Egg Collection App\"},{\"description\":\"Port DDFs to Milking App\"}]", 
 "docs": "{\"modified_by\":\"Administrator\",\"name\":\"Dynamic Docfield Loading\",\"parent\":null,\"creation\":\"2017-08-30 20:21:08.483161\",\"modified\":\"2017-09-02 20:55:21.525816\",\"doctype\":\"Dynamic Docfield Loading\",\"idx\":\"0\",\"parenttype\":null,\"owner\":\"Administrator\",\"docstatus\":0,\"parentfield\":null,\"__last_sync_on\":\"2017-09-03T00:55:21.733Z\"}", 
 "method": "handle_ddf_inputs"
}
Request Error
Traceback (most recent call last):
  File "/home/tyler/frappe-bench/apps/frappe/frappe/app.py", line 55, in application
    response = frappe.handler.handle()
  File "/home/tyler/frappe-bench/apps/frappe/frappe/handler.py", line 21, in handle
    data = execute_cmd(cmd)
  File "/home/tyler/frappe-bench/apps/frappe/frappe/handler.py", line 52, in execute_cmd
    return frappe.call(method, **frappe.form_dict)
  File "/home/tyler/frappe-bench/apps/frappe/frappe/__init__.py", line 907, in call
    return fn(*args, **newargs)
  File "/home/tyler/frappe-bench/apps/frappe/frappe/handler.py", line 80, in runserverobj
    frappe.desk.form.run_method.runserverobj(method, docs=docs, dt=dt, dn=dn, arg=arg, args=args)
  File "/home/tyler/frappe-bench/apps/frappe/frappe/desk/form/run_method.py", line 20, in runserverobj
    doc = frappe.get_doc(json.loads(docs))
  File "/home/tyler/frappe-bench/apps/frappe/frappe/__init__.py", line 606, in get_doc
    return frappe.model.document.get_doc(arg1, arg2)
  File "/home/tyler/frappe-bench/apps/frappe/frappe/model/document.py", line 49, in get_doc
    controller = get_controller(doctype)
  File "/home/tyler/frappe-bench/apps/frappe/frappe/model/base_document.py", line 35, in get_controller
    module = load_doctype_module(doctype, module_name)
  File "/home/tyler/frappe-bench/apps/frappe/frappe/modules/utils.py", line 182, in load_doctype_module
    doctype_python_modules[key] = frappe.get_module(module_name)
  File "/home/tyler/frappe-bench/apps/frappe/frappe/__init__.py", line 672, in get_module
    return importlib.import_module(modulename)
  File "/usr/lib/python2.7/importlib/__init__.py", line 37, in import_module
    __import__(name)
  File "/home/tyler/frappe-bench/apps/at_livestock/at_livestock/livestock/doctype/dynamic_docfield_loading/dynamic_docfield_loading.py", line 23
    
    ^
SyntaxError: invalid syntax
[ERROR] 2017-09-02 20:55:52,347 | /home/tyler/frappe-bench/apps/frappe/frappe/app.py:
Site: silverbell
Form Dict: {
 "action": "Save", 
 "cmd": "frappe.desk.form.save.savedocs", 
 "doc": "{\"modified_by\":\"Administrator\",\"name\":\"Dynamic Docfield Loading\",\"parent\":null,\"creation\":\"2017-08-30 20:21:08.483161\",\"modified\":\"2017-09-02 20:55:21.525816\",\"doctype\":\"Dynamic Docfield Loading\",\"idx\":\"0\",\"parenttype\":null,\"owner\":\"Administrator\",\"docstatus\":0,\"parentfield\":null,\"__last_sync_on\":\"2017-09-03T00:55:21.733Z\"}"
}
Request Error
Traceback (most recent call last):
  File "/home/tyler/frappe-bench/apps/frappe/frappe/app.py", line 55, in application
    response = frappe.handler.handle()
  File "/home/tyler/frappe-bench/apps/frappe/frappe/handler.py", line 21, in handle
    data = execute_cmd(cmd)
  File "/home/tyler/frappe-bench/apps/frappe/frappe/handler.py", line 52, in execute_cmd
    return frappe.call(method, **frappe.form_dict)
  File "/home/tyler/frappe-bench/apps/frappe/frappe/__init__.py", line 907, in call
    return fn(*args, **newargs)
  File "/home/tyler/frappe-bench/apps/frappe/frappe/desk/form/save.py", line 12, in savedocs
    doc = frappe.get_doc(json.loads(doc))
  File "/home/tyler/frappe-bench/apps/frappe/frappe/__init__.py", line 606, in get_doc
    return frappe.model.document.get_doc(arg1, arg2)
  File "/home/tyler/frappe-bench/apps/frappe/frappe/model/document.py", line 49, in get_doc
    controller = get_controller(doctype)
  File "/home/tyler/frappe-bench/apps/frappe/frappe/model/base_document.py", line 35, in get_controller
    module = load_doctype_module(doctype, module_name)
  File "/home/tyler/frappe-bench/apps/frappe/frappe/modules/utils.py", line 182, in load_doctype_module
    doctype_python_modules[key] = frappe.get_module(module_name)
  File "/home/tyler/frappe-bench/apps/frappe/frappe/__init__.py", line 672, in get_module
    return importlib.import_module(modulename)
  File "/usr/lib/python2.7/importlib/__init__.py", line 37, in import_module
    __import__(name)
  File "/home/tyler/frappe-bench/apps/at_livestock/at_livestock/livestock/doctype/dynamic_docfield_loading/dynamic_docfield_loading.py", line 23
    
    ^
SyntaxError: invalid syntax
[ERROR] 2017-09-02 20:55:52,429 | /home/tyler/frappe-bench/apps/frappe/frappe/utils/error.py:
New Exception collected with id: 2017-09-02 20:55:52.349992-127.0.0.1-d2c
[ERROR] 2017-09-02 20:55:52,434 | /home/tyler/frappe-bench/apps/frappe/frappe/utils/error.py:
New Exception collected with id: 2017-09-02 20:55:52.348114-127.0.0.1-42e
[ERROR] 2017-09-02 20:56:27,493 | /home/tyler/frappe-bench/apps/frappe/frappe/app.py:
Site: silverbell
Form Dict: {
 "args": "{\"ddf_dict\":\"[{\\\"description\\\":\\\"Make Dynamic Docfields magically appear in HTML\\\"},{\\\"description\\\":\\\"Port DDFs to Egg Collection App\\\"},{\\\"description\\\":\\\"Port DDFs to Milking App\\\"}]\"}", 
 "cmd": "runserverobj", 
 "ddf_dict": "[{\"description\":\"Make Dynamic Docfields magically appear in HTML\"},{\"description\":\"Port DDFs to Egg Collection App\"},{\"description\":\"Port DDFs to Milking App\"}]", 
 "docs": "{\"modified_by\":\"Administrator\",\"name\":\"Dynamic Docfield Loading\",\"parent\":null,\"creation\":\"2017-08-30 20:21:08.483161\",\"modified\":\"2017-09-02 20:55:21.525816\",\"doctype\":\"Dynamic Docfield Loading\",\"idx\":\"0\",\"parenttype\":null,\"owner\":\"Administrator\",\"docstatus\":0,\"parentfield\":null,\"__last_sync_on\":\"2017-09-03T00:55:21.733Z\"}", 
 "method": "handle_ddf_inputs"
}
Request Error
Traceback (most recent call last):
  File "/home/tyler/frappe-bench/apps/frappe/frappe/app.py", line 55, in application
    response = frappe.handler.handle()
  File "/home/tyler/frappe-bench/apps/frappe/frappe/handler.py", line 21, in handle
    data = execute_cmd(cmd)
  File "/home/tyler/frappe-bench/apps/frappe/frappe/handler.py", line 52, in execute_cmd
    return frappe.call(method, **frappe.form_dict)
  File "/home/tyler/frappe-bench/apps/frappe/frappe/__init__.py", line 907, in call
    return fn(*args, **newargs)
  File "/home/tyler/frappe-bench/apps/frappe/frappe/handler.py", line 80, in runserverobj
    frappe.desk.form.run_method.runserverobj(method, docs=docs, dt=dt, dn=dn, arg=arg, args=args)
  File "/home/tyler/frappe-bench/apps/frappe/frappe/desk/form/run_method.py", line 41, in runserverobj
    r = doc.run_method(method, **args)
  File "/home/tyler/frappe-bench/apps/frappe/frappe/model/document.py", line 666, in run_method
    out = Document.hook(fn)(self, *args, **kwargs)
  File "/home/tyler/frappe-bench/apps/frappe/frappe/model/document.py", line 892, in composer
    return composed(self, method, *args, **kwargs)
  File "/home/tyler/frappe-bench/apps/frappe/frappe/model/document.py", line 875, in runner
    add_to_return_value(self, fn(self, *args, **kwargs))
  File "/home/tyler/frappe-bench/apps/frappe/frappe/model/document.py", line 660, in <lambda>
    fn = lambda self, *args, **kwargs: getattr(self, method)(*args, **kwargs)
  File "/home/tyler/frappe-bench/apps/at_livestock/at_livestock/livestock/doctype/dynamic_docfield_loading/dynamic_docfield_loading.py", line 22, in handle_ddf_inputs
    frappe.msgprint(str(self.ddf_dict_0))
AttributeError: 'DynamicDocfieldLoading' object has no attribute 'ddf_dict_0'
[ERROR] 2017-09-02 20:56:27,546 | /home/tyler/frappe-bench/apps/frappe/frappe/utils/error.py:
New Exception collected with id: 2017-09-02 20:56:27.493705-127.0.0.1-599
[ERROR] 2017-09-02 20:57:09,561 | /home/tyler/frappe-bench/apps/frappe/frappe/app.py:
Site: silverbell
Form Dict: {
 "args": "{\"ddf_dict\":\"[{\\\"description\\\":\\\"Make Dynamic Docfields magically appear in HTML\\\"},{\\\"description\\\":\\\"Port DDFs to Egg Collection App\\\"},{\\\"description\\\":\\\"Port DDFs to Milking App\\\"}]\"}", 
 "cmd": "runserverobj", 
 "ddf_dict": "[{\"description\":\"Make Dynamic Docfields magically appear in HTML\"},{\"description\":\"Port DDFs to Egg Collection App\"},{\"description\":\"Port DDFs to Milking App\"}]", 
 "docs": "{\"modified_by\":\"Administrator\",\"name\":\"Dynamic Docfield Loading\",\"creation\":\"2017-08-30 20:21:08.483161\",\"modified\":\"2017-09-02 20:56:27.488701\",\"doctype\":\"Dynamic Docfield Loading\",\"idx\":\"0\",\"owner\":\"Administrator\",\"docstatus\":0,\"__last_sync_on\":\"2017-09-03T00:57:04.807Z\"}", 
 "method": "handle_ddf_inputs"
}
Request Error
Traceback (most recent call last):
  File "/home/tyler/frappe-bench/apps/frappe/frappe/app.py", line 55, in application
    response = frappe.handler.handle()
  File "/home/tyler/frappe-bench/apps/frappe/frappe/handler.py", line 21, in handle
    data = execute_cmd(cmd)
  File "/home/tyler/frappe-bench/apps/frappe/frappe/handler.py", line 52, in execute_cmd
    return frappe.call(method, **frappe.form_dict)
  File "/home/tyler/frappe-bench/apps/frappe/frappe/__init__.py", line 907, in call
    return fn(*args, **newargs)
  File "/home/tyler/frappe-bench/apps/frappe/frappe/handler.py", line 80, in runserverobj
    frappe.desk.form.run_method.runserverobj(method, docs=docs, dt=dt, dn=dn, arg=arg, args=args)
  File "/home/tyler/frappe-bench/apps/frappe/frappe/desk/form/run_method.py", line 41, in runserverobj
    r = doc.run_method(method, **args)
  File "/home/tyler/frappe-bench/apps/frappe/frappe/model/document.py", line 666, in run_method
    out = Document.hook(fn)(self, *args, **kwargs)
  File "/home/tyler/frappe-bench/apps/frappe/frappe/model/document.py", line 892, in composer
    return composed(self, method, *args, **kwargs)
  File "/home/tyler/frappe-bench/apps/frappe/frappe/model/document.py", line 875, in runner
    add_to_return_value(self, fn(self, *args, **kwargs))
  File "/home/tyler/frappe-bench/apps/frappe/frappe/model/document.py", line 660, in <lambda>
    fn = lambda self, *args, **kwargs: getattr(self, method)(*args, **kwargs)
TypeError: handle_ddf_inputs() got an unexpected keyword argument 'ddf_dict'
[ERROR] 2017-09-02 20:57:09,613 | /home/tyler/frappe-bench/apps/frappe/frappe/utils/error.py:
New Exception collected with id: 2017-09-02 20:57:09.561812-127.0.0.1-e40
[ERROR] 2017-09-02 20:57:40,355 | /home/tyler/frappe-bench/apps/frappe/frappe/app.py:
Site: silverbell
Form Dict: {
 "args": "{\"ddf_list\":\"[{\\\"description\\\":\\\"Make Dynamic Docfields magically appear in HTML\\\"},{\\\"description\\\":\\\"Port DDFs to Egg Collection App\\\"},{\\\"description\\\":\\\"Port DDFs to Milking App\\\"}]\"}", 
 "cmd": "runserverobj", 
 "ddf_list": "[{\"description\":\"Make Dynamic Docfields magically appear in HTML\"},{\"description\":\"Port DDFs to Egg Collection App\"},{\"description\":\"Port DDFs to Milking App\"}]", 
 "docs": "{\"modified_by\":\"Administrator\",\"name\":\"Dynamic Docfield Loading\",\"creation\":\"2017-08-30 20:21:08.483161\",\"modified\":\"2017-09-02 20:57:09.558042\",\"doctype\":\"Dynamic Docfield Loading\",\"idx\":\"0\",\"owner\":\"Administrator\",\"docstatus\":0,\"__last_sync_on\":\"2017-09-03T00:57:35.593Z\"}", 
 "method": "handle_ddf_inputs"
}
Request Error
Traceback (most recent call last):
  File "/home/tyler/frappe-bench/apps/frappe/frappe/app.py", line 55, in application
    response = frappe.handler.handle()
  File "/home/tyler/frappe-bench/apps/frappe/frappe/handler.py", line 21, in handle
    data = execute_cmd(cmd)
  File "/home/tyler/frappe-bench/apps/frappe/frappe/handler.py", line 52, in execute_cmd
    return frappe.call(method, **frappe.form_dict)
  File "/home/tyler/frappe-bench/apps/frappe/frappe/__init__.py", line 907, in call
    return fn(*args, **newargs)
  File "/home/tyler/frappe-bench/apps/frappe/frappe/handler.py", line 80, in runserverobj
    frappe.desk.form.run_method.runserverobj(method, docs=docs, dt=dt, dn=dn, arg=arg, args=args)
  File "/home/tyler/frappe-bench/apps/frappe/frappe/desk/form/run_method.py", line 41, in runserverobj
    r = doc.run_method(method, **args)
  File "/home/tyler/frappe-bench/apps/frappe/frappe/model/document.py", line 666, in run_method
    out = Document.hook(fn)(self, *args, **kwargs)
  File "/home/tyler/frappe-bench/apps/frappe/frappe/model/document.py", line 892, in composer
    return composed(self, method, *args, **kwargs)
  File "/home/tyler/frappe-bench/apps/frappe/frappe/model/document.py", line 875, in runner
    add_to_return_value(self, fn(self, *args, **kwargs))
  File "/home/tyler/frappe-bench/apps/frappe/frappe/model/document.py", line 660, in <lambda>
    fn = lambda self, *args, **kwargs: getattr(self, method)(*args, **kwargs)
  File "/home/tyler/frappe-bench/apps/at_livestock/at_livestock/livestock/doctype/dynamic_docfield_loading/dynamic_docfield_loading.py", line 22, in handle_ddf_inputs
    frappe.msgprint(str(self.ddf_list_0))
AttributeError: 'DynamicDocfieldLoading' object has no attribute 'ddf_list_0'
[ERROR] 2017-09-02 20:57:40,392 | /home/tyler/frappe-bench/apps/frappe/frappe/utils/error.py:
New Exception collected with id: 2017-09-02 20:57:40.386838-127.0.0.1-019
[ERROR] 2017-09-02 20:58:18,280 | /home/tyler/frappe-bench/apps/frappe/frappe/app.py:
Site: silverbell
Form Dict: {
 "args": "{\"ddf_list\":\"[{\\\"description\\\":\\\"Make Dynamic Docfields magically appear in HTML\\\"},{\\\"description\\\":\\\"Port DDFs to Egg Collection App\\\"},{\\\"description\\\":\\\"Port DDFs to Milking App\\\"}]\"}", 
 "cmd": "runserverobj", 
 "ddf_list": "[{\"description\":\"Make Dynamic Docfields magically appear in HTML\"},{\"description\":\"Port DDFs to Egg Collection App\"},{\"description\":\"Port DDFs to Milking App\"}]", 
 "docs": "{\"modified_by\":\"Administrator\",\"name\":\"Dynamic Docfield Loading\",\"parent\":null,\"creation\":\"2017-08-30 20:21:08.483161\",\"modified\":\"2017-09-02 20:57:40.386323\",\"doctype\":\"Dynamic Docfield Loading\",\"idx\":\"0\",\"parenttype\":null,\"owner\":\"Administrator\",\"docstatus\":0,\"parentfield\":null,\"__last_sync_on\":\"2017-09-03T00:57:40.612Z\"}", 
 "method": "handle_ddf_inputs"
}
Request Error
Traceback (most recent call last):
  File "/home/tyler/frappe-bench/apps/frappe/frappe/app.py", line 55, in application
    response = frappe.handler.handle()
  File "/home/tyler/frappe-bench/apps/frappe/frappe/handler.py", line 21, in handle
    data = execute_cmd(cmd)
  File "/home/tyler/frappe-bench/apps/frappe/frappe/handler.py", line 52, in execute_cmd
    return frappe.call(method, **frappe.form_dict)
  File "/home/tyler/frappe-bench/apps/frappe/frappe/__init__.py", line 907, in call
    return fn(*args, **newargs)
  File "/home/tyler/frappe-bench/apps/frappe/frappe/handler.py", line 80, in runserverobj
    frappe.desk.form.run_method.runserverobj(method, docs=docs, dt=dt, dn=dn, arg=arg, args=args)
  File "/home/tyler/frappe-bench/apps/frappe/frappe/desk/form/run_method.py", line 20, in runserverobj
    doc = frappe.get_doc(json.loads(docs))
  File "/home/tyler/frappe-bench/apps/frappe/frappe/__init__.py", line 606, in get_doc
    return frappe.model.document.get_doc(arg1, arg2)
  File "/home/tyler/frappe-bench/apps/frappe/frappe/model/document.py", line 49, in get_doc
    controller = get_controller(doctype)
  File "/home/tyler/frappe-bench/apps/frappe/frappe/model/base_document.py", line 35, in get_controller
    module = load_doctype_module(doctype, module_name)
  File "/home/tyler/frappe-bench/apps/frappe/frappe/modules/utils.py", line 182, in load_doctype_module
    doctype_python_modules[key] = frappe.get_module(module_name)
  File "/home/tyler/frappe-bench/apps/frappe/frappe/__init__.py", line 672, in get_module
    return importlib.import_module(modulename)
  File "/usr/lib/python2.7/importlib/__init__.py", line 37, in import_module
    __import__(name)
  File "/home/tyler/frappe-bench/apps/at_livestock/at_livestock/livestock/doctype/dynamic_docfield_loading/dynamic_docfield_loading.py", line 24
    
    ^
SyntaxError: invalid syntax
[ERROR] 2017-09-02 20:58:18,281 | /home/tyler/frappe-bench/apps/frappe/frappe/app.py:
Site: silverbell
Form Dict: {
 "action": "Save", 
 "cmd": "frappe.desk.form.save.savedocs", 
 "doc": "{\"modified_by\":\"Administrator\",\"name\":\"Dynamic Docfield Loading\",\"parent\":null,\"creation\":\"2017-08-30 20:21:08.483161\",\"modified\":\"2017-09-02 20:57:40.386323\",\"doctype\":\"Dynamic Docfield Loading\",\"idx\":\"0\",\"parenttype\":null,\"owner\":\"Administrator\",\"docstatus\":0,\"parentfield\":null,\"__last_sync_on\":\"2017-09-03T00:57:40.612Z\"}"
}
Request Error
Traceback (most recent call last):
  File "/home/tyler/frappe-bench/apps/frappe/frappe/app.py", line 55, in application
    response = frappe.handler.handle()
  File "/home/tyler/frappe-bench/apps/frappe/frappe/handler.py", line 21, in handle
    data = execute_cmd(cmd)
  File "/home/tyler/frappe-bench/apps/frappe/frappe/handler.py", line 52, in execute_cmd
    return frappe.call(method, **frappe.form_dict)
  File "/home/tyler/frappe-bench/apps/frappe/frappe/__init__.py", line 907, in call
    return fn(*args, **newargs)
  File "/home/tyler/frappe-bench/apps/frappe/frappe/desk/form/save.py", line 12, in savedocs
    doc = frappe.get_doc(json.loads(doc))
  File "/home/tyler/frappe-bench/apps/frappe/frappe/__init__.py", line 606, in get_doc
    return frappe.model.document.get_doc(arg1, arg2)
  File "/home/tyler/frappe-bench/apps/frappe/frappe/model/document.py", line 49, in get_doc
    controller = get_controller(doctype)
  File "/home/tyler/frappe-bench/apps/frappe/frappe/model/base_document.py", line 35, in get_controller
    module = load_doctype_module(doctype, module_name)
  File "/home/tyler/frappe-bench/apps/frappe/frappe/modules/utils.py", line 182, in load_doctype_module
    doctype_python_modules[key] = frappe.get_module(module_name)
  File "/home/tyler/frappe-bench/apps/frappe/frappe/__init__.py", line 672, in get_module
    return importlib.import_module(modulename)
  File "/usr/lib/python2.7/importlib/__init__.py", line 37, in import_module
    __import__(name)
  File "/home/tyler/frappe-bench/apps/at_livestock/at_livestock/livestock/doctype/dynamic_docfield_loading/dynamic_docfield_loading.py", line 24
    
    ^
SyntaxError: invalid syntax
[ERROR] 2017-09-02 20:58:18,371 | /home/tyler/frappe-bench/apps/frappe/frappe/utils/error.py:
New Exception collected with id: 2017-09-02 20:58:18.284321-127.0.0.1-100
[ERROR] 2017-09-02 20:58:18,376 | /home/tyler/frappe-bench/apps/frappe/frappe/utils/error.py:
New Exception collected with id: 2017-09-02 20:58:18.282635-127.0.0.1-ef4
[DEBUG] 2017-09-02 20:59:27,385 | /home/tyler/frappe-bench/apps/frappe/frappe/utils/scheduler.py:
Site: silverbell
Queued events for site silverbell
[DEBUG] 2017-09-02 21:03:27,729 | /home/tyler/frappe-bench/apps/frappe/frappe/utils/scheduler.py:
Site: silverbell
Queued events for site silverbell
[ERROR] 2017-09-02 21:03:47,802 | /home/tyler/frappe-bench/apps/frappe/frappe/app.py:
Site: silverbell
Form Dict: {
 "args": "{\"ddf_list_length\":\"3\"}", 
 "cmd": "runserverobj", 
 "ddf_list_length": "3", 
 "docs": "{\"modified_by\":\"Administrator\",\"name\":\"Dynamic Docfield Loading\",\"creation\":\"2017-08-30 20:21:08.483161\",\"modified\":\"2017-09-02 20:58:33.971221\",\"doctype\":\"Dynamic Docfield Loading\",\"idx\":\"0\",\"owner\":\"Administrator\",\"docstatus\":0,\"__last_sync_on\":\"2017-09-03T01:03:46.442Z\"}", 
 "method": "handle_ddf_inputs"
}
Request Error
Traceback (most recent call last):
  File "/home/tyler/frappe-bench/apps/frappe/frappe/app.py", line 55, in application
    response = frappe.handler.handle()
  File "/home/tyler/frappe-bench/apps/frappe/frappe/handler.py", line 21, in handle
    data = execute_cmd(cmd)
  File "/home/tyler/frappe-bench/apps/frappe/frappe/handler.py", line 52, in execute_cmd
    return frappe.call(method, **frappe.form_dict)
  File "/home/tyler/frappe-bench/apps/frappe/frappe/__init__.py", line 907, in call
    return fn(*args, **newargs)
  File "/home/tyler/frappe-bench/apps/frappe/frappe/handler.py", line 80, in runserverobj
    frappe.desk.form.run_method.runserverobj(method, docs=docs, dt=dt, dn=dn, arg=arg, args=args)
  File "/home/tyler/frappe-bench/apps/frappe/frappe/desk/form/run_method.py", line 41, in runserverobj
    r = doc.run_method(method, **args)
  File "/home/tyler/frappe-bench/apps/frappe/frappe/model/document.py", line 666, in run_method
    out = Document.hook(fn)(self, *args, **kwargs)
  File "/home/tyler/frappe-bench/apps/frappe/frappe/model/document.py", line 892, in composer
    return composed(self, method, *args, **kwargs)
  File "/home/tyler/frappe-bench/apps/frappe/frappe/model/document.py", line 875, in runner
    add_to_return_value(self, fn(self, *args, **kwargs))
  File "/home/tyler/frappe-bench/apps/frappe/frappe/model/document.py", line 660, in <lambda>
    fn = lambda self, *args, **kwargs: getattr(self, method)(*args, **kwargs)
  File "/home/tyler/frappe-bench/apps/at_livestock/at_livestock/livestock/doctype/dynamic_docfield_loading/dynamic_docfield_loading.py", line 19, in handle_ddf_inputs
    ddf_list = json.loads(ddf_list) # unwind JSON
UnboundLocalError: local variable 'ddf_list' referenced before assignment
[ERROR] 2017-09-02 21:03:47,888 | /home/tyler/frappe-bench/apps/frappe/frappe/utils/error.py:
New Exception collected with id: 2017-09-02 21:03:47.804139-127.0.0.1-f1a
[ERROR] 2017-09-02 21:04:49,363 | /home/tyler/frappe-bench/apps/frappe/frappe/app.py:
Site: silverbell
Form Dict: {
 "args": "{\"ddf_list_length\":\"3\"}", 
 "cmd": "runserverobj", 
 "ddf_list_length": "3", 
 "docs": "{\"modified_by\":\"Administrator\",\"name\":\"Dynamic Docfield Loading\",\"creation\":\"2017-08-30 20:21:08.483161\",\"modified\":\"2017-09-02 21:03:47.809857\",\"doctype\":\"Dynamic Docfield Loading\",\"idx\":\"0\",\"owner\":\"Administrator\",\"docstatus\":0,\"__last_sync_on\":\"2017-09-03T01:04:45.203Z\"}", 
 "method": "handle_ddf_inputs"
}
Request Error
Traceback (most recent call last):
  File "/home/tyler/frappe-bench/apps/frappe/frappe/app.py", line 55, in application
    response = frappe.handler.handle()
  File "/home/tyler/frappe-bench/apps/frappe/frappe/handler.py", line 21, in handle
    data = execute_cmd(cmd)
  File "/home/tyler/frappe-bench/apps/frappe/frappe/handler.py", line 52, in execute_cmd
    return frappe.call(method, **frappe.form_dict)
  File "/home/tyler/frappe-bench/apps/frappe/frappe/__init__.py", line 907, in call
    return fn(*args, **newargs)
  File "/home/tyler/frappe-bench/apps/frappe/frappe/handler.py", line 80, in runserverobj
    frappe.desk.form.run_method.runserverobj(method, docs=docs, dt=dt, dn=dn, arg=arg, args=args)
  File "/home/tyler/frappe-bench/apps/frappe/frappe/desk/form/run_method.py", line 41, in runserverobj
    r = doc.run_method(method, **args)
  File "/home/tyler/frappe-bench/apps/frappe/frappe/model/document.py", line 666, in run_method
    out = Document.hook(fn)(self, *args, **kwargs)
  File "/home/tyler/frappe-bench/apps/frappe/frappe/model/document.py", line 892, in composer
    return composed(self, method, *args, **kwargs)
  File "/home/tyler/frappe-bench/apps/frappe/frappe/model/document.py", line 875, in runner
    add_to_return_value(self, fn(self, *args, **kwargs))
  File "/home/tyler/frappe-bench/apps/frappe/frappe/model/document.py", line 660, in <lambda>
    fn = lambda self, *args, **kwargs: getattr(self, method)(*args, **kwargs)
  File "/home/tyler/frappe-bench/apps/at_livestock/at_livestock/livestock/doctype/dynamic_docfield_loading/dynamic_docfield_loading.py", line 20, in handle_ddf_inputs
    frappe.msgprint(str(ddf_list['ddf_list_length']))
TypeError: 'int' object has no attribute '__getitem__'
[ERROR] 2017-09-02 21:04:49,433 | /home/tyler/frappe-bench/apps/frappe/frappe/utils/error.py:
New Exception collected with id: 2017-09-02 21:04:49.364851-127.0.0.1-f95
[ERROR] 2017-09-02 21:05:28,253 | /home/tyler/frappe-bench/apps/frappe/frappe/app.py:
Site: silverbell
Form Dict: {
 "args": "{\"ddf_list_length\":\"3\"}", 
 "cmd": "runserverobj", 
 "ddf_list_length": "3", 
 "docs": "{\"modified_by\":\"Administrator\",\"name\":\"Dynamic Docfield Loading\",\"parent\":null,\"creation\":\"2017-08-30 20:21:08.483161\",\"modified\":\"2017-09-02 21:04:49.360055\",\"doctype\":\"Dynamic Docfield Loading\",\"idx\":\"0\",\"parenttype\":null,\"owner\":\"Administrator\",\"docstatus\":0,\"parentfield\":null,\"__last_sync_on\":\"2017-09-03T01:04:49.735Z\"}", 
 "method": "handle_ddf_inputs"
}
Request Error
Traceback (most recent call last):
  File "/home/tyler/frappe-bench/apps/frappe/frappe/app.py", line 55, in application
    response = frappe.handler.handle()
  File "/home/tyler/frappe-bench/apps/frappe/frappe/handler.py", line 21, in handle
    data = execute_cmd(cmd)
  File "/home/tyler/frappe-bench/apps/frappe/frappe/handler.py", line 52, in execute_cmd
    return frappe.call(method, **frappe.form_dict)
  File "/home/tyler/frappe-bench/apps/frappe/frappe/__init__.py", line 907, in call
    return fn(*args, **newargs)
  File "/home/tyler/frappe-bench/apps/frappe/frappe/handler.py", line 80, in runserverobj
    frappe.desk.form.run_method.runserverobj(method, docs=docs, dt=dt, dn=dn, arg=arg, args=args)
  File "/home/tyler/frappe-bench/apps/frappe/frappe/desk/form/run_method.py", line 41, in runserverobj
    r = doc.run_method(method, **args)
  File "/home/tyler/frappe-bench/apps/frappe/frappe/model/document.py", line 666, in run_method
    out = Document.hook(fn)(self, *args, **kwargs)
  File "/home/tyler/frappe-bench/apps/frappe/frappe/model/document.py", line 892, in composer
    return composed(self, method, *args, **kwargs)
  File "/home/tyler/frappe-bench/apps/frappe/frappe/model/document.py", line 875, in runner
    add_to_return_value(self, fn(self, *args, **kwargs))
  File "/home/tyler/frappe-bench/apps/frappe/frappe/model/document.py", line 660, in <lambda>
    fn = lambda self, *args, **kwargs: getattr(self, method)(*args, **kwargs)
  File "/home/tyler/frappe-bench/apps/at_livestock/at_livestock/livestock/doctype/dynamic_docfield_loading/dynamic_docfield_loading.py", line 20, in handle_ddf_inputs
    frappe.msgprint(ddf_list['ddf_list_length'])
TypeError: 'int' object has no attribute '__getitem__'
[ERROR] 2017-09-02 21:05:28,302 | /home/tyler/frappe-bench/apps/frappe/frappe/utils/error.py:
New Exception collected with id: 2017-09-02 21:05:28.253827-127.0.0.1-6de
[DEBUG] 2017-09-02 21:07:28,033 | /home/tyler/frappe-bench/apps/frappe/frappe/utils/scheduler.py:
Site: silverbell
Queued events for site silverbell
[ERROR] 2017-09-02 21:09:45,168 | /home/tyler/frappe-bench/apps/frappe/frappe/app.py:
Site: silverbell
Form Dict: {
 "args": "{\"ddf_list_length\":\"3\"}", 
 "cmd": "runserverobj", 
 "ddf_list_length": "3", 
 "docs": "{\"modified_by\":\"Administrator\",\"name\":\"Dynamic Docfield Loading\",\"parent\":null,\"creation\":\"2017-08-30 20:21:08.483161\",\"modified\":\"2017-09-02 21:09:38.853333\",\"doctype\":\"Dynamic Docfield Loading\",\"idx\":\"0\",\"parenttype\":null,\"owner\":\"Administrator\",\"docstatus\":0,\"parentfield\":null,\"__last_sync_on\":\"2017-09-03T01:09:39.142Z\"}", 
 "method": "handle_ddf_inputs"
}
Request Error
Traceback (most recent call last):
  File "/home/tyler/frappe-bench/apps/frappe/frappe/app.py", line 55, in application
    response = frappe.handler.handle()
  File "/home/tyler/frappe-bench/apps/frappe/frappe/handler.py", line 21, in handle
    data = execute_cmd(cmd)
  File "/home/tyler/frappe-bench/apps/frappe/frappe/handler.py", line 52, in execute_cmd
    return frappe.call(method, **frappe.form_dict)
  File "/home/tyler/frappe-bench/apps/frappe/frappe/__init__.py", line 907, in call
    return fn(*args, **newargs)
  File "/home/tyler/frappe-bench/apps/frappe/frappe/handler.py", line 80, in runserverobj
    frappe.desk.form.run_method.runserverobj(method, docs=docs, dt=dt, dn=dn, arg=arg, args=args)
  File "/home/tyler/frappe-bench/apps/frappe/frappe/desk/form/run_method.py", line 22, in runserverobj
    doc.check_if_latest()
  File "/home/tyler/frappe-bench/apps/frappe/frappe/model/document.py", line 517, in check_if_latest
    where doctype=%s and field='modified' for update''', self.doctype)
  File "/home/tyler/frappe-bench/apps/frappe/frappe/database.py", line 138, in sql
    self._cursor.execute(query, values)
  File "/home/tyler/frappe-bench/env/local/lib/python2.7/site-packages/MySQLdb/cursors.py", line 250, in execute
    self.errorhandler(self, exc, value)
  File "/home/tyler/frappe-bench/env/local/lib/python2.7/site-packages/MySQLdb/connections.py", line 42, in defaulterrorhandler
    raise errorvalue
OperationalError: (1213, 'Deadlock found when trying to get lock; try restarting transaction')
[ERROR] 2017-09-02 21:09:45,258 | /home/tyler/frappe-bench/apps/frappe/frappe/utils/error.py:
Could not take error snapshot: 'connection'
Traceback (most recent call last):
  File "/home/tyler/frappe-bench/apps/frappe/frappe/utils/error.py", line 36, in make_error_snapshot
    snapshot = get_snapshot(exception)
  File "/home/tyler/frappe-bench/apps/frappe/frappe/utils/error.py", line 81, in get_snapshot
    call = inspect.formatargvalues(args, varargs, varkw, locals, formatvalue=lambda value: '={}'.format(pydoc.text.repr(value)))
  File "/usr/lib/python2.7/inspect.py", line 888, in formatargvalues
    specs.append(strseq(args[i], convert, join))
  File "/usr/lib/python2.7/inspect.py", line 843, in strseq
    return convert(object)
  File "/usr/lib/python2.7/inspect.py", line 885, in convert
    return formatarg(name) + formatvalue(locals[name])
KeyError: 'connection'
[ERROR] 2017-09-02 21:10:28,030 | /home/tyler/frappe-bench/apps/frappe/frappe/app.py:
Site: silverbell
Form Dict: {
 "action": "Save", 
 "cmd": "frappe.desk.form.save.savedocs", 
 "doc": "{\"modified_by\":\"Administrator\",\"name\":\"Dynamic Docfield Loading\",\"creation\":\"2017-08-30 20:21:08.483161\",\"modified\":\"2017-09-02 21:09:56.336749\",\"doctype\":\"Dynamic Docfield Loading\",\"idx\":\"0\",\"owner\":\"Administrator\",\"docstatus\":0,\"__last_sync_on\":\"2017-09-03T01:10:23.993Z\"}"
}
Request Error
Traceback (most recent call last):
  File "/home/tyler/frappe-bench/apps/frappe/frappe/app.py", line 55, in application
    response = frappe.handler.handle()
  File "/home/tyler/frappe-bench/apps/frappe/frappe/handler.py", line 21, in handle
    data = execute_cmd(cmd)
  File "/home/tyler/frappe-bench/apps/frappe/frappe/handler.py", line 52, in execute_cmd
    return frappe.call(method, **frappe.form_dict)
  File "/home/tyler/frappe-bench/apps/frappe/frappe/__init__.py", line 907, in call
    return fn(*args, **newargs)
  File "/home/tyler/frappe-bench/apps/frappe/frappe/desk/form/save.py", line 22, in savedocs
    doc.save()
  File "/home/tyler/frappe-bench/apps/frappe/frappe/model/document.py", line 230, in save
    return self._save(*args, **kwargs)
  File "/home/tyler/frappe-bench/apps/frappe/frappe/model/document.py", line 263, in _save
    self.run_before_save_methods()
  File "/home/tyler/frappe-bench/apps/frappe/frappe/model/document.py", line 772, in run_before_save_methods
    self.run_method("validate")
  File "/home/tyler/frappe-bench/apps/frappe/frappe/model/document.py", line 666, in run_method
    out = Document.hook(fn)(self, *args, **kwargs)
  File "/home/tyler/frappe-bench/apps/frappe/frappe/model/document.py", line 892, in composer
    return composed(self, method, *args, **kwargs)
  File "/home/tyler/frappe-bench/apps/frappe/frappe/model/document.py", line 875, in runner
    add_to_return_value(self, fn(self, *args, **kwargs))
  File "/home/tyler/frappe-bench/apps/frappe/frappe/model/document.py", line 660, in <lambda>
    fn = lambda self, *args, **kwargs: getattr(self, method)(*args, **kwargs)
  File "/home/tyler/frappe-bench/apps/at_livestock/at_livestock/livestock/doctype/dynamic_docfield_loading/dynamic_docfield_loading.py", line 26, in validate
    frappe.msgprint(str(self.ddf_list_0))
AttributeError: 'DynamicDocfieldLoading' object has no attribute 'ddf_list_0'
[ERROR] 2017-09-02 21:10:28,094 | /home/tyler/frappe-bench/apps/frappe/frappe/utils/error.py:
New Exception collected with id: 2017-09-02 21:10:28.031476-127.0.0.1-9e4
[ERROR] 2017-09-02 21:11:23,913 | /home/tyler/frappe-bench/apps/frappe/frappe/app.py:
Site: silverbell
Form Dict: {
 "action": "Save", 
 "cmd": "frappe.desk.form.save.savedocs", 
 "doc": "{\"modified_by\":\"Administrator\",\"name\":\"Dynamic Docfield Loading\",\"creation\":\"2017-08-30 20:21:08.483161\",\"modified\":\"2017-09-02 21:09:56.336749\",\"doctype\":\"Dynamic Docfield Loading\",\"idx\":\"0\",\"owner\":\"Administrator\",\"docstatus\":0,\"__last_sync_on\":\"2017-09-03T01:10:27.997Z\"}"
}
Request Error
Traceback (most recent call last):
  File "/home/tyler/frappe-bench/apps/frappe/frappe/app.py", line 55, in application
    response = frappe.handler.handle()
  File "/home/tyler/frappe-bench/apps/frappe/frappe/handler.py", line 21, in handle
    data = execute_cmd(cmd)
  File "/home/tyler/frappe-bench/apps/frappe/frappe/handler.py", line 52, in execute_cmd
    return frappe.call(method, **frappe.form_dict)
  File "/home/tyler/frappe-bench/apps/frappe/frappe/__init__.py", line 907, in call
    return fn(*args, **newargs)
  File "/home/tyler/frappe-bench/apps/frappe/frappe/desk/form/save.py", line 22, in savedocs
    doc.save()
  File "/home/tyler/frappe-bench/apps/frappe/frappe/model/document.py", line 230, in save
    return self._save(*args, **kwargs)
  File "/home/tyler/frappe-bench/apps/frappe/frappe/model/document.py", line 263, in _save
    self.run_before_save_methods()
  File "/home/tyler/frappe-bench/apps/frappe/frappe/model/document.py", line 772, in run_before_save_methods
    self.run_method("validate")
  File "/home/tyler/frappe-bench/apps/frappe/frappe/model/document.py", line 666, in run_method
    out = Document.hook(fn)(self, *args, **kwargs)
  File "/home/tyler/frappe-bench/apps/frappe/frappe/model/document.py", line 892, in composer
    return composed(self, method, *args, **kwargs)
  File "/home/tyler/frappe-bench/apps/frappe/frappe/model/document.py", line 875, in runner
    add_to_return_value(self, fn(self, *args, **kwargs))
  File "/home/tyler/frappe-bench/apps/frappe/frappe/model/document.py", line 660, in <lambda>
    fn = lambda self, *args, **kwargs: getattr(self, method)(*args, **kwargs)
  File "/home/tyler/frappe-bench/apps/at_livestock/at_livestock/livestock/doctype/dynamic_docfield_loading/dynamic_docfield_loading.py", line 26, in validate
    frappe.msgprint(str(self.ddf_list_0))
AttributeError: 'DynamicDocfieldLoading' object has no attribute 'ddf_list_0'
[ERROR] 2017-09-02 21:11:24,051 | /home/tyler/frappe-bench/apps/frappe/frappe/utils/error.py:
New Exception collected with id: 2017-09-02 21:11:23.913892-127.0.0.1-c3b
[DEBUG] 2017-09-02 21:11:28,340 | /home/tyler/frappe-bench/apps/frappe/frappe/utils/scheduler.py:
Site: silverbell
Queued events for site silverbell
[DEBUG] 2017-09-02 21:15:28,648 | /home/tyler/frappe-bench/apps/frappe/frappe/utils/scheduler.py:
Site: silverbell
Queued events for site silverbell
[DEBUG] 2017-09-02 21:19:29,015 | /home/tyler/frappe-bench/apps/frappe/frappe/utils/scheduler.py:
Site: silverbell
Queued events for site silverbell
[DEBUG] 2017-09-02 21:23:29,388 | /home/tyler/frappe-bench/apps/frappe/frappe/utils/scheduler.py:
Site: silverbell
Queued events for site silverbell
[DEBUG] 2017-09-02 21:27:29,723 | /home/tyler/frappe-bench/apps/frappe/frappe/utils/scheduler.py:
Site: silverbell
Queued events for site silverbell
[DEBUG] 2017-09-02 21:31:30,046 | /home/tyler/frappe-bench/apps/frappe/frappe/utils/scheduler.py:
Site: silverbell
Queued events for site silverbell
[DEBUG] 2017-09-02 21:35:30,367 | /home/tyler/frappe-bench/apps/frappe/frappe/utils/scheduler.py:
Site: silverbell
Queued events for site silverbell
[DEBUG] 2017-09-02 21:39:30,695 | /home/tyler/frappe-bench/apps/frappe/frappe/utils/scheduler.py:
Site: silverbell
Queued events for site silverbell
[DEBUG] 2017-09-02 21:43:31,023 | /home/tyler/frappe-bench/apps/frappe/frappe/utils/scheduler.py:
Site: silverbell
Queued events for site silverbell
[DEBUG] 2017-09-02 21:47:31,335 | /home/tyler/frappe-bench/apps/frappe/frappe/utils/scheduler.py:
Site: silverbell
Queued events for site silverbell
[DEBUG] 2017-09-02 21:51:31,673 | /home/tyler/frappe-bench/apps/frappe/frappe/utils/scheduler.py:
Site: silverbell
Queued events for site silverbell
[DEBUG] 2017-09-02 21:55:31,993 | /home/tyler/frappe-bench/apps/frappe/frappe/utils/scheduler.py:
Site: silverbell
Queued events for site silverbell
