[ERROR] 2017-07-09 16:08:08,341 | /home/tyler/frappe-bench/apps/frappe/frappe/app.py:
Site: silverbell
Form Dict: {
 "action": "Save", 
 "cmd": "frappe.desk.form.save.savedocs", 
 "doc": "{\"at_enter_as_uom\":\"Dozen\",\"modified_by\":\"Administrator\",\"name\":\"Egg Collection\",\"parent\":null,\"destination_warehouse\":\"Finished Goods - AT\",\"collection_date\":\"2017-07-09T20:07:27.493Z\",\"creation\":\"2017-07-01 17:19:30.393058\",\"modified\":\"2017-07-09 16:07:45.637575\",\"doctype\":\"Egg Collection\",\"idx\":\"0\",\"parenttype\":null,\"batched_egg_yield\":12,\"at_enter_as_item\":\"Eggs-Dozen\",\"owner\":\"Administrator\",\"docstatus\":0,\"parentfield\":null,\"__last_sync_on\":\"2017-07-09T20:07:45.918Z\"}"
}
Request Error
Traceback (most recent call last):
  File "/home/tyler/frappe-bench/apps/frappe/frappe/app.py", line 55, in application
    response = frappe.handler.handle()
  File "/home/tyler/frappe-bench/apps/frappe/frappe/handler.py", line 21, in handle
    data = execute_cmd(cmd)
  File "/home/tyler/frappe-bench/apps/frappe/frappe/handler.py", line 52, in execute_cmd
    return frappe.call(method, **frappe.form_dict)
  File "/home/tyler/frappe-bench/apps/frappe/frappe/__init__.py", line 907, in call
    return fn(*args, **newargs)
  File "/home/tyler/frappe-bench/apps/frappe/frappe/desk/form/save.py", line 12, in savedocs
    doc = frappe.get_doc(json.loads(doc))
  File "/home/tyler/frappe-bench/apps/frappe/frappe/__init__.py", line 606, in get_doc
    return frappe.model.document.get_doc(arg1, arg2)
  File "/home/tyler/frappe-bench/apps/frappe/frappe/model/document.py", line 49, in get_doc
    controller = get_controller(doctype)
  File "/home/tyler/frappe-bench/apps/frappe/frappe/model/base_document.py", line 35, in get_controller
    module = load_doctype_module(doctype, module_name)
  File "/home/tyler/frappe-bench/apps/frappe/frappe/modules/utils.py", line 182, in load_doctype_module
    doctype_python_modules[key] = frappe.get_module(module_name)
  File "/home/tyler/frappe-bench/apps/frappe/frappe/__init__.py", line 672, in get_module
    return importlib.import_module(modulename)
  File "/usr/lib/python2.7/importlib/__init__.py", line 37, in import_module
    __import__(name)
  File "/home/tyler/frappe-bench/apps/at_livestock/at_livestock/livestock/doctype/egg_collection/egg_collection.py", line 25
    json.loads(collected_eggs, parse_float=True, parse_int=True)
       ^
SyntaxError: invalid syntax
[ERROR] 2017-07-09 16:08:21,117 | /home/tyler/frappe-bench/apps/frappe/frappe/app.py:
Site: silverbell
Form Dict: {
 "0": "{", 
 "1": "\"", 
 "10": "n", 
 "11": "a", 
 "12": "\"", 
 "13": ":", 
 "14": "4", 
 "15": ",", 
 "16": "\"", 
 "17": "B", 
 "18": "a", 
 "19": "r", 
 "2": "A", 
 "20": "r", 
 "21": "e", 
 "22": "d", 
 "23": " ", 
 "24": "R", 
 "25": "o", 
 "26": "c", 
 "27": "k", 
 "28": "s", 
 "29": "\"", 
 "3": "m", 
 "30": ":", 
 "31": "4", 
 "32": ",", 
 "33": "\"", 
 "34": "R", 
 "35": "h", 
 "36": "o", 
 "37": "d", 
 "38": "e", 
 "39": " ", 
 "4": "e", 
 "40": "I", 
 "41": "s", 
 "42": "l", 
 "43": "a", 
 "44": "n", 
 "45": "d", 
 "46": " ", 
 "47": "R", 
 "48": "e", 
 "49": "d", 
 "5": "r", 
 "50": "s", 
 "51": "\"", 
 "52": ":", 
 "53": "4", 
 "54": "}", 
 "6": "i", 
 "7": "c", 
 "8": "a", 
 "9": "u", 
 "args": "{\"Americauna\":4,\"Barred Rocks\":4,\"Rhode Island Reds\":4}", 
 "cmd": "runserverobj", 
 "docs": "{\"at_enter_as_uom\":\"Dozen\",\"modified_by\":\"Administrator\",\"name\":\"Egg Collection\",\"parent\":null,\"destination_warehouse\":\"Finished Goods - AT\",\"collection_date\":\"2017-07-09T20:07:27.493Z\",\"creation\":\"2017-07-01 17:19:30.393058\",\"modified\":\"2017-07-09 16:07:45.637575\",\"doctype\":\"Egg Collection\",\"idx\":\"0\",\"parenttype\":null,\"batched_egg_yield\":12,\"at_enter_as_item\":\"Eggs-Dozen\",\"owner\":\"Administrator\",\"docstatus\":0,\"parentfield\":null,\"__last_sync_on\":\"2017-07-09T20:07:45.918Z\"}", 
 "format": "undefined", 
 "method": "collect_egg_yield"
}
Request Error
Traceback (most recent call last):
  File "/home/tyler/frappe-bench/apps/frappe/frappe/app.py", line 55, in application
    response = frappe.handler.handle()
  File "/home/tyler/frappe-bench/apps/frappe/frappe/handler.py", line 21, in handle
    data = execute_cmd(cmd)
  File "/home/tyler/frappe-bench/apps/frappe/frappe/handler.py", line 52, in execute_cmd
    return frappe.call(method, **frappe.form_dict)
  File "/home/tyler/frappe-bench/apps/frappe/frappe/__init__.py", line 907, in call
    return fn(*args, **newargs)
  File "/home/tyler/frappe-bench/apps/frappe/frappe/handler.py", line 80, in runserverobj
    frappe.desk.form.run_method.runserverobj(method, docs=docs, dt=dt, dn=dn, arg=arg, args=args)
  File "/home/tyler/frappe-bench/apps/frappe/frappe/desk/form/run_method.py", line 35, in runserverobj
    r = doc.run_method(method)
  File "/home/tyler/frappe-bench/apps/frappe/frappe/model/document.py", line 666, in run_method
    out = Document.hook(fn)(self, *args, **kwargs)
  File "/home/tyler/frappe-bench/apps/frappe/frappe/model/document.py", line 892, in composer
    return composed(self, method, *args, **kwargs)
  File "/home/tyler/frappe-bench/apps/frappe/frappe/model/document.py", line 875, in runner
    add_to_return_value(self, fn(self, *args, **kwargs))
  File "/home/tyler/frappe-bench/apps/frappe/frappe/model/document.py", line 660, in <lambda>
    fn = lambda self, *args, **kwargs: getattr(self, method)(*args, **kwargs)
  File "/home/tyler/frappe-bench/apps/at_livestock/at_livestock/livestock/doctype/egg_collection/egg_collection.py", line 25, in collect_egg_yield
    json.loads(collected_eggs, parse_float=True, parse_int=True)
  File "/usr/lib/python2.7/json/__init__.py", line 352, in loads
    return cls(encoding=encoding, **kw).decode(s)
  File "/usr/lib/python2.7/json/decoder.py", line 364, in decode
    obj, end = self.raw_decode(s, idx=_w(s, 0).end())
TypeError: expected string or buffer
[ERROR] 2017-07-09 16:08:21,171 | /home/tyler/frappe-bench/apps/frappe/frappe/utils/error.py:
New Exception collected with id: 2017-07-09 16:08:21.118819-127.0.0.1-f4d
[ERROR] 2017-07-09 16:09:20,082 | /home/tyler/frappe-bench/apps/frappe/frappe/app.py:
Site: silverbell
Form Dict: {
 "0": "{", 
 "1": "\"", 
 "10": "n", 
 "11": "a", 
 "12": "\"", 
 "13": ":", 
 "14": "4", 
 "15": ",", 
 "16": "\"", 
 "17": "B", 
 "18": "a", 
 "19": "r", 
 "2": "A", 
 "20": "r", 
 "21": "e", 
 "22": "d", 
 "23": " ", 
 "24": "R", 
 "25": "o", 
 "26": "c", 
 "27": "k", 
 "28": "s", 
 "29": "\"", 
 "3": "m", 
 "30": ":", 
 "31": "4", 
 "32": ",", 
 "33": "\"", 
 "34": "R", 
 "35": "h", 
 "36": "o", 
 "37": "d", 
 "38": "e", 
 "39": " ", 
 "4": "e", 
 "40": "I", 
 "41": "s", 
 "42": "l", 
 "43": "a", 
 "44": "n", 
 "45": "d", 
 "46": " ", 
 "47": "R", 
 "48": "e", 
 "49": "d", 
 "5": "r", 
 "50": "s", 
 "51": "\"", 
 "52": ":", 
 "53": "4", 
 "54": "}", 
 "6": "i", 
 "7": "c", 
 "8": "a", 
 "9": "u", 
 "args": "{\"Americauna\":4,\"Barred Rocks\":4,\"Rhode Island Reds\":4}", 
 "cmd": "runserverobj", 
 "docs": "{\"at_enter_as_uom\":\"Dozen\",\"modified_by\":\"Administrator\",\"name\":\"Egg Collection\",\"parent\":null,\"destination_warehouse\":\"Finished Goods - AT\",\"collection_date\":\"2017-07-09T20:07:27.493Z\",\"creation\":\"2017-07-01 17:19:30.393058\",\"modified\":\"2017-07-09 16:08:35.267874\",\"doctype\":\"Egg Collection\",\"idx\":\"0\",\"parenttype\":null,\"batched_egg_yield\":12,\"at_enter_as_item\":\"Eggs-Dozen\",\"owner\":\"Administrator\",\"docstatus\":0,\"parentfield\":null,\"__last_sync_on\":\"2017-07-09T20:08:35.594Z\"}", 
 "format": "undefined", 
 "method": "collect_egg_yield"
}
Request Error
Traceback (most recent call last):
  File "/home/tyler/frappe-bench/apps/frappe/frappe/app.py", line 55, in application
    response = frappe.handler.handle()
  File "/home/tyler/frappe-bench/apps/frappe/frappe/handler.py", line 21, in handle
    data = execute_cmd(cmd)
  File "/home/tyler/frappe-bench/apps/frappe/frappe/handler.py", line 52, in execute_cmd
    return frappe.call(method, **frappe.form_dict)
  File "/home/tyler/frappe-bench/apps/frappe/frappe/__init__.py", line 907, in call
    return fn(*args, **newargs)
  File "/home/tyler/frappe-bench/apps/frappe/frappe/handler.py", line 80, in runserverobj
    frappe.desk.form.run_method.runserverobj(method, docs=docs, dt=dt, dn=dn, arg=arg, args=args)
  File "/home/tyler/frappe-bench/apps/frappe/frappe/desk/form/run_method.py", line 22, in runserverobj
    doc.check_if_latest()
  File "/home/tyler/frappe-bench/apps/frappe/frappe/model/document.py", line 517, in check_if_latest
    where doctype=%s and field='modified' for update''', self.doctype)
  File "/home/tyler/frappe-bench/apps/frappe/frappe/database.py", line 138, in sql
    self._cursor.execute(query, values)
  File "/home/tyler/frappe-bench/env/local/lib/python2.7/site-packages/MySQLdb/cursors.py", line 250, in execute
    self.errorhandler(self, exc, value)
  File "/home/tyler/frappe-bench/env/local/lib/python2.7/site-packages/MySQLdb/connections.py", line 42, in defaulterrorhandler
    raise errorvalue
OperationalError: (1213, 'Deadlock found when trying to get lock; try restarting transaction')
[ERROR] 2017-07-09 16:09:20,141 | /home/tyler/frappe-bench/apps/frappe/frappe/utils/error.py:
Could not take error snapshot: 'connection'
Traceback (most recent call last):
  File "/home/tyler/frappe-bench/apps/frappe/frappe/utils/error.py", line 36, in make_error_snapshot
    snapshot = get_snapshot(exception)
  File "/home/tyler/frappe-bench/apps/frappe/frappe/utils/error.py", line 81, in get_snapshot
    call = inspect.formatargvalues(args, varargs, varkw, locals, formatvalue=lambda value: '={}'.format(pydoc.text.repr(value)))
  File "/usr/lib/python2.7/inspect.py", line 888, in formatargvalues
    specs.append(strseq(args[i], convert, join))
  File "/usr/lib/python2.7/inspect.py", line 843, in strseq
    return convert(object)
  File "/usr/lib/python2.7/inspect.py", line 885, in convert
    return formatarg(name) + formatvalue(locals[name])
KeyError: 'connection'
