[ERROR] 2017-07-23 13:05:23,854 | /home/tyler/frappe-bench/apps/frappe/frappe/utils/error.py:
New Exception collected with id: 2017-07-23 13:05:23.775849-127.0.0.1-674
[DEBUG] 2017-07-23 13:05:25,779 | /home/tyler/frappe-bench/apps/frappe/frappe/utils/scheduler.py:
Site: silverbell
Queued events for site silverbell
[ERROR] 2017-07-23 13:05:37,391 | /home/tyler/frappe-bench/apps/frappe/frappe/app.py:
Site: silverbell
Form Dict: {
 "cmd": "frappe.desk.moduleview.get", 
 "module": "Livestock"
}
Request Error
Traceback (most recent call last):
  File "/home/tyler/frappe-bench/apps/frappe/frappe/app.py", line 55, in application
    response = frappe.handler.handle()
  File "/home/tyler/frappe-bench/apps/frappe/frappe/handler.py", line 21, in handle
    data = execute_cmd(cmd)
  File "/home/tyler/frappe-bench/apps/frappe/frappe/handler.py", line 52, in execute_cmd
    return frappe.call(method, **frappe.form_dict)
  File "/home/tyler/frappe-bench/apps/frappe/frappe/__init__.py", line 907, in call
    return fn(*args, **newargs)
  File "/home/tyler/frappe-bench/apps/frappe/frappe/desk/moduleview.py", line 14, in get
    data = get_data(module)
  File "/home/tyler/frappe-bench/apps/frappe/frappe/desk/moduleview.py", line 30, in get_data
    data = build_config_from_file(module)
  File "/home/tyler/frappe-bench/apps/frappe/frappe/desk/moduleview.py", line 54, in build_config_from_file
    data += get_config(app, module)
  File "/home/tyler/frappe-bench/apps/frappe/frappe/desk/moduleview.py", line 158, in get_config
    config = config.get_data()
  File "/home/tyler/frappe-bench/apps/erpnext/erpnext/config/livestock.py", line 67, in get_data
    "name": "Milking Detail",
TypeError: unhashable type: 'dict'
[ERROR] 2017-07-23 13:05:37,478 | /home/tyler/frappe-bench/apps/frappe/frappe/utils/error.py:
New Exception collected with id: 2017-07-23 13:05:37.393301-127.0.0.1-01f
[ERROR] 2017-07-23 13:06:10,129 | /home/tyler/frappe-bench/apps/frappe/frappe/app.py:
Site: silverbell
Form Dict: {
 "cmd": "frappe.desk.moduleview.get", 
 "module": "Livestock"
}
Request Error
Traceback (most recent call last):
  File "/home/tyler/frappe-bench/apps/frappe/frappe/app.py", line 55, in application
    response = frappe.handler.handle()
  File "/home/tyler/frappe-bench/apps/frappe/frappe/handler.py", line 21, in handle
    data = execute_cmd(cmd)
  File "/home/tyler/frappe-bench/apps/frappe/frappe/handler.py", line 52, in execute_cmd
    return frappe.call(method, **frappe.form_dict)
  File "/home/tyler/frappe-bench/apps/frappe/frappe/__init__.py", line 907, in call
    return fn(*args, **newargs)
  File "/home/tyler/frappe-bench/apps/frappe/frappe/desk/moduleview.py", line 14, in get
    data = get_data(module)
  File "/home/tyler/frappe-bench/apps/frappe/frappe/desk/moduleview.py", line 30, in get_data
    data = build_config_from_file(module)
  File "/home/tyler/frappe-bench/apps/frappe/frappe/desk/moduleview.py", line 54, in build_config_from_file
    data += get_config(app, module)
  File "/home/tyler/frappe-bench/apps/frappe/frappe/desk/moduleview.py", line 158, in get_config
    config = config.get_data()
  File "/home/tyler/frappe-bench/apps/erpnext/erpnext/config/livestock.py", line 68, in get_data
    "description": "Milking Detail",
TypeError: unhashable type: 'dict'
[ERROR] 2017-07-23 13:06:10,208 | /home/tyler/frappe-bench/apps/frappe/frappe/utils/error.py:
New Exception collected with id: 2017-07-23 13:06:10.130312-127.0.0.1-f6a
[DEBUG] 2017-07-23 13:09:26,105 | /home/tyler/frappe-bench/apps/frappe/frappe/utils/scheduler.py:
Site: silverbell
Queued events for site silverbell
[DEBUG] 2017-07-23 13:13:26,447 | /home/tyler/frappe-bench/apps/frappe/frappe/utils/scheduler.py:
Site: silverbell
Queued events for site silverbell
[DEBUG] 2017-07-23 13:17:26,789 | /home/tyler/frappe-bench/apps/frappe/frappe/utils/scheduler.py:
Site: silverbell
Queued events for site silverbell
[DEBUG] 2017-07-23 13:21:27,112 | /home/tyler/frappe-bench/apps/frappe/frappe/utils/scheduler.py:
Site: silverbell
Queued events for site silverbell
[DEBUG] 2017-07-23 13:25:27,438 | /home/tyler/frappe-bench/apps/frappe/frappe/utils/scheduler.py:
Site: silverbell
Queued events for site silverbell
[DEBUG] 2017-07-23 13:29:27,770 | /home/tyler/frappe-bench/apps/frappe/frappe/utils/scheduler.py:
Site: silverbell
Queued events for site silverbell
[DEBUG] 2017-07-23 13:33:28,110 | /home/tyler/frappe-bench/apps/frappe/frappe/utils/scheduler.py:
Site: silverbell
Queued events for site silverbell
[DEBUG] 2017-07-23 13:37:28,439 | /home/tyler/frappe-bench/apps/frappe/frappe/utils/scheduler.py:
Site: silverbell
Queued events for site silverbell
[DEBUG] 2017-07-23 13:41:28,768 | /home/tyler/frappe-bench/apps/frappe/frappe/utils/scheduler.py:
Site: silverbell
Queued events for site silverbell
[DEBUG] 2017-07-23 13:45:29,108 | /home/tyler/frappe-bench/apps/frappe/frappe/utils/scheduler.py:
Site: silverbell
Queued events for site silverbell
[DEBUG] 2017-07-23 13:49:29,451 | /home/tyler/frappe-bench/apps/frappe/frappe/utils/scheduler.py:
Site: silverbell
Queued events for site silverbell
[DEBUG] 2017-07-23 13:53:29,788 | /home/tyler/frappe-bench/apps/frappe/frappe/utils/scheduler.py:
Site: silverbell
Queued events for site silverbell
[DEBUG] 2017-07-23 13:57:30,188 | /home/tyler/frappe-bench/apps/frappe/frappe/utils/scheduler.py:
Site: silverbell
Queued events for site silverbell
[DEBUG] 2017-07-23 14:01:30,531 | /home/tyler/frappe-bench/apps/frappe/frappe/utils/scheduler.py:
Site: silverbell
Queued events for site silverbell
[DEBUG] 2017-07-23 14:05:30,864 | /home/tyler/frappe-bench/apps/frappe/frappe/utils/scheduler.py:
Site: silverbell
Queued events for site silverbell
[DEBUG] 2017-07-23 14:09:31,201 | /home/tyler/frappe-bench/apps/frappe/frappe/utils/scheduler.py:
Site: silverbell
Queued events for site silverbell
[DEBUG] 2017-07-23 14:13:31,533 | /home/tyler/frappe-bench/apps/frappe/frappe/utils/scheduler.py:
Site: silverbell
Queued events for site silverbell
[DEBUG] 2017-07-23 14:17:31,882 | /home/tyler/frappe-bench/apps/frappe/frappe/utils/scheduler.py:
Site: silverbell
Queued events for site silverbell
[DEBUG] 2017-07-23 14:21:32,223 | /home/tyler/frappe-bench/apps/frappe/frappe/utils/scheduler.py:
Site: silverbell
Queued events for site silverbell
[DEBUG] 2017-07-23 14:25:32,559 | /home/tyler/frappe-bench/apps/frappe/frappe/utils/scheduler.py:
Site: silverbell
Queued events for site silverbell
[DEBUG] 2017-07-23 14:29:32,895 | /home/tyler/frappe-bench/apps/frappe/frappe/utils/scheduler.py:
Site: silverbell
Queued events for site silverbell
[DEBUG] 2017-07-23 14:33:33,239 | /home/tyler/frappe-bench/apps/frappe/frappe/utils/scheduler.py:
Site: silverbell
Queued events for site silverbell
[DEBUG] 2017-07-23 14:37:33,582 | /home/tyler/frappe-bench/apps/frappe/frappe/utils/scheduler.py:
Site: silverbell
Queued events for site silverbell
[DEBUG] 2017-07-23 14:41:33,926 | /home/tyler/frappe-bench/apps/frappe/frappe/utils/scheduler.py:
Site: silverbell
Queued events for site silverbell
[DEBUG] 2017-07-23 14:45:34,262 | /home/tyler/frappe-bench/apps/frappe/frappe/utils/scheduler.py:
Site: silverbell
Queued events for site silverbell
[DEBUG] 2017-07-23 14:49:34,605 | /home/tyler/frappe-bench/apps/frappe/frappe/utils/scheduler.py:
Site: silverbell
Queued events for site silverbell
[DEBUG] 2017-07-23 14:53:34,949 | /home/tyler/frappe-bench/apps/frappe/frappe/utils/scheduler.py:
Site: silverbell
Queued events for site silverbell
[DEBUG] 2017-07-23 14:57:35,292 | /home/tyler/frappe-bench/apps/frappe/frappe/utils/scheduler.py:
Site: silverbell
Queued events for site silverbell
[DEBUG] 2017-07-23 15:01:35,639 | /home/tyler/frappe-bench/apps/frappe/frappe/utils/scheduler.py:
Site: silverbell
Queued events for site silverbell
[DEBUG] 2017-07-23 15:05:35,974 | /home/tyler/frappe-bench/apps/frappe/frappe/utils/scheduler.py:
Site: silverbell
Queued events for site silverbell
[DEBUG] 2017-07-23 15:09:36,309 | /home/tyler/frappe-bench/apps/frappe/frappe/utils/scheduler.py:
Site: silverbell
Queued events for site silverbell
[DEBUG] 2017-07-23 15:13:36,642 | /home/tyler/frappe-bench/apps/frappe/frappe/utils/scheduler.py:
Site: silverbell
Queued events for site silverbell
[DEBUG] 2017-07-23 15:17:36,979 | /home/tyler/frappe-bench/apps/frappe/frappe/utils/scheduler.py:
Site: silverbell
Queued events for site silverbell
[DEBUG] 2017-07-23 15:21:37,325 | /home/tyler/frappe-bench/apps/frappe/frappe/utils/scheduler.py:
Site: silverbell
Queued events for site silverbell
[DEBUG] 2017-07-23 15:25:37,661 | /home/tyler/frappe-bench/apps/frappe/frappe/utils/scheduler.py:
Site: silverbell
Queued events for site silverbell
[DEBUG] 2017-07-23 15:29:38,005 | /home/tyler/frappe-bench/apps/frappe/frappe/utils/scheduler.py:
Site: silverbell
Queued events for site silverbell
[DEBUG] 2017-07-23 15:33:38,347 | /home/tyler/frappe-bench/apps/frappe/frappe/utils/scheduler.py:
Site: silverbell
Queued events for site silverbell
[DEBUG] 2017-07-23 15:37:38,681 | /home/tyler/frappe-bench/apps/frappe/frappe/utils/scheduler.py:
Site: silverbell
Queued events for site silverbell
[DEBUG] 2017-07-23 15:41:39,033 | /home/tyler/frappe-bench/apps/frappe/frappe/utils/scheduler.py:
Site: silverbell
Queued events for site silverbell
[DEBUG] 2017-07-23 15:45:39,375 | /home/tyler/frappe-bench/apps/frappe/frappe/utils/scheduler.py:
Site: silverbell
Queued events for site silverbell
[DEBUG] 2017-07-23 15:49:39,709 | /home/tyler/frappe-bench/apps/frappe/frappe/utils/scheduler.py:
Site: silverbell
Queued events for site silverbell
[DEBUG] 2017-07-23 15:53:40,058 | /home/tyler/frappe-bench/apps/frappe/frappe/utils/scheduler.py:
Site: silverbell
Queued events for site silverbell
[DEBUG] 2017-07-23 15:57:40,397 | /home/tyler/frappe-bench/apps/frappe/frappe/utils/scheduler.py:
Site: silverbell
Queued events for site silverbell
[DEBUG] 2017-07-23 16:01:40,755 | /home/tyler/frappe-bench/apps/frappe/frappe/utils/scheduler.py:
Site: silverbell
Queued events for site silverbell
[DEBUG] 2017-07-23 16:05:41,092 | /home/tyler/frappe-bench/apps/frappe/frappe/utils/scheduler.py:
Site: silverbell
Queued events for site silverbell
[DEBUG] 2017-07-23 16:09:41,434 | /home/tyler/frappe-bench/apps/frappe/frappe/utils/scheduler.py:
Site: silverbell
Queued events for site silverbell
[DEBUG] 2017-07-23 16:13:41,780 | /home/tyler/frappe-bench/apps/frappe/frappe/utils/scheduler.py:
Site: silverbell
Queued events for site silverbell
[DEBUG] 2017-07-23 16:17:42,130 | /home/tyler/frappe-bench/apps/frappe/frappe/utils/scheduler.py:
Site: silverbell
Queued events for site silverbell
[DEBUG] 2017-07-23 16:21:42,473 | /home/tyler/frappe-bench/apps/frappe/frappe/utils/scheduler.py:
Site: silverbell
Queued events for site silverbell
[DEBUG] 2017-07-23 16:25:42,823 | /home/tyler/frappe-bench/apps/frappe/frappe/utils/scheduler.py:
Site: silverbell
Queued events for site silverbell
[DEBUG] 2017-07-23 16:29:43,146 | /home/tyler/frappe-bench/apps/frappe/frappe/utils/scheduler.py:
Site: silverbell
Queued events for site silverbell
[DEBUG] 2017-07-23 16:33:43,483 | /home/tyler/frappe-bench/apps/frappe/frappe/utils/scheduler.py:
Site: silverbell
Queued events for site silverbell
[DEBUG] 2017-07-23 16:37:43,832 | /home/tyler/frappe-bench/apps/frappe/frappe/utils/scheduler.py:
Site: silverbell
Queued events for site silverbell
[DEBUG] 2017-07-23 16:41:44,174 | /home/tyler/frappe-bench/apps/frappe/frappe/utils/scheduler.py:
Site: silverbell
Queued events for site silverbell
[DEBUG] 2017-07-23 16:45:44,508 | /home/tyler/frappe-bench/apps/frappe/frappe/utils/scheduler.py:
Site: silverbell
Queued events for site silverbell
[DEBUG] 2017-07-23 16:49:44,851 | /home/tyler/frappe-bench/apps/frappe/frappe/utils/scheduler.py:
Site: silverbell
Queued events for site silverbell
[DEBUG] 2017-07-23 16:53:45,186 | /home/tyler/frappe-bench/apps/frappe/frappe/utils/scheduler.py:
Site: silverbell
Queued events for site silverbell
[DEBUG] 2017-07-23 16:57:45,526 | /home/tyler/frappe-bench/apps/frappe/frappe/utils/scheduler.py:
Site: silverbell
Queued events for site silverbell
[DEBUG] 2017-07-23 17:01:45,882 | /home/tyler/frappe-bench/apps/frappe/frappe/utils/scheduler.py:
Site: silverbell
Queued events for site silverbell
[DEBUG] 2017-07-23 17:05:46,228 | /home/tyler/frappe-bench/apps/frappe/frappe/utils/scheduler.py:
Site: silverbell
Queued events for site silverbell
[DEBUG] 2017-07-23 17:09:46,564 | /home/tyler/frappe-bench/apps/frappe/frappe/utils/scheduler.py:
Site: silverbell
Queued events for site silverbell
[DEBUG] 2017-07-23 17:13:46,906 | /home/tyler/frappe-bench/apps/frappe/frappe/utils/scheduler.py:
Site: silverbell
Queued events for site silverbell
[DEBUG] 2017-07-23 17:17:47,215 | /home/tyler/frappe-bench/apps/frappe/frappe/utils/scheduler.py:
Site: silverbell
Queued events for site silverbell
[DEBUG] 2017-07-23 17:21:47,557 | /home/tyler/frappe-bench/apps/frappe/frappe/utils/scheduler.py:
Site: silverbell
Queued events for site silverbell
[DEBUG] 2017-07-23 17:25:47,890 | /home/tyler/frappe-bench/apps/frappe/frappe/utils/scheduler.py:
Site: silverbell
Queued events for site silverbell
[DEBUG] 2017-07-23 17:29:48,234 | /home/tyler/frappe-bench/apps/frappe/frappe/utils/scheduler.py:
Site: silverbell
Queued events for site silverbell
[DEBUG] 2017-07-23 17:33:48,576 | /home/tyler/frappe-bench/apps/frappe/frappe/utils/scheduler.py:
Site: silverbell
Queued events for site silverbell
[DEBUG] 2017-07-23 17:37:48,923 | /home/tyler/frappe-bench/apps/frappe/frappe/utils/scheduler.py:
Site: silverbell
Queued events for site silverbell
[DEBUG] 2017-07-23 17:41:49,298 | /home/tyler/frappe-bench/apps/frappe/frappe/utils/scheduler.py:
Site: silverbell
Queued events for site silverbell
[DEBUG] 2017-07-23 17:45:49,635 | /home/tyler/frappe-bench/apps/frappe/frappe/utils/scheduler.py:
Site: silverbell
Queued events for site silverbell
[DEBUG] 2017-07-23 17:49:49,991 | /home/tyler/frappe-bench/apps/frappe/frappe/utils/scheduler.py:
Site: silverbell
Queued events for site silverbell
[DEBUG] 2017-07-23 17:53:50,329 | /home/tyler/frappe-bench/apps/frappe/frappe/utils/scheduler.py:
Site: silverbell
Queued events for site silverbell
[DEBUG] 2017-07-23 17:57:50,680 | /home/tyler/frappe-bench/apps/frappe/frappe/utils/scheduler.py:
Site: silverbell
Queued events for site silverbell
[DEBUG] 2017-07-23 18:01:51,054 | /home/tyler/frappe-bench/apps/frappe/frappe/utils/scheduler.py:
Site: silverbell
Queued events for site silverbell
[DEBUG] 2017-07-23 18:05:51,397 | /home/tyler/frappe-bench/apps/frappe/frappe/utils/scheduler.py:
Site: silverbell
Queued events for site silverbell
[DEBUG] 2017-07-23 18:09:51,742 | /home/tyler/frappe-bench/apps/frappe/frappe/utils/scheduler.py:
Site: silverbell
Queued events for site silverbell
[DEBUG] 2017-07-23 18:13:52,083 | /home/tyler/frappe-bench/apps/frappe/frappe/utils/scheduler.py:
Site: silverbell
Queued events for site silverbell
[DEBUG] 2017-07-23 18:17:52,439 | /home/tyler/frappe-bench/apps/frappe/frappe/utils/scheduler.py:
Site: silverbell
Queued events for site silverbell
[DEBUG] 2017-07-23 18:21:52,791 | /home/tyler/frappe-bench/apps/frappe/frappe/utils/scheduler.py:
Site: silverbell
Queued events for site silverbell
[DEBUG] 2017-07-23 18:25:53,143 | /home/tyler/frappe-bench/apps/frappe/frappe/utils/scheduler.py:
Site: silverbell
Queued events for site silverbell
[DEBUG] 2017-07-23 18:29:53,492 | /home/tyler/frappe-bench/apps/frappe/frappe/utils/scheduler.py:
Site: silverbell
Queued events for site silverbell
[DEBUG] 2017-07-23 18:33:53,847 | /home/tyler/frappe-bench/apps/frappe/frappe/utils/scheduler.py:
Site: silverbell
Queued events for site silverbell
[DEBUG] 2017-07-23 18:37:54,203 | /home/tyler/frappe-bench/apps/frappe/frappe/utils/scheduler.py:
Site: silverbell
Queued events for site silverbell
[DEBUG] 2017-07-23 18:41:54,545 | /home/tyler/frappe-bench/apps/frappe/frappe/utils/scheduler.py:
Site: silverbell
Queued events for site silverbell
[DEBUG] 2017-07-23 18:45:54,894 | /home/tyler/frappe-bench/apps/frappe/frappe/utils/scheduler.py:
Site: silverbell
Queued events for site silverbell
[DEBUG] 2017-07-23 18:49:55,325 | /home/tyler/frappe-bench/apps/frappe/frappe/utils/scheduler.py:
Site: silverbell
Queued events for site silverbell
[DEBUG] 2017-07-23 18:53:55,663 | /home/tyler/frappe-bench/apps/frappe/frappe/utils/scheduler.py:
Site: silverbell
Queued events for site silverbell
[DEBUG] 2017-07-23 18:57:56,062 | /home/tyler/frappe-bench/apps/frappe/frappe/utils/scheduler.py:
Site: silverbell
Queued events for site silverbell
[DEBUG] 2017-07-23 19:01:56,432 | /home/tyler/frappe-bench/apps/frappe/frappe/utils/scheduler.py:
Site: silverbell
Queued events for site silverbell
[DEBUG] 2017-07-23 19:05:56,763 | /home/tyler/frappe-bench/apps/frappe/frappe/utils/scheduler.py:
Site: silverbell
Queued events for site silverbell
[DEBUG] 2017-07-26 19:59:21,634 | /home/tyler/frappe-bench/apps/frappe/frappe/utils/scheduler.py:
Site: silverbell
Queued events for site silverbell
[DEBUG] 2017-07-26 20:03:22,636 | /home/tyler/frappe-bench/apps/frappe/frappe/utils/scheduler.py:
Site: silverbell
Queued events for site silverbell
[DEBUG] 2017-07-26 20:07:23,028 | /home/tyler/frappe-bench/apps/frappe/frappe/utils/scheduler.py:
Site: silverbell
Queued events for site silverbell
[ERROR] 2017-07-26 20:09:21,081 | /home/tyler/frappe-bench/apps/frappe/frappe/app.py:
Site: silverbell
Form Dict: {
 "cmd": "runserverobj", 
 "docs": "{\"name\":\"Milking\",\"batched_milk_yield\":\"\",\"idx\":0,\"doctype\":\"Milking\",\"owner\":\"Administrator\",\"docstatus\":0,\"__last_sync_on\":\"2017-07-27T00:09:20.942Z\",\"milking_datetime\":\"2017-07-27T00:09:20.963Z\"}", 
 "method": "milk_defaults"
}
Request Error
Traceback (most recent call last):
  File "/home/tyler/frappe-bench/apps/frappe/frappe/app.py", line 55, in application
    response = frappe.handler.handle()
  File "/home/tyler/frappe-bench/apps/frappe/frappe/handler.py", line 21, in handle
    data = execute_cmd(cmd)
  File "/home/tyler/frappe-bench/apps/frappe/frappe/handler.py", line 52, in execute_cmd
    return frappe.call(method, **frappe.form_dict)
  File "/home/tyler/frappe-bench/apps/frappe/frappe/__init__.py", line 907, in call
    return fn(*args, **newargs)
  File "/home/tyler/frappe-bench/apps/frappe/frappe/handler.py", line 80, in runserverobj
    frappe.desk.form.run_method.runserverobj(method, docs=docs, dt=dt, dn=dn, arg=arg, args=args)
  File "/home/tyler/frappe-bench/apps/frappe/frappe/desk/form/run_method.py", line 33, in runserverobj
    fnargs, varargs, varkw, defaults = inspect.getargspec(getattr(doc, method))
AttributeError: 'Milking' object has no attribute 'milk_defaults'
[ERROR] 2017-07-26 20:09:21,191 | /home/tyler/frappe-bench/apps/frappe/frappe/utils/error.py:
New Exception collected with id: 2017-07-26 20:09:21.084726-127.0.0.1-942
[DEBUG] 2017-07-26 20:11:23,355 | /home/tyler/frappe-bench/apps/frappe/frappe/utils/scheduler.py:
Site: silverbell
Queued events for site silverbell
[DEBUG] 2017-07-26 20:15:23,677 | /home/tyler/frappe-bench/apps/frappe/frappe/utils/scheduler.py:
Site: silverbell
Queued events for site silverbell
[DEBUG] 2017-07-26 20:19:24,005 | /home/tyler/frappe-bench/apps/frappe/frappe/utils/scheduler.py:
Site: silverbell
Queued events for site silverbell
[DEBUG] 2017-07-26 20:23:24,317 | /home/tyler/frappe-bench/apps/frappe/frappe/utils/scheduler.py:
Site: silverbell
Queued events for site silverbell
[DEBUG] 2017-07-26 20:27:24,626 | /home/tyler/frappe-bench/apps/frappe/frappe/utils/scheduler.py:
Site: silverbell
Queued events for site silverbell
[DEBUG] 2017-07-26 20:31:24,998 | /home/tyler/frappe-bench/apps/frappe/frappe/utils/scheduler.py:
Site: silverbell
Queued events for site silverbell
[DEBUG] 2017-07-26 20:35:25,303 | /home/tyler/frappe-bench/apps/frappe/frappe/utils/scheduler.py:
Site: silverbell
Queued events for site silverbell
[DEBUG] 2017-07-30 20:40:14,911 | /home/tyler/frappe-bench/apps/frappe/frappe/utils/scheduler.py:
Site: silverbell
Queued events for site silverbell
[DEBUG] 2017-07-30 20:44:15,324 | /home/tyler/frappe-bench/apps/frappe/frappe/utils/scheduler.py:
Site: silverbell
Queued events for site silverbell
[DEBUG] 2017-07-30 20:48:15,656 | /home/tyler/frappe-bench/apps/frappe/frappe/utils/scheduler.py:
Site: silverbell
Queued events for site silverbell
[DEBUG] 2017-07-30 20:52:15,968 | /home/tyler/frappe-bench/apps/frappe/frappe/utils/scheduler.py:
Site: silverbell
Queued events for site silverbell
[DEBUG] 2017-07-30 20:56:16,294 | /home/tyler/frappe-bench/apps/frappe/frappe/utils/scheduler.py:
Site: silverbell
Queued events for site silverbell
[DEBUG] 2017-07-30 21:00:16,627 | /home/tyler/frappe-bench/apps/frappe/frappe/utils/scheduler.py:
Site: silverbell
Queued events for site silverbell
[DEBUG] 2017-07-30 21:04:17,167 | /home/tyler/frappe-bench/apps/frappe/frappe/utils/scheduler.py:
Site: silverbell
Queued events for site silverbell
[DEBUG] 2017-07-30 21:08:17,501 | /home/tyler/frappe-bench/apps/frappe/frappe/utils/scheduler.py:
Site: silverbell
Queued events for site silverbell
[DEBUG] 2017-07-30 21:12:17,834 | /home/tyler/frappe-bench/apps/frappe/frappe/utils/scheduler.py:
Site: silverbell
Queued events for site silverbell
[ERROR] 2017-07-30 21:12:33,456 | /home/tyler/frappe-bench/apps/frappe/frappe/app.py:
Site: silverbell
Form Dict: {
 "args": "{\"milk_dict\":\"{}\"}", 
 "cmd": "runserverobj", 
 "docs": "{\"milk_default_storage_location\":\"Work In Progress - AT\",\"milking_datetime\":\"2017-07-31T01:12:27.825Z\",\"milk_default_uom\":\"Lbs\",\"modified_by\":\"Administrator\",\"name\":\"Milking\",\"creation\":\"2017-07-26 20:10:14.673377\",\"modified\":\"2017-07-30 20:50:41.140283\",\"batched_milk_yield\":0,\"idx\":\"0\",\"doctype\":\"Milking\",\"owner\":\"Administrator\",\"docstatus\":0,\"milk_stock_item\":\"Milk CWT\",\"__last_sync_on\":\"2017-07-31T01:12:27.993Z\"}", 
 "method": "milk_yield", 
 "milk_dict": "{}"
}
Request Error
Traceback (most recent call last):
  File "/home/tyler/frappe-bench/apps/frappe/frappe/app.py", line 55, in application
    response = frappe.handler.handle()
  File "/home/tyler/frappe-bench/apps/frappe/frappe/handler.py", line 21, in handle
    data = execute_cmd(cmd)
  File "/home/tyler/frappe-bench/apps/frappe/frappe/handler.py", line 52, in execute_cmd
    return frappe.call(method, **frappe.form_dict)
  File "/home/tyler/frappe-bench/apps/frappe/frappe/__init__.py", line 907, in call
    return fn(*args, **newargs)
  File "/home/tyler/frappe-bench/apps/frappe/frappe/handler.py", line 80, in runserverobj
    frappe.desk.form.run_method.runserverobj(method, docs=docs, dt=dt, dn=dn, arg=arg, args=args)
  File "/home/tyler/frappe-bench/apps/frappe/frappe/desk/form/run_method.py", line 22, in runserverobj
    doc.check_if_latest()
  File "/home/tyler/frappe-bench/apps/frappe/frappe/model/document.py", line 517, in check_if_latest
    where doctype=%s and field='modified' for update''', self.doctype)
  File "/home/tyler/frappe-bench/apps/frappe/frappe/database.py", line 138, in sql
    self._cursor.execute(query, values)
  File "/home/tyler/frappe-bench/env/local/lib/python2.7/site-packages/MySQLdb/cursors.py", line 250, in execute
    self.errorhandler(self, exc, value)
  File "/home/tyler/frappe-bench/env/local/lib/python2.7/site-packages/MySQLdb/connections.py", line 42, in defaulterrorhandler
    raise errorvalue
OperationalError: (1213, 'Deadlock found when trying to get lock; try restarting transaction')
[ERROR] 2017-07-30 21:12:33,522 | /home/tyler/frappe-bench/apps/frappe/frappe/utils/error.py:
Could not take error snapshot: 'connection'
Traceback (most recent call last):
  File "/home/tyler/frappe-bench/apps/frappe/frappe/utils/error.py", line 36, in make_error_snapshot
    snapshot = get_snapshot(exception)
  File "/home/tyler/frappe-bench/apps/frappe/frappe/utils/error.py", line 81, in get_snapshot
    call = inspect.formatargvalues(args, varargs, varkw, locals, formatvalue=lambda value: '={}'.format(pydoc.text.repr(value)))
  File "/usr/lib/python2.7/inspect.py", line 888, in formatargvalues
    specs.append(strseq(args[i], convert, join))
  File "/usr/lib/python2.7/inspect.py", line 843, in strseq
    return convert(object)
  File "/usr/lib/python2.7/inspect.py", line 885, in convert
    return formatarg(name) + formatvalue(locals[name])
KeyError: 'connection'
[DEBUG] 2017-07-30 21:16:18,218 | /home/tyler/frappe-bench/apps/frappe/frappe/utils/scheduler.py:
Site: silverbell
Queued events for site silverbell
[DEBUG] 2017-07-30 21:20:18,536 | /home/tyler/frappe-bench/apps/frappe/frappe/utils/scheduler.py:
Site: silverbell
Queued events for site silverbell
[DEBUG] 2017-07-30 21:24:18,858 | /home/tyler/frappe-bench/apps/frappe/frappe/utils/scheduler.py:
Site: silverbell
Queued events for site silverbell
[DEBUG] 2017-07-30 21:28:19,195 | /home/tyler/frappe-bench/apps/frappe/frappe/utils/scheduler.py:
Site: silverbell
Queued events for site silverbell
[DEBUG] 2017-08-01 15:02:18,827 | /home/tyler/frappe-bench/apps/frappe/frappe/utils/scheduler.py:
Site: silverbell
Queued events for site silverbell
[DEBUG] 2017-08-01 15:06:19,865 | /home/tyler/frappe-bench/apps/frappe/frappe/utils/scheduler.py:
Site: silverbell
Queued events for site silverbell
[DEBUG] 2017-08-01 15:10:20,318 | /home/tyler/frappe-bench/apps/frappe/frappe/utils/scheduler.py:
Site: silverbell
Queued events for site silverbell
[DEBUG] 2017-08-01 15:14:20,678 | /home/tyler/frappe-bench/apps/frappe/frappe/utils/scheduler.py:
Site: silverbell
Queued events for site silverbell
[DEBUG] 2017-08-01 15:18:21,027 | /home/tyler/frappe-bench/apps/frappe/frappe/utils/scheduler.py:
Site: silverbell
Queued events for site silverbell
[DEBUG] 2017-08-01 15:22:21,387 | /home/tyler/frappe-bench/apps/frappe/frappe/utils/scheduler.py:
Site: silverbell
Queued events for site silverbell
[ERROR] 2017-08-01 15:22:53,485 | /home/tyler/frappe-bench/apps/frappe/frappe/app.py:
Site: silverbell
Form Dict: {
 "args": "{\"milk_dict\":\"{\\\"Adele - 05-01-2014 - 001\\\":60,\\\"Cora - 05-15-2014 - 001\\\":60}\"}", 
 "cmd": "runserverobj", 
 "docs": "{\"milk_default_storage_location\":\"Work In Progress - AT\",\"milking_datetime\":\"2017-08-01T19:22:35.532Z\",\"milk_default_uom\":\"Lbs\",\"modified_by\":\"Administrator\",\"name\":\"Milking\",\"creation\":\"2017-07-26 20:10:14.673377\",\"modified\":\"2017-08-01 15:05:25.013724\",\"batched_milk_yield\":120,\"idx\":\"0\",\"doctype\":\"Milking\",\"owner\":\"Administrator\",\"docstatus\":0,\"milk_stock_item\":\"Milk CWT\",\"__last_sync_on\":\"2017-08-01T19:22:35.751Z\",\"__unsaved\":1}", 
 "method": "milk_yield", 
 "milk_dict": "{\"Adele - 05-01-2014 - 001\":60,\"Cora - 05-15-2014 - 001\":60}"
}
Request Error
Traceback (most recent call last):
  File "/home/tyler/frappe-bench/apps/frappe/frappe/app.py", line 55, in application
    response = frappe.handler.handle()
  File "/home/tyler/frappe-bench/apps/frappe/frappe/handler.py", line 21, in handle
    data = execute_cmd(cmd)
  File "/home/tyler/frappe-bench/apps/frappe/frappe/handler.py", line 52, in execute_cmd
    return frappe.call(method, **frappe.form_dict)
  File "/home/tyler/frappe-bench/apps/frappe/frappe/__init__.py", line 907, in call
    return fn(*args, **newargs)
  File "/home/tyler/frappe-bench/apps/frappe/frappe/handler.py", line 80, in runserverobj
    frappe.desk.form.run_method.runserverobj(method, docs=docs, dt=dt, dn=dn, arg=arg, args=args)
  File "/home/tyler/frappe-bench/apps/frappe/frappe/desk/form/run_method.py", line 41, in runserverobj
    r = doc.run_method(method, **args)
  File "/home/tyler/frappe-bench/apps/frappe/frappe/model/document.py", line 666, in run_method
    out = Document.hook(fn)(self, *args, **kwargs)
  File "/home/tyler/frappe-bench/apps/frappe/frappe/model/document.py", line 892, in composer
    return composed(self, method, *args, **kwargs)
  File "/home/tyler/frappe-bench/apps/frappe/frappe/model/document.py", line 875, in runner
    add_to_return_value(self, fn(self, *args, **kwargs))
  File "/home/tyler/frappe-bench/apps/frappe/frappe/model/document.py", line 660, in <lambda>
    fn = lambda self, *args, **kwargs: getattr(self, method)(*args, **kwargs)
  File "/home/tyler/frappe-bench/apps/at_livestock/at_livestock/livestock/doctype/milking/milking.py", line 25, in milk_yield
    self.make_milking_detail(key, value)
  File "/home/tyler/frappe-bench/apps/at_livestock/at_livestock/livestock/doctype/milking/milking.py", line 33, in make_milking_detail
    make_egg_detail.milk_yield = value
NameError: global name 'make_egg_detail' is not defined
[ERROR] 2017-08-01 15:22:53,567 | /home/tyler/frappe-bench/apps/frappe/frappe/utils/error.py:
New Exception collected with id: 2017-08-01 15:22:53.486041-127.0.0.1-460
[DEBUG] 2017-08-01 15:26:21,948 | /home/tyler/frappe-bench/apps/frappe/frappe/utils/scheduler.py:
Site: silverbell
Queued events for site silverbell
[DEBUG] 2017-08-01 15:30:22,369 | /home/tyler/frappe-bench/apps/frappe/frappe/utils/scheduler.py:
Site: silverbell
Queued events for site silverbell
[DEBUG] 2017-08-01 15:34:22,723 | /home/tyler/frappe-bench/apps/frappe/frappe/utils/scheduler.py:
Site: silverbell
Queued events for site silverbell
[ERROR] 2017-08-01 15:37:09,979 | /home/tyler/frappe-bench/apps/frappe/frappe/app.py:
Site: silverbell
Form Dict: {
 "args": "{\"milk_dict\":\"{\\\"Adele - 05-01-2014 - 001\\\":50,\\\"Cora - 05-15-2014 - 001\\\":50}\"}", 
 "cmd": "runserverobj", 
 "docs": "{\"milk_default_storage_location\":\"Work In Progress - AT\",\"milking_datetime\":\"2017-08-01T19:37:01.786Z\",\"milk_default_uom\":\"Lbs\",\"modified_by\":\"Administrator\",\"name\":\"Milking\",\"creation\":\"2017-07-26 20:10:14.673377\",\"modified\":\"2017-08-01 15:32:18.268632\",\"batched_milk_yield\":100,\"idx\":\"0\",\"doctype\":\"Milking\",\"owner\":\"Administrator\",\"docstatus\":0,\"milk_stock_item\":\"Milk CWT\",\"__last_sync_on\":\"2017-08-01T19:37:01.973Z\",\"__unsaved\":1}", 
 "method": "milk_yield", 
 "milk_dict": "{\"Adele - 05-01-2014 - 001\":50,\"Cora - 05-15-2014 - 001\":50}"
}
Request Error
Traceback (most recent call last):
  File "/home/tyler/frappe-bench/apps/frappe/frappe/app.py", line 55, in application
    response = frappe.handler.handle()
  File "/home/tyler/frappe-bench/apps/frappe/frappe/handler.py", line 21, in handle
    data = execute_cmd(cmd)
  File "/home/tyler/frappe-bench/apps/frappe/frappe/handler.py", line 52, in execute_cmd
    return frappe.call(method, **frappe.form_dict)
  File "/home/tyler/frappe-bench/apps/frappe/frappe/__init__.py", line 907, in call
    return fn(*args, **newargs)
  File "/home/tyler/frappe-bench/apps/frappe/frappe/handler.py", line 80, in runserverobj
    frappe.desk.form.run_method.runserverobj(method, docs=docs, dt=dt, dn=dn, arg=arg, args=args)
  File "/home/tyler/frappe-bench/apps/frappe/frappe/desk/form/run_method.py", line 22, in runserverobj
    doc.check_if_latest()
  File "/home/tyler/frappe-bench/apps/frappe/frappe/model/document.py", line 517, in check_if_latest
    where doctype=%s and field='modified' for update''', self.doctype)
  File "/home/tyler/frappe-bench/apps/frappe/frappe/database.py", line 138, in sql
    self._cursor.execute(query, values)
  File "/home/tyler/frappe-bench/env/local/lib/python2.7/site-packages/MySQLdb/cursors.py", line 250, in execute
    self.errorhandler(self, exc, value)
  File "/home/tyler/frappe-bench/env/local/lib/python2.7/site-packages/MySQLdb/connections.py", line 42, in defaulterrorhandler
    raise errorvalue
OperationalError: (1213, 'Deadlock found when trying to get lock; try restarting transaction')
[ERROR] 2017-08-01 15:37:10,026 | /home/tyler/frappe-bench/apps/frappe/frappe/utils/error.py:
Could not take error snapshot: 'connection'
Traceback (most recent call last):
  File "/home/tyler/frappe-bench/apps/frappe/frappe/utils/error.py", line 36, in make_error_snapshot
    snapshot = get_snapshot(exception)
  File "/home/tyler/frappe-bench/apps/frappe/frappe/utils/error.py", line 81, in get_snapshot
    call = inspect.formatargvalues(args, varargs, varkw, locals, formatvalue=lambda value: '={}'.format(pydoc.text.repr(value)))
  File "/usr/lib/python2.7/inspect.py", line 888, in formatargvalues
    specs.append(strseq(args[i], convert, join))
  File "/usr/lib/python2.7/inspect.py", line 843, in strseq
    return convert(object)
  File "/usr/lib/python2.7/inspect.py", line 885, in convert
    return formatarg(name) + formatvalue(locals[name])
KeyError: 'connection'
[DEBUG] 2017-08-01 15:38:23,056 | /home/tyler/frappe-bench/apps/frappe/frappe/utils/scheduler.py:
Site: silverbell
Queued events for site silverbell
[DEBUG] 2017-08-01 15:42:23,419 | /home/tyler/frappe-bench/apps/frappe/frappe/utils/scheduler.py:
Site: silverbell
Queued events for site silverbell
[DEBUG] 2017-08-01 15:46:23,785 | /home/tyler/frappe-bench/apps/frappe/frappe/utils/scheduler.py:
Site: silverbell
Queued events for site silverbell
[DEBUG] 2017-08-01 15:50:24,151 | /home/tyler/frappe-bench/apps/frappe/frappe/utils/scheduler.py:
Site: silverbell
Queued events for site silverbell
[DEBUG] 2017-08-01 15:54:24,506 | /home/tyler/frappe-bench/apps/frappe/frappe/utils/scheduler.py:
Site: silverbell
Queued events for site silverbell
[DEBUG] 2017-08-01 15:58:24,861 | /home/tyler/frappe-bench/apps/frappe/frappe/utils/scheduler.py:
Site: silverbell
Queued events for site silverbell
[ERROR] 2017-08-01 15:59:17,486 | /home/tyler/frappe-bench/apps/frappe/frappe/app.py:
Site: silverbell
Form Dict: {
 "args": "{\"milk_dict\":\"{\\\"Adele - 05-01-2014 - 001\\\":75,\\\"Cora - 05-15-2014 - 001\\\":75}\"}", 
 "cmd": "runserverobj", 
 "docs": "{\"milk_default_storage_location\":\"Work In Progress - AT\",\"milking_datetime\":\"2017-08-01T19:57:45.318Z\",\"milk_default_uom\":\"Lbs\",\"modified_by\":\"Administrator\",\"name\":\"Milking\",\"parent\":null,\"creation\":\"2017-07-26 20:10:14.673377\",\"modified\":\"2017-08-01 15:57:50.415033\",\"batched_milk_yield\":150,\"idx\":\"0\",\"parenttype\":null,\"doctype\":\"Milking\",\"owner\":\"Administrator\",\"docstatus\":0,\"herd\":null,\"milk_stock_item\":\"Milk CWT\",\"parentfield\":null,\"__last_sync_on\":\"2017-08-01T19:57:50.833Z\"}", 
 "method": "milk_yield", 
 "milk_dict": "{\"Adele - 05-01-2014 - 001\":75,\"Cora - 05-15-2014 - 001\":75}"
}
Request Error
Traceback (most recent call last):
  File "/home/tyler/frappe-bench/apps/frappe/frappe/app.py", line 55, in application
    response = frappe.handler.handle()
  File "/home/tyler/frappe-bench/apps/frappe/frappe/handler.py", line 21, in handle
    data = execute_cmd(cmd)
  File "/home/tyler/frappe-bench/apps/frappe/frappe/handler.py", line 52, in execute_cmd
    return frappe.call(method, **frappe.form_dict)
  File "/home/tyler/frappe-bench/apps/frappe/frappe/__init__.py", line 907, in call
    return fn(*args, **newargs)
  File "/home/tyler/frappe-bench/apps/frappe/frappe/handler.py", line 80, in runserverobj
    frappe.desk.form.run_method.runserverobj(method, docs=docs, dt=dt, dn=dn, arg=arg, args=args)
  File "/home/tyler/frappe-bench/apps/frappe/frappe/desk/form/run_method.py", line 41, in runserverobj
    r = doc.run_method(method, **args)
  File "/home/tyler/frappe-bench/apps/frappe/frappe/model/document.py", line 666, in run_method
    out = Document.hook(fn)(self, *args, **kwargs)
  File "/home/tyler/frappe-bench/apps/frappe/frappe/model/document.py", line 892, in composer
    return composed(self, method, *args, **kwargs)
  File "/home/tyler/frappe-bench/apps/frappe/frappe/model/document.py", line 875, in runner
    add_to_return_value(self, fn(self, *args, **kwargs))
  File "/home/tyler/frappe-bench/apps/frappe/frappe/model/document.py", line 660, in <lambda>
    fn = lambda self, *args, **kwargs: getattr(self, method)(*args, **kwargs)
  File "/home/tyler/frappe-bench/apps/at_livestock/at_livestock/livestock/doctype/milking/milking.py", line 25, in milk_yield
    self.make_milking_detail(key, value)
  File "/home/tyler/frappe-bench/apps/at_livestock/at_livestock/livestock/doctype/milking/milking.py", line 35, in make_milking_detail
    make_milking_detail.save()
  File "/home/tyler/frappe-bench/apps/frappe/frappe/model/document.py", line 230, in save
    return self._save(*args, **kwargs)
  File "/home/tyler/frappe-bench/apps/frappe/frappe/model/document.py", line 253, in _save
    self.insert()
  File "/home/tyler/frappe-bench/apps/frappe/frappe/model/document.py", line 186, in insert
    self.run_method("before_insert")
  File "/home/tyler/frappe-bench/apps/frappe/frappe/model/document.py", line 666, in run_method
    out = Document.hook(fn)(self, *args, **kwargs)
  File "/home/tyler/frappe-bench/apps/frappe/frappe/model/document.py", line 892, in composer
    return composed(self, method, *args, **kwargs)
  File "/home/tyler/frappe-bench/apps/frappe/frappe/model/document.py", line 875, in runner
    add_to_return_value(self, fn(self, *args, **kwargs))
  File "/home/tyler/frappe-bench/apps/frappe/frappe/model/document.py", line 660, in <lambda>
    fn = lambda self, *args, **kwargs: getattr(self, method)(*args, **kwargs)
  File "/home/tyler/frappe-bench/apps/at_livestock/at_livestock/livestock/doctype/milking_detail/milking_detail.py", line 12, in before_insert
    name_key = frappe.utils.data.formatdate(self.datetime_collected) + " - " + self.animal_milked + " - .###"
AttributeError: 'MilkingDetail' object has no attribute 'datetime_collected'
[ERROR] 2017-08-01 15:59:17,538 | /home/tyler/frappe-bench/apps/frappe/frappe/utils/error.py:
New Exception collected with id: 2017-08-01 15:59:17.487671-127.0.0.1-c2e
[ERROR] 2017-08-01 16:01:56,594 | /home/tyler/frappe-bench/apps/frappe/frappe/app.py:
Site: silverbell
Form Dict: {
 "args": "{\"milk_dict\":\"{\\\"Adele - 05-01-2014 - 001\\\":85,\\\"Cora - 05-15-2014 - 001\\\":85}\"}", 
 "cmd": "runserverobj", 
 "docs": "{\"milk_default_storage_location\":\"Work In Progress - AT\",\"milking_datetime\":\"2017-08-01T19:59:51.792Z\",\"milk_default_uom\":\"Lbs\",\"modified_by\":\"Administrator\",\"name\":\"Milking\",\"parent\":null,\"creation\":\"2017-07-26 20:10:14.673377\",\"modified\":\"2017-08-01 15:59:57.437238\",\"batched_milk_yield\":170,\"idx\":\"0\",\"parenttype\":null,\"doctype\":\"Milking\",\"owner\":\"Administrator\",\"docstatus\":0,\"herd\":null,\"milk_stock_item\":\"Milk CWT\",\"parentfield\":null,\"__last_sync_on\":\"2017-08-01T19:59:57.843Z\"}", 
 "method": "milk_yield", 
 "milk_dict": "{\"Adele - 05-01-2014 - 001\":85,\"Cora - 05-15-2014 - 001\":85}"
}
Request Error
Traceback (most recent call last):
  File "/home/tyler/frappe-bench/apps/frappe/frappe/app.py", line 55, in application
    response = frappe.handler.handle()
  File "/home/tyler/frappe-bench/apps/frappe/frappe/handler.py", line 21, in handle
    data = execute_cmd(cmd)
  File "/home/tyler/frappe-bench/apps/frappe/frappe/handler.py", line 52, in execute_cmd
    return frappe.call(method, **frappe.form_dict)
  File "/home/tyler/frappe-bench/apps/frappe/frappe/__init__.py", line 907, in call
    return fn(*args, **newargs)
  File "/home/tyler/frappe-bench/apps/frappe/frappe/handler.py", line 80, in runserverobj
    frappe.desk.form.run_method.runserverobj(method, docs=docs, dt=dt, dn=dn, arg=arg, args=args)
  File "/home/tyler/frappe-bench/apps/frappe/frappe/desk/form/run_method.py", line 22, in runserverobj
    doc.check_if_latest()
  File "/home/tyler/frappe-bench/apps/frappe/frappe/model/document.py", line 517, in check_if_latest
    where doctype=%s and field='modified' for update''', self.doctype)
  File "/home/tyler/frappe-bench/apps/frappe/frappe/database.py", line 138, in sql
    self._cursor.execute(query, values)
  File "/home/tyler/frappe-bench/env/local/lib/python2.7/site-packages/MySQLdb/cursors.py", line 250, in execute
    self.errorhandler(self, exc, value)
  File "/home/tyler/frappe-bench/env/local/lib/python2.7/site-packages/MySQLdb/connections.py", line 42, in defaulterrorhandler
    raise errorvalue
OperationalError: (1213, 'Deadlock found when trying to get lock; try restarting transaction')
[ERROR] 2017-08-01 16:01:56,726 | /home/tyler/frappe-bench/apps/frappe/frappe/utils/error.py:
Could not take error snapshot: 'connection'
Traceback (most recent call last):
  File "/home/tyler/frappe-bench/apps/frappe/frappe/utils/error.py", line 36, in make_error_snapshot
    snapshot = get_snapshot(exception)
  File "/home/tyler/frappe-bench/apps/frappe/frappe/utils/error.py", line 81, in get_snapshot
    call = inspect.formatargvalues(args, varargs, varkw, locals, formatvalue=lambda value: '={}'.format(pydoc.text.repr(value)))
  File "/usr/lib/python2.7/inspect.py", line 888, in formatargvalues
    specs.append(strseq(args[i], convert, join))
  File "/usr/lib/python2.7/inspect.py", line 843, in strseq
    return convert(object)
  File "/usr/lib/python2.7/inspect.py", line 885, in convert
    return formatarg(name) + formatvalue(locals[name])
KeyError: 'connection'
[DEBUG] 2017-08-01 16:02:25,220 | /home/tyler/frappe-bench/apps/frappe/frappe/utils/scheduler.py:
Site: silverbell
Queued events for site silverbell
[DEBUG] 2017-08-01 20:45:58,906 | /home/tyler/frappe-bench/apps/frappe/frappe/utils/scheduler.py:
Site: silverbell
Queued events for site silverbell
[DEBUG] 2017-08-01 20:49:59,277 | /home/tyler/frappe-bench/apps/frappe/frappe/utils/scheduler.py:
Site: silverbell
Queued events for site silverbell
[DEBUG] 2017-08-01 20:53:59,627 | /home/tyler/frappe-bench/apps/frappe/frappe/utils/scheduler.py:
Site: silverbell
Queued events for site silverbell
[DEBUG] 2017-08-01 20:57:59,963 | /home/tyler/frappe-bench/apps/frappe/frappe/utils/scheduler.py:
Site: silverbell
Queued events for site silverbell
[DEBUG] 2017-08-01 21:02:00,305 | /home/tyler/frappe-bench/apps/frappe/frappe/utils/scheduler.py:
Site: silverbell
Queued events for site silverbell
[DEBUG] 2017-08-01 21:06:00,640 | /home/tyler/frappe-bench/apps/frappe/frappe/utils/scheduler.py:
Site: silverbell
Queued events for site silverbell
[DEBUG] 2017-08-01 21:10:00,965 | /home/tyler/frappe-bench/apps/frappe/frappe/utils/scheduler.py:
Site: silverbell
Queued events for site silverbell
[DEBUG] 2017-08-01 21:14:01,300 | /home/tyler/frappe-bench/apps/frappe/frappe/utils/scheduler.py:
Site: silverbell
Queued events for site silverbell
[DEBUG] 2017-08-01 21:18:01,621 | /home/tyler/frappe-bench/apps/frappe/frappe/utils/scheduler.py:
Site: silverbell
Queued events for site silverbell
[DEBUG] 2017-08-01 21:22:01,937 | /home/tyler/frappe-bench/apps/frappe/frappe/utils/scheduler.py:
Site: silverbell
Queued events for site silverbell
[DEBUG] 2017-08-01 21:26:02,303 | /home/tyler/frappe-bench/apps/frappe/frappe/utils/scheduler.py:
Site: silverbell
Queued events for site silverbell
[DEBUG] 2017-08-01 21:30:02,651 | /home/tyler/frappe-bench/apps/frappe/frappe/utils/scheduler.py:
Site: silverbell
Queued events for site silverbell
[DEBUG] 2017-08-01 21:34:03,035 | /home/tyler/frappe-bench/apps/frappe/frappe/utils/scheduler.py:
Site: silverbell
Queued events for site silverbell
[ERROR] 2017-08-01 21:35:02,224 | /home/tyler/frappe-bench/apps/frappe/frappe/app.py:
Site: silverbell
Form Dict: {
 "args": "{\"milk_dict\":\"{\\\"Adele - 05-01-2014 - 001\\\":90,\\\"Cora - 05-15-2014 - 001\\\":90}\"}", 
 "cmd": "runserverobj", 
 "docs": "{\"milk_default_storage_location\":\"Work In Progress - AT\",\"milking_datetime\":\"2017-08-02T01:34:54.960Z\",\"milk_default_uom\":\"Lbs\",\"modified_by\":\"Administrator\",\"name\":\"Milking\",\"creation\":\"2017-07-26 20:10:14.673377\",\"modified\":\"2017-08-01 20:51:48.334259\",\"batched_milk_yield\":180,\"idx\":\"0\",\"doctype\":\"Milking\",\"owner\":\"Administrator\",\"docstatus\":0,\"milk_stock_item\":\"Milk CWT\",\"__last_sync_on\":\"2017-08-02T01:34:55.172Z\",\"__unsaved\":1}", 
 "method": "milk_yield", 
 "milk_dict": "{\"Adele - 05-01-2014 - 001\":90,\"Cora - 05-15-2014 - 001\":90}"
}
Request Error
Traceback (most recent call last):
  File "/home/tyler/frappe-bench/apps/frappe/frappe/app.py", line 55, in application
    response = frappe.handler.handle()
  File "/home/tyler/frappe-bench/apps/frappe/frappe/handler.py", line 21, in handle
    data = execute_cmd(cmd)
  File "/home/tyler/frappe-bench/apps/frappe/frappe/handler.py", line 52, in execute_cmd
    return frappe.call(method, **frappe.form_dict)
  File "/home/tyler/frappe-bench/apps/frappe/frappe/__init__.py", line 907, in call
    return fn(*args, **newargs)
  File "/home/tyler/frappe-bench/apps/frappe/frappe/handler.py", line 80, in runserverobj
    frappe.desk.form.run_method.runserverobj(method, docs=docs, dt=dt, dn=dn, arg=arg, args=args)
  File "/home/tyler/frappe-bench/apps/frappe/frappe/desk/form/run_method.py", line 41, in runserverobj
    r = doc.run_method(method, **args)
  File "/home/tyler/frappe-bench/apps/frappe/frappe/model/document.py", line 666, in run_method
    out = Document.hook(fn)(self, *args, **kwargs)
  File "/home/tyler/frappe-bench/apps/frappe/frappe/model/document.py", line 892, in composer
    return composed(self, method, *args, **kwargs)
  File "/home/tyler/frappe-bench/apps/frappe/frappe/model/document.py", line 875, in runner
    add_to_return_value(self, fn(self, *args, **kwargs))
  File "/home/tyler/frappe-bench/apps/frappe/frappe/model/document.py", line 660, in <lambda>
    fn = lambda self, *args, **kwargs: getattr(self, method)(*args, **kwargs)
  File "/home/tyler/frappe-bench/apps/at_livestock/at_livestock/livestock/doctype/milking/milking.py", line 26, in milk_yield
    self.pass_to_stock()
  File "/home/tyler/frappe-bench/apps/at_livestock/at_livestock/livestock/doctype/milking/milking.py", line 44, in pass_to_stock
    "item_code": self.at_enter_as_item,
AttributeError: 'Milking' object has no attribute 'at_enter_as_item'
[ERROR] 2017-08-01 21:35:02,286 | /home/tyler/frappe-bench/apps/frappe/frappe/utils/error.py:
New Exception collected with id: 2017-08-01 21:35:02.224916-127.0.0.1-2a0
[ERROR] 2017-08-01 21:36:17,045 | /home/tyler/frappe-bench/apps/frappe/frappe/app.py:
Site: silverbell
Form Dict: {
 "args": "{\"milk_dict\":\"{\\\"Adele - 05-01-2014 - 001\\\":50,\\\"Cora - 05-15-2014 - 001\\\":50}\"}", 
 "cmd": "runserverobj", 
 "docs": "{\"milk_default_storage_location\":\"Work In Progress - AT\",\"milking_datetime\":\"2017-08-02T01:36:12.443Z\",\"milk_default_uom\":\"Lbs\",\"modified_by\":\"Administrator\",\"name\":\"Milking\",\"creation\":\"2017-07-26 20:10:14.673377\",\"modified\":\"2017-08-01 21:35:00.978873\",\"batched_milk_yield\":100,\"idx\":\"0\",\"doctype\":\"Milking\",\"owner\":\"Administrator\",\"docstatus\":0,\"milk_stock_item\":\"Milk CWT\",\"__last_sync_on\":\"2017-08-02T01:36:12.676Z\",\"__unsaved\":1}", 
 "method": "milk_yield", 
 "milk_dict": "{\"Adele - 05-01-2014 - 001\":50,\"Cora - 05-15-2014 - 001\":50}"
}
Request Error
Traceback (most recent call last):
  File "/home/tyler/frappe-bench/apps/frappe/frappe/app.py", line 55, in application
    response = frappe.handler.handle()
  File "/home/tyler/frappe-bench/apps/frappe/frappe/handler.py", line 21, in handle
    data = execute_cmd(cmd)
  File "/home/tyler/frappe-bench/apps/frappe/frappe/handler.py", line 52, in execute_cmd
    return frappe.call(method, **frappe.form_dict)
  File "/home/tyler/frappe-bench/apps/frappe/frappe/__init__.py", line 907, in call
    return fn(*args, **newargs)
  File "/home/tyler/frappe-bench/apps/frappe/frappe/handler.py", line 80, in runserverobj
    frappe.desk.form.run_method.runserverobj(method, docs=docs, dt=dt, dn=dn, arg=arg, args=args)
  File "/home/tyler/frappe-bench/apps/frappe/frappe/desk/form/run_method.py", line 41, in runserverobj
    r = doc.run_method(method, **args)
  File "/home/tyler/frappe-bench/apps/frappe/frappe/model/document.py", line 666, in run_method
    out = Document.hook(fn)(self, *args, **kwargs)
  File "/home/tyler/frappe-bench/apps/frappe/frappe/model/document.py", line 892, in composer
    return composed(self, method, *args, **kwargs)
  File "/home/tyler/frappe-bench/apps/frappe/frappe/model/document.py", line 875, in runner
    add_to_return_value(self, fn(self, *args, **kwargs))
  File "/home/tyler/frappe-bench/apps/frappe/frappe/model/document.py", line 660, in <lambda>
    fn = lambda self, *args, **kwargs: getattr(self, method)(*args, **kwargs)
  File "/home/tyler/frappe-bench/apps/at_livestock/at_livestock/livestock/doctype/milking/milking.py", line 26, in milk_yield
    self.pass_to_stock()
  File "/home/tyler/frappe-bench/apps/at_livestock/at_livestock/livestock/doctype/milking/milking.py", line 53, in pass_to_stock
    pass_to_stock.date = self.collection_datetime
AttributeError: 'Milking' object has no attribute 'collection_datetime'
[ERROR] 2017-08-01 21:36:17,096 | /home/tyler/frappe-bench/apps/frappe/frappe/utils/error.py:
New Exception collected with id: 2017-08-01 21:36:17.046579-127.0.0.1-cb6
[DEBUG] 2017-08-01 21:38:03,369 | /home/tyler/frappe-bench/apps/frappe/frappe/utils/scheduler.py:
Site: silverbell
Queued events for site silverbell
[DEBUG] 2017-08-01 21:42:03,856 | /home/tyler/frappe-bench/apps/frappe/frappe/utils/scheduler.py:
Site: silverbell
Queued events for site silverbell
[DEBUG] 2017-08-03 20:12:05,589 | /home/tyler/frappe-bench/apps/frappe/frappe/utils/scheduler.py:
Site: silverbell
Queued events for site silverbell
[DEBUG] 2017-08-03 20:16:06,021 | /home/tyler/frappe-bench/apps/frappe/frappe/utils/scheduler.py:
Site: silverbell
Queued events for site silverbell
[DEBUG] 2017-08-03 20:20:06,341 | /home/tyler/frappe-bench/apps/frappe/frappe/utils/scheduler.py:
Site: silverbell
Queued events for site silverbell
[DEBUG] 2017-08-03 20:24:06,698 | /home/tyler/frappe-bench/apps/frappe/frappe/utils/scheduler.py:
Site: silverbell
Queued events for site silverbell
[DEBUG] 2017-08-03 20:28:07,027 | /home/tyler/frappe-bench/apps/frappe/frappe/utils/scheduler.py:
Site: silverbell
Queued events for site silverbell
[DEBUG] 2017-08-03 20:32:07,352 | /home/tyler/frappe-bench/apps/frappe/frappe/utils/scheduler.py:
Site: silverbell
Queued events for site silverbell
[DEBUG] 2017-08-03 20:36:07,684 | /home/tyler/frappe-bench/apps/frappe/frappe/utils/scheduler.py:
Site: silverbell
Queued events for site silverbell
[DEBUG] 2017-08-03 20:40:08,018 | /home/tyler/frappe-bench/apps/frappe/frappe/utils/scheduler.py:
Site: silverbell
Queued events for site silverbell
[DEBUG] 2017-08-03 20:44:08,360 | /home/tyler/frappe-bench/apps/frappe/frappe/utils/scheduler.py:
Site: silverbell
Queued events for site silverbell
[DEBUG] 2017-08-03 20:48:08,693 | /home/tyler/frappe-bench/apps/frappe/frappe/utils/scheduler.py:
Site: silverbell
Queued events for site silverbell
[DEBUG] 2017-08-03 20:52:09,030 | /home/tyler/frappe-bench/apps/frappe/frappe/utils/scheduler.py:
Site: silverbell
Queued events for site silverbell
[DEBUG] 2017-08-03 20:56:09,368 | /home/tyler/frappe-bench/apps/frappe/frappe/utils/scheduler.py:
Site: silverbell
Queued events for site silverbell
[DEBUG] 2017-08-03 21:00:09,715 | /home/tyler/frappe-bench/apps/frappe/frappe/utils/scheduler.py:
Site: silverbell
Queued events for site silverbell
[DEBUG] 2017-08-03 21:04:10,049 | /home/tyler/frappe-bench/apps/frappe/frappe/utils/scheduler.py:
Site: silverbell
Queued events for site silverbell
[DEBUG] 2017-08-03 21:08:10,374 | /home/tyler/frappe-bench/apps/frappe/frappe/utils/scheduler.py:
Site: silverbell
Queued events for site silverbell
[DEBUG] 2017-08-03 21:12:10,688 | /home/tyler/frappe-bench/apps/frappe/frappe/utils/scheduler.py:
Site: silverbell
Queued events for site silverbell
[DEBUG] 2017-08-03 21:16:11,009 | /home/tyler/frappe-bench/apps/frappe/frappe/utils/scheduler.py:
Site: silverbell
Queued events for site silverbell
[DEBUG] 2017-08-03 21:20:11,317 | /home/tyler/frappe-bench/apps/frappe/frappe/utils/scheduler.py:
Site: silverbell
Queued events for site silverbell
[DEBUG] 2017-08-03 21:24:11,630 | /home/tyler/frappe-bench/apps/frappe/frappe/utils/scheduler.py:
Site: silverbell
Queued events for site silverbell
[DEBUG] 2017-08-03 21:28:11,950 | /home/tyler/frappe-bench/apps/frappe/frappe/utils/scheduler.py:
Site: silverbell
Queued events for site silverbell
[DEBUG] 2017-08-03 21:32:12,265 | /home/tyler/frappe-bench/apps/frappe/frappe/utils/scheduler.py:
Site: silverbell
Queued events for site silverbell
[DEBUG] 2017-08-03 21:36:12,586 | /home/tyler/frappe-bench/apps/frappe/frappe/utils/scheduler.py:
Site: silverbell
Queued events for site silverbell
[DEBUG] 2017-08-03 21:40:12,896 | /home/tyler/frappe-bench/apps/frappe/frappe/utils/scheduler.py:
Site: silverbell
Queued events for site silverbell
[DEBUG] 2017-08-03 21:44:13,226 | /home/tyler/frappe-bench/apps/frappe/frappe/utils/scheduler.py:
Site: silverbell
Queued events for site silverbell
[DEBUG] 2017-08-03 21:48:13,574 | /home/tyler/frappe-bench/apps/frappe/frappe/utils/scheduler.py:
Site: silverbell
Queued events for site silverbell
[DEBUG] 2017-08-03 21:52:13,895 | /home/tyler/frappe-bench/apps/frappe/frappe/utils/scheduler.py:
Site: silverbell
Queued events for site silverbell
[DEBUG] 2017-08-03 21:56:14,256 | /home/tyler/frappe-bench/apps/frappe/frappe/utils/scheduler.py:
Site: silverbell
Queued events for site silverbell
[DEBUG] 2017-08-03 22:00:14,637 | /home/tyler/frappe-bench/apps/frappe/frappe/utils/scheduler.py:
Site: silverbell
Queued events for site silverbell
[DEBUG] 2017-08-03 22:04:15,019 | /home/tyler/frappe-bench/apps/frappe/frappe/utils/scheduler.py:
Site: silverbell
Queued events for site silverbell
[DEBUG] 2017-08-03 22:08:15,379 | /home/tyler/frappe-bench/apps/frappe/frappe/utils/scheduler.py:
Site: silverbell
Queued events for site silverbell
[DEBUG] 2017-08-03 22:12:15,710 | /home/tyler/frappe-bench/apps/frappe/frappe/utils/scheduler.py:
Site: silverbell
Queued events for site silverbell
[DEBUG] 2017-08-03 22:16:16,149 | /home/tyler/frappe-bench/apps/frappe/frappe/utils/scheduler.py:
Site: silverbell
Queued events for site silverbell
[DEBUG] 2017-08-03 22:20:16,545 | /home/tyler/frappe-bench/apps/frappe/frappe/utils/scheduler.py:
Site: silverbell
Queued events for site silverbell
[DEBUG] 2017-08-03 22:24:16,881 | /home/tyler/frappe-bench/apps/frappe/frappe/utils/scheduler.py:
Site: silverbell
Queued events for site silverbell
[DEBUG] 2017-08-03 22:28:17,190 | /home/tyler/frappe-bench/apps/frappe/frappe/utils/scheduler.py:
Site: silverbell
Queued events for site silverbell
[DEBUG] 2017-08-03 22:32:17,505 | /home/tyler/frappe-bench/apps/frappe/frappe/utils/scheduler.py:
Site: silverbell
Queued events for site silverbell
[DEBUG] 2017-08-03 22:36:17,817 | /home/tyler/frappe-bench/apps/frappe/frappe/utils/scheduler.py:
Site: silverbell
Queued events for site silverbell
[DEBUG] 2017-08-03 22:40:18,125 | /home/tyler/frappe-bench/apps/frappe/frappe/utils/scheduler.py:
Site: silverbell
Queued events for site silverbell
[DEBUG] 2017-08-03 22:44:18,451 | /home/tyler/frappe-bench/apps/frappe/frappe/utils/scheduler.py:
Site: silverbell
Queued events for site silverbell
[DEBUG] 2017-08-03 22:48:18,762 | /home/tyler/frappe-bench/apps/frappe/frappe/utils/scheduler.py:
Site: silverbell
Queued events for site silverbell
[DEBUG] 2017-08-03 22:52:19,058 | /home/tyler/frappe-bench/apps/frappe/frappe/utils/scheduler.py:
Site: silverbell
Queued events for site silverbell
[DEBUG] 2017-08-03 22:56:19,381 | /home/tyler/frappe-bench/apps/frappe/frappe/utils/scheduler.py:
Site: silverbell
Queued events for site silverbell
[DEBUG] 2017-08-03 23:00:19,735 | /home/tyler/frappe-bench/apps/frappe/frappe/utils/scheduler.py:
Site: silverbell
Queued events for site silverbell
[DEBUG] 2017-08-03 23:04:20,078 | /home/tyler/frappe-bench/apps/frappe/frappe/utils/scheduler.py:
Site: silverbell
Queued events for site silverbell
[DEBUG] 2017-08-03 23:08:20,418 | /home/tyler/frappe-bench/apps/frappe/frappe/utils/scheduler.py:
Site: silverbell
Queued events for site silverbell
[DEBUG] 2017-08-03 23:12:20,771 | /home/tyler/frappe-bench/apps/frappe/frappe/utils/scheduler.py:
Site: silverbell
Queued events for site silverbell
[DEBUG] 2017-08-03 23:16:21,106 | /home/tyler/frappe-bench/apps/frappe/frappe/utils/scheduler.py:
Site: silverbell
Queued events for site silverbell
[DEBUG] 2017-08-03 23:20:21,449 | /home/tyler/frappe-bench/apps/frappe/frappe/utils/scheduler.py:
Site: silverbell
Queued events for site silverbell
[DEBUG] 2017-08-03 23:24:21,783 | /home/tyler/frappe-bench/apps/frappe/frappe/utils/scheduler.py:
Site: silverbell
Queued events for site silverbell
[DEBUG] 2017-08-03 23:28:22,125 | /home/tyler/frappe-bench/apps/frappe/frappe/utils/scheduler.py:
Site: silverbell
Queued events for site silverbell
[DEBUG] 2017-08-03 23:32:22,469 | /home/tyler/frappe-bench/apps/frappe/frappe/utils/scheduler.py:
Site: silverbell
Queued events for site silverbell
[DEBUG] 2017-08-03 23:36:22,797 | /home/tyler/frappe-bench/apps/frappe/frappe/utils/scheduler.py:
Site: silverbell
Queued events for site silverbell
[DEBUG] 2017-08-03 23:40:23,143 | /home/tyler/frappe-bench/apps/frappe/frappe/utils/scheduler.py:
Site: silverbell
Queued events for site silverbell
[DEBUG] 2017-08-03 23:44:23,500 | /home/tyler/frappe-bench/apps/frappe/frappe/utils/scheduler.py:
Site: silverbell
Queued events for site silverbell
[DEBUG] 2017-08-03 23:48:23,841 | /home/tyler/frappe-bench/apps/frappe/frappe/utils/scheduler.py:
Site: silverbell
Queued events for site silverbell
[DEBUG] 2017-08-03 23:52:24,181 | /home/tyler/frappe-bench/apps/frappe/frappe/utils/scheduler.py:
Site: silverbell
Queued events for site silverbell
[DEBUG] 2017-08-03 23:56:24,521 | /home/tyler/frappe-bench/apps/frappe/frappe/utils/scheduler.py:
Site: silverbell
Queued events for site silverbell
[DEBUG] 2017-08-04 00:00:24,916 | /home/tyler/frappe-bench/apps/frappe/frappe/utils/scheduler.py:
Site: silverbell
Queued events for site silverbell
[DEBUG] 2017-08-04 00:04:25,271 | /home/tyler/frappe-bench/apps/frappe/frappe/utils/scheduler.py:
Site: silverbell
Queued events for site silverbell
[DEBUG] 2017-08-04 00:08:25,608 | /home/tyler/frappe-bench/apps/frappe/frappe/utils/scheduler.py:
Site: silverbell
Queued events for site silverbell
[DEBUG] 2017-08-04 00:12:25,947 | /home/tyler/frappe-bench/apps/frappe/frappe/utils/scheduler.py:
Site: silverbell
Queued events for site silverbell
[DEBUG] 2017-08-04 00:16:26,279 | /home/tyler/frappe-bench/apps/frappe/frappe/utils/scheduler.py:
Site: silverbell
Queued events for site silverbell
[DEBUG] 2017-08-04 00:20:26,610 | /home/tyler/frappe-bench/apps/frappe/frappe/utils/scheduler.py:
Site: silverbell
Queued events for site silverbell
[DEBUG] 2017-08-04 00:24:26,942 | /home/tyler/frappe-bench/apps/frappe/frappe/utils/scheduler.py:
Site: silverbell
Queued events for site silverbell
[DEBUG] 2017-08-04 00:28:27,274 | /home/tyler/frappe-bench/apps/frappe/frappe/utils/scheduler.py:
Site: silverbell
Queued events for site silverbell
[DEBUG] 2017-08-04 00:32:27,614 | /home/tyler/frappe-bench/apps/frappe/frappe/utils/scheduler.py:
Site: silverbell
Queued events for site silverbell
[DEBUG] 2017-08-04 00:36:27,954 | /home/tyler/frappe-bench/apps/frappe/frappe/utils/scheduler.py:
Site: silverbell
Queued events for site silverbell
[DEBUG] 2017-08-04 00:40:28,302 | /home/tyler/frappe-bench/apps/frappe/frappe/utils/scheduler.py:
Site: silverbell
Queued events for site silverbell
[DEBUG] 2017-08-04 00:44:28,633 | /home/tyler/frappe-bench/apps/frappe/frappe/utils/scheduler.py:
Site: silverbell
Queued events for site silverbell
[DEBUG] 2017-08-04 00:48:28,981 | /home/tyler/frappe-bench/apps/frappe/frappe/utils/scheduler.py:
Site: silverbell
Queued events for site silverbell
[DEBUG] 2017-08-04 00:52:29,332 | /home/tyler/frappe-bench/apps/frappe/frappe/utils/scheduler.py:
Site: silverbell
Queued events for site silverbell
[DEBUG] 2017-08-04 00:56:29,672 | /home/tyler/frappe-bench/apps/frappe/frappe/utils/scheduler.py:
Site: silverbell
Queued events for site silverbell
[DEBUG] 2017-08-04 01:00:30,028 | /home/tyler/frappe-bench/apps/frappe/frappe/utils/scheduler.py:
Site: silverbell
Queued events for site silverbell
[DEBUG] 2017-08-04 01:04:30,368 | /home/tyler/frappe-bench/apps/frappe/frappe/utils/scheduler.py:
Site: silverbell
Queued events for site silverbell
[DEBUG] 2017-08-04 01:08:30,709 | /home/tyler/frappe-bench/apps/frappe/frappe/utils/scheduler.py:
Site: silverbell
Queued events for site silverbell
[DEBUG] 2017-08-04 01:12:31,049 | /home/tyler/frappe-bench/apps/frappe/frappe/utils/scheduler.py:
Site: silverbell
Queued events for site silverbell
[DEBUG] 2017-08-04 01:16:31,379 | /home/tyler/frappe-bench/apps/frappe/frappe/utils/scheduler.py:
Site: silverbell
Queued events for site silverbell
[DEBUG] 2017-08-04 01:20:31,719 | /home/tyler/frappe-bench/apps/frappe/frappe/utils/scheduler.py:
Site: silverbell
Queued events for site silverbell
[DEBUG] 2017-08-04 01:24:32,060 | /home/tyler/frappe-bench/apps/frappe/frappe/utils/scheduler.py:
Site: silverbell
Queued events for site silverbell
[DEBUG] 2017-08-04 01:28:32,392 | /home/tyler/frappe-bench/apps/frappe/frappe/utils/scheduler.py:
Site: silverbell
Queued events for site silverbell
[DEBUG] 2017-08-04 01:32:32,732 | /home/tyler/frappe-bench/apps/frappe/frappe/utils/scheduler.py:
Site: silverbell
Queued events for site silverbell
[DEBUG] 2017-08-04 01:36:33,080 | /home/tyler/frappe-bench/apps/frappe/frappe/utils/scheduler.py:
Site: silverbell
Queued events for site silverbell
[DEBUG] 2017-08-04 01:40:33,429 | /home/tyler/frappe-bench/apps/frappe/frappe/utils/scheduler.py:
Site: silverbell
Queued events for site silverbell
[DEBUG] 2017-08-04 01:44:33,745 | /home/tyler/frappe-bench/apps/frappe/frappe/utils/scheduler.py:
Site: silverbell
Queued events for site silverbell
[DEBUG] 2017-08-04 01:48:34,094 | /home/tyler/frappe-bench/apps/frappe/frappe/utils/scheduler.py:
Site: silverbell
Queued events for site silverbell
[DEBUG] 2017-08-04 01:52:34,426 | /home/tyler/frappe-bench/apps/frappe/frappe/utils/scheduler.py:
Site: silverbell
Queued events for site silverbell
[DEBUG] 2017-08-04 01:56:34,758 | /home/tyler/frappe-bench/apps/frappe/frappe/utils/scheduler.py:
Site: silverbell
Queued events for site silverbell
[DEBUG] 2017-08-04 02:00:35,104 | /home/tyler/frappe-bench/apps/frappe/frappe/utils/scheduler.py:
Site: silverbell
Queued events for site silverbell
[DEBUG] 2017-08-04 02:04:35,439 | /home/tyler/frappe-bench/apps/frappe/frappe/utils/scheduler.py:
Site: silverbell
Queued events for site silverbell
[DEBUG] 2017-08-04 02:08:35,779 | /home/tyler/frappe-bench/apps/frappe/frappe/utils/scheduler.py:
Site: silverbell
Queued events for site silverbell
[DEBUG] 2017-08-04 02:12:36,119 | /home/tyler/frappe-bench/apps/frappe/frappe/utils/scheduler.py:
Site: silverbell
Queued events for site silverbell
[DEBUG] 2017-08-04 02:16:36,451 | /home/tyler/frappe-bench/apps/frappe/frappe/utils/scheduler.py:
Site: silverbell
Queued events for site silverbell
[DEBUG] 2017-08-04 02:20:36,783 | /home/tyler/frappe-bench/apps/frappe/frappe/utils/scheduler.py:
Site: silverbell
Queued events for site silverbell
[DEBUG] 2017-08-04 02:24:37,130 | /home/tyler/frappe-bench/apps/frappe/frappe/utils/scheduler.py:
Site: silverbell
Queued events for site silverbell
[DEBUG] 2017-08-04 02:28:37,485 | /home/tyler/frappe-bench/apps/frappe/frappe/utils/scheduler.py:
Site: silverbell
Queued events for site silverbell
[DEBUG] 2017-08-04 02:32:37,824 | /home/tyler/frappe-bench/apps/frappe/frappe/utils/scheduler.py:
Site: silverbell
Queued events for site silverbell
[DEBUG] 2017-08-04 02:36:38,164 | /home/tyler/frappe-bench/apps/frappe/frappe/utils/scheduler.py:
Site: silverbell
Queued events for site silverbell
[DEBUG] 2017-08-04 02:40:38,505 | /home/tyler/frappe-bench/apps/frappe/frappe/utils/scheduler.py:
Site: silverbell
Queued events for site silverbell
[DEBUG] 2017-08-04 02:44:38,828 | /home/tyler/frappe-bench/apps/frappe/frappe/utils/scheduler.py:
Site: silverbell
Queued events for site silverbell
[DEBUG] 2017-08-04 02:48:39,160 | /home/tyler/frappe-bench/apps/frappe/frappe/utils/scheduler.py:
Site: silverbell
Queued events for site silverbell
[DEBUG] 2017-08-04 02:52:39,491 | /home/tyler/frappe-bench/apps/frappe/frappe/utils/scheduler.py:
Site: silverbell
Queued events for site silverbell
[DEBUG] 2017-08-04 02:56:39,823 | /home/tyler/frappe-bench/apps/frappe/frappe/utils/scheduler.py:
Site: silverbell
Queued events for site silverbell
[DEBUG] 2017-08-04 03:00:40,178 | /home/tyler/frappe-bench/apps/frappe/frappe/utils/scheduler.py:
Site: silverbell
Queued events for site silverbell
[DEBUG] 2017-08-04 03:04:40,522 | /home/tyler/frappe-bench/apps/frappe/frappe/utils/scheduler.py:
Site: silverbell
Queued events for site silverbell
[DEBUG] 2017-08-04 03:08:40,863 | /home/tyler/frappe-bench/apps/frappe/frappe/utils/scheduler.py:
Site: silverbell
Queued events for site silverbell
[DEBUG] 2017-08-04 03:12:41,194 | /home/tyler/frappe-bench/apps/frappe/frappe/utils/scheduler.py:
Site: silverbell
Queued events for site silverbell
[DEBUG] 2017-08-04 03:16:41,535 | /home/tyler/frappe-bench/apps/frappe/frappe/utils/scheduler.py:
Site: silverbell
Queued events for site silverbell
[DEBUG] 2017-08-04 03:20:41,867 | /home/tyler/frappe-bench/apps/frappe/frappe/utils/scheduler.py:
Site: silverbell
Queued events for site silverbell
[DEBUG] 2017-08-04 03:24:42,215 | /home/tyler/frappe-bench/apps/frappe/frappe/utils/scheduler.py:
Site: silverbell
Queued events for site silverbell
[DEBUG] 2017-08-04 03:28:42,540 | /home/tyler/frappe-bench/apps/frappe/frappe/utils/scheduler.py:
Site: silverbell
Queued events for site silverbell
[DEBUG] 2017-08-04 03:32:42,879 | /home/tyler/frappe-bench/apps/frappe/frappe/utils/scheduler.py:
Site: silverbell
Queued events for site silverbell
[DEBUG] 2017-08-04 03:36:43,219 | /home/tyler/frappe-bench/apps/frappe/frappe/utils/scheduler.py:
Site: silverbell
Queued events for site silverbell
[DEBUG] 2017-08-04 03:40:43,566 | /home/tyler/frappe-bench/apps/frappe/frappe/utils/scheduler.py:
Site: silverbell
Queued events for site silverbell
[DEBUG] 2017-08-04 03:44:43,897 | /home/tyler/frappe-bench/apps/frappe/frappe/utils/scheduler.py:
Site: silverbell
Queued events for site silverbell
[DEBUG] 2017-08-04 03:48:44,244 | /home/tyler/frappe-bench/apps/frappe/frappe/utils/scheduler.py:
Site: silverbell
Queued events for site silverbell
[DEBUG] 2017-08-04 03:52:44,584 | /home/tyler/frappe-bench/apps/frappe/frappe/utils/scheduler.py:
Site: silverbell
Queued events for site silverbell
[DEBUG] 2017-08-04 03:56:44,932 | /home/tyler/frappe-bench/apps/frappe/frappe/utils/scheduler.py:
Site: silverbell
Queued events for site silverbell
[DEBUG] 2017-08-04 04:00:45,287 | /home/tyler/frappe-bench/apps/frappe/frappe/utils/scheduler.py:
Site: silverbell
Queued events for site silverbell
[DEBUG] 2017-08-04 04:04:45,638 | /home/tyler/frappe-bench/apps/frappe/frappe/utils/scheduler.py:
Site: silverbell
Queued events for site silverbell
[DEBUG] 2017-08-04 04:08:45,979 | /home/tyler/frappe-bench/apps/frappe/frappe/utils/scheduler.py:
Site: silverbell
Queued events for site silverbell
[DEBUG] 2017-08-04 04:12:46,320 | /home/tyler/frappe-bench/apps/frappe/frappe/utils/scheduler.py:
Site: silverbell
Queued events for site silverbell
[DEBUG] 2017-08-04 04:16:46,652 | /home/tyler/frappe-bench/apps/frappe/frappe/utils/scheduler.py:
Site: silverbell
Queued events for site silverbell
[DEBUG] 2017-08-04 04:20:46,993 | /home/tyler/frappe-bench/apps/frappe/frappe/utils/scheduler.py:
Site: silverbell
Queued events for site silverbell
[DEBUG] 2017-08-04 04:24:47,342 | /home/tyler/frappe-bench/apps/frappe/frappe/utils/scheduler.py:
Site: silverbell
Queued events for site silverbell
[DEBUG] 2017-08-04 04:28:47,681 | /home/tyler/frappe-bench/apps/frappe/frappe/utils/scheduler.py:
Site: silverbell
Queued events for site silverbell
[DEBUG] 2017-08-04 04:32:48,023 | /home/tyler/frappe-bench/apps/frappe/frappe/utils/scheduler.py:
Site: silverbell
Queued events for site silverbell
[DEBUG] 2017-08-04 04:36:48,362 | /home/tyler/frappe-bench/apps/frappe/frappe/utils/scheduler.py:
Site: silverbell
Queued events for site silverbell
[DEBUG] 2017-08-04 04:40:48,710 | /home/tyler/frappe-bench/apps/frappe/frappe/utils/scheduler.py:
Site: silverbell
Queued events for site silverbell
[DEBUG] 2017-08-04 04:44:49,058 | /home/tyler/frappe-bench/apps/frappe/frappe/utils/scheduler.py:
Site: silverbell
Queued events for site silverbell
[DEBUG] 2017-08-04 04:48:49,407 | /home/tyler/frappe-bench/apps/frappe/frappe/utils/scheduler.py:
Site: silverbell
Queued events for site silverbell
[DEBUG] 2017-08-04 04:52:49,746 | /home/tyler/frappe-bench/apps/frappe/frappe/utils/scheduler.py:
Site: silverbell
Queued events for site silverbell
[DEBUG] 2017-08-04 04:56:50,078 | /home/tyler/frappe-bench/apps/frappe/frappe/utils/scheduler.py:
Site: silverbell
Queued events for site silverbell
[DEBUG] 2017-08-04 05:00:50,450 | /home/tyler/frappe-bench/apps/frappe/frappe/utils/scheduler.py:
Site: silverbell
Queued events for site silverbell
[DEBUG] 2017-08-04 05:04:50,791 | /home/tyler/frappe-bench/apps/frappe/frappe/utils/scheduler.py:
Site: silverbell
Queued events for site silverbell
[DEBUG] 2017-08-04 05:08:51,139 | /home/tyler/frappe-bench/apps/frappe/frappe/utils/scheduler.py:
Site: silverbell
Queued events for site silverbell
[DEBUG] 2017-08-04 05:12:51,646 | /home/tyler/frappe-bench/apps/frappe/frappe/utils/scheduler.py:
Site: silverbell
Queued events for site silverbell
[DEBUG] 2017-08-04 05:16:51,979 | /home/tyler/frappe-bench/apps/frappe/frappe/utils/scheduler.py:
Site: silverbell
Queued events for site silverbell
[DEBUG] 2017-08-04 05:20:52,303 | /home/tyler/frappe-bench/apps/frappe/frappe/utils/scheduler.py:
Site: silverbell
Queued events for site silverbell
[DEBUG] 2017-08-04 05:24:52,653 | /home/tyler/frappe-bench/apps/frappe/frappe/utils/scheduler.py:
Site: silverbell
Queued events for site silverbell
[DEBUG] 2017-08-04 05:28:53,001 | /home/tyler/frappe-bench/apps/frappe/frappe/utils/scheduler.py:
Site: silverbell
Queued events for site silverbell
[DEBUG] 2017-08-04 05:32:53,341 | /home/tyler/frappe-bench/apps/frappe/frappe/utils/scheduler.py:
Site: silverbell
Queued events for site silverbell
[DEBUG] 2017-08-04 05:36:53,681 | /home/tyler/frappe-bench/apps/frappe/frappe/utils/scheduler.py:
Site: silverbell
Queued events for site silverbell
[DEBUG] 2017-08-04 05:40:54,029 | /home/tyler/frappe-bench/apps/frappe/frappe/utils/scheduler.py:
Site: silverbell
Queued events for site silverbell
[DEBUG] 2017-08-04 05:44:54,369 | /home/tyler/frappe-bench/apps/frappe/frappe/utils/scheduler.py:
Site: silverbell
Queued events for site silverbell
[DEBUG] 2017-08-04 05:48:54,725 | /home/tyler/frappe-bench/apps/frappe/frappe/utils/scheduler.py:
Site: silverbell
Queued events for site silverbell
[DEBUG] 2017-08-04 05:52:55,073 | /home/tyler/frappe-bench/apps/frappe/frappe/utils/scheduler.py:
Site: silverbell
Queued events for site silverbell
[DEBUG] 2017-08-04 05:56:55,412 | /home/tyler/frappe-bench/apps/frappe/frappe/utils/scheduler.py:
Site: silverbell
Queued events for site silverbell
[DEBUG] 2017-08-04 06:00:55,766 | /home/tyler/frappe-bench/apps/frappe/frappe/utils/scheduler.py:
Site: silverbell
Queued events for site silverbell
[DEBUG] 2017-08-04 06:04:56,109 | /home/tyler/frappe-bench/apps/frappe/frappe/utils/scheduler.py:
Site: silverbell
Queued events for site silverbell
[DEBUG] 2017-08-04 06:08:56,448 | /home/tyler/frappe-bench/apps/frappe/frappe/utils/scheduler.py:
Site: silverbell
Queued events for site silverbell
[DEBUG] 2017-08-04 06:12:56,788 | /home/tyler/frappe-bench/apps/frappe/frappe/utils/scheduler.py:
Site: silverbell
Queued events for site silverbell
[DEBUG] 2017-08-04 06:16:57,119 | /home/tyler/frappe-bench/apps/frappe/frappe/utils/scheduler.py:
Site: silverbell
Queued events for site silverbell
[DEBUG] 2017-08-04 06:20:57,459 | /home/tyler/frappe-bench/apps/frappe/frappe/utils/scheduler.py:
Site: silverbell
Queued events for site silverbell
[DEBUG] 2017-08-04 06:24:57,807 | /home/tyler/frappe-bench/apps/frappe/frappe/utils/scheduler.py:
Site: silverbell
Queued events for site silverbell
[DEBUG] 2017-08-04 06:28:58,150 | /home/tyler/frappe-bench/apps/frappe/frappe/utils/scheduler.py:
Site: silverbell
Queued events for site silverbell
[DEBUG] 2017-08-04 06:32:58,473 | /home/tyler/frappe-bench/apps/frappe/frappe/utils/scheduler.py:
Site: silverbell
Queued events for site silverbell
[DEBUG] 2017-08-04 06:36:58,804 | /home/tyler/frappe-bench/apps/frappe/frappe/utils/scheduler.py:
Site: silverbell
Queued events for site silverbell
[DEBUG] 2017-08-04 06:40:59,144 | /home/tyler/frappe-bench/apps/frappe/frappe/utils/scheduler.py:
Site: silverbell
Queued events for site silverbell
[DEBUG] 2017-08-04 06:44:59,476 | /home/tyler/frappe-bench/apps/frappe/frappe/utils/scheduler.py:
Site: silverbell
Queued events for site silverbell
[DEBUG] 2017-08-04 06:48:59,824 | /home/tyler/frappe-bench/apps/frappe/frappe/utils/scheduler.py:
Site: silverbell
Queued events for site silverbell
[DEBUG] 2017-08-04 06:53:00,164 | /home/tyler/frappe-bench/apps/frappe/frappe/utils/scheduler.py:
Site: silverbell
Queued events for site silverbell
[DEBUG] 2017-08-04 06:57:00,506 | /home/tyler/frappe-bench/apps/frappe/frappe/utils/scheduler.py:
Site: silverbell
Queued events for site silverbell
[DEBUG] 2017-08-04 07:01:00,870 | /home/tyler/frappe-bench/apps/frappe/frappe/utils/scheduler.py:
Site: silverbell
Queued events for site silverbell
[DEBUG] 2017-08-04 07:05:01,213 | /home/tyler/frappe-bench/apps/frappe/frappe/utils/scheduler.py:
Site: silverbell
Queued events for site silverbell
[DEBUG] 2017-08-04 07:09:01,561 | /home/tyler/frappe-bench/apps/frappe/frappe/utils/scheduler.py:
Site: silverbell
Queued events for site silverbell
[DEBUG] 2017-08-04 07:13:01,902 | /home/tyler/frappe-bench/apps/frappe/frappe/utils/scheduler.py:
Site: silverbell
Queued events for site silverbell
[DEBUG] 2017-08-04 07:17:02,235 | /home/tyler/frappe-bench/apps/frappe/frappe/utils/scheduler.py:
Site: silverbell
Queued events for site silverbell
[DEBUG] 2017-08-04 07:21:02,568 | /home/tyler/frappe-bench/apps/frappe/frappe/utils/scheduler.py:
Site: silverbell
Queued events for site silverbell
[DEBUG] 2017-08-04 07:25:02,899 | /home/tyler/frappe-bench/apps/frappe/frappe/utils/scheduler.py:
Site: silverbell
Queued events for site silverbell
[DEBUG] 2017-08-04 07:29:03,239 | /home/tyler/frappe-bench/apps/frappe/frappe/utils/scheduler.py:
Site: silverbell
Queued events for site silverbell
[DEBUG] 2017-08-04 07:33:03,571 | /home/tyler/frappe-bench/apps/frappe/frappe/utils/scheduler.py:
Site: silverbell
Queued events for site silverbell
[DEBUG] 2017-08-04 07:37:03,884 | /home/tyler/frappe-bench/apps/frappe/frappe/utils/scheduler.py:
Site: silverbell
Queued events for site silverbell
[DEBUG] 2017-08-04 07:41:04,225 | /home/tyler/frappe-bench/apps/frappe/frappe/utils/scheduler.py:
Site: silverbell
Queued events for site silverbell
[DEBUG] 2017-08-04 07:45:04,575 | /home/tyler/frappe-bench/apps/frappe/frappe/utils/scheduler.py:
Site: silverbell
Queued events for site silverbell
[DEBUG] 2017-08-04 07:49:04,914 | /home/tyler/frappe-bench/apps/frappe/frappe/utils/scheduler.py:
Site: silverbell
Queued events for site silverbell
[DEBUG] 2017-08-04 07:53:05,246 | /home/tyler/frappe-bench/apps/frappe/frappe/utils/scheduler.py:
Site: silverbell
Queued events for site silverbell
[DEBUG] 2017-08-04 07:57:05,586 | /home/tyler/frappe-bench/apps/frappe/frappe/utils/scheduler.py:
Site: silverbell
Queued events for site silverbell
[DEBUG] 2017-08-04 08:01:05,944 | /home/tyler/frappe-bench/apps/frappe/frappe/utils/scheduler.py:
Site: silverbell
Queued events for site silverbell
[DEBUG] 2017-08-04 08:05:06,292 | /home/tyler/frappe-bench/apps/frappe/frappe/utils/scheduler.py:
Site: silverbell
Queued events for site silverbell
[DEBUG] 2017-08-04 08:09:06,624 | /home/tyler/frappe-bench/apps/frappe/frappe/utils/scheduler.py:
Site: silverbell
Queued events for site silverbell
[DEBUG] 2017-08-04 08:13:06,955 | /home/tyler/frappe-bench/apps/frappe/frappe/utils/scheduler.py:
Site: silverbell
Queued events for site silverbell
[DEBUG] 2017-08-04 08:17:07,287 | /home/tyler/frappe-bench/apps/frappe/frappe/utils/scheduler.py:
Site: silverbell
Queued events for site silverbell
[DEBUG] 2017-08-04 08:21:07,637 | /home/tyler/frappe-bench/apps/frappe/frappe/utils/scheduler.py:
Site: silverbell
Queued events for site silverbell
[DEBUG] 2017-08-04 08:25:07,977 | /home/tyler/frappe-bench/apps/frappe/frappe/utils/scheduler.py:
Site: silverbell
Queued events for site silverbell
[DEBUG] 2017-08-04 08:29:08,334 | /home/tyler/frappe-bench/apps/frappe/frappe/utils/scheduler.py:
Site: silverbell
Queued events for site silverbell
[DEBUG] 2017-08-04 08:33:08,665 | /home/tyler/frappe-bench/apps/frappe/frappe/utils/scheduler.py:
Site: silverbell
Queued events for site silverbell
[DEBUG] 2017-08-04 08:37:09,014 | /home/tyler/frappe-bench/apps/frappe/frappe/utils/scheduler.py:
Site: silverbell
Queued events for site silverbell
[DEBUG] 2017-08-04 08:41:09,354 | /home/tyler/frappe-bench/apps/frappe/frappe/utils/scheduler.py:
Site: silverbell
Queued events for site silverbell
[DEBUG] 2017-08-04 08:45:09,702 | /home/tyler/frappe-bench/apps/frappe/frappe/utils/scheduler.py:
Site: silverbell
Queued events for site silverbell
[DEBUG] 2017-08-04 08:49:10,051 | /home/tyler/frappe-bench/apps/frappe/frappe/utils/scheduler.py:
Site: silverbell
Queued events for site silverbell
[DEBUG] 2017-08-04 08:53:10,382 | /home/tyler/frappe-bench/apps/frappe/frappe/utils/scheduler.py:
Site: silverbell
Queued events for site silverbell
[DEBUG] 2017-08-04 08:57:10,714 | /home/tyler/frappe-bench/apps/frappe/frappe/utils/scheduler.py:
Site: silverbell
Queued events for site silverbell
[DEBUG] 2017-08-04 09:01:11,081 | /home/tyler/frappe-bench/apps/frappe/frappe/utils/scheduler.py:
Site: silverbell
Queued events for site silverbell
[DEBUG] 2017-08-04 09:05:11,419 | /home/tyler/frappe-bench/apps/frappe/frappe/utils/scheduler.py:
Site: silverbell
Queued events for site silverbell
[DEBUG] 2017-08-04 09:09:11,734 | /home/tyler/frappe-bench/apps/frappe/frappe/utils/scheduler.py:
Site: silverbell
Queued events for site silverbell
[DEBUG] 2017-08-04 09:13:12,072 | /home/tyler/frappe-bench/apps/frappe/frappe/utils/scheduler.py:
Site: silverbell
Queued events for site silverbell
[DEBUG] 2017-08-04 09:17:12,403 | /home/tyler/frappe-bench/apps/frappe/frappe/utils/scheduler.py:
Site: silverbell
Queued events for site silverbell
[DEBUG] 2017-08-04 09:21:12,734 | /home/tyler/frappe-bench/apps/frappe/frappe/utils/scheduler.py:
Site: silverbell
Queued events for site silverbell
[DEBUG] 2017-08-04 09:25:13,083 | /home/tyler/frappe-bench/apps/frappe/frappe/utils/scheduler.py:
Site: silverbell
Queued events for site silverbell
[DEBUG] 2017-08-04 09:29:13,431 | /home/tyler/frappe-bench/apps/frappe/frappe/utils/scheduler.py:
Site: silverbell
Queued events for site silverbell
[DEBUG] 2017-08-04 09:33:13,762 | /home/tyler/frappe-bench/apps/frappe/frappe/utils/scheduler.py:
Site: silverbell
Queued events for site silverbell
[DEBUG] 2017-08-04 09:37:14,101 | /home/tyler/frappe-bench/apps/frappe/frappe/utils/scheduler.py:
Site: silverbell
Queued events for site silverbell
[DEBUG] 2017-08-04 09:41:14,441 | /home/tyler/frappe-bench/apps/frappe/frappe/utils/scheduler.py:
Site: silverbell
Queued events for site silverbell
[DEBUG] 2017-08-04 09:45:14,741 | /home/tyler/frappe-bench/apps/frappe/frappe/utils/scheduler.py:
Site: silverbell
Queued events for site silverbell
[DEBUG] 2017-08-04 09:49:15,083 | /home/tyler/frappe-bench/apps/frappe/frappe/utils/scheduler.py:
Site: silverbell
Queued events for site silverbell
[DEBUG] 2017-08-04 09:53:15,415 | /home/tyler/frappe-bench/apps/frappe/frappe/utils/scheduler.py:
Site: silverbell
Queued events for site silverbell
[DEBUG] 2017-08-04 09:57:15,755 | /home/tyler/frappe-bench/apps/frappe/frappe/utils/scheduler.py:
Site: silverbell
Queued events for site silverbell
[DEBUG] 2017-08-04 10:01:16,113 | /home/tyler/frappe-bench/apps/frappe/frappe/utils/scheduler.py:
Site: silverbell
Queued events for site silverbell
[DEBUG] 2017-08-04 10:05:16,461 | /home/tyler/frappe-bench/apps/frappe/frappe/utils/scheduler.py:
Site: silverbell
Queued events for site silverbell
[DEBUG] 2017-08-04 10:09:16,809 | /home/tyler/frappe-bench/apps/frappe/frappe/utils/scheduler.py:
Site: silverbell
Queued events for site silverbell
[DEBUG] 2017-08-04 10:13:17,386 | /home/tyler/frappe-bench/apps/frappe/frappe/utils/scheduler.py:
Site: silverbell
Queued events for site silverbell
[DEBUG] 2017-08-04 10:17:17,717 | /home/tyler/frappe-bench/apps/frappe/frappe/utils/scheduler.py:
Site: silverbell
Queued events for site silverbell
[DEBUG] 2017-08-04 10:21:18,074 | /home/tyler/frappe-bench/apps/frappe/frappe/utils/scheduler.py:
Site: silverbell
Queued events for site silverbell
[DEBUG] 2017-08-04 10:25:18,423 | /home/tyler/frappe-bench/apps/frappe/frappe/utils/scheduler.py:
Site: silverbell
Queued events for site silverbell
[DEBUG] 2017-08-04 10:29:18,781 | /home/tyler/frappe-bench/apps/frappe/frappe/utils/scheduler.py:
Site: silverbell
Queued events for site silverbell
[DEBUG] 2017-08-04 10:33:19,112 | /home/tyler/frappe-bench/apps/frappe/frappe/utils/scheduler.py:
Site: silverbell
Queued events for site silverbell
[DEBUG] 2017-08-04 10:37:19,444 | /home/tyler/frappe-bench/apps/frappe/frappe/utils/scheduler.py:
Site: silverbell
Queued events for site silverbell
[DEBUG] 2017-08-04 10:41:19,784 | /home/tyler/frappe-bench/apps/frappe/frappe/utils/scheduler.py:
Site: silverbell
Queued events for site silverbell
[DEBUG] 2017-08-04 10:45:20,108 | /home/tyler/frappe-bench/apps/frappe/frappe/utils/scheduler.py:
Site: silverbell
Queued events for site silverbell
[DEBUG] 2017-08-04 10:49:20,572 | /home/tyler/frappe-bench/apps/frappe/frappe/utils/scheduler.py:
Site: silverbell
Queued events for site silverbell
[DEBUG] 2017-08-04 10:53:20,920 | /home/tyler/frappe-bench/apps/frappe/frappe/utils/scheduler.py:
Site: silverbell
Queued events for site silverbell
[DEBUG] 2017-08-04 10:57:21,250 | /home/tyler/frappe-bench/apps/frappe/frappe/utils/scheduler.py:
Site: silverbell
Queued events for site silverbell
[DEBUG] 2017-08-04 11:01:21,596 | /home/tyler/frappe-bench/apps/frappe/frappe/utils/scheduler.py:
Site: silverbell
Queued events for site silverbell
[DEBUG] 2017-08-04 11:05:21,929 | /home/tyler/frappe-bench/apps/frappe/frappe/utils/scheduler.py:
Site: silverbell
Queued events for site silverbell
[DEBUG] 2017-08-04 11:09:22,285 | /home/tyler/frappe-bench/apps/frappe/frappe/utils/scheduler.py:
Site: silverbell
Queued events for site silverbell
[DEBUG] 2017-08-04 11:13:22,625 | /home/tyler/frappe-bench/apps/frappe/frappe/utils/scheduler.py:
Site: silverbell
Queued events for site silverbell
[DEBUG] 2017-08-04 11:17:22,966 | /home/tyler/frappe-bench/apps/frappe/frappe/utils/scheduler.py:
Site: silverbell
Queued events for site silverbell
[DEBUG] 2017-08-04 11:21:23,314 | /home/tyler/frappe-bench/apps/frappe/frappe/utils/scheduler.py:
Site: silverbell
Queued events for site silverbell
[DEBUG] 2017-08-04 11:25:23,653 | /home/tyler/frappe-bench/apps/frappe/frappe/utils/scheduler.py:
Site: silverbell
Queued events for site silverbell
[DEBUG] 2017-08-04 11:29:23,996 | /home/tyler/frappe-bench/apps/frappe/frappe/utils/scheduler.py:
Site: silverbell
Queued events for site silverbell
[DEBUG] 2017-08-04 11:33:24,337 | /home/tyler/frappe-bench/apps/frappe/frappe/utils/scheduler.py:
Site: silverbell
Queued events for site silverbell
[DEBUG] 2017-08-04 11:37:24,686 | /home/tyler/frappe-bench/apps/frappe/frappe/utils/scheduler.py:
Site: silverbell
Queued events for site silverbell
[DEBUG] 2017-08-04 11:41:25,018 | /home/tyler/frappe-bench/apps/frappe/frappe/utils/scheduler.py:
Site: silverbell
Queued events for site silverbell
[DEBUG] 2017-08-04 11:45:25,350 | /home/tyler/frappe-bench/apps/frappe/frappe/utils/scheduler.py:
Site: silverbell
Queued events for site silverbell
[DEBUG] 2017-08-04 11:49:25,681 | /home/tyler/frappe-bench/apps/frappe/frappe/utils/scheduler.py:
Site: silverbell
Queued events for site silverbell
[DEBUG] 2017-08-04 11:53:26,021 | /home/tyler/frappe-bench/apps/frappe/frappe/utils/scheduler.py:
Site: silverbell
Queued events for site silverbell
[DEBUG] 2017-08-04 11:57:26,362 | /home/tyler/frappe-bench/apps/frappe/frappe/utils/scheduler.py:
Site: silverbell
Queued events for site silverbell
[DEBUG] 2017-08-04 12:01:26,713 | /home/tyler/frappe-bench/apps/frappe/frappe/utils/scheduler.py:
Site: silverbell
Queued events for site silverbell
[DEBUG] 2017-08-04 12:05:27,043 | /home/tyler/frappe-bench/apps/frappe/frappe/utils/scheduler.py:
Site: silverbell
Queued events for site silverbell
[DEBUG] 2017-08-04 12:09:27,382 | /home/tyler/frappe-bench/apps/frappe/frappe/utils/scheduler.py:
Site: silverbell
Queued events for site silverbell
[DEBUG] 2017-08-04 12:13:27,722 | /home/tyler/frappe-bench/apps/frappe/frappe/utils/scheduler.py:
Site: silverbell
Queued events for site silverbell
[DEBUG] 2017-08-04 12:17:28,054 | /home/tyler/frappe-bench/apps/frappe/frappe/utils/scheduler.py:
Site: silverbell
Queued events for site silverbell
[DEBUG] 2017-08-04 12:21:28,403 | /home/tyler/frappe-bench/apps/frappe/frappe/utils/scheduler.py:
Site: silverbell
Queued events for site silverbell
[DEBUG] 2017-08-04 12:25:28,742 | /home/tyler/frappe-bench/apps/frappe/frappe/utils/scheduler.py:
Site: silverbell
Queued events for site silverbell
[DEBUG] 2017-08-04 12:29:29,091 | /home/tyler/frappe-bench/apps/frappe/frappe/utils/scheduler.py:
Site: silverbell
Queued events for site silverbell
[DEBUG] 2017-08-04 12:33:29,431 | /home/tyler/frappe-bench/apps/frappe/frappe/utils/scheduler.py:
Site: silverbell
Queued events for site silverbell
[DEBUG] 2017-08-04 12:37:29,761 | /home/tyler/frappe-bench/apps/frappe/frappe/utils/scheduler.py:
Site: silverbell
Queued events for site silverbell
[DEBUG] 2017-08-04 12:41:30,093 | /home/tyler/frappe-bench/apps/frappe/frappe/utils/scheduler.py:
Site: silverbell
Queued events for site silverbell
[DEBUG] 2017-08-04 12:45:30,449 | /home/tyler/frappe-bench/apps/frappe/frappe/utils/scheduler.py:
Site: silverbell
Queued events for site silverbell
[DEBUG] 2017-08-04 12:49:30,780 | /home/tyler/frappe-bench/apps/frappe/frappe/utils/scheduler.py:
Site: silverbell
Queued events for site silverbell
[DEBUG] 2017-08-04 12:53:31,128 | /home/tyler/frappe-bench/apps/frappe/frappe/utils/scheduler.py:
Site: silverbell
Queued events for site silverbell
[DEBUG] 2017-08-04 12:57:31,468 | /home/tyler/frappe-bench/apps/frappe/frappe/utils/scheduler.py:
Site: silverbell
Queued events for site silverbell
[DEBUG] 2017-08-04 13:01:31,816 | /home/tyler/frappe-bench/apps/frappe/frappe/utils/scheduler.py:
Site: silverbell
Queued events for site silverbell
[DEBUG] 2017-08-04 13:05:32,157 | /home/tyler/frappe-bench/apps/frappe/frappe/utils/scheduler.py:
Site: silverbell
Queued events for site silverbell
[DEBUG] 2017-08-04 13:09:32,500 | /home/tyler/frappe-bench/apps/frappe/frappe/utils/scheduler.py:
Site: silverbell
Queued events for site silverbell
[DEBUG] 2017-08-04 13:13:32,824 | /home/tyler/frappe-bench/apps/frappe/frappe/utils/scheduler.py:
Site: silverbell
Queued events for site silverbell
[DEBUG] 2017-08-04 13:17:33,149 | /home/tyler/frappe-bench/apps/frappe/frappe/utils/scheduler.py:
Site: silverbell
Queued events for site silverbell
[DEBUG] 2017-08-04 13:21:33,490 | /home/tyler/frappe-bench/apps/frappe/frappe/utils/scheduler.py:
Site: silverbell
Queued events for site silverbell
[DEBUG] 2017-08-04 13:25:33,838 | /home/tyler/frappe-bench/apps/frappe/frappe/utils/scheduler.py:
Site: silverbell
Queued events for site silverbell
[DEBUG] 2017-08-04 13:29:34,170 | /home/tyler/frappe-bench/apps/frappe/frappe/utils/scheduler.py:
Site: silverbell
Queued events for site silverbell
[DEBUG] 2017-08-04 13:33:34,519 | /home/tyler/frappe-bench/apps/frappe/frappe/utils/scheduler.py:
Site: silverbell
Queued events for site silverbell
[DEBUG] 2017-08-04 13:37:34,859 | /home/tyler/frappe-bench/apps/frappe/frappe/utils/scheduler.py:
Site: silverbell
Queued events for site silverbell
[DEBUG] 2017-08-04 13:41:35,207 | /home/tyler/frappe-bench/apps/frappe/frappe/utils/scheduler.py:
Site: silverbell
Queued events for site silverbell
[DEBUG] 2017-08-04 13:45:35,546 | /home/tyler/frappe-bench/apps/frappe/frappe/utils/scheduler.py:
Site: silverbell
Queued events for site silverbell
[DEBUG] 2017-08-04 13:49:35,902 | /home/tyler/frappe-bench/apps/frappe/frappe/utils/scheduler.py:
Site: silverbell
Queued events for site silverbell
[DEBUG] 2017-08-04 13:53:36,249 | /home/tyler/frappe-bench/apps/frappe/frappe/utils/scheduler.py:
Site: silverbell
Queued events for site silverbell
[DEBUG] 2017-08-04 13:57:36,599 | /home/tyler/frappe-bench/apps/frappe/frappe/utils/scheduler.py:
Site: silverbell
Queued events for site silverbell
[DEBUG] 2017-08-04 14:01:36,963 | /home/tyler/frappe-bench/apps/frappe/frappe/utils/scheduler.py:
Site: silverbell
Queued events for site silverbell
[DEBUG] 2017-08-04 14:05:37,303 | /home/tyler/frappe-bench/apps/frappe/frappe/utils/scheduler.py:
Site: silverbell
Queued events for site silverbell
[DEBUG] 2017-08-04 14:09:37,652 | /home/tyler/frappe-bench/apps/frappe/frappe/utils/scheduler.py:
Site: silverbell
Queued events for site silverbell
[DEBUG] 2017-08-04 14:13:37,991 | /home/tyler/frappe-bench/apps/frappe/frappe/utils/scheduler.py:
Site: silverbell
Queued events for site silverbell
[DEBUG] 2017-08-04 14:17:38,323 | /home/tyler/frappe-bench/apps/frappe/frappe/utils/scheduler.py:
Site: silverbell
Queued events for site silverbell
[DEBUG] 2017-08-04 14:21:38,671 | /home/tyler/frappe-bench/apps/frappe/frappe/utils/scheduler.py:
Site: silverbell
Queued events for site silverbell
[DEBUG] 2017-08-04 14:25:39,011 | /home/tyler/frappe-bench/apps/frappe/frappe/utils/scheduler.py:
Site: silverbell
Queued events for site silverbell
[DEBUG] 2017-08-04 14:29:39,359 | /home/tyler/frappe-bench/apps/frappe/frappe/utils/scheduler.py:
Site: silverbell
Queued events for site silverbell
[DEBUG] 2017-08-04 14:33:39,708 | /home/tyler/frappe-bench/apps/frappe/frappe/utils/scheduler.py:
Site: silverbell
Queued events for site silverbell
[DEBUG] 2017-08-04 14:37:40,056 | /home/tyler/frappe-bench/apps/frappe/frappe/utils/scheduler.py:
Site: silverbell
Queued events for site silverbell
[DEBUG] 2017-08-04 14:41:40,396 | /home/tyler/frappe-bench/apps/frappe/frappe/utils/scheduler.py:
Site: silverbell
Queued events for site silverbell
[DEBUG] 2017-08-04 14:45:40,736 | /home/tyler/frappe-bench/apps/frappe/frappe/utils/scheduler.py:
Site: silverbell
Queued events for site silverbell
[DEBUG] 2017-08-04 14:49:41,070 | /home/tyler/frappe-bench/apps/frappe/frappe/utils/scheduler.py:
Site: silverbell
Queued events for site silverbell
[DEBUG] 2017-08-04 14:53:41,411 | /home/tyler/frappe-bench/apps/frappe/frappe/utils/scheduler.py:
Site: silverbell
Queued events for site silverbell
[DEBUG] 2017-08-04 14:57:41,743 | /home/tyler/frappe-bench/apps/frappe/frappe/utils/scheduler.py:
Site: silverbell
Queued events for site silverbell
[DEBUG] 2017-08-04 15:01:42,091 | /home/tyler/frappe-bench/apps/frappe/frappe/utils/scheduler.py:
Site: silverbell
Queued events for site silverbell
[DEBUG] 2017-08-04 15:05:42,433 | /home/tyler/frappe-bench/apps/frappe/frappe/utils/scheduler.py:
Site: silverbell
Queued events for site silverbell
[DEBUG] 2017-08-04 15:09:42,781 | /home/tyler/frappe-bench/apps/frappe/frappe/utils/scheduler.py:
Site: silverbell
Queued events for site silverbell
[DEBUG] 2017-08-04 15:13:43,129 | /home/tyler/frappe-bench/apps/frappe/frappe/utils/scheduler.py:
Site: silverbell
Queued events for site silverbell
[DEBUG] 2017-08-04 15:17:43,469 | /home/tyler/frappe-bench/apps/frappe/frappe/utils/scheduler.py:
Site: silverbell
Queued events for site silverbell
[DEBUG] 2017-08-04 15:21:43,809 | /home/tyler/frappe-bench/apps/frappe/frappe/utils/scheduler.py:
Site: silverbell
Queued events for site silverbell
[DEBUG] 2017-08-04 15:25:44,158 | /home/tyler/frappe-bench/apps/frappe/frappe/utils/scheduler.py:
Site: silverbell
Queued events for site silverbell
[DEBUG] 2017-08-04 15:29:44,506 | /home/tyler/frappe-bench/apps/frappe/frappe/utils/scheduler.py:
Site: silverbell
Queued events for site silverbell
[DEBUG] 2017-08-04 15:33:44,846 | /home/tyler/frappe-bench/apps/frappe/frappe/utils/scheduler.py:
Site: silverbell
Queued events for site silverbell
[DEBUG] 2017-08-04 15:37:45,186 | /home/tyler/frappe-bench/apps/frappe/frappe/utils/scheduler.py:
Site: silverbell
Queued events for site silverbell
[DEBUG] 2017-08-04 15:41:45,526 | /home/tyler/frappe-bench/apps/frappe/frappe/utils/scheduler.py:
Site: silverbell
Queued events for site silverbell
[DEBUG] 2017-08-04 15:45:45,859 | /home/tyler/frappe-bench/apps/frappe/frappe/utils/scheduler.py:
Site: silverbell
Queued events for site silverbell
[DEBUG] 2017-08-04 15:49:46,207 | /home/tyler/frappe-bench/apps/frappe/frappe/utils/scheduler.py:
Site: silverbell
Queued events for site silverbell
[DEBUG] 2017-08-04 15:53:46,547 | /home/tyler/frappe-bench/apps/frappe/frappe/utils/scheduler.py:
Site: silverbell
Queued events for site silverbell
[DEBUG] 2017-08-04 15:57:46,878 | /home/tyler/frappe-bench/apps/frappe/frappe/utils/scheduler.py:
Site: silverbell
Queued events for site silverbell
[DEBUG] 2017-08-04 16:01:47,238 | /home/tyler/frappe-bench/apps/frappe/frappe/utils/scheduler.py:
Site: silverbell
Queued events for site silverbell
[DEBUG] 2017-08-04 16:05:47,583 | /home/tyler/frappe-bench/apps/frappe/frappe/utils/scheduler.py:
Site: silverbell
Queued events for site silverbell
[DEBUG] 2017-08-04 16:09:47,931 | /home/tyler/frappe-bench/apps/frappe/frappe/utils/scheduler.py:
Site: silverbell
Queued events for site silverbell
[DEBUG] 2017-08-04 16:13:48,280 | /home/tyler/frappe-bench/apps/frappe/frappe/utils/scheduler.py:
Site: silverbell
Queued events for site silverbell
[DEBUG] 2017-08-04 16:17:48,615 | /home/tyler/frappe-bench/apps/frappe/frappe/utils/scheduler.py:
Site: silverbell
Queued events for site silverbell
[DEBUG] 2017-08-04 16:21:48,954 | /home/tyler/frappe-bench/apps/frappe/frappe/utils/scheduler.py:
Site: silverbell
Queued events for site silverbell
[DEBUG] 2017-08-04 16:25:49,290 | /home/tyler/frappe-bench/apps/frappe/frappe/utils/scheduler.py:
Site: silverbell
Queued events for site silverbell
[DEBUG] 2017-08-04 16:29:49,623 | /home/tyler/frappe-bench/apps/frappe/frappe/utils/scheduler.py:
Site: silverbell
Queued events for site silverbell
[DEBUG] 2017-08-04 16:33:49,965 | /home/tyler/frappe-bench/apps/frappe/frappe/utils/scheduler.py:
Site: silverbell
Queued events for site silverbell
[DEBUG] 2017-08-04 16:37:50,309 | /home/tyler/frappe-bench/apps/frappe/frappe/utils/scheduler.py:
Site: silverbell
Queued events for site silverbell
[DEBUG] 2017-08-04 16:41:50,658 | /home/tyler/frappe-bench/apps/frappe/frappe/utils/scheduler.py:
Site: silverbell
Queued events for site silverbell
[DEBUG] 2017-08-04 16:45:50,987 | /home/tyler/frappe-bench/apps/frappe/frappe/utils/scheduler.py:
Site: silverbell
Queued events for site silverbell
[DEBUG] 2017-08-04 16:49:51,319 | /home/tyler/frappe-bench/apps/frappe/frappe/utils/scheduler.py:
Site: silverbell
Queued events for site silverbell
[DEBUG] 2017-08-04 16:53:51,639 | /home/tyler/frappe-bench/apps/frappe/frappe/utils/scheduler.py:
Site: silverbell
Queued events for site silverbell
[DEBUG] 2017-08-06 08:59:11,580 | /home/tyler/frappe-bench/apps/frappe/frappe/utils/scheduler.py:
Site: silverbell
Queued events for site silverbell
[DEBUG] 2017-08-06 09:03:11,975 | /home/tyler/frappe-bench/apps/frappe/frappe/utils/scheduler.py:
Site: silverbell
Queued events for site silverbell
[DEBUG] 2017-08-06 09:07:12,294 | /home/tyler/frappe-bench/apps/frappe/frappe/utils/scheduler.py:
Site: silverbell
Queued events for site silverbell
[DEBUG] 2017-08-06 09:11:12,628 | /home/tyler/frappe-bench/apps/frappe/frappe/utils/scheduler.py:
Site: silverbell
Queued events for site silverbell
[DEBUG] 2017-08-06 09:15:12,968 | /home/tyler/frappe-bench/apps/frappe/frappe/utils/scheduler.py:
Site: silverbell
Queued events for site silverbell
[DEBUG] 2017-08-06 09:19:13,298 | /home/tyler/frappe-bench/apps/frappe/frappe/utils/scheduler.py:
Site: silverbell
Queued events for site silverbell
[DEBUG] 2017-08-06 09:23:13,603 | /home/tyler/frappe-bench/apps/frappe/frappe/utils/scheduler.py:
Site: silverbell
Queued events for site silverbell
[DEBUG] 2017-08-06 09:27:13,941 | /home/tyler/frappe-bench/apps/frappe/frappe/utils/scheduler.py:
Site: silverbell
Queued events for site silverbell
[DEBUG] 2017-08-06 09:31:14,270 | /home/tyler/frappe-bench/apps/frappe/frappe/utils/scheduler.py:
Site: silverbell
Queued events for site silverbell
[DEBUG] 2017-08-06 09:35:14,615 | /home/tyler/frappe-bench/apps/frappe/frappe/utils/scheduler.py:
Site: silverbell
Queued events for site silverbell
[DEBUG] 2017-08-06 09:39:14,960 | /home/tyler/frappe-bench/apps/frappe/frappe/utils/scheduler.py:
Site: silverbell
Queued events for site silverbell
[DEBUG] 2017-08-06 09:43:15,304 | /home/tyler/frappe-bench/apps/frappe/frappe/utils/scheduler.py:
Site: silverbell
Queued events for site silverbell
[DEBUG] 2017-08-06 09:47:15,642 | /home/tyler/frappe-bench/apps/frappe/frappe/utils/scheduler.py:
Site: silverbell
Queued events for site silverbell
[DEBUG] 2017-08-06 09:51:15,971 | /home/tyler/frappe-bench/apps/frappe/frappe/utils/scheduler.py:
Site: silverbell
Queued events for site silverbell
[DEBUG] 2017-08-06 09:55:16,315 | /home/tyler/frappe-bench/apps/frappe/frappe/utils/scheduler.py:
Site: silverbell
Queued events for site silverbell
[DEBUG] 2017-08-06 09:59:16,649 | /home/tyler/frappe-bench/apps/frappe/frappe/utils/scheduler.py:
Site: silverbell
Queued events for site silverbell
[DEBUG] 2017-08-06 10:03:17,006 | /home/tyler/frappe-bench/apps/frappe/frappe/utils/scheduler.py:
Site: silverbell
Queued events for site silverbell
[DEBUG] 2017-08-06 10:07:17,332 | /home/tyler/frappe-bench/apps/frappe/frappe/utils/scheduler.py:
Site: silverbell
Queued events for site silverbell
[DEBUG] 2017-08-06 10:11:17,658 | /home/tyler/frappe-bench/apps/frappe/frappe/utils/scheduler.py:
Site: silverbell
Queued events for site silverbell
[DEBUG] 2017-08-06 10:15:17,975 | /home/tyler/frappe-bench/apps/frappe/frappe/utils/scheduler.py:
Site: silverbell
Queued events for site silverbell
[DEBUG] 2017-08-06 10:19:18,332 | /home/tyler/frappe-bench/apps/frappe/frappe/utils/scheduler.py:
Site: silverbell
Queued events for site silverbell
[DEBUG] 2017-08-06 10:23:18,660 | /home/tyler/frappe-bench/apps/frappe/frappe/utils/scheduler.py:
Site: silverbell
Queued events for site silverbell
[DEBUG] 2017-08-06 10:27:19,006 | /home/tyler/frappe-bench/apps/frappe/frappe/utils/scheduler.py:
Site: silverbell
Queued events for site silverbell
[DEBUG] 2017-08-06 10:31:19,350 | /home/tyler/frappe-bench/apps/frappe/frappe/utils/scheduler.py:
Site: silverbell
Queued events for site silverbell
[DEBUG] 2017-08-06 10:35:19,738 | /home/tyler/frappe-bench/apps/frappe/frappe/utils/scheduler.py:
Site: silverbell
Queued events for site silverbell
[DEBUG] 2017-08-06 10:39:20,081 | /home/tyler/frappe-bench/apps/frappe/frappe/utils/scheduler.py:
Site: silverbell
Queued events for site silverbell
[DEBUG] 2017-08-06 10:43:20,418 | /home/tyler/frappe-bench/apps/frappe/frappe/utils/scheduler.py:
Site: silverbell
Queued events for site silverbell
[DEBUG] 2017-08-06 10:47:20,745 | /home/tyler/frappe-bench/apps/frappe/frappe/utils/scheduler.py:
Site: silverbell
Queued events for site silverbell
[DEBUG] 2017-08-06 10:51:21,068 | /home/tyler/frappe-bench/apps/frappe/frappe/utils/scheduler.py:
Site: silverbell
Queued events for site silverbell
[DEBUG] 2017-08-06 10:55:21,404 | /home/tyler/frappe-bench/apps/frappe/frappe/utils/scheduler.py:
Site: silverbell
Queued events for site silverbell
