[DEBUG] 2017-08-06 10:59:21,732 | /home/tyler/frappe-bench/apps/frappe/frappe/utils/scheduler.py:
Site: silverbell
Queued events for site silverbell
[DEBUG] 2017-08-06 11:03:22,204 | /home/tyler/frappe-bench/apps/frappe/frappe/utils/scheduler.py:
Site: silverbell
Queued events for site silverbell
[DEBUG] 2017-08-06 11:07:22,550 | /home/tyler/frappe-bench/apps/frappe/frappe/utils/scheduler.py:
Site: silverbell
Queued events for site silverbell
[DEBUG] 2017-08-06 11:11:22,876 | /home/tyler/frappe-bench/apps/frappe/frappe/utils/scheduler.py:
Site: silverbell
Queued events for site silverbell
[DEBUG] 2017-08-06 11:15:23,221 | /home/tyler/frappe-bench/apps/frappe/frappe/utils/scheduler.py:
Site: silverbell
Queued events for site silverbell
[DEBUG] 2017-08-06 11:19:23,548 | /home/tyler/frappe-bench/apps/frappe/frappe/utils/scheduler.py:
Site: silverbell
Queued events for site silverbell
[DEBUG] 2017-08-06 11:23:23,885 | /home/tyler/frappe-bench/apps/frappe/frappe/utils/scheduler.py:
Site: silverbell
Queued events for site silverbell
[DEBUG] 2017-08-06 11:27:24,230 | /home/tyler/frappe-bench/apps/frappe/frappe/utils/scheduler.py:
Site: silverbell
Queued events for site silverbell
[DEBUG] 2017-08-06 11:31:24,558 | /home/tyler/frappe-bench/apps/frappe/frappe/utils/scheduler.py:
Site: silverbell
Queued events for site silverbell
[DEBUG] 2017-08-06 11:35:24,901 | /home/tyler/frappe-bench/apps/frappe/frappe/utils/scheduler.py:
Site: silverbell
Queued events for site silverbell
[DEBUG] 2017-08-06 11:39:25,229 | /home/tyler/frappe-bench/apps/frappe/frappe/utils/scheduler.py:
Site: silverbell
Queued events for site silverbell
[DEBUG] 2017-08-06 11:43:25,565 | /home/tyler/frappe-bench/apps/frappe/frappe/utils/scheduler.py:
Site: silverbell
Queued events for site silverbell
[DEBUG] 2017-08-06 11:47:25,910 | /home/tyler/frappe-bench/apps/frappe/frappe/utils/scheduler.py:
Site: silverbell
Queued events for site silverbell
[DEBUG] 2017-08-06 11:51:26,257 | /home/tyler/frappe-bench/apps/frappe/frappe/utils/scheduler.py:
Site: silverbell
Queued events for site silverbell
[DEBUG] 2017-08-06 11:55:26,585 | /home/tyler/frappe-bench/apps/frappe/frappe/utils/scheduler.py:
Site: silverbell
Queued events for site silverbell
[DEBUG] 2017-08-06 11:59:26,989 | /home/tyler/frappe-bench/apps/frappe/frappe/utils/scheduler.py:
Site: silverbell
Queued events for site silverbell
[DEBUG] 2017-08-06 12:03:27,344 | /home/tyler/frappe-bench/apps/frappe/frappe/utils/scheduler.py:
Site: silverbell
Queued events for site silverbell
[DEBUG] 2017-08-06 12:07:27,655 | /home/tyler/frappe-bench/apps/frappe/frappe/utils/scheduler.py:
Site: silverbell
Queued events for site silverbell
[DEBUG] 2017-08-06 12:11:28,000 | /home/tyler/frappe-bench/apps/frappe/frappe/utils/scheduler.py:
Site: silverbell
Queued events for site silverbell
[DEBUG] 2017-08-06 12:15:28,325 | /home/tyler/frappe-bench/apps/frappe/frappe/utils/scheduler.py:
Site: silverbell
Queued events for site silverbell
[DEBUG] 2017-08-06 12:19:28,662 | /home/tyler/frappe-bench/apps/frappe/frappe/utils/scheduler.py:
Site: silverbell
Queued events for site silverbell
[DEBUG] 2017-08-06 12:23:28,973 | /home/tyler/frappe-bench/apps/frappe/frappe/utils/scheduler.py:
Site: silverbell
Queued events for site silverbell
[DEBUG] 2017-08-06 12:27:29,311 | /home/tyler/frappe-bench/apps/frappe/frappe/utils/scheduler.py:
Site: silverbell
Queued events for site silverbell
[DEBUG] 2017-08-06 12:31:29,622 | /home/tyler/frappe-bench/apps/frappe/frappe/utils/scheduler.py:
Site: silverbell
Queued events for site silverbell
[DEBUG] 2017-08-06 12:35:29,958 | /home/tyler/frappe-bench/apps/frappe/frappe/utils/scheduler.py:
Site: silverbell
Queued events for site silverbell
[DEBUG] 2017-08-06 12:39:30,292 | /home/tyler/frappe-bench/apps/frappe/frappe/utils/scheduler.py:
Site: silverbell
Queued events for site silverbell
[DEBUG] 2017-08-06 12:43:30,629 | /home/tyler/frappe-bench/apps/frappe/frappe/utils/scheduler.py:
Site: silverbell
Queued events for site silverbell
[DEBUG] 2017-08-06 12:47:30,958 | /home/tyler/frappe-bench/apps/frappe/frappe/utils/scheduler.py:
Site: silverbell
Queued events for site silverbell
[DEBUG] 2017-08-06 12:51:31,273 | /home/tyler/frappe-bench/apps/frappe/frappe/utils/scheduler.py:
Site: silverbell
Queued events for site silverbell
[DEBUG] 2017-08-06 12:55:31,590 | /home/tyler/frappe-bench/apps/frappe/frappe/utils/scheduler.py:
Site: silverbell
Queued events for site silverbell
[DEBUG] 2017-08-06 12:59:31,903 | /home/tyler/frappe-bench/apps/frappe/frappe/utils/scheduler.py:
Site: silverbell
Queued events for site silverbell
[DEBUG] 2017-08-06 13:03:32,234 | /home/tyler/frappe-bench/apps/frappe/frappe/utils/scheduler.py:
Site: silverbell
Queued events for site silverbell
[DEBUG] 2017-08-06 13:07:32,543 | /home/tyler/frappe-bench/apps/frappe/frappe/utils/scheduler.py:
Site: silverbell
Queued events for site silverbell
[DEBUG] 2017-08-06 13:11:32,872 | /home/tyler/frappe-bench/apps/frappe/frappe/utils/scheduler.py:
Site: silverbell
Queued events for site silverbell
[DEBUG] 2017-08-06 13:15:33,184 | /home/tyler/frappe-bench/apps/frappe/frappe/utils/scheduler.py:
Site: silverbell
Queued events for site silverbell
[DEBUG] 2017-08-06 13:19:33,495 | /home/tyler/frappe-bench/apps/frappe/frappe/utils/scheduler.py:
Site: silverbell
Queued events for site silverbell
[DEBUG] 2017-08-06 13:23:33,810 | /home/tyler/frappe-bench/apps/frappe/frappe/utils/scheduler.py:
Site: silverbell
Queued events for site silverbell
[DEBUG] 2017-08-06 13:27:34,126 | /home/tyler/frappe-bench/apps/frappe/frappe/utils/scheduler.py:
Site: silverbell
Queued events for site silverbell
[DEBUG] 2017-08-06 13:31:34,441 | /home/tyler/frappe-bench/apps/frappe/frappe/utils/scheduler.py:
Site: silverbell
Queued events for site silverbell
[DEBUG] 2017-08-06 13:35:34,761 | /home/tyler/frappe-bench/apps/frappe/frappe/utils/scheduler.py:
Site: silverbell
Queued events for site silverbell
[DEBUG] 2017-08-06 13:39:35,072 | /home/tyler/frappe-bench/apps/frappe/frappe/utils/scheduler.py:
Site: silverbell
Queued events for site silverbell
[DEBUG] 2017-08-06 13:43:35,380 | /home/tyler/frappe-bench/apps/frappe/frappe/utils/scheduler.py:
Site: silverbell
Queued events for site silverbell
[DEBUG] 2017-08-06 13:47:35,713 | /home/tyler/frappe-bench/apps/frappe/frappe/utils/scheduler.py:
Site: silverbell
Queued events for site silverbell
[DEBUG] 2017-08-06 13:51:36,050 | /home/tyler/frappe-bench/apps/frappe/frappe/utils/scheduler.py:
Site: silverbell
Queued events for site silverbell
[DEBUG] 2017-08-06 13:55:36,386 | /home/tyler/frappe-bench/apps/frappe/frappe/utils/scheduler.py:
Site: silverbell
Queued events for site silverbell
[DEBUG] 2017-08-06 13:59:36,725 | /home/tyler/frappe-bench/apps/frappe/frappe/utils/scheduler.py:
Site: silverbell
Queued events for site silverbell
[DEBUG] 2017-08-06 14:03:37,082 | /home/tyler/frappe-bench/apps/frappe/frappe/utils/scheduler.py:
Site: silverbell
Queued events for site silverbell
[DEBUG] 2017-08-06 14:07:37,388 | /home/tyler/frappe-bench/apps/frappe/frappe/utils/scheduler.py:
Site: silverbell
Queued events for site silverbell
[DEBUG] 2017-08-06 14:11:37,732 | /home/tyler/frappe-bench/apps/frappe/frappe/utils/scheduler.py:
Site: silverbell
Queued events for site silverbell
[DEBUG] 2017-08-06 14:15:38,077 | /home/tyler/frappe-bench/apps/frappe/frappe/utils/scheduler.py:
Site: silverbell
Queued events for site silverbell
[DEBUG] 2017-08-06 14:19:38,412 | /home/tyler/frappe-bench/apps/frappe/frappe/utils/scheduler.py:
Site: silverbell
Queued events for site silverbell
[DEBUG] 2017-08-06 14:23:38,757 | /home/tyler/frappe-bench/apps/frappe/frappe/utils/scheduler.py:
Site: silverbell
Queued events for site silverbell
[DEBUG] 2017-08-06 14:27:39,104 | /home/tyler/frappe-bench/apps/frappe/frappe/utils/scheduler.py:
Site: silverbell
Queued events for site silverbell
[DEBUG] 2017-08-06 14:31:39,426 | /home/tyler/frappe-bench/apps/frappe/frappe/utils/scheduler.py:
Site: silverbell
Queued events for site silverbell
[DEBUG] 2017-08-06 14:35:39,748 | /home/tyler/frappe-bench/apps/frappe/frappe/utils/scheduler.py:
Site: silverbell
Queued events for site silverbell
[DEBUG] 2017-08-06 14:39:40,070 | /home/tyler/frappe-bench/apps/frappe/frappe/utils/scheduler.py:
Site: silverbell
Queued events for site silverbell
[DEBUG] 2017-08-06 14:43:40,372 | /home/tyler/frappe-bench/apps/frappe/frappe/utils/scheduler.py:
Site: silverbell
Queued events for site silverbell
[DEBUG] 2017-08-06 14:47:40,692 | /home/tyler/frappe-bench/apps/frappe/frappe/utils/scheduler.py:
Site: silverbell
Queued events for site silverbell
[DEBUG] 2017-08-06 14:51:41,014 | /home/tyler/frappe-bench/apps/frappe/frappe/utils/scheduler.py:
Site: silverbell
Queued events for site silverbell
[DEBUG] 2017-08-06 14:55:41,353 | /home/tyler/frappe-bench/apps/frappe/frappe/utils/scheduler.py:
Site: silverbell
Queued events for site silverbell
[DEBUG] 2017-08-06 14:59:41,655 | /home/tyler/frappe-bench/apps/frappe/frappe/utils/scheduler.py:
Site: silverbell
Queued events for site silverbell
[DEBUG] 2017-08-06 15:03:42,006 | /home/tyler/frappe-bench/apps/frappe/frappe/utils/scheduler.py:
Site: silverbell
Queued events for site silverbell
[DEBUG] 2017-08-06 15:07:42,325 | /home/tyler/frappe-bench/apps/frappe/frappe/utils/scheduler.py:
Site: silverbell
Queued events for site silverbell
[DEBUG] 2017-08-06 15:11:42,651 | /home/tyler/frappe-bench/apps/frappe/frappe/utils/scheduler.py:
Site: silverbell
Queued events for site silverbell
[DEBUG] 2017-08-06 15:15:42,969 | /home/tyler/frappe-bench/apps/frappe/frappe/utils/scheduler.py:
Site: silverbell
Queued events for site silverbell
[DEBUG] 2017-08-06 15:19:43,313 | /home/tyler/frappe-bench/apps/frappe/frappe/utils/scheduler.py:
Site: silverbell
Queued events for site silverbell
[DEBUG] 2017-08-06 15:23:43,644 | /home/tyler/frappe-bench/apps/frappe/frappe/utils/scheduler.py:
Site: silverbell
Queued events for site silverbell
[DEBUG] 2017-08-06 15:27:43,986 | /home/tyler/frappe-bench/apps/frappe/frappe/utils/scheduler.py:
Site: silverbell
Queued events for site silverbell
[DEBUG] 2017-08-06 15:31:44,328 | /home/tyler/frappe-bench/apps/frappe/frappe/utils/scheduler.py:
Site: silverbell
Queued events for site silverbell
[DEBUG] 2017-08-06 15:35:44,671 | /home/tyler/frappe-bench/apps/frappe/frappe/utils/scheduler.py:
Site: silverbell
Queued events for site silverbell
[DEBUG] 2017-08-06 15:39:45,014 | /home/tyler/frappe-bench/apps/frappe/frappe/utils/scheduler.py:
Site: silverbell
Queued events for site silverbell
[DEBUG] 2017-08-06 15:43:45,331 | /home/tyler/frappe-bench/apps/frappe/frappe/utils/scheduler.py:
Site: silverbell
Queued events for site silverbell
[DEBUG] 2017-08-06 15:47:45,664 | /home/tyler/frappe-bench/apps/frappe/frappe/utils/scheduler.py:
Site: silverbell
Queued events for site silverbell
[DEBUG] 2017-08-06 15:51:45,998 | /home/tyler/frappe-bench/apps/frappe/frappe/utils/scheduler.py:
Site: silverbell
Queued events for site silverbell
[DEBUG] 2017-08-06 15:55:46,332 | /home/tyler/frappe-bench/apps/frappe/frappe/utils/scheduler.py:
Site: silverbell
Queued events for site silverbell
[DEBUG] 2017-08-06 15:59:46,659 | /home/tyler/frappe-bench/apps/frappe/frappe/utils/scheduler.py:
Site: silverbell
Queued events for site silverbell
[DEBUG] 2017-08-06 16:03:47,008 | /home/tyler/frappe-bench/apps/frappe/frappe/utils/scheduler.py:
Site: silverbell
Queued events for site silverbell
[DEBUG] 2017-08-06 16:07:47,343 | /home/tyler/frappe-bench/apps/frappe/frappe/utils/scheduler.py:
Site: silverbell
Queued events for site silverbell
[DEBUG] 2017-08-06 16:11:47,677 | /home/tyler/frappe-bench/apps/frappe/frappe/utils/scheduler.py:
Site: silverbell
Queued events for site silverbell
[DEBUG] 2017-08-06 16:15:47,994 | /home/tyler/frappe-bench/apps/frappe/frappe/utils/scheduler.py:
Site: silverbell
Queued events for site silverbell
[DEBUG] 2017-08-06 16:19:48,323 | /home/tyler/frappe-bench/apps/frappe/frappe/utils/scheduler.py:
Site: silverbell
Queued events for site silverbell
[DEBUG] 2017-08-06 16:23:48,651 | /home/tyler/frappe-bench/apps/frappe/frappe/utils/scheduler.py:
Site: silverbell
Queued events for site silverbell
[DEBUG] 2017-08-06 16:27:48,961 | /home/tyler/frappe-bench/apps/frappe/frappe/utils/scheduler.py:
Site: silverbell
Queued events for site silverbell
[DEBUG] 2017-08-06 16:31:49,275 | /home/tyler/frappe-bench/apps/frappe/frappe/utils/scheduler.py:
Site: silverbell
Queued events for site silverbell
[DEBUG] 2017-08-06 16:35:49,658 | /home/tyler/frappe-bench/apps/frappe/frappe/utils/scheduler.py:
Site: silverbell
Queued events for site silverbell
[DEBUG] 2017-08-07 19:34:00,717 | /home/tyler/frappe-bench/apps/frappe/frappe/utils/scheduler.py:
Site: silverbell
Queued events for site silverbell
[DEBUG] 2017-08-07 19:38:01,073 | /home/tyler/frappe-bench/apps/frappe/frappe/utils/scheduler.py:
Site: silverbell
Queued events for site silverbell
[DEBUG] 2017-08-07 19:42:01,413 | /home/tyler/frappe-bench/apps/frappe/frappe/utils/scheduler.py:
Site: silverbell
Queued events for site silverbell
[DEBUG] 2017-08-07 19:46:01,731 | /home/tyler/frappe-bench/apps/frappe/frappe/utils/scheduler.py:
Site: silverbell
Queued events for site silverbell
[DEBUG] 2017-08-07 19:50:02,070 | /home/tyler/frappe-bench/apps/frappe/frappe/utils/scheduler.py:
Site: silverbell
Queued events for site silverbell
[DEBUG] 2017-08-07 19:54:02,404 | /home/tyler/frappe-bench/apps/frappe/frappe/utils/scheduler.py:
Site: silverbell
Queued events for site silverbell
[DEBUG] 2017-08-07 19:58:02,745 | /home/tyler/frappe-bench/apps/frappe/frappe/utils/scheduler.py:
Site: silverbell
Queued events for site silverbell
[DEBUG] 2017-08-07 20:02:03,099 | /home/tyler/frappe-bench/apps/frappe/frappe/utils/scheduler.py:
Site: silverbell
Queued events for site silverbell
[DEBUG] 2017-08-07 20:06:03,434 | /home/tyler/frappe-bench/apps/frappe/frappe/utils/scheduler.py:
Site: silverbell
Queued events for site silverbell
[DEBUG] 2017-08-07 20:10:03,768 | /home/tyler/frappe-bench/apps/frappe/frappe/utils/scheduler.py:
Site: silverbell
Queued events for site silverbell
[DEBUG] 2017-08-07 20:14:04,082 | /home/tyler/frappe-bench/apps/frappe/frappe/utils/scheduler.py:
Site: silverbell
Queued events for site silverbell
[DEBUG] 2017-08-07 20:18:04,404 | /home/tyler/frappe-bench/apps/frappe/frappe/utils/scheduler.py:
Site: silverbell
Queued events for site silverbell
[DEBUG] 2017-08-07 20:37:23,940 | /home/tyler/frappe-bench/apps/frappe/frappe/utils/scheduler.py:
Site: silverbell
Queued events for site silverbell
[DEBUG] 2017-08-07 20:41:24,292 | /home/tyler/frappe-bench/apps/frappe/frappe/utils/scheduler.py:
Site: silverbell
Queued events for site silverbell
[DEBUG] 2017-08-07 20:51:37,587 | /home/tyler/frappe-bench/apps/frappe/frappe/utils/scheduler.py:
Site: silverbell
Queued events for site silverbell
[DEBUG] 2017-08-07 20:58:27,966 | /home/tyler/frappe-bench/apps/frappe/frappe/utils/scheduler.py:
Site: silverbell
Queued events for site silverbell
[DEBUG] 2017-08-07 21:02:28,402 | /home/tyler/frappe-bench/apps/frappe/frappe/utils/scheduler.py:
Site: silverbell
Queued events for site silverbell
[DEBUG] 2017-08-07 21:06:28,735 | /home/tyler/frappe-bench/apps/frappe/frappe/utils/scheduler.py:
Site: silverbell
Queued events for site silverbell
[DEBUG] 2017-08-07 21:10:29,052 | /home/tyler/frappe-bench/apps/frappe/frappe/utils/scheduler.py:
Site: silverbell
Queued events for site silverbell
[DEBUG] 2017-08-07 21:14:29,381 | /home/tyler/frappe-bench/apps/frappe/frappe/utils/scheduler.py:
Site: silverbell
Queued events for site silverbell
[DEBUG] 2017-08-07 21:18:29,708 | /home/tyler/frappe-bench/apps/frappe/frappe/utils/scheduler.py:
Site: silverbell
Queued events for site silverbell
[DEBUG] 2017-08-07 21:22:30,025 | /home/tyler/frappe-bench/apps/frappe/frappe/utils/scheduler.py:
Site: silverbell
Queued events for site silverbell
[DEBUG] 2017-08-07 21:26:30,358 | /home/tyler/frappe-bench/apps/frappe/frappe/utils/scheduler.py:
Site: silverbell
Queued events for site silverbell
[DEBUG] 2017-08-07 21:30:30,689 | /home/tyler/frappe-bench/apps/frappe/frappe/utils/scheduler.py:
Site: silverbell
Queued events for site silverbell
[DEBUG] 2017-08-07 21:34:31,026 | /home/tyler/frappe-bench/apps/frappe/frappe/utils/scheduler.py:
Site: silverbell
Queued events for site silverbell
[DEBUG] 2017-08-07 21:38:31,353 | /home/tyler/frappe-bench/apps/frappe/frappe/utils/scheduler.py:
Site: silverbell
Queued events for site silverbell
[DEBUG] 2017-08-07 21:42:31,682 | /home/tyler/frappe-bench/apps/frappe/frappe/utils/scheduler.py:
Site: silverbell
Queued events for site silverbell
[DEBUG] 2017-08-07 21:46:32,009 | /home/tyler/frappe-bench/apps/frappe/frappe/utils/scheduler.py:
Site: silverbell
Queued events for site silverbell
[DEBUG] 2017-08-07 21:50:32,344 | /home/tyler/frappe-bench/apps/frappe/frappe/utils/scheduler.py:
Site: silverbell
Queued events for site silverbell
[DEBUG] 2017-08-07 21:54:32,720 | /home/tyler/frappe-bench/apps/frappe/frappe/utils/scheduler.py:
Site: silverbell
Queued events for site silverbell
[DEBUG] 2017-08-07 21:58:33,052 | /home/tyler/frappe-bench/apps/frappe/frappe/utils/scheduler.py:
Site: silverbell
Queued events for site silverbell
[DEBUG] 2017-08-07 22:02:33,393 | /home/tyler/frappe-bench/apps/frappe/frappe/utils/scheduler.py:
Site: silverbell
Queued events for site silverbell
[DEBUG] 2017-08-07 22:06:33,725 | /home/tyler/frappe-bench/apps/frappe/frappe/utils/scheduler.py:
Site: silverbell
Queued events for site silverbell
[DEBUG] 2017-08-07 22:10:34,058 | /home/tyler/frappe-bench/apps/frappe/frappe/utils/scheduler.py:
Site: silverbell
Queued events for site silverbell
[DEBUG] 2017-08-07 22:14:34,392 | /home/tyler/frappe-bench/apps/frappe/frappe/utils/scheduler.py:
Site: silverbell
Queued events for site silverbell
[DEBUG] 2017-08-07 22:18:34,721 | /home/tyler/frappe-bench/apps/frappe/frappe/utils/scheduler.py:
Site: silverbell
Queued events for site silverbell
[DEBUG] 2017-08-07 22:22:35,065 | /home/tyler/frappe-bench/apps/frappe/frappe/utils/scheduler.py:
Site: silverbell
Queued events for site silverbell
[DEBUG] 2017-08-07 22:26:35,403 | /home/tyler/frappe-bench/apps/frappe/frappe/utils/scheduler.py:
Site: silverbell
Queued events for site silverbell
[DEBUG] 2017-08-07 22:30:35,740 | /home/tyler/frappe-bench/apps/frappe/frappe/utils/scheduler.py:
Site: silverbell
Queued events for site silverbell
[DEBUG] 2017-08-07 22:34:36,073 | /home/tyler/frappe-bench/apps/frappe/frappe/utils/scheduler.py:
Site: silverbell
Queued events for site silverbell
[DEBUG] 2017-08-07 22:38:36,410 | /home/tyler/frappe-bench/apps/frappe/frappe/utils/scheduler.py:
Site: silverbell
Queued events for site silverbell
[DEBUG] 2017-08-07 22:42:36,741 | /home/tyler/frappe-bench/apps/frappe/frappe/utils/scheduler.py:
Site: silverbell
Queued events for site silverbell
[DEBUG] 2017-08-07 22:46:37,072 | /home/tyler/frappe-bench/apps/frappe/frappe/utils/scheduler.py:
Site: silverbell
Queued events for site silverbell
[DEBUG] 2017-08-07 22:50:37,415 | /home/tyler/frappe-bench/apps/frappe/frappe/utils/scheduler.py:
Site: silverbell
Queued events for site silverbell
[DEBUG] 2017-08-07 22:54:37,753 | /home/tyler/frappe-bench/apps/frappe/frappe/utils/scheduler.py:
Site: silverbell
Queued events for site silverbell
[DEBUG] 2017-08-07 22:58:38,096 | /home/tyler/frappe-bench/apps/frappe/frappe/utils/scheduler.py:
Site: silverbell
Queued events for site silverbell
[DEBUG] 2017-08-07 23:02:38,449 | /home/tyler/frappe-bench/apps/frappe/frappe/utils/scheduler.py:
Site: silverbell
Queued events for site silverbell
[DEBUG] 2017-08-07 23:06:38,785 | /home/tyler/frappe-bench/apps/frappe/frappe/utils/scheduler.py:
Site: silverbell
Queued events for site silverbell
[DEBUG] 2017-08-07 23:10:39,109 | /home/tyler/frappe-bench/apps/frappe/frappe/utils/scheduler.py:
Site: silverbell
Queued events for site silverbell
[DEBUG] 2017-08-07 23:14:39,450 | /home/tyler/frappe-bench/apps/frappe/frappe/utils/scheduler.py:
Site: silverbell
Queued events for site silverbell
[DEBUG] 2017-08-07 23:18:39,792 | /home/tyler/frappe-bench/apps/frappe/frappe/utils/scheduler.py:
Site: silverbell
Queued events for site silverbell
[DEBUG] 2017-08-07 23:22:40,121 | /home/tyler/frappe-bench/apps/frappe/frappe/utils/scheduler.py:
Site: silverbell
Queued events for site silverbell
[DEBUG] 2017-08-07 23:26:40,453 | /home/tyler/frappe-bench/apps/frappe/frappe/utils/scheduler.py:
Site: silverbell
Queued events for site silverbell
[DEBUG] 2017-08-07 23:30:40,806 | /home/tyler/frappe-bench/apps/frappe/frappe/utils/scheduler.py:
Site: silverbell
Queued events for site silverbell
[DEBUG] 2017-08-07 23:34:41,117 | /home/tyler/frappe-bench/apps/frappe/frappe/utils/scheduler.py:
Site: silverbell
Queued events for site silverbell
[DEBUG] 2017-08-07 23:38:41,456 | /home/tyler/frappe-bench/apps/frappe/frappe/utils/scheduler.py:
Site: silverbell
Queued events for site silverbell
[DEBUG] 2017-08-07 23:42:41,810 | /home/tyler/frappe-bench/apps/frappe/frappe/utils/scheduler.py:
Site: silverbell
Queued events for site silverbell
[DEBUG] 2017-08-07 23:46:42,140 | /home/tyler/frappe-bench/apps/frappe/frappe/utils/scheduler.py:
Site: silverbell
Queued events for site silverbell
[DEBUG] 2017-08-07 23:50:42,472 | /home/tyler/frappe-bench/apps/frappe/frappe/utils/scheduler.py:
Site: silverbell
Queued events for site silverbell
[DEBUG] 2017-08-07 23:54:42,820 | /home/tyler/frappe-bench/apps/frappe/frappe/utils/scheduler.py:
Site: silverbell
Queued events for site silverbell
[DEBUG] 2017-08-07 23:58:43,159 | /home/tyler/frappe-bench/apps/frappe/frappe/utils/scheduler.py:
Site: silverbell
Queued events for site silverbell
[DEBUG] 2017-08-08 00:02:43,544 | /home/tyler/frappe-bench/apps/frappe/frappe/utils/scheduler.py:
Site: silverbell
Queued events for site silverbell
[DEBUG] 2017-08-08 00:06:43,880 | /home/tyler/frappe-bench/apps/frappe/frappe/utils/scheduler.py:
Site: silverbell
Queued events for site silverbell
[DEBUG] 2017-08-08 00:10:44,210 | /home/tyler/frappe-bench/apps/frappe/frappe/utils/scheduler.py:
Site: silverbell
Queued events for site silverbell
[DEBUG] 2017-08-08 00:14:44,541 | /home/tyler/frappe-bench/apps/frappe/frappe/utils/scheduler.py:
Site: silverbell
Queued events for site silverbell
[DEBUG] 2017-08-08 00:18:44,865 | /home/tyler/frappe-bench/apps/frappe/frappe/utils/scheduler.py:
Site: silverbell
Queued events for site silverbell
[DEBUG] 2017-08-08 00:22:45,188 | /home/tyler/frappe-bench/apps/frappe/frappe/utils/scheduler.py:
Site: silverbell
Queued events for site silverbell
[DEBUG] 2017-08-08 00:26:45,517 | /home/tyler/frappe-bench/apps/frappe/frappe/utils/scheduler.py:
Site: silverbell
Queued events for site silverbell
[DEBUG] 2017-08-08 00:30:45,839 | /home/tyler/frappe-bench/apps/frappe/frappe/utils/scheduler.py:
Site: silverbell
Queued events for site silverbell
[DEBUG] 2017-08-08 00:34:46,170 | /home/tyler/frappe-bench/apps/frappe/frappe/utils/scheduler.py:
Site: silverbell
Queued events for site silverbell
[DEBUG] 2017-08-08 00:38:46,509 | /home/tyler/frappe-bench/apps/frappe/frappe/utils/scheduler.py:
Site: silverbell
Queued events for site silverbell
[DEBUG] 2017-08-08 00:42:46,841 | /home/tyler/frappe-bench/apps/frappe/frappe/utils/scheduler.py:
Site: silverbell
Queued events for site silverbell
[DEBUG] 2017-08-08 00:46:47,166 | /home/tyler/frappe-bench/apps/frappe/frappe/utils/scheduler.py:
Site: silverbell
Queued events for site silverbell
[DEBUG] 2017-08-08 00:50:47,483 | /home/tyler/frappe-bench/apps/frappe/frappe/utils/scheduler.py:
Site: silverbell
Queued events for site silverbell
[DEBUG] 2017-08-08 00:54:47,815 | /home/tyler/frappe-bench/apps/frappe/frappe/utils/scheduler.py:
Site: silverbell
Queued events for site silverbell
[DEBUG] 2017-08-08 00:58:48,138 | /home/tyler/frappe-bench/apps/frappe/frappe/utils/scheduler.py:
Site: silverbell
Queued events for site silverbell
[DEBUG] 2017-08-08 01:02:48,484 | /home/tyler/frappe-bench/apps/frappe/frappe/utils/scheduler.py:
Site: silverbell
Queued events for site silverbell
[DEBUG] 2017-08-08 01:06:48,816 | /home/tyler/frappe-bench/apps/frappe/frappe/utils/scheduler.py:
Site: silverbell
Queued events for site silverbell
[DEBUG] 2017-08-08 01:10:49,123 | /home/tyler/frappe-bench/apps/frappe/frappe/utils/scheduler.py:
Site: silverbell
Queued events for site silverbell
[DEBUG] 2017-08-08 01:14:49,463 | /home/tyler/frappe-bench/apps/frappe/frappe/utils/scheduler.py:
Site: silverbell
Queued events for site silverbell
[DEBUG] 2017-08-08 01:18:49,779 | /home/tyler/frappe-bench/apps/frappe/frappe/utils/scheduler.py:
Site: silverbell
Queued events for site silverbell
[DEBUG] 2017-08-08 01:22:50,110 | /home/tyler/frappe-bench/apps/frappe/frappe/utils/scheduler.py:
Site: silverbell
Queued events for site silverbell
[DEBUG] 2017-08-08 01:26:50,416 | /home/tyler/frappe-bench/apps/frappe/frappe/utils/scheduler.py:
Site: silverbell
Queued events for site silverbell
[DEBUG] 2017-08-08 01:30:50,747 | /home/tyler/frappe-bench/apps/frappe/frappe/utils/scheduler.py:
Site: silverbell
Queued events for site silverbell
[DEBUG] 2017-08-08 01:34:51,077 | /home/tyler/frappe-bench/apps/frappe/frappe/utils/scheduler.py:
Site: silverbell
Queued events for site silverbell
[DEBUG] 2017-08-08 01:38:51,399 | /home/tyler/frappe-bench/apps/frappe/frappe/utils/scheduler.py:
Site: silverbell
Queued events for site silverbell
[DEBUG] 2017-08-08 01:42:51,713 | /home/tyler/frappe-bench/apps/frappe/frappe/utils/scheduler.py:
Site: silverbell
Queued events for site silverbell
[DEBUG] 2017-08-08 01:46:52,037 | /home/tyler/frappe-bench/apps/frappe/frappe/utils/scheduler.py:
Site: silverbell
Queued events for site silverbell
[DEBUG] 2017-08-08 01:50:52,368 | /home/tyler/frappe-bench/apps/frappe/frappe/utils/scheduler.py:
Site: silverbell
Queued events for site silverbell
[DEBUG] 2017-08-08 01:54:52,691 | /home/tyler/frappe-bench/apps/frappe/frappe/utils/scheduler.py:
Site: silverbell
Queued events for site silverbell
[DEBUG] 2017-08-08 01:58:53,021 | /home/tyler/frappe-bench/apps/frappe/frappe/utils/scheduler.py:
Site: silverbell
Queued events for site silverbell
[DEBUG] 2017-08-08 02:02:53,369 | /home/tyler/frappe-bench/apps/frappe/frappe/utils/scheduler.py:
Site: silverbell
Queued events for site silverbell
[DEBUG] 2017-08-08 02:06:53,700 | /home/tyler/frappe-bench/apps/frappe/frappe/utils/scheduler.py:
Site: silverbell
Queued events for site silverbell
[DEBUG] 2017-08-08 02:10:54,014 | /home/tyler/frappe-bench/apps/frappe/frappe/utils/scheduler.py:
Site: silverbell
Queued events for site silverbell
[DEBUG] 2017-08-08 02:14:54,338 | /home/tyler/frappe-bench/apps/frappe/frappe/utils/scheduler.py:
Site: silverbell
Queued events for site silverbell
[DEBUG] 2017-08-08 02:18:54,670 | /home/tyler/frappe-bench/apps/frappe/frappe/utils/scheduler.py:
Site: silverbell
Queued events for site silverbell
[DEBUG] 2017-08-08 02:22:54,992 | /home/tyler/frappe-bench/apps/frappe/frappe/utils/scheduler.py:
Site: silverbell
Queued events for site silverbell
[DEBUG] 2017-08-08 02:26:55,323 | /home/tyler/frappe-bench/apps/frappe/frappe/utils/scheduler.py:
Site: silverbell
Queued events for site silverbell
[DEBUG] 2017-08-08 02:30:55,664 | /home/tyler/frappe-bench/apps/frappe/frappe/utils/scheduler.py:
Site: silverbell
Queued events for site silverbell
[DEBUG] 2017-08-08 02:34:55,985 | /home/tyler/frappe-bench/apps/frappe/frappe/utils/scheduler.py:
Site: silverbell
Queued events for site silverbell
[DEBUG] 2017-08-08 02:38:56,316 | /home/tyler/frappe-bench/apps/frappe/frappe/utils/scheduler.py:
Site: silverbell
Queued events for site silverbell
[DEBUG] 2017-08-08 02:42:56,639 | /home/tyler/frappe-bench/apps/frappe/frappe/utils/scheduler.py:
Site: silverbell
Queued events for site silverbell
[DEBUG] 2017-08-08 02:46:56,979 | /home/tyler/frappe-bench/apps/frappe/frappe/utils/scheduler.py:
Site: silverbell
Queued events for site silverbell
[DEBUG] 2017-08-08 02:50:57,318 | /home/tyler/frappe-bench/apps/frappe/frappe/utils/scheduler.py:
Site: silverbell
Queued events for site silverbell
[DEBUG] 2017-08-08 02:54:57,673 | /home/tyler/frappe-bench/apps/frappe/frappe/utils/scheduler.py:
Site: silverbell
Queued events for site silverbell
[DEBUG] 2017-08-08 02:58:57,996 | /home/tyler/frappe-bench/apps/frappe/frappe/utils/scheduler.py:
Site: silverbell
Queued events for site silverbell
[DEBUG] 2017-08-08 03:02:58,333 | /home/tyler/frappe-bench/apps/frappe/frappe/utils/scheduler.py:
Site: silverbell
Queued events for site silverbell
[DEBUG] 2017-08-08 03:06:58,665 | /home/tyler/frappe-bench/apps/frappe/frappe/utils/scheduler.py:
Site: silverbell
Queued events for site silverbell
[DEBUG] 2017-08-08 03:10:58,995 | /home/tyler/frappe-bench/apps/frappe/frappe/utils/scheduler.py:
Site: silverbell
Queued events for site silverbell
[DEBUG] 2017-08-08 03:14:59,296 | /home/tyler/frappe-bench/apps/frappe/frappe/utils/scheduler.py:
Site: silverbell
Queued events for site silverbell
[DEBUG] 2017-08-08 03:19:01,017 | /home/tyler/frappe-bench/apps/frappe/frappe/utils/scheduler.py:
Site: silverbell
Queued events for site silverbell
[DEBUG] 2017-08-08 03:23:01,481 | /home/tyler/frappe-bench/apps/frappe/frappe/utils/scheduler.py:
Site: silverbell
Queued events for site silverbell
[DEBUG] 2017-08-08 03:27:01,786 | /home/tyler/frappe-bench/apps/frappe/frappe/utils/scheduler.py:
Site: silverbell
Queued events for site silverbell
[DEBUG] 2017-08-08 03:31:02,151 | /home/tyler/frappe-bench/apps/frappe/frappe/utils/scheduler.py:
Site: silverbell
Queued events for site silverbell
[DEBUG] 2017-08-08 03:35:02,474 | /home/tyler/frappe-bench/apps/frappe/frappe/utils/scheduler.py:
Site: silverbell
Queued events for site silverbell
[DEBUG] 2017-08-08 03:39:02,806 | /home/tyler/frappe-bench/apps/frappe/frappe/utils/scheduler.py:
Site: silverbell
Queued events for site silverbell
[DEBUG] 2017-08-08 03:43:03,494 | /home/tyler/frappe-bench/apps/frappe/frappe/utils/scheduler.py:
Site: silverbell
Queued events for site silverbell
[DEBUG] 2017-08-08 03:47:03,817 | /home/tyler/frappe-bench/apps/frappe/frappe/utils/scheduler.py:
Site: silverbell
Queued events for site silverbell
[DEBUG] 2017-08-08 03:51:04,147 | /home/tyler/frappe-bench/apps/frappe/frappe/utils/scheduler.py:
Site: silverbell
Queued events for site silverbell
[DEBUG] 2017-08-08 03:55:04,478 | /home/tyler/frappe-bench/apps/frappe/frappe/utils/scheduler.py:
Site: silverbell
Queued events for site silverbell
[DEBUG] 2017-08-08 03:59:04,817 | /home/tyler/frappe-bench/apps/frappe/frappe/utils/scheduler.py:
Site: silverbell
Queued events for site silverbell
[DEBUG] 2017-08-08 04:03:05,167 | /home/tyler/frappe-bench/apps/frappe/frappe/utils/scheduler.py:
Site: silverbell
Queued events for site silverbell
[DEBUG] 2017-08-08 04:07:05,504 | /home/tyler/frappe-bench/apps/frappe/frappe/utils/scheduler.py:
Site: silverbell
Queued events for site silverbell
[DEBUG] 2017-08-08 04:11:05,849 | /home/tyler/frappe-bench/apps/frappe/frappe/utils/scheduler.py:
Site: silverbell
Queued events for site silverbell
[DEBUG] 2017-08-08 04:15:06,205 | /home/tyler/frappe-bench/apps/frappe/frappe/utils/scheduler.py:
Site: silverbell
Queued events for site silverbell
[DEBUG] 2017-08-08 04:19:06,528 | /home/tyler/frappe-bench/apps/frappe/frappe/utils/scheduler.py:
Site: silverbell
Queued events for site silverbell
[DEBUG] 2017-08-08 04:23:06,851 | /home/tyler/frappe-bench/apps/frappe/frappe/utils/scheduler.py:
Site: silverbell
Queued events for site silverbell
[DEBUG] 2017-08-08 04:27:07,197 | /home/tyler/frappe-bench/apps/frappe/frappe/utils/scheduler.py:
Site: silverbell
Queued events for site silverbell
[DEBUG] 2017-08-08 04:31:07,518 | /home/tyler/frappe-bench/apps/frappe/frappe/utils/scheduler.py:
Site: silverbell
Queued events for site silverbell
[DEBUG] 2017-08-08 04:35:07,849 | /home/tyler/frappe-bench/apps/frappe/frappe/utils/scheduler.py:
Site: silverbell
Queued events for site silverbell
[DEBUG] 2017-08-08 04:39:08,188 | /home/tyler/frappe-bench/apps/frappe/frappe/utils/scheduler.py:
Site: silverbell
Queued events for site silverbell
[DEBUG] 2017-08-08 04:43:08,546 | /home/tyler/frappe-bench/apps/frappe/frappe/utils/scheduler.py:
Site: silverbell
Queued events for site silverbell
[DEBUG] 2017-08-08 04:47:08,876 | /home/tyler/frappe-bench/apps/frappe/frappe/utils/scheduler.py:
Site: silverbell
Queued events for site silverbell
[DEBUG] 2017-08-08 04:51:09,201 | /home/tyler/frappe-bench/apps/frappe/frappe/utils/scheduler.py:
Site: silverbell
Queued events for site silverbell
[DEBUG] 2017-08-08 04:55:09,565 | /home/tyler/frappe-bench/apps/frappe/frappe/utils/scheduler.py:
Site: silverbell
Queued events for site silverbell
[DEBUG] 2017-08-08 04:59:09,897 | /home/tyler/frappe-bench/apps/frappe/frappe/utils/scheduler.py:
Site: silverbell
Queued events for site silverbell
[DEBUG] 2017-08-08 05:03:10,238 | /home/tyler/frappe-bench/apps/frappe/frappe/utils/scheduler.py:
Site: silverbell
Queued events for site silverbell
[DEBUG] 2017-08-08 05:07:10,566 | /home/tyler/frappe-bench/apps/frappe/frappe/utils/scheduler.py:
Site: silverbell
Queued events for site silverbell
[DEBUG] 2017-08-08 05:11:10,896 | /home/tyler/frappe-bench/apps/frappe/frappe/utils/scheduler.py:
Site: silverbell
Queued events for site silverbell
[DEBUG] 2017-08-08 05:15:11,226 | /home/tyler/frappe-bench/apps/frappe/frappe/utils/scheduler.py:
Site: silverbell
Queued events for site silverbell
[DEBUG] 2017-08-08 05:19:11,558 | /home/tyler/frappe-bench/apps/frappe/frappe/utils/scheduler.py:
Site: silverbell
Queued events for site silverbell
[DEBUG] 2017-08-08 05:23:11,889 | /home/tyler/frappe-bench/apps/frappe/frappe/utils/scheduler.py:
Site: silverbell
Queued events for site silverbell
[DEBUG] 2017-08-08 05:27:12,210 | /home/tyler/frappe-bench/apps/frappe/frappe/utils/scheduler.py:
Site: silverbell
Queued events for site silverbell
[DEBUG] 2017-08-08 05:31:12,540 | /home/tyler/frappe-bench/apps/frappe/frappe/utils/scheduler.py:
Site: silverbell
Queued events for site silverbell
[DEBUG] 2017-08-08 05:35:12,871 | /home/tyler/frappe-bench/apps/frappe/frappe/utils/scheduler.py:
Site: silverbell
Queued events for site silverbell
[DEBUG] 2017-08-08 05:39:13,227 | /home/tyler/frappe-bench/apps/frappe/frappe/utils/scheduler.py:
Site: silverbell
Queued events for site silverbell
[DEBUG] 2017-08-08 05:43:13,555 | /home/tyler/frappe-bench/apps/frappe/frappe/utils/scheduler.py:
Site: silverbell
Queued events for site silverbell
[DEBUG] 2017-08-08 05:47:13,912 | /home/tyler/frappe-bench/apps/frappe/frappe/utils/scheduler.py:
Site: silverbell
Queued events for site silverbell
[DEBUG] 2017-08-08 05:51:14,235 | /home/tyler/frappe-bench/apps/frappe/frappe/utils/scheduler.py:
Site: silverbell
Queued events for site silverbell
[DEBUG] 2017-08-08 05:55:14,557 | /home/tyler/frappe-bench/apps/frappe/frappe/utils/scheduler.py:
Site: silverbell
Queued events for site silverbell
[DEBUG] 2017-08-08 05:59:14,879 | /home/tyler/frappe-bench/apps/frappe/frappe/utils/scheduler.py:
Site: silverbell
Queued events for site silverbell
[DEBUG] 2017-08-08 06:03:15,227 | /home/tyler/frappe-bench/apps/frappe/frappe/utils/scheduler.py:
Site: silverbell
Queued events for site silverbell
[DEBUG] 2017-08-08 06:07:15,547 | /home/tyler/frappe-bench/apps/frappe/frappe/utils/scheduler.py:
Site: silverbell
Queued events for site silverbell
[DEBUG] 2017-08-08 06:11:15,870 | /home/tyler/frappe-bench/apps/frappe/frappe/utils/scheduler.py:
Site: silverbell
Queued events for site silverbell
[DEBUG] 2017-08-08 06:15:16,199 | /home/tyler/frappe-bench/apps/frappe/frappe/utils/scheduler.py:
Site: silverbell
Queued events for site silverbell
[DEBUG] 2017-08-08 06:19:16,532 | /home/tyler/frappe-bench/apps/frappe/frappe/utils/scheduler.py:
Site: silverbell
Queued events for site silverbell
[DEBUG] 2017-08-08 06:23:16,871 | /home/tyler/frappe-bench/apps/frappe/frappe/utils/scheduler.py:
Site: silverbell
Queued events for site silverbell
[DEBUG] 2017-08-08 06:27:17,201 | /home/tyler/frappe-bench/apps/frappe/frappe/utils/scheduler.py:
Site: silverbell
Queued events for site silverbell
[DEBUG] 2017-08-08 06:31:17,539 | /home/tyler/frappe-bench/apps/frappe/frappe/utils/scheduler.py:
Site: silverbell
Queued events for site silverbell
[DEBUG] 2017-08-08 06:35:17,861 | /home/tyler/frappe-bench/apps/frappe/frappe/utils/scheduler.py:
Site: silverbell
Queued events for site silverbell
[DEBUG] 2017-08-08 06:39:18,183 | /home/tyler/frappe-bench/apps/frappe/frappe/utils/scheduler.py:
Site: silverbell
Queued events for site silverbell
[DEBUG] 2017-08-08 06:43:18,513 | /home/tyler/frappe-bench/apps/frappe/frappe/utils/scheduler.py:
Site: silverbell
Queued events for site silverbell
[DEBUG] 2017-08-08 06:47:18,844 | /home/tyler/frappe-bench/apps/frappe/frappe/utils/scheduler.py:
Site: silverbell
Queued events for site silverbell
[DEBUG] 2017-08-08 06:51:19,168 | /home/tyler/frappe-bench/apps/frappe/frappe/utils/scheduler.py:
Site: silverbell
Queued events for site silverbell
[DEBUG] 2017-08-08 06:55:19,503 | /home/tyler/frappe-bench/apps/frappe/frappe/utils/scheduler.py:
Site: silverbell
Queued events for site silverbell
[DEBUG] 2017-08-08 06:59:19,866 | /home/tyler/frappe-bench/apps/frappe/frappe/utils/scheduler.py:
Site: silverbell
Queued events for site silverbell
[DEBUG] 2017-08-08 07:03:20,212 | /home/tyler/frappe-bench/apps/frappe/frappe/utils/scheduler.py:
Site: silverbell
Queued events for site silverbell
[DEBUG] 2017-08-08 07:07:20,543 | /home/tyler/frappe-bench/apps/frappe/frappe/utils/scheduler.py:
Site: silverbell
Queued events for site silverbell
[DEBUG] 2017-08-08 07:11:20,856 | /home/tyler/frappe-bench/apps/frappe/frappe/utils/scheduler.py:
Site: silverbell
Queued events for site silverbell
[DEBUG] 2017-08-08 07:15:21,194 | /home/tyler/frappe-bench/apps/frappe/frappe/utils/scheduler.py:
Site: silverbell
Queued events for site silverbell
[DEBUG] 2017-08-08 07:19:21,526 | /home/tyler/frappe-bench/apps/frappe/frappe/utils/scheduler.py:
Site: silverbell
Queued events for site silverbell
[DEBUG] 2017-08-08 07:23:21,857 | /home/tyler/frappe-bench/apps/frappe/frappe/utils/scheduler.py:
Site: silverbell
Queued events for site silverbell
[DEBUG] 2017-08-08 07:27:22,188 | /home/tyler/frappe-bench/apps/frappe/frappe/utils/scheduler.py:
Site: silverbell
Queued events for site silverbell
[DEBUG] 2017-08-08 07:31:22,551 | /home/tyler/frappe-bench/apps/frappe/frappe/utils/scheduler.py:
Site: silverbell
Queued events for site silverbell
[DEBUG] 2017-08-08 07:35:22,880 | /home/tyler/frappe-bench/apps/frappe/frappe/utils/scheduler.py:
Site: silverbell
Queued events for site silverbell
[DEBUG] 2017-08-08 07:39:23,210 | /home/tyler/frappe-bench/apps/frappe/frappe/utils/scheduler.py:
Site: silverbell
Queued events for site silverbell
[DEBUG] 2017-08-08 07:43:23,534 | /home/tyler/frappe-bench/apps/frappe/frappe/utils/scheduler.py:
Site: silverbell
Queued events for site silverbell
[DEBUG] 2017-08-08 07:47:23,864 | /home/tyler/frappe-bench/apps/frappe/frappe/utils/scheduler.py:
Site: silverbell
Queued events for site silverbell
[DEBUG] 2017-08-08 07:51:24,196 | /home/tyler/frappe-bench/apps/frappe/frappe/utils/scheduler.py:
Site: silverbell
Queued events for site silverbell
[DEBUG] 2017-08-08 07:55:24,526 | /home/tyler/frappe-bench/apps/frappe/frappe/utils/scheduler.py:
Site: silverbell
Queued events for site silverbell
[DEBUG] 2017-08-08 07:59:24,864 | /home/tyler/frappe-bench/apps/frappe/frappe/utils/scheduler.py:
Site: silverbell
Queued events for site silverbell
[DEBUG] 2017-08-08 08:03:25,208 | /home/tyler/frappe-bench/apps/frappe/frappe/utils/scheduler.py:
Site: silverbell
Queued events for site silverbell
[DEBUG] 2017-08-08 08:07:25,517 | /home/tyler/frappe-bench/apps/frappe/frappe/utils/scheduler.py:
Site: silverbell
Queued events for site silverbell
[DEBUG] 2017-08-08 08:11:25,839 | /home/tyler/frappe-bench/apps/frappe/frappe/utils/scheduler.py:
Site: silverbell
Queued events for site silverbell
[DEBUG] 2017-08-08 08:15:26,197 | /home/tyler/frappe-bench/apps/frappe/frappe/utils/scheduler.py:
Site: silverbell
Queued events for site silverbell
[DEBUG] 2017-08-08 08:19:26,522 | /home/tyler/frappe-bench/apps/frappe/frappe/utils/scheduler.py:
Site: silverbell
Queued events for site silverbell
[DEBUG] 2017-08-08 08:23:26,845 | /home/tyler/frappe-bench/apps/frappe/frappe/utils/scheduler.py:
Site: silverbell
Queued events for site silverbell
[DEBUG] 2017-08-08 08:27:27,168 | /home/tyler/frappe-bench/apps/frappe/frappe/utils/scheduler.py:
Site: silverbell
Queued events for site silverbell
[DEBUG] 2017-08-08 08:31:27,490 | /home/tyler/frappe-bench/apps/frappe/frappe/utils/scheduler.py:
Site: silverbell
Queued events for site silverbell
[DEBUG] 2017-08-08 08:35:27,820 | /home/tyler/frappe-bench/apps/frappe/frappe/utils/scheduler.py:
Site: silverbell
Queued events for site silverbell
[DEBUG] 2017-08-08 08:39:28,151 | /home/tyler/frappe-bench/apps/frappe/frappe/utils/scheduler.py:
Site: silverbell
Queued events for site silverbell
[DEBUG] 2017-08-08 08:43:28,490 | /home/tyler/frappe-bench/apps/frappe/frappe/utils/scheduler.py:
Site: silverbell
Queued events for site silverbell
[DEBUG] 2017-08-08 08:47:28,815 | /home/tyler/frappe-bench/apps/frappe/frappe/utils/scheduler.py:
Site: silverbell
Queued events for site silverbell
[DEBUG] 2017-08-08 08:51:29,123 | /home/tyler/frappe-bench/apps/frappe/frappe/utils/scheduler.py:
Site: silverbell
Queued events for site silverbell
[DEBUG] 2017-08-08 08:55:29,454 | /home/tyler/frappe-bench/apps/frappe/frappe/utils/scheduler.py:
Site: silverbell
Queued events for site silverbell
[DEBUG] 2017-08-08 08:59:29,770 | /home/tyler/frappe-bench/apps/frappe/frappe/utils/scheduler.py:
Site: silverbell
Queued events for site silverbell
[DEBUG] 2017-08-08 09:03:30,094 | /home/tyler/frappe-bench/apps/frappe/frappe/utils/scheduler.py:
Site: silverbell
Queued events for site silverbell
[DEBUG] 2017-08-08 09:07:30,476 | /home/tyler/frappe-bench/apps/frappe/frappe/utils/scheduler.py:
Site: silverbell
Queued events for site silverbell
[DEBUG] 2017-08-08 09:11:30,813 | /home/tyler/frappe-bench/apps/frappe/frappe/utils/scheduler.py:
Site: silverbell
Queued events for site silverbell
[DEBUG] 2017-08-08 09:15:31,121 | /home/tyler/frappe-bench/apps/frappe/frappe/utils/scheduler.py:
Site: silverbell
Queued events for site silverbell
[DEBUG] 2017-08-08 09:19:31,453 | /home/tyler/frappe-bench/apps/frappe/frappe/utils/scheduler.py:
Site: silverbell
Queued events for site silverbell
[DEBUG] 2017-08-08 09:23:31,784 | /home/tyler/frappe-bench/apps/frappe/frappe/utils/scheduler.py:
Site: silverbell
Queued events for site silverbell
[DEBUG] 2017-08-08 09:27:32,123 | /home/tyler/frappe-bench/apps/frappe/frappe/utils/scheduler.py:
Site: silverbell
Queued events for site silverbell
[DEBUG] 2017-08-08 09:31:32,454 | /home/tyler/frappe-bench/apps/frappe/frappe/utils/scheduler.py:
Site: silverbell
Queued events for site silverbell
[DEBUG] 2017-08-08 09:35:32,767 | /home/tyler/frappe-bench/apps/frappe/frappe/utils/scheduler.py:
Site: silverbell
Queued events for site silverbell
[DEBUG] 2017-08-08 09:39:33,081 | /home/tyler/frappe-bench/apps/frappe/frappe/utils/scheduler.py:
Site: silverbell
Queued events for site silverbell
[DEBUG] 2017-08-08 09:43:33,405 | /home/tyler/frappe-bench/apps/frappe/frappe/utils/scheduler.py:
Site: silverbell
Queued events for site silverbell
[DEBUG] 2017-08-08 09:47:33,787 | /home/tyler/frappe-bench/apps/frappe/frappe/utils/scheduler.py:
Site: silverbell
Queued events for site silverbell
[DEBUG] 2017-08-08 09:51:34,119 | /home/tyler/frappe-bench/apps/frappe/frappe/utils/scheduler.py:
Site: silverbell
Queued events for site silverbell
[DEBUG] 2017-08-08 09:55:34,455 | /home/tyler/frappe-bench/apps/frappe/frappe/utils/scheduler.py:
Site: silverbell
Queued events for site silverbell
[DEBUG] 2017-08-08 09:59:34,785 | /home/tyler/frappe-bench/apps/frappe/frappe/utils/scheduler.py:
Site: silverbell
Queued events for site silverbell
[DEBUG] 2017-08-08 10:03:35,165 | /home/tyler/frappe-bench/apps/frappe/frappe/utils/scheduler.py:
Site: silverbell
Queued events for site silverbell
[DEBUG] 2017-08-08 10:07:35,494 | /home/tyler/frappe-bench/apps/frappe/frappe/utils/scheduler.py:
Site: silverbell
Queued events for site silverbell
[DEBUG] 2017-08-08 10:11:35,816 | /home/tyler/frappe-bench/apps/frappe/frappe/utils/scheduler.py:
Site: silverbell
Queued events for site silverbell
[DEBUG] 2017-08-08 10:15:36,140 | /home/tyler/frappe-bench/apps/frappe/frappe/utils/scheduler.py:
Site: silverbell
Queued events for site silverbell
[DEBUG] 2017-08-08 10:19:36,471 | /home/tyler/frappe-bench/apps/frappe/frappe/utils/scheduler.py:
Site: silverbell
Queued events for site silverbell
[DEBUG] 2017-08-08 10:23:36,803 | /home/tyler/frappe-bench/apps/frappe/frappe/utils/scheduler.py:
Site: silverbell
Queued events for site silverbell
[DEBUG] 2017-08-08 10:27:37,126 | /home/tyler/frappe-bench/apps/frappe/frappe/utils/scheduler.py:
Site: silverbell
Queued events for site silverbell
[DEBUG] 2017-08-08 10:31:37,467 | /home/tyler/frappe-bench/apps/frappe/frappe/utils/scheduler.py:
Site: silverbell
Queued events for site silverbell
[DEBUG] 2017-08-08 10:35:37,799 | /home/tyler/frappe-bench/apps/frappe/frappe/utils/scheduler.py:
Site: silverbell
Queued events for site silverbell
[DEBUG] 2017-08-08 10:39:38,130 | /home/tyler/frappe-bench/apps/frappe/frappe/utils/scheduler.py:
Site: silverbell
Queued events for site silverbell
[DEBUG] 2017-08-08 10:43:38,468 | /home/tyler/frappe-bench/apps/frappe/frappe/utils/scheduler.py:
Site: silverbell
Queued events for site silverbell
[DEBUG] 2017-08-08 10:47:38,833 | /home/tyler/frappe-bench/apps/frappe/frappe/utils/scheduler.py:
Site: silverbell
Queued events for site silverbell
[DEBUG] 2017-08-08 10:51:39,164 | /home/tyler/frappe-bench/apps/frappe/frappe/utils/scheduler.py:
Site: silverbell
Queued events for site silverbell
[DEBUG] 2017-08-08 10:55:39,494 | /home/tyler/frappe-bench/apps/frappe/frappe/utils/scheduler.py:
Site: silverbell
Queued events for site silverbell
[DEBUG] 2017-08-08 10:59:39,834 | /home/tyler/frappe-bench/apps/frappe/frappe/utils/scheduler.py:
Site: silverbell
Queued events for site silverbell
[DEBUG] 2017-08-08 11:03:40,179 | /home/tyler/frappe-bench/apps/frappe/frappe/utils/scheduler.py:
Site: silverbell
Queued events for site silverbell
[DEBUG] 2017-08-08 11:07:40,506 | /home/tyler/frappe-bench/apps/frappe/frappe/utils/scheduler.py:
Site: silverbell
Queued events for site silverbell
[DEBUG] 2017-08-08 11:11:40,829 | /home/tyler/frappe-bench/apps/frappe/frappe/utils/scheduler.py:
Site: silverbell
Queued events for site silverbell
[DEBUG] 2017-08-08 11:15:41,162 | /home/tyler/frappe-bench/apps/frappe/frappe/utils/scheduler.py:
Site: silverbell
Queued events for site silverbell
[DEBUG] 2017-08-08 11:19:41,485 | /home/tyler/frappe-bench/apps/frappe/frappe/utils/scheduler.py:
Site: silverbell
Queued events for site silverbell
[DEBUG] 2017-08-08 11:23:41,823 | /home/tyler/frappe-bench/apps/frappe/frappe/utils/scheduler.py:
Site: silverbell
Queued events for site silverbell
[DEBUG] 2017-08-08 11:27:42,154 | /home/tyler/frappe-bench/apps/frappe/frappe/utils/scheduler.py:
Site: silverbell
Queued events for site silverbell
[DEBUG] 2017-08-08 11:31:42,526 | /home/tyler/frappe-bench/apps/frappe/frappe/utils/scheduler.py:
Site: silverbell
Queued events for site silverbell
[DEBUG] 2017-08-08 11:35:42,849 | /home/tyler/frappe-bench/apps/frappe/frappe/utils/scheduler.py:
Site: silverbell
Queued events for site silverbell
[DEBUG] 2017-08-08 11:39:43,158 | /home/tyler/frappe-bench/apps/frappe/frappe/utils/scheduler.py:
Site: silverbell
Queued events for site silverbell
[DEBUG] 2017-08-08 11:43:43,481 | /home/tyler/frappe-bench/apps/frappe/frappe/utils/scheduler.py:
Site: silverbell
Queued events for site silverbell
[DEBUG] 2017-08-08 11:47:43,801 | /home/tyler/frappe-bench/apps/frappe/frappe/utils/scheduler.py:
Site: silverbell
Queued events for site silverbell
[DEBUG] 2017-08-08 11:51:44,124 | /home/tyler/frappe-bench/apps/frappe/frappe/utils/scheduler.py:
Site: silverbell
Queued events for site silverbell
[DEBUG] 2017-08-08 11:55:44,438 | /home/tyler/frappe-bench/apps/frappe/frappe/utils/scheduler.py:
Site: silverbell
Queued events for site silverbell
[DEBUG] 2017-08-08 11:59:44,777 | /home/tyler/frappe-bench/apps/frappe/frappe/utils/scheduler.py:
Site: silverbell
Queued events for site silverbell
[DEBUG] 2017-08-08 12:03:45,143 | /home/tyler/frappe-bench/apps/frappe/frappe/utils/scheduler.py:
Site: silverbell
Queued events for site silverbell
[DEBUG] 2017-08-08 12:07:45,512 | /home/tyler/frappe-bench/apps/frappe/frappe/utils/scheduler.py:
Site: silverbell
Queued events for site silverbell
[DEBUG] 2017-08-08 12:11:45,850 | /home/tyler/frappe-bench/apps/frappe/frappe/utils/scheduler.py:
Site: silverbell
Queued events for site silverbell
[DEBUG] 2017-08-08 12:15:46,189 | /home/tyler/frappe-bench/apps/frappe/frappe/utils/scheduler.py:
Site: silverbell
Queued events for site silverbell
[DEBUG] 2017-08-08 12:19:46,536 | /home/tyler/frappe-bench/apps/frappe/frappe/utils/scheduler.py:
Site: silverbell
Queued events for site silverbell
[DEBUG] 2017-08-08 12:23:46,866 | /home/tyler/frappe-bench/apps/frappe/frappe/utils/scheduler.py:
Site: silverbell
Queued events for site silverbell
[DEBUG] 2017-08-08 12:27:47,195 | /home/tyler/frappe-bench/apps/frappe/frappe/utils/scheduler.py:
Site: silverbell
Queued events for site silverbell
[DEBUG] 2017-08-08 12:31:47,535 | /home/tyler/frappe-bench/apps/frappe/frappe/utils/scheduler.py:
Site: silverbell
Queued events for site silverbell
[DEBUG] 2017-08-08 12:35:47,849 | /home/tyler/frappe-bench/apps/frappe/frappe/utils/scheduler.py:
Site: silverbell
Queued events for site silverbell
[DEBUG] 2017-08-08 12:39:48,179 | /home/tyler/frappe-bench/apps/frappe/frappe/utils/scheduler.py:
Site: silverbell
Queued events for site silverbell
[DEBUG] 2017-08-08 12:43:48,494 | /home/tyler/frappe-bench/apps/frappe/frappe/utils/scheduler.py:
Site: silverbell
Queued events for site silverbell
[DEBUG] 2017-08-08 12:47:48,816 | /home/tyler/frappe-bench/apps/frappe/frappe/utils/scheduler.py:
Site: silverbell
Queued events for site silverbell
[DEBUG] 2017-08-08 12:51:49,139 | /home/tyler/frappe-bench/apps/frappe/frappe/utils/scheduler.py:
Site: silverbell
Queued events for site silverbell
[DEBUG] 2017-08-08 12:55:49,470 | /home/tyler/frappe-bench/apps/frappe/frappe/utils/scheduler.py:
Site: silverbell
Queued events for site silverbell
[DEBUG] 2017-08-08 12:59:49,792 | /home/tyler/frappe-bench/apps/frappe/frappe/utils/scheduler.py:
Site: silverbell
Queued events for site silverbell
[DEBUG] 2017-08-08 13:03:50,139 | /home/tyler/frappe-bench/apps/frappe/frappe/utils/scheduler.py:
Site: silverbell
Queued events for site silverbell
[DEBUG] 2017-08-08 13:07:50,469 | /home/tyler/frappe-bench/apps/frappe/frappe/utils/scheduler.py:
Site: silverbell
Queued events for site silverbell
[DEBUG] 2017-08-08 13:11:50,801 | /home/tyler/frappe-bench/apps/frappe/frappe/utils/scheduler.py:
Site: silverbell
Queued events for site silverbell
[DEBUG] 2017-08-08 13:15:51,131 | /home/tyler/frappe-bench/apps/frappe/frappe/utils/scheduler.py:
Site: silverbell
Queued events for site silverbell
[DEBUG] 2017-08-08 13:19:51,494 | /home/tyler/frappe-bench/apps/frappe/frappe/utils/scheduler.py:
Site: silverbell
Queued events for site silverbell
[DEBUG] 2017-08-08 13:23:51,824 | /home/tyler/frappe-bench/apps/frappe/frappe/utils/scheduler.py:
Site: silverbell
Queued events for site silverbell
[DEBUG] 2017-08-08 13:27:52,152 | /home/tyler/frappe-bench/apps/frappe/frappe/utils/scheduler.py:
Site: silverbell
Queued events for site silverbell
[DEBUG] 2017-08-08 13:31:52,474 | /home/tyler/frappe-bench/apps/frappe/frappe/utils/scheduler.py:
Site: silverbell
Queued events for site silverbell
[DEBUG] 2017-08-08 13:35:52,796 | /home/tyler/frappe-bench/apps/frappe/frappe/utils/scheduler.py:
Site: silverbell
Queued events for site silverbell
[DEBUG] 2017-08-08 13:39:53,118 | /home/tyler/frappe-bench/apps/frappe/frappe/utils/scheduler.py:
Site: silverbell
Queued events for site silverbell
[DEBUG] 2017-08-08 13:43:53,449 | /home/tyler/frappe-bench/apps/frappe/frappe/utils/scheduler.py:
Site: silverbell
Queued events for site silverbell
[DEBUG] 2017-08-08 13:47:53,778 | /home/tyler/frappe-bench/apps/frappe/frappe/utils/scheduler.py:
Site: silverbell
Queued events for site silverbell
[DEBUG] 2017-08-08 13:51:54,109 | /home/tyler/frappe-bench/apps/frappe/frappe/utils/scheduler.py:
Site: silverbell
Queued events for site silverbell
[DEBUG] 2017-08-08 13:55:54,432 | /home/tyler/frappe-bench/apps/frappe/frappe/utils/scheduler.py:
Site: silverbell
Queued events for site silverbell
[DEBUG] 2017-08-08 13:59:54,763 | /home/tyler/frappe-bench/apps/frappe/frappe/utils/scheduler.py:
Site: silverbell
Queued events for site silverbell
[DEBUG] 2017-08-08 14:03:55,114 | /home/tyler/frappe-bench/apps/frappe/frappe/utils/scheduler.py:
Site: silverbell
Queued events for site silverbell
[DEBUG] 2017-08-08 14:07:55,441 | /home/tyler/frappe-bench/apps/frappe/frappe/utils/scheduler.py:
Site: silverbell
Queued events for site silverbell
[DEBUG] 2017-08-08 14:11:55,806 | /home/tyler/frappe-bench/apps/frappe/frappe/utils/scheduler.py:
Site: silverbell
Queued events for site silverbell
[DEBUG] 2017-08-08 14:15:56,128 | /home/tyler/frappe-bench/apps/frappe/frappe/utils/scheduler.py:
Site: silverbell
Queued events for site silverbell
[DEBUG] 2017-08-08 14:19:56,467 | /home/tyler/frappe-bench/apps/frappe/frappe/utils/scheduler.py:
Site: silverbell
Queued events for site silverbell
[DEBUG] 2017-08-08 14:23:56,829 | /home/tyler/frappe-bench/apps/frappe/frappe/utils/scheduler.py:
Site: silverbell
Queued events for site silverbell
[DEBUG] 2017-08-08 14:27:57,175 | /home/tyler/frappe-bench/apps/frappe/frappe/utils/scheduler.py:
Site: silverbell
Queued events for site silverbell
[DEBUG] 2017-08-08 14:31:57,538 | /home/tyler/frappe-bench/apps/frappe/frappe/utils/scheduler.py:
Site: silverbell
Queued events for site silverbell
[DEBUG] 2017-08-08 14:35:57,877 | /home/tyler/frappe-bench/apps/frappe/frappe/utils/scheduler.py:
Site: silverbell
Queued events for site silverbell
[DEBUG] 2017-08-08 14:39:58,183 | /home/tyler/frappe-bench/apps/frappe/frappe/utils/scheduler.py:
Site: silverbell
Queued events for site silverbell
[DEBUG] 2017-08-08 14:43:58,512 | /home/tyler/frappe-bench/apps/frappe/frappe/utils/scheduler.py:
Site: silverbell
Queued events for site silverbell
[DEBUG] 2017-08-08 14:47:58,868 | /home/tyler/frappe-bench/apps/frappe/frappe/utils/scheduler.py:
Site: silverbell
Queued events for site silverbell
[DEBUG] 2017-08-08 14:51:59,199 | /home/tyler/frappe-bench/apps/frappe/frappe/utils/scheduler.py:
Site: silverbell
Queued events for site silverbell
[DEBUG] 2017-08-08 14:55:59,529 | /home/tyler/frappe-bench/apps/frappe/frappe/utils/scheduler.py:
Site: silverbell
Queued events for site silverbell
[DEBUG] 2017-08-08 14:59:59,857 | /home/tyler/frappe-bench/apps/frappe/frappe/utils/scheduler.py:
Site: silverbell
Queued events for site silverbell
[DEBUG] 2017-08-08 15:04:00,198 | /home/tyler/frappe-bench/apps/frappe/frappe/utils/scheduler.py:
Site: silverbell
Queued events for site silverbell
[DEBUG] 2017-08-08 15:08:00,527 | /home/tyler/frappe-bench/apps/frappe/frappe/utils/scheduler.py:
Site: silverbell
Queued events for site silverbell
[DEBUG] 2017-08-08 15:12:00,875 | /home/tyler/frappe-bench/apps/frappe/frappe/utils/scheduler.py:
Site: silverbell
Queued events for site silverbell
[DEBUG] 2017-08-08 15:16:01,205 | /home/tyler/frappe-bench/apps/frappe/frappe/utils/scheduler.py:
Site: silverbell
Queued events for site silverbell
[DEBUG] 2017-08-08 15:20:01,537 | /home/tyler/frappe-bench/apps/frappe/frappe/utils/scheduler.py:
Site: silverbell
Queued events for site silverbell
[DEBUG] 2017-08-08 15:24:01,850 | /home/tyler/frappe-bench/apps/frappe/frappe/utils/scheduler.py:
Site: silverbell
Queued events for site silverbell
[DEBUG] 2017-08-08 15:28:02,181 | /home/tyler/frappe-bench/apps/frappe/frappe/utils/scheduler.py:
Site: silverbell
Queued events for site silverbell
[DEBUG] 2017-08-08 15:32:02,520 | /home/tyler/frappe-bench/apps/frappe/frappe/utils/scheduler.py:
Site: silverbell
Queued events for site silverbell
[DEBUG] 2017-08-08 15:36:02,850 | /home/tyler/frappe-bench/apps/frappe/frappe/utils/scheduler.py:
Site: silverbell
Queued events for site silverbell
[DEBUG] 2017-08-08 15:40:03,173 | /home/tyler/frappe-bench/apps/frappe/frappe/utils/scheduler.py:
Site: silverbell
Queued events for site silverbell
[DEBUG] 2017-08-08 15:44:03,502 | /home/tyler/frappe-bench/apps/frappe/frappe/utils/scheduler.py:
Site: silverbell
Queued events for site silverbell
[DEBUG] 2017-08-08 15:48:03,841 | /home/tyler/frappe-bench/apps/frappe/frappe/utils/scheduler.py:
Site: silverbell
Queued events for site silverbell
[DEBUG] 2017-08-08 15:52:04,172 | /home/tyler/frappe-bench/apps/frappe/frappe/utils/scheduler.py:
Site: silverbell
Queued events for site silverbell
[DEBUG] 2017-08-08 15:56:04,511 | /home/tyler/frappe-bench/apps/frappe/frappe/utils/scheduler.py:
Site: silverbell
Queued events for site silverbell
[DEBUG] 2017-08-08 16:00:04,863 | /home/tyler/frappe-bench/apps/frappe/frappe/utils/scheduler.py:
Site: silverbell
Queued events for site silverbell
[DEBUG] 2017-08-08 16:04:05,190 | /home/tyler/frappe-bench/apps/frappe/frappe/utils/scheduler.py:
Site: silverbell
Queued events for site silverbell
[DEBUG] 2017-08-08 16:08:05,521 | /home/tyler/frappe-bench/apps/frappe/frappe/utils/scheduler.py:
Site: silverbell
Queued events for site silverbell
[DEBUG] 2017-08-08 16:12:05,880 | /home/tyler/frappe-bench/apps/frappe/frappe/utils/scheduler.py:
Site: silverbell
Queued events for site silverbell
[DEBUG] 2017-08-08 16:16:06,230 | /home/tyler/frappe-bench/apps/frappe/frappe/utils/scheduler.py:
Site: silverbell
Queued events for site silverbell
[DEBUG] 2017-08-08 16:20:06,554 | /home/tyler/frappe-bench/apps/frappe/frappe/utils/scheduler.py:
Site: silverbell
Queued events for site silverbell
[DEBUG] 2017-08-08 16:24:06,903 | /home/tyler/frappe-bench/apps/frappe/frappe/utils/scheduler.py:
Site: silverbell
Queued events for site silverbell
[DEBUG] 2017-08-08 16:28:07,226 | /home/tyler/frappe-bench/apps/frappe/frappe/utils/scheduler.py:
Site: silverbell
Queued events for site silverbell
[DEBUG] 2017-08-08 16:32:07,565 | /home/tyler/frappe-bench/apps/frappe/frappe/utils/scheduler.py:
Site: silverbell
Queued events for site silverbell
[DEBUG] 2017-08-08 16:36:07,896 | /home/tyler/frappe-bench/apps/frappe/frappe/utils/scheduler.py:
Site: silverbell
Queued events for site silverbell
[DEBUG] 2017-08-08 16:40:08,226 | /home/tyler/frappe-bench/apps/frappe/frappe/utils/scheduler.py:
Site: silverbell
Queued events for site silverbell
[DEBUG] 2017-08-08 16:44:08,556 | /home/tyler/frappe-bench/apps/frappe/frappe/utils/scheduler.py:
Site: silverbell
Queued events for site silverbell
[DEBUG] 2017-08-08 16:48:08,892 | /home/tyler/frappe-bench/apps/frappe/frappe/utils/scheduler.py:
Site: silverbell
Queued events for site silverbell
[DEBUG] 2017-08-08 16:52:09,299 | /home/tyler/frappe-bench/apps/frappe/frappe/utils/scheduler.py:
Site: silverbell
Queued events for site silverbell
[DEBUG] 2017-08-08 16:56:09,630 | /home/tyler/frappe-bench/apps/frappe/frappe/utils/scheduler.py:
Site: silverbell
Queued events for site silverbell
[DEBUG] 2017-08-08 17:00:09,984 | /home/tyler/frappe-bench/apps/frappe/frappe/utils/scheduler.py:
Site: silverbell
Queued events for site silverbell
[DEBUG] 2017-08-08 17:04:10,325 | /home/tyler/frappe-bench/apps/frappe/frappe/utils/scheduler.py:
Site: silverbell
Queued events for site silverbell
[DEBUG] 2017-08-08 17:08:10,664 | /home/tyler/frappe-bench/apps/frappe/frappe/utils/scheduler.py:
Site: silverbell
Queued events for site silverbell
[DEBUG] 2017-08-08 17:12:10,987 | /home/tyler/frappe-bench/apps/frappe/frappe/utils/scheduler.py:
Site: silverbell
Queued events for site silverbell
[DEBUG] 2017-08-08 17:16:11,325 | /home/tyler/frappe-bench/apps/frappe/frappe/utils/scheduler.py:
Site: silverbell
Queued events for site silverbell
[DEBUG] 2017-08-08 17:20:11,666 | /home/tyler/frappe-bench/apps/frappe/frappe/utils/scheduler.py:
Site: silverbell
Queued events for site silverbell
[DEBUG] 2017-08-08 17:24:11,998 | /home/tyler/frappe-bench/apps/frappe/frappe/utils/scheduler.py:
Site: silverbell
Queued events for site silverbell
[DEBUG] 2017-08-08 17:28:12,373 | /home/tyler/frappe-bench/apps/frappe/frappe/utils/scheduler.py:
Site: silverbell
Queued events for site silverbell
[DEBUG] 2017-08-08 17:32:12,698 | /home/tyler/frappe-bench/apps/frappe/frappe/utils/scheduler.py:
Site: silverbell
Queued events for site silverbell
[DEBUG] 2017-08-08 17:36:13,023 | /home/tyler/frappe-bench/apps/frappe/frappe/utils/scheduler.py:
Site: silverbell
Queued events for site silverbell
[DEBUG] 2017-08-08 17:40:13,339 | /home/tyler/frappe-bench/apps/frappe/frappe/utils/scheduler.py:
Site: silverbell
Queued events for site silverbell
[DEBUG] 2017-08-08 17:44:13,838 | /home/tyler/frappe-bench/apps/frappe/frappe/utils/scheduler.py:
Site: silverbell
Queued events for site silverbell
[DEBUG] 2017-08-08 17:48:14,163 | /home/tyler/frappe-bench/apps/frappe/frappe/utils/scheduler.py:
Site: silverbell
Queued events for site silverbell
[DEBUG] 2017-08-08 17:52:14,486 | /home/tyler/frappe-bench/apps/frappe/frappe/utils/scheduler.py:
Site: silverbell
Queued events for site silverbell
[DEBUG] 2017-08-08 17:56:14,834 | /home/tyler/frappe-bench/apps/frappe/frappe/utils/scheduler.py:
Site: silverbell
Queued events for site silverbell
[DEBUG] 2017-08-08 18:00:15,167 | /home/tyler/frappe-bench/apps/frappe/frappe/utils/scheduler.py:
Site: silverbell
Queued events for site silverbell
[DEBUG] 2017-08-08 18:04:15,498 | /home/tyler/frappe-bench/apps/frappe/frappe/utils/scheduler.py:
Site: silverbell
Queued events for site silverbell
[DEBUG] 2017-08-08 18:08:15,838 | /home/tyler/frappe-bench/apps/frappe/frappe/utils/scheduler.py:
Site: silverbell
Queued events for site silverbell
[DEBUG] 2017-08-08 18:12:16,170 | /home/tyler/frappe-bench/apps/frappe/frappe/utils/scheduler.py:
Site: silverbell
Queued events for site silverbell
[DEBUG] 2017-08-08 18:16:16,499 | /home/tyler/frappe-bench/apps/frappe/frappe/utils/scheduler.py:
Site: silverbell
Queued events for site silverbell
[DEBUG] 2017-08-08 18:20:16,822 | /home/tyler/frappe-bench/apps/frappe/frappe/utils/scheduler.py:
Site: silverbell
Queued events for site silverbell
[DEBUG] 2017-08-08 18:24:17,136 | /home/tyler/frappe-bench/apps/frappe/frappe/utils/scheduler.py:
Site: silverbell
Queued events for site silverbell
[DEBUG] 2017-08-08 18:28:17,450 | /home/tyler/frappe-bench/apps/frappe/frappe/utils/scheduler.py:
Site: silverbell
Queued events for site silverbell
[DEBUG] 2017-08-08 18:32:17,771 | /home/tyler/frappe-bench/apps/frappe/frappe/utils/scheduler.py:
Site: silverbell
Queued events for site silverbell
[DEBUG] 2017-08-08 18:36:18,102 | /home/tyler/frappe-bench/apps/frappe/frappe/utils/scheduler.py:
Site: silverbell
Queued events for site silverbell
[DEBUG] 2017-08-08 18:40:18,440 | /home/tyler/frappe-bench/apps/frappe/frappe/utils/scheduler.py:
Site: silverbell
Queued events for site silverbell
[DEBUG] 2017-08-08 18:44:18,771 | /home/tyler/frappe-bench/apps/frappe/frappe/utils/scheduler.py:
Site: silverbell
Queued events for site silverbell
[DEBUG] 2017-08-08 18:48:19,085 | /home/tyler/frappe-bench/apps/frappe/frappe/utils/scheduler.py:
Site: silverbell
Queued events for site silverbell
[DEBUG] 2017-08-08 18:52:19,400 | /home/tyler/frappe-bench/apps/frappe/frappe/utils/scheduler.py:
Site: silverbell
Queued events for site silverbell
[DEBUG] 2017-08-08 18:56:19,731 | /home/tyler/frappe-bench/apps/frappe/frappe/utils/scheduler.py:
Site: silverbell
Queued events for site silverbell
[DEBUG] 2017-08-08 19:00:20,078 | /home/tyler/frappe-bench/apps/frappe/frappe/utils/scheduler.py:
Site: silverbell
Queued events for site silverbell
[DEBUG] 2017-08-08 19:04:20,410 | /home/tyler/frappe-bench/apps/frappe/frappe/utils/scheduler.py:
Site: silverbell
Queued events for site silverbell
[DEBUG] 2017-08-08 19:08:20,739 | /home/tyler/frappe-bench/apps/frappe/frappe/utils/scheduler.py:
Site: silverbell
Queued events for site silverbell
[DEBUG] 2017-08-08 19:12:21,047 | /home/tyler/frappe-bench/apps/frappe/frappe/utils/scheduler.py:
Site: silverbell
Queued events for site silverbell
[DEBUG] 2017-08-08 19:16:21,377 | /home/tyler/frappe-bench/apps/frappe/frappe/utils/scheduler.py:
Site: silverbell
Queued events for site silverbell
[DEBUG] 2017-08-08 19:20:21,701 | /home/tyler/frappe-bench/apps/frappe/frappe/utils/scheduler.py:
Site: silverbell
Queued events for site silverbell
[DEBUG] 2017-08-08 19:24:22,031 | /home/tyler/frappe-bench/apps/frappe/frappe/utils/scheduler.py:
Site: silverbell
Queued events for site silverbell
[ERROR] 2017-08-08 20:49:50,455 | /home/tyler/frappe-bench/apps/frappe/frappe/app.py:
Site: silverbell
Form Dict: {
 "cmd": "frappe.desk.moduleview.get"
}
Request Error
Traceback (most recent call last):
  File "/home/tyler/frappe-bench/apps/frappe/frappe/app.py", line 55, in application
    response = frappe.handler.handle()
  File "/home/tyler/frappe-bench/apps/frappe/frappe/handler.py", line 21, in handle
    data = execute_cmd(cmd)
  File "/home/tyler/frappe-bench/apps/frappe/frappe/handler.py", line 52, in execute_cmd
    return frappe.call(method, **frappe.form_dict)
  File "/home/tyler/frappe-bench/apps/frappe/frappe/__init__.py", line 907, in call
    return fn(*args, **newargs)
TypeError: get() takes exactly 1 argument (0 given)
[ERROR] 2017-08-08 20:49:50,658 | /home/tyler/frappe-bench/apps/frappe/frappe/utils/error.py:
New Exception collected with id: 2017-08-08 20:49:50.490770-127.0.0.1-490
[ERROR] 2017-08-08 20:50:57,648 | /home/tyler/frappe-bench/apps/frappe/frappe/app.py:
Site: silverbell
Form Dict: {
 "cmd": "frappe.desk.moduleview.get"
}
Request Error
Traceback (most recent call last):
  File "/home/tyler/frappe-bench/apps/frappe/frappe/app.py", line 55, in application
    response = frappe.handler.handle()
  File "/home/tyler/frappe-bench/apps/frappe/frappe/handler.py", line 21, in handle
    data = execute_cmd(cmd)
  File "/home/tyler/frappe-bench/apps/frappe/frappe/handler.py", line 52, in execute_cmd
    return frappe.call(method, **frappe.form_dict)
  File "/home/tyler/frappe-bench/apps/frappe/frappe/__init__.py", line 907, in call
    return fn(*args, **newargs)
TypeError: get() takes exactly 1 argument (0 given)
[ERROR] 2017-08-08 20:50:57,654 | /home/tyler/frappe-bench/apps/frappe/frappe/utils/error.py:
New Exception collected with id: 2017-08-08 20:50:57.651129-127.0.0.1-5e3
[DEBUG] 2017-08-08 20:52:13,261 | /home/tyler/frappe-bench/apps/frappe/frappe/utils/scheduler.py:
Site: silverbell
Queued events for site silverbell
[DEBUG] 2017-08-08 20:56:13,585 | /home/tyler/frappe-bench/apps/frappe/frappe/utils/scheduler.py:
Site: silverbell
Queued events for site silverbell
[DEBUG] 2017-08-08 21:00:13,924 | /home/tyler/frappe-bench/apps/frappe/frappe/utils/scheduler.py:
Site: silverbell
Queued events for site silverbell
[DEBUG] 2017-08-08 21:04:14,271 | /home/tyler/frappe-bench/apps/frappe/frappe/utils/scheduler.py:
Site: silverbell
Queued events for site silverbell
[DEBUG] 2017-08-08 21:08:14,597 | /home/tyler/frappe-bench/apps/frappe/frappe/utils/scheduler.py:
Site: silverbell
Queued events for site silverbell
[DEBUG] 2017-08-08 21:12:14,924 | /home/tyler/frappe-bench/apps/frappe/frappe/utils/scheduler.py:
Site: silverbell
Queued events for site silverbell
[DEBUG] 2017-08-08 21:16:15,237 | /home/tyler/frappe-bench/apps/frappe/frappe/utils/scheduler.py:
Site: silverbell
Queued events for site silverbell
[DEBUG] 2017-08-08 21:20:15,555 | /home/tyler/frappe-bench/apps/frappe/frappe/utils/scheduler.py:
Site: silverbell
Queued events for site silverbell
[DEBUG] 2017-08-08 21:24:15,894 | /home/tyler/frappe-bench/apps/frappe/frappe/utils/scheduler.py:
Site: silverbell
Queued events for site silverbell
[DEBUG] 2017-08-08 21:28:16,252 | /home/tyler/frappe-bench/apps/frappe/frappe/utils/scheduler.py:
Site: silverbell
Queued events for site silverbell
[DEBUG] 2017-08-08 21:32:16,570 | /home/tyler/frappe-bench/apps/frappe/frappe/utils/scheduler.py:
Site: silverbell
Queued events for site silverbell
[DEBUG] 2017-08-08 21:36:16,891 | /home/tyler/frappe-bench/apps/frappe/frappe/utils/scheduler.py:
Site: silverbell
Queued events for site silverbell
[DEBUG] 2017-08-08 21:40:17,267 | /home/tyler/frappe-bench/apps/frappe/frappe/utils/scheduler.py:
Site: silverbell
Queued events for site silverbell
[DEBUG] 2017-08-08 21:44:17,632 | /home/tyler/frappe-bench/apps/frappe/frappe/utils/scheduler.py:
Site: silverbell
Queued events for site silverbell
[DEBUG] 2017-08-08 21:48:17,961 | /home/tyler/frappe-bench/apps/frappe/frappe/utils/scheduler.py:
Site: silverbell
Queued events for site silverbell
[DEBUG] 2017-08-22 20:51:03,637 | /home/tyler/frappe-bench/apps/frappe/frappe/utils/scheduler.py:
Site: silverbell
Queued events for site silverbell
[DEBUG] 2017-08-22 20:55:04,000 | /home/tyler/frappe-bench/apps/frappe/frappe/utils/scheduler.py:
Site: silverbell
Queued events for site silverbell
[DEBUG] 2017-08-22 20:59:04,314 | /home/tyler/frappe-bench/apps/frappe/frappe/utils/scheduler.py:
Site: silverbell
Queued events for site silverbell
[DEBUG] 2017-08-22 21:03:04,651 | /home/tyler/frappe-bench/apps/frappe/frappe/utils/scheduler.py:
Site: silverbell
Queued events for site silverbell
[DEBUG] 2017-08-22 21:07:04,970 | /home/tyler/frappe-bench/apps/frappe/frappe/utils/scheduler.py:
Site: silverbell
Queued events for site silverbell
[DEBUG] 2017-08-22 21:11:05,279 | /home/tyler/frappe-bench/apps/frappe/frappe/utils/scheduler.py:
Site: silverbell
Queued events for site silverbell
[DEBUG] 2017-08-22 21:15:05,595 | /home/tyler/frappe-bench/apps/frappe/frappe/utils/scheduler.py:
Site: silverbell
Queued events for site silverbell
[DEBUG] 2017-08-22 21:19:06,281 | /home/tyler/frappe-bench/apps/frappe/frappe/utils/scheduler.py:
Site: silverbell
Queued events for site silverbell
[DEBUG] 2017-08-22 21:23:06,679 | /home/tyler/frappe-bench/apps/frappe/frappe/utils/scheduler.py:
Site: silverbell
Queued events for site silverbell
[DEBUG] 2017-08-22 21:27:06,998 | /home/tyler/frappe-bench/apps/frappe/frappe/utils/scheduler.py:
Site: silverbell
Queued events for site silverbell
[DEBUG] 2017-08-22 21:31:07,342 | /home/tyler/frappe-bench/apps/frappe/frappe/utils/scheduler.py:
Site: silverbell
Queued events for site silverbell
[DEBUG] 2017-08-22 21:35:07,660 | /home/tyler/frappe-bench/apps/frappe/frappe/utils/scheduler.py:
Site: silverbell
Queued events for site silverbell
[DEBUG] 2017-08-22 21:39:07,956 | /home/tyler/frappe-bench/apps/frappe/frappe/utils/scheduler.py:
Site: silverbell
Queued events for site silverbell
[DEBUG] 2017-08-22 21:43:08,268 | /home/tyler/frappe-bench/apps/frappe/frappe/utils/scheduler.py:
Site: silverbell
Queued events for site silverbell
[DEBUG] 2017-08-22 21:47:08,583 | /home/tyler/frappe-bench/apps/frappe/frappe/utils/scheduler.py:
Site: silverbell
Queued events for site silverbell
[DEBUG] 2017-08-22 21:51:08,899 | /home/tyler/frappe-bench/apps/frappe/frappe/utils/scheduler.py:
Site: silverbell
Queued events for site silverbell
[DEBUG] 2017-08-22 21:55:10,059 | /home/tyler/frappe-bench/apps/frappe/frappe/utils/scheduler.py:
Site: silverbell
Queued events for site silverbell
[DEBUG] 2017-08-22 21:59:10,392 | /home/tyler/frappe-bench/apps/frappe/frappe/utils/scheduler.py:
Site: silverbell
Queued events for site silverbell
[DEBUG] 2017-08-22 22:03:14,460 | /home/tyler/frappe-bench/apps/frappe/frappe/utils/scheduler.py:
Site: silverbell
Queued events for site silverbell
[DEBUG] 2017-08-22 22:07:14,826 | /home/tyler/frappe-bench/apps/frappe/frappe/utils/scheduler.py:
Site: silverbell
Queued events for site silverbell
[DEBUG] 2017-08-22 22:11:15,136 | /home/tyler/frappe-bench/apps/frappe/frappe/utils/scheduler.py:
Site: silverbell
Queued events for site silverbell
[DEBUG] 2017-08-22 22:15:15,450 | /home/tyler/frappe-bench/apps/frappe/frappe/utils/scheduler.py:
Site: silverbell
Queued events for site silverbell
[DEBUG] 2017-08-22 22:19:15,773 | /home/tyler/frappe-bench/apps/frappe/frappe/utils/scheduler.py:
Site: silverbell
Queued events for site silverbell
[DEBUG] 2017-08-22 22:23:16,102 | /home/tyler/frappe-bench/apps/frappe/frappe/utils/scheduler.py:
Site: silverbell
Queued events for site silverbell
[DEBUG] 2017-08-22 22:27:16,430 | /home/tyler/frappe-bench/apps/frappe/frappe/utils/scheduler.py:
Site: silverbell
Queued events for site silverbell
[DEBUG] 2017-08-22 22:31:17,229 | /home/tyler/frappe-bench/apps/frappe/frappe/utils/scheduler.py:
Site: silverbell
Queued events for site silverbell
[DEBUG] 2017-08-22 22:35:17,539 | /home/tyler/frappe-bench/apps/frappe/frappe/utils/scheduler.py:
Site: silverbell
Queued events for site silverbell
[DEBUG] 2017-08-22 22:39:17,857 | /home/tyler/frappe-bench/apps/frappe/frappe/utils/scheduler.py:
Site: silverbell
Queued events for site silverbell
[DEBUG] 2017-08-22 22:43:18,176 | /home/tyler/frappe-bench/apps/frappe/frappe/utils/scheduler.py:
Site: silverbell
Queued events for site silverbell
[DEBUG] 2017-08-22 22:47:18,495 | /home/tyler/frappe-bench/apps/frappe/frappe/utils/scheduler.py:
Site: silverbell
Queued events for site silverbell
[DEBUG] 2017-08-22 22:51:18,851 | /home/tyler/frappe-bench/apps/frappe/frappe/utils/scheduler.py:
Site: silverbell
Queued events for site silverbell
[DEBUG] 2017-08-22 22:55:19,333 | /home/tyler/frappe-bench/apps/frappe/frappe/utils/scheduler.py:
Site: silverbell
Queued events for site silverbell
[DEBUG] 2017-08-22 22:59:19,649 | /home/tyler/frappe-bench/apps/frappe/frappe/utils/scheduler.py:
Site: silverbell
Queued events for site silverbell
[DEBUG] 2017-08-22 23:03:21,124 | /home/tyler/frappe-bench/apps/frappe/frappe/utils/scheduler.py:
Site: silverbell
Queued events for site silverbell
[DEBUG] 2017-08-22 23:07:21,452 | /home/tyler/frappe-bench/apps/frappe/frappe/utils/scheduler.py:
Site: silverbell
Queued events for site silverbell
[ERROR] 2017-08-22 23:07:50,327 | /home/tyler/frappe-bench/apps/frappe/frappe/app.py:
Site: silverbell
Form Dict: {
 "cmd": "frappe.desk.moduleview.get", 
 "module": "Livestock"
}
Request Error
Traceback (most recent call last):
  File "/home/tyler/frappe-bench/apps/frappe/frappe/app.py", line 55, in application
    response = frappe.handler.handle()
  File "/home/tyler/frappe-bench/apps/frappe/frappe/handler.py", line 21, in handle
    data = execute_cmd(cmd)
  File "/home/tyler/frappe-bench/apps/frappe/frappe/handler.py", line 52, in execute_cmd
    return frappe.call(method, **frappe.form_dict)
  File "/home/tyler/frappe-bench/apps/frappe/frappe/__init__.py", line 907, in call
    return fn(*args, **newargs)
  File "/home/tyler/frappe-bench/apps/frappe/frappe/desk/moduleview.py", line 14, in get
    data = get_data(module)
  File "/home/tyler/frappe-bench/apps/frappe/frappe/desk/moduleview.py", line 30, in get_data
    data = build_config_from_file(module)
  File "/home/tyler/frappe-bench/apps/frappe/frappe/desk/moduleview.py", line 54, in build_config_from_file
    data += get_config(app, module)
  File "/home/tyler/frappe-bench/apps/frappe/frappe/desk/moduleview.py", line 157, in get_config
    config = frappe.get_module("{app}.config.{module}".format(app=app, module=module))
  File "/home/tyler/frappe-bench/apps/frappe/frappe/__init__.py", line 672, in get_module
    return importlib.import_module(modulename)
  File "/usr/lib/python2.7/importlib/__init__.py", line 37, in import_module
    __import__(name)
  File "/home/tyler/frappe-bench/apps/erpnext/erpnext/config/livestock.py", line 80
    {
    ^
SyntaxError: invalid syntax
[ERROR] 2017-08-22 23:07:50,413 | /home/tyler/frappe-bench/apps/frappe/frappe/utils/error.py:
New Exception collected with id: 2017-08-22 23:07:50.329753-127.0.0.1-872
[DEBUG] 2017-08-22 23:11:21,803 | /home/tyler/frappe-bench/apps/frappe/frappe/utils/scheduler.py:
Site: silverbell
Queued events for site silverbell
[DEBUG] 2017-08-22 23:15:22,151 | /home/tyler/frappe-bench/apps/frappe/frappe/utils/scheduler.py:
Site: silverbell
Queued events for site silverbell
[DEBUG] 2017-08-22 23:19:22,451 | /home/tyler/frappe-bench/apps/frappe/frappe/utils/scheduler.py:
Site: silverbell
Queued events for site silverbell
[ERROR] 2017-08-22 23:20:27,648 | /home/tyler/frappe-bench/apps/frappe/frappe/app.py:
Site: silverbell
Form Dict: {
 "cmd": "frappe.desk.form.load.getdoctype", 
 "doctype": "Dynamic Docfield Loading", 
 "with_parent": "1"
}
Request Error
Traceback (most recent call last):
  File "/home/tyler/frappe-bench/apps/frappe/frappe/app.py", line 55, in application
    response = frappe.handler.handle()
  File "/home/tyler/frappe-bench/apps/frappe/frappe/handler.py", line 21, in handle
    data = execute_cmd(cmd)
  File "/home/tyler/frappe-bench/apps/frappe/frappe/handler.py", line 52, in execute_cmd
    return frappe.call(method, **frappe.form_dict)
  File "/home/tyler/frappe-bench/apps/frappe/frappe/__init__.py", line 907, in call
    return fn(*args, **newargs)
  File "/home/tyler/frappe-bench/apps/frappe/frappe/desk/form/load.py", line 71, in getdoctype
    docs = get_meta_bundle(doctype)
  File "/home/tyler/frappe-bench/apps/frappe/frappe/desk/form/load.py", line 82, in get_meta_bundle
    bundle = [frappe.desk.form.meta.get_meta(doctype)]
  File "/home/tyler/frappe-bench/apps/frappe/frappe/desk/form/meta.py", line 22, in get_meta
    meta = FormMeta(doctype)
  File "/home/tyler/frappe-bench/apps/frappe/frappe/desk/form/meta.py", line 32, in __init__
    self.load_assets()
  File "/home/tyler/frappe-bench/apps/frappe/frappe/desk/form/meta.py", line 42, in load_assets
    self.load_templates()
  File "/home/tyler/frappe-bench/apps/frappe/frappe/desk/form/meta.py", line 152, in load_templates
    module = load_doctype_module(self.name)
  File "/home/tyler/frappe-bench/apps/frappe/frappe/modules/utils.py", line 182, in load_doctype_module
    doctype_python_modules[key] = frappe.get_module(module_name)
  File "/home/tyler/frappe-bench/apps/frappe/frappe/__init__.py", line 672, in get_module
    return importlib.import_module(modulename)
  File "/usr/lib/python2.7/importlib/__init__.py", line 37, in import_module
    __import__(name)
  File "/home/tyler/frappe-bench/apps/at_livestock/at_livestock/livestock/doctype/dynamic_docfield_loading/dynamic_docfield_loading.py", line 16
    return table_keys
                    ^
IndentationError: unindent does not match any outer indentation level
[ERROR] 2017-08-22 23:20:27,736 | /home/tyler/frappe-bench/apps/frappe/frappe/utils/error.py:
New Exception collected with id: 2017-08-22 23:20:27.649706-127.0.0.1-574
[ERROR] 2017-08-22 23:20:45,850 | /home/tyler/frappe-bench/apps/frappe/frappe/app.py:
Site: silverbell
Form Dict: {
 "cmd": "frappe.desk.form.load.getdoctype", 
 "doctype": "Dynamic Docfield Loading", 
 "with_parent": "1"
}
Request Error
Traceback (most recent call last):
  File "/home/tyler/frappe-bench/apps/frappe/frappe/app.py", line 55, in application
    response = frappe.handler.handle()
  File "/home/tyler/frappe-bench/apps/frappe/frappe/handler.py", line 21, in handle
    data = execute_cmd(cmd)
  File "/home/tyler/frappe-bench/apps/frappe/frappe/handler.py", line 52, in execute_cmd
    return frappe.call(method, **frappe.form_dict)
  File "/home/tyler/frappe-bench/apps/frappe/frappe/__init__.py", line 907, in call
    return fn(*args, **newargs)
  File "/home/tyler/frappe-bench/apps/frappe/frappe/desk/form/load.py", line 71, in getdoctype
    docs = get_meta_bundle(doctype)
  File "/home/tyler/frappe-bench/apps/frappe/frappe/desk/form/load.py", line 82, in get_meta_bundle
    bundle = [frappe.desk.form.meta.get_meta(doctype)]
  File "/home/tyler/frappe-bench/apps/frappe/frappe/desk/form/meta.py", line 22, in get_meta
    meta = FormMeta(doctype)
  File "/home/tyler/frappe-bench/apps/frappe/frappe/desk/form/meta.py", line 32, in __init__
    self.load_assets()
  File "/home/tyler/frappe-bench/apps/frappe/frappe/desk/form/meta.py", line 42, in load_assets
    self.load_templates()
  File "/home/tyler/frappe-bench/apps/frappe/frappe/desk/form/meta.py", line 152, in load_templates
    module = load_doctype_module(self.name)
  File "/home/tyler/frappe-bench/apps/frappe/frappe/modules/utils.py", line 182, in load_doctype_module
    doctype_python_modules[key] = frappe.get_module(module_name)
  File "/home/tyler/frappe-bench/apps/frappe/frappe/__init__.py", line 672, in get_module
    return importlib.import_module(modulename)
  File "/usr/lib/python2.7/importlib/__init__.py", line 37, in import_module
    __import__(name)
  File "/home/tyler/frappe-bench/apps/at_livestock/at_livestock/livestock/doctype/dynamic_docfield_loading/dynamic_docfield_loading.py", line 15
    return table_keys
                    ^
IndentationError: unindent does not match any outer indentation level
[ERROR] 2017-08-22 23:20:46,018 | /home/tyler/frappe-bench/apps/frappe/frappe/utils/error.py:
New Exception collected with id: 2017-08-22 23:20:45.851348-127.0.0.1-b0a
[DEBUG] 2017-08-22 23:23:22,806 | /home/tyler/frappe-bench/apps/frappe/frappe/utils/scheduler.py:
Site: silverbell
Queued events for site silverbell
[ERROR] 2017-08-22 23:26:27,723 | /home/tyler/frappe-bench/apps/frappe/frappe/app.py:
Site: silverbell
Form Dict: {
 "cmd": "frappe.desk.form.load.getdoctype", 
 "doctype": "Dynamic Docfield Loading", 
 "with_parent": "1"
}
Request Error
Traceback (most recent call last):
  File "/home/tyler/frappe-bench/apps/frappe/frappe/app.py", line 55, in application
    response = frappe.handler.handle()
  File "/home/tyler/frappe-bench/apps/frappe/frappe/handler.py", line 21, in handle
    data = execute_cmd(cmd)
  File "/home/tyler/frappe-bench/apps/frappe/frappe/handler.py", line 52, in execute_cmd
    return frappe.call(method, **frappe.form_dict)
  File "/home/tyler/frappe-bench/apps/frappe/frappe/__init__.py", line 907, in call
    return fn(*args, **newargs)
  File "/home/tyler/frappe-bench/apps/frappe/frappe/desk/form/load.py", line 71, in getdoctype
    docs = get_meta_bundle(doctype)
  File "/home/tyler/frappe-bench/apps/frappe/frappe/desk/form/load.py", line 82, in get_meta_bundle
    bundle = [frappe.desk.form.meta.get_meta(doctype)]
  File "/home/tyler/frappe-bench/apps/frappe/frappe/desk/form/meta.py", line 22, in get_meta
    meta = FormMeta(doctype)
  File "/home/tyler/frappe-bench/apps/frappe/frappe/desk/form/meta.py", line 32, in __init__
    self.load_assets()
  File "/home/tyler/frappe-bench/apps/frappe/frappe/desk/form/meta.py", line 42, in load_assets
    self.load_templates()
  File "/home/tyler/frappe-bench/apps/frappe/frappe/desk/form/meta.py", line 152, in load_templates
    module = load_doctype_module(self.name)
  File "/home/tyler/frappe-bench/apps/frappe/frappe/modules/utils.py", line 182, in load_doctype_module
    doctype_python_modules[key] = frappe.get_module(module_name)
  File "/home/tyler/frappe-bench/apps/frappe/frappe/__init__.py", line 672, in get_module
    return importlib.import_module(modulename)
  File "/usr/lib/python2.7/importlib/__init__.py", line 37, in import_module
    __import__(name)
  File "/home/tyler/frappe-bench/apps/at_livestock/at_livestock/livestock/doctype/dynamic_docfield_loading/dynamic_docfield_loading.py", line 15
    return table_keys
                    ^
IndentationError: unindent does not match any outer indentation level
[ERROR] 2017-08-22 23:26:27,946 | /home/tyler/frappe-bench/apps/frappe/frappe/utils/error.py:
New Exception collected with id: 2017-08-22 23:26:27.724210-127.0.0.1-fd9
[ERROR] 2017-08-22 23:27:00,015 | /home/tyler/frappe-bench/apps/frappe/frappe/app.py:
Site: silverbell
Form Dict: {
 "cmd": "frappe.desk.form.load.getdoctype", 
 "doctype": "Dynamic Docfield Loading", 
 "with_parent": "1"
}
Request Error
Traceback (most recent call last):
  File "/home/tyler/frappe-bench/apps/frappe/frappe/app.py", line 55, in application
    response = frappe.handler.handle()
  File "/home/tyler/frappe-bench/apps/frappe/frappe/handler.py", line 21, in handle
    data = execute_cmd(cmd)
  File "/home/tyler/frappe-bench/apps/frappe/frappe/handler.py", line 52, in execute_cmd
    return frappe.call(method, **frappe.form_dict)
  File "/home/tyler/frappe-bench/apps/frappe/frappe/__init__.py", line 907, in call
    return fn(*args, **newargs)
  File "/home/tyler/frappe-bench/apps/frappe/frappe/desk/form/load.py", line 71, in getdoctype
    docs = get_meta_bundle(doctype)
  File "/home/tyler/frappe-bench/apps/frappe/frappe/desk/form/load.py", line 82, in get_meta_bundle
    bundle = [frappe.desk.form.meta.get_meta(doctype)]
  File "/home/tyler/frappe-bench/apps/frappe/frappe/desk/form/meta.py", line 22, in get_meta
    meta = FormMeta(doctype)
  File "/home/tyler/frappe-bench/apps/frappe/frappe/desk/form/meta.py", line 32, in __init__
    self.load_assets()
  File "/home/tyler/frappe-bench/apps/frappe/frappe/desk/form/meta.py", line 42, in load_assets
    self.load_templates()
  File "/home/tyler/frappe-bench/apps/frappe/frappe/desk/form/meta.py", line 152, in load_templates
    module = load_doctype_module(self.name)
  File "/home/tyler/frappe-bench/apps/frappe/frappe/modules/utils.py", line 182, in load_doctype_module
    doctype_python_modules[key] = frappe.get_module(module_name)
  File "/home/tyler/frappe-bench/apps/frappe/frappe/__init__.py", line 672, in get_module
    return importlib.import_module(modulename)
  File "/usr/lib/python2.7/importlib/__init__.py", line 37, in import_module
    __import__(name)
  File "/home/tyler/frappe-bench/apps/at_livestock/at_livestock/livestock/doctype/dynamic_docfield_loading/dynamic_docfield_loading.py", line 13
    return table_keys = frappe.get_all("ToDo", fields=["name"], order_by='name')
                      ^
SyntaxError: invalid syntax
[ERROR] 2017-08-22 23:27:00,201 | /home/tyler/frappe-bench/apps/frappe/frappe/utils/error.py:
New Exception collected with id: 2017-08-22 23:27:00.016690-127.0.0.1-d31
[DEBUG] 2017-08-22 23:27:23,138 | /home/tyler/frappe-bench/apps/frappe/frappe/utils/scheduler.py:
Site: silverbell
Queued events for site silverbell
[DEBUG] 2017-08-22 23:31:23,488 | /home/tyler/frappe-bench/apps/frappe/frappe/utils/scheduler.py:
Site: silverbell
Queued events for site silverbell
[DEBUG] 2017-08-22 23:35:23,803 | /home/tyler/frappe-bench/apps/frappe/frappe/utils/scheduler.py:
Site: silverbell
Queued events for site silverbell
[DEBUG] 2017-08-22 23:39:24,149 | /home/tyler/frappe-bench/apps/frappe/frappe/utils/scheduler.py:
Site: silverbell
Queued events for site silverbell
[DEBUG] 2017-08-22 23:43:24,492 | /home/tyler/frappe-bench/apps/frappe/frappe/utils/scheduler.py:
Site: silverbell
Queued events for site silverbell
[DEBUG] 2017-08-22 23:47:24,841 | /home/tyler/frappe-bench/apps/frappe/frappe/utils/scheduler.py:
Site: silverbell
Queued events for site silverbell
[DEBUG] 2017-08-22 23:51:25,246 | /home/tyler/frappe-bench/apps/frappe/frappe/utils/scheduler.py:
Site: silverbell
Queued events for site silverbell
[DEBUG] 2017-08-22 23:55:25,559 | /home/tyler/frappe-bench/apps/frappe/frappe/utils/scheduler.py:
Site: silverbell
Queued events for site silverbell
[DEBUG] 2017-08-22 23:59:26,031 | /home/tyler/frappe-bench/apps/frappe/frappe/utils/scheduler.py:
Site: silverbell
Queued events for site silverbell
[DEBUG] 2017-08-23 00:03:26,417 | /home/tyler/frappe-bench/apps/frappe/frappe/utils/scheduler.py:
Site: silverbell
Queued events for site silverbell
[DEBUG] 2017-08-23 00:07:26,730 | /home/tyler/frappe-bench/apps/frappe/frappe/utils/scheduler.py:
Site: silverbell
Queued events for site silverbell
[DEBUG] 2017-08-23 00:11:27,115 | /home/tyler/frappe-bench/apps/frappe/frappe/utils/scheduler.py:
Site: silverbell
Queued events for site silverbell
[DEBUG] 2017-08-23 00:15:27,455 | /home/tyler/frappe-bench/apps/frappe/frappe/utils/scheduler.py:
Site: silverbell
Queued events for site silverbell
[DEBUG] 2017-08-23 00:19:27,780 | /home/tyler/frappe-bench/apps/frappe/frappe/utils/scheduler.py:
Site: silverbell
Queued events for site silverbell
[DEBUG] 2017-08-23 00:23:28,137 | /home/tyler/frappe-bench/apps/frappe/frappe/utils/scheduler.py:
Site: silverbell
Queued events for site silverbell
[DEBUG] 2017-08-23 00:27:28,458 | /home/tyler/frappe-bench/apps/frappe/frappe/utils/scheduler.py:
Site: silverbell
Queued events for site silverbell
[DEBUG] 2017-08-23 00:31:28,806 | /home/tyler/frappe-bench/apps/frappe/frappe/utils/scheduler.py:
Site: silverbell
Queued events for site silverbell
[DEBUG] 2017-08-23 00:35:29,171 | /home/tyler/frappe-bench/apps/frappe/frappe/utils/scheduler.py:
Site: silverbell
Queued events for site silverbell
[DEBUG] 2017-08-23 00:39:29,530 | /home/tyler/frappe-bench/apps/frappe/frappe/utils/scheduler.py:
Site: silverbell
Queued events for site silverbell
[DEBUG] 2017-08-23 00:43:29,894 | /home/tyler/frappe-bench/apps/frappe/frappe/utils/scheduler.py:
Site: silverbell
Queued events for site silverbell
[DEBUG] 2017-08-23 00:47:30,275 | /home/tyler/frappe-bench/apps/frappe/frappe/utils/scheduler.py:
Site: silverbell
Queued events for site silverbell
[DEBUG] 2017-08-23 00:51:30,631 | /home/tyler/frappe-bench/apps/frappe/frappe/utils/scheduler.py:
Site: silverbell
Queued events for site silverbell
[DEBUG] 2017-08-23 00:55:30,996 | /home/tyler/frappe-bench/apps/frappe/frappe/utils/scheduler.py:
Site: silverbell
Queued events for site silverbell
[DEBUG] 2017-08-23 00:59:31,351 | /home/tyler/frappe-bench/apps/frappe/frappe/utils/scheduler.py:
Site: silverbell
Queued events for site silverbell
[DEBUG] 2017-08-23 01:03:31,720 | /home/tyler/frappe-bench/apps/frappe/frappe/utils/scheduler.py:
Site: silverbell
Queued events for site silverbell
[DEBUG] 2017-08-23 01:07:32,104 | /home/tyler/frappe-bench/apps/frappe/frappe/utils/scheduler.py:
Site: silverbell
Queued events for site silverbell
[DEBUG] 2017-08-23 01:11:32,440 | /home/tyler/frappe-bench/apps/frappe/frappe/utils/scheduler.py:
Site: silverbell
Queued events for site silverbell
[DEBUG] 2017-08-23 01:15:32,795 | /home/tyler/frappe-bench/apps/frappe/frappe/utils/scheduler.py:
Site: silverbell
Queued events for site silverbell
[DEBUG] 2017-08-23 01:19:33,155 | /home/tyler/frappe-bench/apps/frappe/frappe/utils/scheduler.py:
Site: silverbell
Queued events for site silverbell
[DEBUG] 2017-08-23 01:23:33,503 | /home/tyler/frappe-bench/apps/frappe/frappe/utils/scheduler.py:
Site: silverbell
Queued events for site silverbell
[DEBUG] 2017-08-23 01:27:33,823 | /home/tyler/frappe-bench/apps/frappe/frappe/utils/scheduler.py:
Site: silverbell
Queued events for site silverbell
[DEBUG] 2017-08-23 01:31:34,155 | /home/tyler/frappe-bench/apps/frappe/frappe/utils/scheduler.py:
Site: silverbell
Queued events for site silverbell
[DEBUG] 2017-08-23 01:35:34,520 | /home/tyler/frappe-bench/apps/frappe/frappe/utils/scheduler.py:
Site: silverbell
Queued events for site silverbell
[DEBUG] 2017-08-23 01:39:34,885 | /home/tyler/frappe-bench/apps/frappe/frappe/utils/scheduler.py:
Site: silverbell
Queued events for site silverbell
[DEBUG] 2017-08-23 01:43:35,225 | /home/tyler/frappe-bench/apps/frappe/frappe/utils/scheduler.py:
Site: silverbell
Queued events for site silverbell
[DEBUG] 2017-08-23 01:47:35,550 | /home/tyler/frappe-bench/apps/frappe/frappe/utils/scheduler.py:
Site: silverbell
Queued events for site silverbell
[DEBUG] 2017-08-23 01:51:35,908 | /home/tyler/frappe-bench/apps/frappe/frappe/utils/scheduler.py:
Site: silverbell
Queued events for site silverbell
[DEBUG] 2017-08-23 01:55:36,256 | /home/tyler/frappe-bench/apps/frappe/frappe/utils/scheduler.py:
Site: silverbell
Queued events for site silverbell
[DEBUG] 2017-08-23 01:59:36,605 | /home/tyler/frappe-bench/apps/frappe/frappe/utils/scheduler.py:
Site: silverbell
Queued events for site silverbell
[DEBUG] 2017-08-23 02:03:36,975 | /home/tyler/frappe-bench/apps/frappe/frappe/utils/scheduler.py:
Site: silverbell
Queued events for site silverbell
[DEBUG] 2017-08-23 02:07:37,294 | /home/tyler/frappe-bench/apps/frappe/frappe/utils/scheduler.py:
Site: silverbell
Queued events for site silverbell
[DEBUG] 2017-08-23 02:11:37,626 | /home/tyler/frappe-bench/apps/frappe/frappe/utils/scheduler.py:
Site: silverbell
Queued events for site silverbell
[DEBUG] 2017-08-23 02:15:38,009 | /home/tyler/frappe-bench/apps/frappe/frappe/utils/scheduler.py:
Site: silverbell
Queued events for site silverbell
[DEBUG] 2017-08-23 02:19:38,376 | /home/tyler/frappe-bench/apps/frappe/frappe/utils/scheduler.py:
Site: silverbell
Queued events for site silverbell
[DEBUG] 2017-08-23 02:23:38,743 | /home/tyler/frappe-bench/apps/frappe/frappe/utils/scheduler.py:
Site: silverbell
Queued events for site silverbell
[DEBUG] 2017-08-23 02:27:39,100 | /home/tyler/frappe-bench/apps/frappe/frappe/utils/scheduler.py:
Site: silverbell
Queued events for site silverbell
[DEBUG] 2017-08-23 02:31:39,456 | /home/tyler/frappe-bench/apps/frappe/frappe/utils/scheduler.py:
Site: silverbell
Queued events for site silverbell
[DEBUG] 2017-08-23 02:35:39,812 | /home/tyler/frappe-bench/apps/frappe/frappe/utils/scheduler.py:
Site: silverbell
Queued events for site silverbell
[DEBUG] 2017-08-23 02:39:40,143 | /home/tyler/frappe-bench/apps/frappe/frappe/utils/scheduler.py:
Site: silverbell
Queued events for site silverbell
[DEBUG] 2017-08-23 02:43:40,474 | /home/tyler/frappe-bench/apps/frappe/frappe/utils/scheduler.py:
Site: silverbell
Queued events for site silverbell
[DEBUG] 2017-08-23 02:47:40,806 | /home/tyler/frappe-bench/apps/frappe/frappe/utils/scheduler.py:
Site: silverbell
Queued events for site silverbell
[DEBUG] 2017-08-23 02:51:41,138 | /home/tyler/frappe-bench/apps/frappe/frappe/utils/scheduler.py:
Site: silverbell
Queued events for site silverbell
[DEBUG] 2017-08-23 02:55:41,528 | /home/tyler/frappe-bench/apps/frappe/frappe/utils/scheduler.py:
Site: silverbell
Queued events for site silverbell
[DEBUG] 2017-08-23 02:59:41,885 | /home/tyler/frappe-bench/apps/frappe/frappe/utils/scheduler.py:
Site: silverbell
Queued events for site silverbell
[DEBUG] 2017-08-23 03:03:42,265 | /home/tyler/frappe-bench/apps/frappe/frappe/utils/scheduler.py:
Site: silverbell
Queued events for site silverbell
[DEBUG] 2017-08-23 03:07:42,604 | /home/tyler/frappe-bench/apps/frappe/frappe/utils/scheduler.py:
Site: silverbell
Queued events for site silverbell
[DEBUG] 2017-08-23 03:11:42,937 | /home/tyler/frappe-bench/apps/frappe/frappe/utils/scheduler.py:
Site: silverbell
Queued events for site silverbell
[DEBUG] 2017-08-23 03:15:43,357 | /home/tyler/frappe-bench/apps/frappe/frappe/utils/scheduler.py:
Site: silverbell
Queued events for site silverbell
[DEBUG] 2017-08-23 03:19:44,593 | /home/tyler/frappe-bench/apps/frappe/frappe/utils/scheduler.py:
Site: silverbell
Queued events for site silverbell
[DEBUG] 2017-08-23 03:23:44,976 | /home/tyler/frappe-bench/apps/frappe/frappe/utils/scheduler.py:
Site: silverbell
Queued events for site silverbell
[DEBUG] 2017-08-23 03:27:45,309 | /home/tyler/frappe-bench/apps/frappe/frappe/utils/scheduler.py:
Site: silverbell
Queued events for site silverbell
[DEBUG] 2017-08-23 03:31:45,651 | /home/tyler/frappe-bench/apps/frappe/frappe/utils/scheduler.py:
Site: silverbell
Queued events for site silverbell
[DEBUG] 2017-08-23 03:35:45,980 | /home/tyler/frappe-bench/apps/frappe/frappe/utils/scheduler.py:
Site: silverbell
Queued events for site silverbell
[DEBUG] 2017-08-23 03:39:46,300 | /home/tyler/frappe-bench/apps/frappe/frappe/utils/scheduler.py:
Site: silverbell
Queued events for site silverbell
[DEBUG] 2017-08-23 03:43:46,621 | /home/tyler/frappe-bench/apps/frappe/frappe/utils/scheduler.py:
Site: silverbell
Queued events for site silverbell
[DEBUG] 2017-08-23 03:47:46,951 | /home/tyler/frappe-bench/apps/frappe/frappe/utils/scheduler.py:
Site: silverbell
Queued events for site silverbell
[DEBUG] 2017-08-23 03:51:47,276 | /home/tyler/frappe-bench/apps/frappe/frappe/utils/scheduler.py:
Site: silverbell
Queued events for site silverbell
[DEBUG] 2017-08-23 03:55:47,606 | /home/tyler/frappe-bench/apps/frappe/frappe/utils/scheduler.py:
Site: silverbell
Queued events for site silverbell
[DEBUG] 2017-08-23 03:59:47,938 | /home/tyler/frappe-bench/apps/frappe/frappe/utils/scheduler.py:
Site: silverbell
Queued events for site silverbell
[DEBUG] 2017-08-23 04:03:48,382 | /home/tyler/frappe-bench/apps/frappe/frappe/utils/scheduler.py:
Site: silverbell
Queued events for site silverbell
[DEBUG] 2017-08-23 04:07:48,707 | /home/tyler/frappe-bench/apps/frappe/frappe/utils/scheduler.py:
Site: silverbell
Queued events for site silverbell
[DEBUG] 2017-08-23 04:11:49,039 | /home/tyler/frappe-bench/apps/frappe/frappe/utils/scheduler.py:
Site: silverbell
Queued events for site silverbell
[DEBUG] 2017-08-23 04:15:49,371 | /home/tyler/frappe-bench/apps/frappe/frappe/utils/scheduler.py:
Site: silverbell
Queued events for site silverbell
[DEBUG] 2017-08-23 04:19:49,704 | /home/tyler/frappe-bench/apps/frappe/frappe/utils/scheduler.py:
Site: silverbell
Queued events for site silverbell
[DEBUG] 2017-08-23 04:23:50,035 | /home/tyler/frappe-bench/apps/frappe/frappe/utils/scheduler.py:
Site: silverbell
Queued events for site silverbell
[DEBUG] 2017-08-23 04:27:50,358 | /home/tyler/frappe-bench/apps/frappe/frappe/utils/scheduler.py:
Site: silverbell
Queued events for site silverbell
[DEBUG] 2017-08-23 04:31:50,709 | /home/tyler/frappe-bench/apps/frappe/frappe/utils/scheduler.py:
Site: silverbell
Queued events for site silverbell
[DEBUG] 2017-08-23 04:35:51,061 | /home/tyler/frappe-bench/apps/frappe/frappe/utils/scheduler.py:
Site: silverbell
Queued events for site silverbell
[DEBUG] 2017-08-23 04:39:51,392 | /home/tyler/frappe-bench/apps/frappe/frappe/utils/scheduler.py:
Site: silverbell
Queued events for site silverbell
[DEBUG] 2017-08-23 04:43:51,725 | /home/tyler/frappe-bench/apps/frappe/frappe/utils/scheduler.py:
Site: silverbell
Queued events for site silverbell
[DEBUG] 2017-08-23 04:47:52,088 | /home/tyler/frappe-bench/apps/frappe/frappe/utils/scheduler.py:
Site: silverbell
Queued events for site silverbell
[DEBUG] 2017-08-23 04:51:52,456 | /home/tyler/frappe-bench/apps/frappe/frappe/utils/scheduler.py:
Site: silverbell
Queued events for site silverbell
[DEBUG] 2017-08-23 04:55:52,821 | /home/tyler/frappe-bench/apps/frappe/frappe/utils/scheduler.py:
Site: silverbell
Queued events for site silverbell
[DEBUG] 2017-08-23 04:59:53,160 | /home/tyler/frappe-bench/apps/frappe/frappe/utils/scheduler.py:
Site: silverbell
Queued events for site silverbell
[DEBUG] 2017-08-23 05:03:53,529 | /home/tyler/frappe-bench/apps/frappe/frappe/utils/scheduler.py:
Site: silverbell
Queued events for site silverbell
[DEBUG] 2017-08-23 05:07:53,904 | /home/tyler/frappe-bench/apps/frappe/frappe/utils/scheduler.py:
Site: silverbell
Queued events for site silverbell
[DEBUG] 2017-08-23 05:11:54,261 | /home/tyler/frappe-bench/apps/frappe/frappe/utils/scheduler.py:
Site: silverbell
Queued events for site silverbell
[DEBUG] 2017-08-23 05:15:54,599 | /home/tyler/frappe-bench/apps/frappe/frappe/utils/scheduler.py:
Site: silverbell
Queued events for site silverbell
[DEBUG] 2017-08-23 05:19:54,939 | /home/tyler/frappe-bench/apps/frappe/frappe/utils/scheduler.py:
Site: silverbell
Queued events for site silverbell
[DEBUG] 2017-08-23 05:23:55,270 | /home/tyler/frappe-bench/apps/frappe/frappe/utils/scheduler.py:
Site: silverbell
Queued events for site silverbell
[DEBUG] 2017-08-23 05:27:55,593 | /home/tyler/frappe-bench/apps/frappe/frappe/utils/scheduler.py:
Site: silverbell
Queued events for site silverbell
