[ERROR] 2017-07-07 21:06:15,358 | /home/tyler/frappe-bench/apps/frappe/frappe/app.py:
Site: silverbell
Form Dict: {
 "Americauna": "2", 
 "Barred Rocks": "2", 
 "Rhode Island Reds": "2", 
 "args": "{\"Americauna\":\"2\",\"Barred Rocks\":\"2\",\"Rhode Island Reds\":\"2\"}", 
 "cmd": "runserverobj", 
 "docs": "{\"at_enter_as_uom\":\"Dozen\",\"modified_by\":\"Administrator\",\"name\":\"Egg Collection\",\"parent\":null,\"destination_warehouse\":\"Finished Goods - AT\",\"collection_date\":\"2017-07-08T01:05:46.275Z\",\"creation\":\"2017-07-01 17:19:30.393058\",\"modified\":\"2017-07-07 21:05:51.364637\",\"doctype\":\"Egg Collection\",\"idx\":\"0\",\"parenttype\":null,\"batched_egg_yield\":6,\"at_enter_as_item\":\"Eggs-Dozen\",\"owner\":\"Administrator\",\"docstatus\":0,\"parentfield\":null,\"__last_sync_on\":\"2017-07-08T01:05:51.610Z\"}", 
 "method": "collect_egg_yield"
}
Request Error
Traceback (most recent call last):
  File "/home/tyler/frappe-bench/apps/frappe/frappe/app.py", line 55, in application
    response = frappe.handler.handle()
  File "/home/tyler/frappe-bench/apps/frappe/frappe/handler.py", line 21, in handle
    data = execute_cmd(cmd)
  File "/home/tyler/frappe-bench/apps/frappe/frappe/handler.py", line 52, in execute_cmd
    return frappe.call(method, **frappe.form_dict)
  File "/home/tyler/frappe-bench/apps/frappe/frappe/__init__.py", line 907, in call
    return fn(*args, **newargs)
  File "/home/tyler/frappe-bench/apps/frappe/frappe/handler.py", line 80, in runserverobj
    frappe.desk.form.run_method.runserverobj(method, docs=docs, dt=dt, dn=dn, arg=arg, args=args)
  File "/home/tyler/frappe-bench/apps/frappe/frappe/desk/form/run_method.py", line 41, in runserverobj
    r = doc.run_method(method, **args)
  File "/home/tyler/frappe-bench/apps/frappe/frappe/model/document.py", line 666, in run_method
    out = Document.hook(fn)(self, *args, **kwargs)
  File "/home/tyler/frappe-bench/apps/frappe/frappe/model/document.py", line 892, in composer
    return composed(self, method, *args, **kwargs)
  File "/home/tyler/frappe-bench/apps/frappe/frappe/model/document.py", line 875, in runner
    add_to_return_value(self, fn(self, *args, **kwargs))
  File "/home/tyler/frappe-bench/apps/frappe/frappe/model/document.py", line 660, in <lambda>
    fn = lambda self, *args, **kwargs: getattr(self, method)(*args, **kwargs)
TypeError: collect_egg_yield() takes exactly 2 arguments (1 given)
[ERROR] 2017-07-07 21:06:15,458 | /home/tyler/frappe-bench/apps/frappe/frappe/utils/error.py:
New Exception collected with id: 2017-07-07 21:06:15.415094-127.0.0.1-8bf
[ERROR] 2017-07-07 21:06:30,256 | /home/tyler/frappe-bench/apps/frappe/frappe/app.py:
Site: silverbell
Form Dict: {
 "Americauna": "2", 
 "Barred Rocks": "2", 
 "Rhode Island Reds": "2", 
 "args": "{\"Americauna\":\"2\",\"Barred Rocks\":\"2\",\"Rhode Island Reds\":\"2\"}", 
 "cmd": "runserverobj", 
 "docs": "{\"at_enter_as_uom\":\"Dozen\",\"modified_by\":\"Administrator\",\"name\":\"Egg Collection\",\"parent\":null,\"destination_warehouse\":\"Finished Goods - AT\",\"collection_date\":\"2017-07-08T01:05:46.275Z\",\"creation\":\"2017-07-01 17:19:30.393058\",\"modified\":\"2017-07-07 21:06:15.355307\",\"doctype\":\"Egg Collection\",\"idx\":\"0\",\"parenttype\":null,\"batched_egg_yield\":6,\"at_enter_as_item\":\"Eggs-Dozen\",\"owner\":\"Administrator\",\"docstatus\":0,\"parentfield\":null,\"__last_sync_on\":\"2017-07-08T01:06:15.814Z\"}", 
 "method": "collect_egg_yield"
}
Request Error
Traceback (most recent call last):
  File "/home/tyler/frappe-bench/apps/frappe/frappe/app.py", line 55, in application
    response = frappe.handler.handle()
  File "/home/tyler/frappe-bench/apps/frappe/frappe/handler.py", line 21, in handle
    data = execute_cmd(cmd)
  File "/home/tyler/frappe-bench/apps/frappe/frappe/handler.py", line 52, in execute_cmd
    return frappe.call(method, **frappe.form_dict)
  File "/home/tyler/frappe-bench/apps/frappe/frappe/__init__.py", line 907, in call
    return fn(*args, **newargs)
  File "/home/tyler/frappe-bench/apps/frappe/frappe/handler.py", line 80, in runserverobj
    frappe.desk.form.run_method.runserverobj(method, docs=docs, dt=dt, dn=dn, arg=arg, args=args)
  File "/home/tyler/frappe-bench/apps/frappe/frappe/desk/form/run_method.py", line 22, in runserverobj
    doc.check_if_latest()
  File "/home/tyler/frappe-bench/apps/frappe/frappe/model/document.py", line 517, in check_if_latest
    where doctype=%s and field='modified' for update''', self.doctype)
  File "/home/tyler/frappe-bench/apps/frappe/frappe/database.py", line 138, in sql
    self._cursor.execute(query, values)
  File "/home/tyler/frappe-bench/env/local/lib/python2.7/site-packages/MySQLdb/cursors.py", line 250, in execute
    self.errorhandler(self, exc, value)
  File "/home/tyler/frappe-bench/env/local/lib/python2.7/site-packages/MySQLdb/connections.py", line 42, in defaulterrorhandler
    raise errorvalue
OperationalError: (1213, 'Deadlock found when trying to get lock; try restarting transaction')
[ERROR] 2017-07-07 21:06:30,357 | /home/tyler/frappe-bench/apps/frappe/frappe/utils/error.py:
Could not take error snapshot: 'connection'
Traceback (most recent call last):
  File "/home/tyler/frappe-bench/apps/frappe/frappe/utils/error.py", line 36, in make_error_snapshot
    snapshot = get_snapshot(exception)
  File "/home/tyler/frappe-bench/apps/frappe/frappe/utils/error.py", line 81, in get_snapshot
    call = inspect.formatargvalues(args, varargs, varkw, locals, formatvalue=lambda value: '={}'.format(pydoc.text.repr(value)))
  File "/usr/lib/python2.7/inspect.py", line 888, in formatargvalues
    specs.append(strseq(args[i], convert, join))
  File "/usr/lib/python2.7/inspect.py", line 843, in strseq
    return convert(object)
  File "/usr/lib/python2.7/inspect.py", line 885, in convert
    return formatarg(name) + formatvalue(locals[name])
KeyError: 'connection'
[ERROR] 2017-07-07 21:06:40,756 | /home/tyler/frappe-bench/apps/frappe/frappe/app.py:
Site: silverbell
Form Dict: {
 "Americauna": "5", 
 "Barred Rocks": "5", 
 "Rhode Island Reds": "5", 
 "args": "{\"Americauna\":\"5\",\"Barred Rocks\":\"5\",\"Rhode Island Reds\":\"5\"}", 
 "cmd": "runserverobj", 
 "docs": "{\"at_enter_as_uom\":\"Dozen\",\"modified_by\":\"Administrator\",\"name\":\"Egg Collection\",\"destination_warehouse\":\"Finished Goods - AT\",\"collection_date\":\"2017-07-08T01:06:35.824Z\",\"creation\":\"2017-07-01 17:19:30.393058\",\"modified\":\"2017-07-07 21:06:30.160871\",\"doctype\":\"Egg Collection\",\"idx\":\"0\",\"batched_egg_yield\":15,\"at_enter_as_item\":\"Eggs-Dozen\",\"owner\":\"Administrator\",\"docstatus\":0,\"__last_sync_on\":\"2017-07-08T01:06:36.057Z\",\"__unsaved\":1}", 
 "method": "collect_egg_yield"
}
Request Error
Traceback (most recent call last):
  File "/home/tyler/frappe-bench/apps/frappe/frappe/app.py", line 55, in application
    response = frappe.handler.handle()
  File "/home/tyler/frappe-bench/apps/frappe/frappe/handler.py", line 21, in handle
    data = execute_cmd(cmd)
  File "/home/tyler/frappe-bench/apps/frappe/frappe/handler.py", line 52, in execute_cmd
    return frappe.call(method, **frappe.form_dict)
  File "/home/tyler/frappe-bench/apps/frappe/frappe/__init__.py", line 907, in call
    return fn(*args, **newargs)
  File "/home/tyler/frappe-bench/apps/frappe/frappe/handler.py", line 80, in runserverobj
    frappe.desk.form.run_method.runserverobj(method, docs=docs, dt=dt, dn=dn, arg=arg, args=args)
  File "/home/tyler/frappe-bench/apps/frappe/frappe/desk/form/run_method.py", line 41, in runserverobj
    r = doc.run_method(method, **args)
  File "/home/tyler/frappe-bench/apps/frappe/frappe/model/document.py", line 666, in run_method
    out = Document.hook(fn)(self, *args, **kwargs)
  File "/home/tyler/frappe-bench/apps/frappe/frappe/model/document.py", line 892, in composer
    return composed(self, method, *args, **kwargs)
  File "/home/tyler/frappe-bench/apps/frappe/frappe/model/document.py", line 875, in runner
    add_to_return_value(self, fn(self, *args, **kwargs))
  File "/home/tyler/frappe-bench/apps/frappe/frappe/model/document.py", line 660, in <lambda>
    fn = lambda self, *args, **kwargs: getattr(self, method)(*args, **kwargs)
TypeError: collect_egg_yield() got an unexpected keyword argument 'Rhode Island Reds'
[ERROR] 2017-07-07 21:06:40,826 | /home/tyler/frappe-bench/apps/frappe/frappe/utils/error.py:
New Exception collected with id: 2017-07-07 21:06:40.756837-127.0.0.1-de7
[ERROR] 2017-07-07 21:07:13,408 | /home/tyler/frappe-bench/apps/frappe/frappe/app.py:
Site: silverbell
Form Dict: {
 "Americauna": "5", 
 "Barred Rocks": "5", 
 "Rhode Island Reds": "5", 
 "args": "{\"Americauna\":\"5\",\"Barred Rocks\":\"5\",\"Rhode Island Reds\":\"5\"}", 
 "cmd": "runserverobj", 
 "docs": "{\"at_enter_as_uom\":\"Dozen\",\"modified_by\":\"Administrator\",\"name\":\"Egg Collection\",\"parent\":null,\"destination_warehouse\":\"Finished Goods - AT\",\"collection_date\":\"2017-07-08T01:06:35.824Z\",\"creation\":\"2017-07-01 17:19:30.393058\",\"modified\":\"2017-07-07 21:06:54.699494\",\"doctype\":\"Egg Collection\",\"idx\":\"0\",\"parenttype\":null,\"batched_egg_yield\":15,\"at_enter_as_item\":\"Eggs-Dozen\",\"owner\":\"Administrator\",\"docstatus\":0,\"parentfield\":null,\"__last_sync_on\":\"2017-07-08T01:06:55.145Z\"}", 
 "method": "collect_egg_yield"
}
Request Error
Traceback (most recent call last):
  File "/home/tyler/frappe-bench/apps/frappe/frappe/app.py", line 55, in application
    response = frappe.handler.handle()
  File "/home/tyler/frappe-bench/apps/frappe/frappe/handler.py", line 21, in handle
    data = execute_cmd(cmd)
  File "/home/tyler/frappe-bench/apps/frappe/frappe/handler.py", line 52, in execute_cmd
    return frappe.call(method, **frappe.form_dict)
  File "/home/tyler/frappe-bench/apps/frappe/frappe/__init__.py", line 907, in call
    return fn(*args, **newargs)
  File "/home/tyler/frappe-bench/apps/frappe/frappe/handler.py", line 80, in runserverobj
    frappe.desk.form.run_method.runserverobj(method, docs=docs, dt=dt, dn=dn, arg=arg, args=args)
  File "/home/tyler/frappe-bench/apps/frappe/frappe/desk/form/run_method.py", line 22, in runserverobj
    doc.check_if_latest()
  File "/home/tyler/frappe-bench/apps/frappe/frappe/model/document.py", line 517, in check_if_latest
    where doctype=%s and field='modified' for update''', self.doctype)
  File "/home/tyler/frappe-bench/apps/frappe/frappe/database.py", line 138, in sql
    self._cursor.execute(query, values)
  File "/home/tyler/frappe-bench/env/local/lib/python2.7/site-packages/MySQLdb/cursors.py", line 250, in execute
    self.errorhandler(self, exc, value)
  File "/home/tyler/frappe-bench/env/local/lib/python2.7/site-packages/MySQLdb/connections.py", line 42, in defaulterrorhandler
    raise errorvalue
OperationalError: (1213, 'Deadlock found when trying to get lock; try restarting transaction')
[ERROR] 2017-07-07 21:07:13,492 | /home/tyler/frappe-bench/apps/frappe/frappe/utils/error.py:
Could not take error snapshot: 'connection'
Traceback (most recent call last):
  File "/home/tyler/frappe-bench/apps/frappe/frappe/utils/error.py", line 36, in make_error_snapshot
    snapshot = get_snapshot(exception)
  File "/home/tyler/frappe-bench/apps/frappe/frappe/utils/error.py", line 81, in get_snapshot
    call = inspect.formatargvalues(args, varargs, varkw, locals, formatvalue=lambda value: '={}'.format(pydoc.text.repr(value)))
  File "/usr/lib/python2.7/inspect.py", line 888, in formatargvalues
    specs.append(strseq(args[i], convert, join))
  File "/usr/lib/python2.7/inspect.py", line 843, in strseq
    return convert(object)
  File "/usr/lib/python2.7/inspect.py", line 885, in convert
    return formatarg(name) + formatvalue(locals[name])
KeyError: 'connection'
[ERROR] 2017-07-07 21:11:37,048 | /home/tyler/frappe-bench/apps/frappe/frappe/app.py:
Site: silverbell
Form Dict: {
 "Americauna": "7", 
 "Barred Rocks": "7", 
 "Rhode Island Reds": "7", 
 "args": "{\"Americauna\":\"7\",\"Barred Rocks\":\"7\",\"Rhode Island Reds\":\"7\"}", 
 "cmd": "runserverobj", 
 "docs": "{\"at_enter_as_uom\":\"Dozen\",\"modified_by\":\"Administrator\",\"name\":\"Egg Collection\",\"parent\":null,\"destination_warehouse\":\"Finished Goods - AT\",\"collection_date\":\"2017-07-08T01:07:18.724Z\",\"creation\":\"2017-07-01 17:19:30.393058\",\"modified\":\"2017-07-07 21:08:02.779531\",\"doctype\":\"Egg Collection\",\"idx\":\"0\",\"parenttype\":null,\"batched_egg_yield\":21,\"at_enter_as_item\":\"Eggs-Dozen\",\"owner\":\"Administrator\",\"docstatus\":0,\"parentfield\":null,\"__last_sync_on\":\"2017-07-08T01:08:03.018Z\"}", 
 "method": "collect_egg_yield"
}
Request Error
Traceback (most recent call last):
  File "/home/tyler/frappe-bench/apps/frappe/frappe/app.py", line 55, in application
    response = frappe.handler.handle()
  File "/home/tyler/frappe-bench/apps/frappe/frappe/handler.py", line 21, in handle
    data = execute_cmd(cmd)
  File "/home/tyler/frappe-bench/apps/frappe/frappe/handler.py", line 52, in execute_cmd
    return frappe.call(method, **frappe.form_dict)
  File "/home/tyler/frappe-bench/apps/frappe/frappe/__init__.py", line 907, in call
    return fn(*args, **newargs)
  File "/home/tyler/frappe-bench/apps/frappe/frappe/handler.py", line 80, in runserverobj
    frappe.desk.form.run_method.runserverobj(method, docs=docs, dt=dt, dn=dn, arg=arg, args=args)
  File "/home/tyler/frappe-bench/apps/frappe/frappe/desk/form/run_method.py", line 22, in runserverobj
    doc.check_if_latest()
  File "/home/tyler/frappe-bench/apps/frappe/frappe/model/document.py", line 517, in check_if_latest
    where doctype=%s and field='modified' for update''', self.doctype)
  File "/home/tyler/frappe-bench/apps/frappe/frappe/database.py", line 138, in sql
    self._cursor.execute(query, values)
  File "/home/tyler/frappe-bench/env/local/lib/python2.7/site-packages/MySQLdb/cursors.py", line 250, in execute
    self.errorhandler(self, exc, value)
  File "/home/tyler/frappe-bench/env/local/lib/python2.7/site-packages/MySQLdb/connections.py", line 42, in defaulterrorhandler
    raise errorvalue
OperationalError: (1213, 'Deadlock found when trying to get lock; try restarting transaction')
[ERROR] 2017-07-07 21:11:37,145 | /home/tyler/frappe-bench/apps/frappe/frappe/utils/error.py:
Could not take error snapshot: 'connection'
Traceback (most recent call last):
  File "/home/tyler/frappe-bench/apps/frappe/frappe/utils/error.py", line 36, in make_error_snapshot
    snapshot = get_snapshot(exception)
  File "/home/tyler/frappe-bench/apps/frappe/frappe/utils/error.py", line 81, in get_snapshot
    call = inspect.formatargvalues(args, varargs, varkw, locals, formatvalue=lambda value: '={}'.format(pydoc.text.repr(value)))
  File "/usr/lib/python2.7/inspect.py", line 888, in formatargvalues
    specs.append(strseq(args[i], convert, join))
  File "/usr/lib/python2.7/inspect.py", line 843, in strseq
    return convert(object)
  File "/usr/lib/python2.7/inspect.py", line 885, in convert
    return formatarg(name) + formatvalue(locals[name])
KeyError: 'connection'
[ERROR] 2017-07-07 21:11:48,309 | /home/tyler/frappe-bench/apps/frappe/frappe/app.py:
Site: silverbell
Form Dict: {
 "Americauna": "7", 
 "Barred Rocks": "7", 
 "Rhode Island Reds": "7", 
 "args": "{\"Americauna\":\"7\",\"Barred Rocks\":\"7\",\"Rhode Island Reds\":\"7\"}", 
 "cmd": "runserverobj", 
 "docs": "{\"at_enter_as_uom\":\"Dozen\",\"modified_by\":\"Administrator\",\"name\":\"Egg Collection\",\"destination_warehouse\":\"Finished Goods - AT\",\"collection_date\":\"2017-07-08T01:11:42.587Z\",\"creation\":\"2017-07-01 17:19:30.393058\",\"modified\":\"2017-07-07 21:11:36.932412\",\"doctype\":\"Egg Collection\",\"idx\":\"0\",\"batched_egg_yield\":21,\"at_enter_as_item\":\"Eggs-Dozen\",\"owner\":\"Administrator\",\"docstatus\":0,\"__last_sync_on\":\"2017-07-08T01:11:42.810Z\",\"__unsaved\":1}", 
 "method": "collect_egg_yield"
}
Request Error
Traceback (most recent call last):
  File "/home/tyler/frappe-bench/apps/frappe/frappe/app.py", line 55, in application
    response = frappe.handler.handle()
  File "/home/tyler/frappe-bench/apps/frappe/frappe/handler.py", line 21, in handle
    data = execute_cmd(cmd)
  File "/home/tyler/frappe-bench/apps/frappe/frappe/handler.py", line 52, in execute_cmd
    return frappe.call(method, **frappe.form_dict)
  File "/home/tyler/frappe-bench/apps/frappe/frappe/__init__.py", line 907, in call
    return fn(*args, **newargs)
  File "/home/tyler/frappe-bench/apps/frappe/frappe/handler.py", line 80, in runserverobj
    frappe.desk.form.run_method.runserverobj(method, docs=docs, dt=dt, dn=dn, arg=arg, args=args)
  File "/home/tyler/frappe-bench/apps/frappe/frappe/desk/form/run_method.py", line 41, in runserverobj
    r = doc.run_method(method, **args)
  File "/home/tyler/frappe-bench/apps/frappe/frappe/model/document.py", line 666, in run_method
    out = Document.hook(fn)(self, *args, **kwargs)
  File "/home/tyler/frappe-bench/apps/frappe/frappe/model/document.py", line 892, in composer
    return composed(self, method, *args, **kwargs)
  File "/home/tyler/frappe-bench/apps/frappe/frappe/model/document.py", line 875, in runner
    add_to_return_value(self, fn(self, *args, **kwargs))
  File "/home/tyler/frappe-bench/apps/frappe/frappe/model/document.py", line 660, in <lambda>
    fn = lambda self, *args, **kwargs: getattr(self, method)(*args, **kwargs)
TypeError: collect_egg_yield() got an unexpected keyword argument 'Rhode Island Reds'
[ERROR] 2017-07-07 21:11:48,373 | /home/tyler/frappe-bench/apps/frappe/frappe/utils/error.py:
New Exception collected with id: 2017-07-07 21:11:48.310290-127.0.0.1-375
[ERROR] 2017-07-07 21:12:00,376 | /home/tyler/frappe-bench/apps/frappe/frappe/app.py:
Site: silverbell
Form Dict: {
 "Americauna": "7", 
 "Barred Rocks": "7", 
 "Rhode Island Reds": "7", 
 "args": "{\"Americauna\":\"7\",\"Barred Rocks\":\"7\",\"Rhode Island Reds\":\"7\"}", 
 "cmd": "runserverobj", 
 "docs": "{\"at_enter_as_uom\":\"Dozen\",\"modified_by\":\"Administrator\",\"name\":\"Egg Collection\",\"parent\":null,\"destination_warehouse\":\"Finished Goods - AT\",\"collection_date\":\"2017-07-08T01:11:42.587Z\",\"creation\":\"2017-07-01 17:19:30.393058\",\"modified\":\"2017-07-07 21:11:48.301823\",\"doctype\":\"Egg Collection\",\"idx\":\"0\",\"parenttype\":null,\"batched_egg_yield\":21,\"at_enter_as_item\":\"Eggs-Dozen\",\"owner\":\"Administrator\",\"docstatus\":0,\"parentfield\":null,\"__last_sync_on\":\"2017-07-08T01:11:48.861Z\"}", 
 "method": "collect_egg_yield"
}
Request Error
Traceback (most recent call last):
  File "/home/tyler/frappe-bench/apps/frappe/frappe/app.py", line 55, in application
    response = frappe.handler.handle()
  File "/home/tyler/frappe-bench/apps/frappe/frappe/handler.py", line 21, in handle
    data = execute_cmd(cmd)
  File "/home/tyler/frappe-bench/apps/frappe/frappe/handler.py", line 52, in execute_cmd
    return frappe.call(method, **frappe.form_dict)
  File "/home/tyler/frappe-bench/apps/frappe/frappe/__init__.py", line 907, in call
    return fn(*args, **newargs)
  File "/home/tyler/frappe-bench/apps/frappe/frappe/handler.py", line 80, in runserverobj
    frappe.desk.form.run_method.runserverobj(method, docs=docs, dt=dt, dn=dn, arg=arg, args=args)
  File "/home/tyler/frappe-bench/apps/frappe/frappe/desk/form/run_method.py", line 35, in runserverobj
    r = doc.run_method(method)
  File "/home/tyler/frappe-bench/apps/frappe/frappe/model/document.py", line 666, in run_method
    out = Document.hook(fn)(self, *args, **kwargs)
  File "/home/tyler/frappe-bench/apps/frappe/frappe/model/document.py", line 892, in composer
    return composed(self, method, *args, **kwargs)
  File "/home/tyler/frappe-bench/apps/frappe/frappe/model/document.py", line 875, in runner
    add_to_return_value(self, fn(self, *args, **kwargs))
  File "/home/tyler/frappe-bench/apps/frappe/frappe/model/document.py", line 660, in <lambda>
    fn = lambda self, *args, **kwargs: getattr(self, method)(*args, **kwargs)
TypeError: collect_egg_yield() takes exactly 0 arguments (1 given)
[ERROR] 2017-07-07 21:12:00,437 | /home/tyler/frappe-bench/apps/frappe/frappe/utils/error.py:
New Exception collected with id: 2017-07-07 21:12:00.377398-127.0.0.1-b00
[ERROR] 2017-07-07 21:12:12,887 | /home/tyler/frappe-bench/apps/frappe/frappe/app.py:
Site: silverbell
Form Dict: {
 "Americauna": "7", 
 "Barred Rocks": "7", 
 "Rhode Island Reds": "7", 
 "args": "{\"Americauna\":\"7\",\"Barred Rocks\":\"7\",\"Rhode Island Reds\":\"7\"}", 
 "cmd": "runserverobj", 
 "docs": "{\"at_enter_as_uom\":\"Dozen\",\"modified_by\":\"Administrator\",\"name\":\"Egg Collection\",\"parent\":null,\"destination_warehouse\":\"Finished Goods - AT\",\"collection_date\":\"2017-07-08T01:11:42.587Z\",\"creation\":\"2017-07-01 17:19:30.393058\",\"modified\":\"2017-07-07 21:12:00.374323\",\"doctype\":\"Egg Collection\",\"idx\":\"0\",\"parenttype\":null,\"batched_egg_yield\":21,\"at_enter_as_item\":\"Eggs-Dozen\",\"owner\":\"Administrator\",\"docstatus\":0,\"parentfield\":null,\"__last_sync_on\":\"2017-07-08T01:12:00.673Z\"}", 
 "method": "collect_egg_yield"
}
Request Error
Traceback (most recent call last):
  File "/home/tyler/frappe-bench/apps/frappe/frappe/app.py", line 55, in application
    response = frappe.handler.handle()
  File "/home/tyler/frappe-bench/apps/frappe/frappe/handler.py", line 21, in handle
    data = execute_cmd(cmd)
  File "/home/tyler/frappe-bench/apps/frappe/frappe/handler.py", line 52, in execute_cmd
    return frappe.call(method, **frappe.form_dict)
  File "/home/tyler/frappe-bench/apps/frappe/frappe/__init__.py", line 907, in call
    return fn(*args, **newargs)
  File "/home/tyler/frappe-bench/apps/frappe/frappe/handler.py", line 80, in runserverobj
    frappe.desk.form.run_method.runserverobj(method, docs=docs, dt=dt, dn=dn, arg=arg, args=args)
  File "/home/tyler/frappe-bench/apps/frappe/frappe/desk/form/run_method.py", line 35, in runserverobj
    r = doc.run_method(method)
  File "/home/tyler/frappe-bench/apps/frappe/frappe/model/document.py", line 666, in run_method
    out = Document.hook(fn)(self, *args, **kwargs)
  File "/home/tyler/frappe-bench/apps/frappe/frappe/model/document.py", line 892, in composer
    return composed(self, method, *args, **kwargs)
  File "/home/tyler/frappe-bench/apps/frappe/frappe/model/document.py", line 875, in runner
    add_to_return_value(self, fn(self, *args, **kwargs))
  File "/home/tyler/frappe-bench/apps/frappe/frappe/model/document.py", line 660, in <lambda>
    fn = lambda self, *args, **kwargs: getattr(self, method)(*args, **kwargs)
TypeError: collect_egg_yield() takes exactly 0 arguments (1 given)
[ERROR] 2017-07-07 21:12:12,947 | /home/tyler/frappe-bench/apps/frappe/frappe/utils/error.py:
New Exception collected with id: 2017-07-07 21:12:12.887752-127.0.0.1-cfa
[ERROR] 2017-07-07 21:23:41,164 | /home/tyler/frappe-bench/apps/frappe/frappe/app.py:
Site: silverbell
Form Dict: {
 "Americauna": "5", 
 "Barred Rocks": "5", 
 "Rhode Island Reds": "5", 
 "args": "{\"Americauna\":\"5\",\"Barred Rocks\":\"5\",\"Rhode Island Reds\":\"5\"}", 
 "cmd": "runserverobj", 
 "docs": "{\"at_enter_as_uom\":\"Dozen\",\"modified_by\":\"Administrator\",\"name\":\"Egg Collection\",\"destination_warehouse\":\"Finished Goods - AT\",\"collection_date\":\"2017-07-08T01:23:36.584Z\",\"creation\":\"2017-07-01 17:19:30.393058\",\"modified\":\"2017-07-07 21:12:21.388377\",\"doctype\":\"Egg Collection\",\"idx\":\"0\",\"batched_egg_yield\":15,\"at_enter_as_item\":\"Eggs-Dozen\",\"owner\":\"Administrator\",\"docstatus\":0,\"__last_sync_on\":\"2017-07-08T01:23:36.787Z\",\"__unsaved\":1}", 
 "method": "collect_egg_yield"
}
Request Error
Traceback (most recent call last):
  File "/home/tyler/frappe-bench/apps/frappe/frappe/app.py", line 55, in application
    response = frappe.handler.handle()
  File "/home/tyler/frappe-bench/apps/frappe/frappe/handler.py", line 21, in handle
    data = execute_cmd(cmd)
  File "/home/tyler/frappe-bench/apps/frappe/frappe/handler.py", line 52, in execute_cmd
    return frappe.call(method, **frappe.form_dict)
  File "/home/tyler/frappe-bench/apps/frappe/frappe/__init__.py", line 907, in call
    return fn(*args, **newargs)
  File "/home/tyler/frappe-bench/apps/frappe/frappe/handler.py", line 80, in runserverobj
    frappe.desk.form.run_method.runserverobj(method, docs=docs, dt=dt, dn=dn, arg=arg, args=args)
  File "/home/tyler/frappe-bench/apps/frappe/frappe/desk/form/run_method.py", line 41, in runserverobj
    r = doc.run_method(method, **args)
  File "/home/tyler/frappe-bench/apps/frappe/frappe/model/document.py", line 666, in run_method
    out = Document.hook(fn)(self, *args, **kwargs)
  File "/home/tyler/frappe-bench/apps/frappe/frappe/model/document.py", line 892, in composer
    return composed(self, method, *args, **kwargs)
  File "/home/tyler/frappe-bench/apps/frappe/frappe/model/document.py", line 875, in runner
    add_to_return_value(self, fn(self, *args, **kwargs))
  File "/home/tyler/frappe-bench/apps/frappe/frappe/model/document.py", line 660, in <lambda>
    fn = lambda self, *args, **kwargs: getattr(self, method)(*args, **kwargs)
TypeError: collect_egg_yield() got an unexpected keyword argument 'Rhode Island Reds'
[ERROR] 2017-07-07 21:23:41,246 | /home/tyler/frappe-bench/apps/frappe/frappe/utils/error.py:
New Exception collected with id: 2017-07-07 21:23:41.173059-127.0.0.1-16c
[DEBUG] 2017-07-08 13:57:54,925 | /home/tyler/frappe-bench/apps/frappe/frappe/utils/scheduler.py:
Site: silverbell
Queued events for site silverbell
[DEBUG] 2017-07-08 14:01:55,380 | /home/tyler/frappe-bench/apps/frappe/frappe/utils/scheduler.py:
Site: silverbell
Queued events for site silverbell
[ERROR] 2017-07-08 14:02:10,789 | /home/tyler/frappe-bench/apps/frappe/frappe/app.py:
Site: silverbell
Form Dict: {
 "cached_timestamp": "", 
 "cmd": "frappe.desk.form.load.getdoctype", 
 "doctype": "Egg Collection", 
 "with_parent": "1"
}
Request Error
Traceback (most recent call last):
  File "/home/tyler/frappe-bench/apps/frappe/frappe/app.py", line 55, in application
    response = frappe.handler.handle()
  File "/home/tyler/frappe-bench/apps/frappe/frappe/handler.py", line 21, in handle
    data = execute_cmd(cmd)
  File "/home/tyler/frappe-bench/apps/frappe/frappe/handler.py", line 52, in execute_cmd
    return frappe.call(method, **frappe.form_dict)
  File "/home/tyler/frappe-bench/apps/frappe/frappe/__init__.py", line 907, in call
    return fn(*args, **newargs)
  File "/home/tyler/frappe-bench/apps/frappe/frappe/desk/form/load.py", line 71, in getdoctype
    docs = get_meta_bundle(doctype)
  File "/home/tyler/frappe-bench/apps/frappe/frappe/desk/form/load.py", line 82, in get_meta_bundle
    bundle = [frappe.desk.form.meta.get_meta(doctype)]
  File "/home/tyler/frappe-bench/apps/frappe/frappe/desk/form/meta.py", line 22, in get_meta
    meta = FormMeta(doctype)
  File "/home/tyler/frappe-bench/apps/frappe/frappe/desk/form/meta.py", line 32, in __init__
    self.load_assets()
  File "/home/tyler/frappe-bench/apps/frappe/frappe/desk/form/meta.py", line 42, in load_assets
    self.load_templates()
  File "/home/tyler/frappe-bench/apps/frappe/frappe/desk/form/meta.py", line 152, in load_templates
    module = load_doctype_module(self.name)
  File "/home/tyler/frappe-bench/apps/frappe/frappe/modules/utils.py", line 182, in load_doctype_module
    doctype_python_modules[key] = frappe.get_module(module_name)
  File "/home/tyler/frappe-bench/apps/frappe/frappe/__init__.py", line 672, in get_module
    return importlib.import_module(modulename)
  File "/usr/lib/python2.7/importlib/__init__.py", line 37, in import_module
    __import__(name)
  File "/home/tyler/frappe-bench/apps/at_livestock/at_livestock/livestock/doctype/egg_collection/egg_collection.py", line 25
    try:
       ^
IndentationError: unindent does not match any outer indentation level
[ERROR] 2017-07-08 14:02:10,851 | /home/tyler/frappe-bench/apps/frappe/frappe/utils/error.py:
New Exception collected with id: 2017-07-08 14:02:10.790633-127.0.0.1-abc
[DEBUG] 2017-07-08 14:05:55,690 | /home/tyler/frappe-bench/apps/frappe/frappe/utils/scheduler.py:
Site: silverbell
Queued events for site silverbell
[DEBUG] 2017-07-08 14:09:56,031 | /home/tyler/frappe-bench/apps/frappe/frappe/utils/scheduler.py:
Site: silverbell
Queued events for site silverbell
[DEBUG] 2017-07-08 14:13:56,356 | /home/tyler/frappe-bench/apps/frappe/frappe/utils/scheduler.py:
Site: silverbell
Queued events for site silverbell
[DEBUG] 2017-07-08 14:17:56,691 | /home/tyler/frappe-bench/apps/frappe/frappe/utils/scheduler.py:
Site: silverbell
Queued events for site silverbell
[ERROR] 2017-07-08 14:20:31,730 | /home/tyler/frappe-bench/apps/frappe/frappe/app.py:
Site: silverbell
Form Dict: {
 "cached_timestamp": "", 
 "cmd": "frappe.desk.form.load.getdoctype", 
 "doctype": "Egg Collection", 
 "with_parent": "1"
}
Request Error
Traceback (most recent call last):
  File "/home/tyler/frappe-bench/apps/frappe/frappe/app.py", line 55, in application
    response = frappe.handler.handle()
  File "/home/tyler/frappe-bench/apps/frappe/frappe/handler.py", line 21, in handle
    data = execute_cmd(cmd)
  File "/home/tyler/frappe-bench/apps/frappe/frappe/handler.py", line 52, in execute_cmd
    return frappe.call(method, **frappe.form_dict)
  File "/home/tyler/frappe-bench/apps/frappe/frappe/__init__.py", line 907, in call
    return fn(*args, **newargs)
  File "/home/tyler/frappe-bench/apps/frappe/frappe/desk/form/load.py", line 71, in getdoctype
    docs = get_meta_bundle(doctype)
  File "/home/tyler/frappe-bench/apps/frappe/frappe/desk/form/load.py", line 82, in get_meta_bundle
    bundle = [frappe.desk.form.meta.get_meta(doctype)]
  File "/home/tyler/frappe-bench/apps/frappe/frappe/desk/form/meta.py", line 22, in get_meta
    meta = FormMeta(doctype)
  File "/home/tyler/frappe-bench/apps/frappe/frappe/desk/form/meta.py", line 32, in __init__
    self.load_assets()
  File "/home/tyler/frappe-bench/apps/frappe/frappe/desk/form/meta.py", line 42, in load_assets
    self.load_templates()
  File "/home/tyler/frappe-bench/apps/frappe/frappe/desk/form/meta.py", line 152, in load_templates
    module = load_doctype_module(self.name)
  File "/home/tyler/frappe-bench/apps/frappe/frappe/modules/utils.py", line 182, in load_doctype_module
    doctype_python_modules[key] = frappe.get_module(module_name)
  File "/home/tyler/frappe-bench/apps/frappe/frappe/__init__.py", line 672, in get_module
    return importlib.import_module(modulename)
  File "/usr/lib/python2.7/importlib/__init__.py", line 37, in import_module
    __import__(name)
  File "/home/tyler/frappe-bench/apps/at_livestock/at_livestock/livestock/doctype/egg_collection/egg_collection.py", line 25
    try:
       ^
IndentationError: unindent does not match any outer indentation level
[ERROR] 2017-07-08 14:20:31,856 | /home/tyler/frappe-bench/apps/frappe/frappe/utils/error.py:
New Exception collected with id: 2017-07-08 14:20:31.743157-127.0.0.1-921
[ERROR] 2017-07-08 14:20:54,084 | /home/tyler/frappe-bench/apps/frappe/frappe/app.py:
Site: silverbell
Form Dict: {
 "cached_timestamp": "", 
 "cmd": "frappe.desk.form.load.getdoctype", 
 "doctype": "Egg Collection", 
 "with_parent": "1"
}
Request Error
Traceback (most recent call last):
  File "/home/tyler/frappe-bench/apps/frappe/frappe/app.py", line 55, in application
    response = frappe.handler.handle()
  File "/home/tyler/frappe-bench/apps/frappe/frappe/handler.py", line 21, in handle
    data = execute_cmd(cmd)
  File "/home/tyler/frappe-bench/apps/frappe/frappe/handler.py", line 52, in execute_cmd
    return frappe.call(method, **frappe.form_dict)
  File "/home/tyler/frappe-bench/apps/frappe/frappe/__init__.py", line 907, in call
    return fn(*args, **newargs)
  File "/home/tyler/frappe-bench/apps/frappe/frappe/desk/form/load.py", line 71, in getdoctype
    docs = get_meta_bundle(doctype)
  File "/home/tyler/frappe-bench/apps/frappe/frappe/desk/form/load.py", line 82, in get_meta_bundle
    bundle = [frappe.desk.form.meta.get_meta(doctype)]
  File "/home/tyler/frappe-bench/apps/frappe/frappe/desk/form/meta.py", line 22, in get_meta
    meta = FormMeta(doctype)
  File "/home/tyler/frappe-bench/apps/frappe/frappe/desk/form/meta.py", line 32, in __init__
    self.load_assets()
  File "/home/tyler/frappe-bench/apps/frappe/frappe/desk/form/meta.py", line 42, in load_assets
    self.load_templates()
  File "/home/tyler/frappe-bench/apps/frappe/frappe/desk/form/meta.py", line 152, in load_templates
    module = load_doctype_module(self.name)
  File "/home/tyler/frappe-bench/apps/frappe/frappe/modules/utils.py", line 182, in load_doctype_module
    doctype_python_modules[key] = frappe.get_module(module_name)
  File "/home/tyler/frappe-bench/apps/frappe/frappe/__init__.py", line 672, in get_module
    return importlib.import_module(modulename)
  File "/usr/lib/python2.7/importlib/__init__.py", line 37, in import_module
    __import__(name)
  File "/home/tyler/frappe-bench/apps/at_livestock/at_livestock/livestock/doctype/egg_collection/egg_collection.py", line 25
    try:
      ^
IndentationError: expected an indented block
[ERROR] 2017-07-08 14:20:54,166 | /home/tyler/frappe-bench/apps/frappe/frappe/utils/error.py:
New Exception collected with id: 2017-07-08 14:20:54.086385-127.0.0.1-e05
[ERROR] 2017-07-08 14:21:18,370 | /home/tyler/frappe-bench/apps/frappe/frappe/app.py:
Site: silverbell
Form Dict: {
 "cached_timestamp": "", 
 "cmd": "frappe.desk.form.load.getdoctype", 
 "doctype": "Egg Collection", 
 "with_parent": "1"
}
Request Error
Traceback (most recent call last):
  File "/home/tyler/frappe-bench/apps/frappe/frappe/app.py", line 55, in application
    response = frappe.handler.handle()
  File "/home/tyler/frappe-bench/apps/frappe/frappe/handler.py", line 21, in handle
    data = execute_cmd(cmd)
  File "/home/tyler/frappe-bench/apps/frappe/frappe/handler.py", line 52, in execute_cmd
    return frappe.call(method, **frappe.form_dict)
  File "/home/tyler/frappe-bench/apps/frappe/frappe/__init__.py", line 907, in call
    return fn(*args, **newargs)
  File "/home/tyler/frappe-bench/apps/frappe/frappe/desk/form/load.py", line 71, in getdoctype
    docs = get_meta_bundle(doctype)
  File "/home/tyler/frappe-bench/apps/frappe/frappe/desk/form/load.py", line 82, in get_meta_bundle
    bundle = [frappe.desk.form.meta.get_meta(doctype)]
  File "/home/tyler/frappe-bench/apps/frappe/frappe/desk/form/meta.py", line 22, in get_meta
    meta = FormMeta(doctype)
  File "/home/tyler/frappe-bench/apps/frappe/frappe/desk/form/meta.py", line 32, in __init__
    self.load_assets()
  File "/home/tyler/frappe-bench/apps/frappe/frappe/desk/form/meta.py", line 42, in load_assets
    self.load_templates()
  File "/home/tyler/frappe-bench/apps/frappe/frappe/desk/form/meta.py", line 152, in load_templates
    module = load_doctype_module(self.name)
  File "/home/tyler/frappe-bench/apps/frappe/frappe/modules/utils.py", line 182, in load_doctype_module
    doctype_python_modules[key] = frappe.get_module(module_name)
  File "/home/tyler/frappe-bench/apps/frappe/frappe/__init__.py", line 672, in get_module
    return importlib.import_module(modulename)
  File "/usr/lib/python2.7/importlib/__init__.py", line 37, in import_module
    __import__(name)
  File "/home/tyler/frappe-bench/apps/at_livestock/at_livestock/livestock/doctype/egg_collection/egg_collection.py", line 25
    try:
      ^
IndentationError: expected an indented block
[ERROR] 2017-07-08 14:21:18,453 | /home/tyler/frappe-bench/apps/frappe/frappe/utils/error.py:
New Exception collected with id: 2017-07-08 14:21:18.375472-127.0.0.1-bb1
[DEBUG] 2017-07-08 14:21:57,023 | /home/tyler/frappe-bench/apps/frappe/frappe/utils/scheduler.py:
Site: silverbell
Queued events for site silverbell
[ERROR] 2017-07-08 14:22:48,672 | /home/tyler/frappe-bench/apps/frappe/frappe/app.py:
Site: silverbell
Form Dict: {
 "cached_timestamp": "", 
 "cmd": "frappe.desk.form.load.getdoctype", 
 "doctype": "Egg Collection", 
 "with_parent": "1"
}
Request Error
Traceback (most recent call last):
  File "/home/tyler/frappe-bench/apps/frappe/frappe/app.py", line 55, in application
    response = frappe.handler.handle()
  File "/home/tyler/frappe-bench/apps/frappe/frappe/handler.py", line 21, in handle
    data = execute_cmd(cmd)
  File "/home/tyler/frappe-bench/apps/frappe/frappe/handler.py", line 52, in execute_cmd
    return frappe.call(method, **frappe.form_dict)
  File "/home/tyler/frappe-bench/apps/frappe/frappe/__init__.py", line 907, in call
    return fn(*args, **newargs)
  File "/home/tyler/frappe-bench/apps/frappe/frappe/desk/form/load.py", line 71, in getdoctype
    docs = get_meta_bundle(doctype)
  File "/home/tyler/frappe-bench/apps/frappe/frappe/desk/form/load.py", line 82, in get_meta_bundle
    bundle = [frappe.desk.form.meta.get_meta(doctype)]
  File "/home/tyler/frappe-bench/apps/frappe/frappe/desk/form/meta.py", line 22, in get_meta
    meta = FormMeta(doctype)
  File "/home/tyler/frappe-bench/apps/frappe/frappe/desk/form/meta.py", line 32, in __init__
    self.load_assets()
  File "/home/tyler/frappe-bench/apps/frappe/frappe/desk/form/meta.py", line 42, in load_assets
    self.load_templates()
  File "/home/tyler/frappe-bench/apps/frappe/frappe/desk/form/meta.py", line 152, in load_templates
    module = load_doctype_module(self.name)
  File "/home/tyler/frappe-bench/apps/frappe/frappe/modules/utils.py", line 182, in load_doctype_module
    doctype_python_modules[key] = frappe.get_module(module_name)
  File "/home/tyler/frappe-bench/apps/frappe/frappe/__init__.py", line 672, in get_module
    return importlib.import_module(modulename)
  File "/usr/lib/python2.7/importlib/__init__.py", line 37, in import_module
    __import__(name)
  File "/home/tyler/frappe-bench/apps/at_livestock/at_livestock/livestock/doctype/egg_collection/egg_collection.py", line 25
    try:
      ^
IndentationError: expected an indented block
[ERROR] 2017-07-08 14:22:48,745 | /home/tyler/frappe-bench/apps/frappe/frappe/utils/error.py:
New Exception collected with id: 2017-07-08 14:22:48.674900-127.0.0.1-79f
[ERROR] 2017-07-08 14:23:35,522 | /home/tyler/frappe-bench/apps/frappe/frappe/app.py:
Site: silverbell
Form Dict: {
 "Americauna": "8", 
 "Barred Rocks": "8", 
 "Rhode Island Reds": "8", 
 "args": "{\"Americauna\":\"8\",\"Barred Rocks\":\"8\",\"Rhode Island Reds\":\"8\"}", 
 "cmd": "runserverobj", 
 "docs": "{\"at_enter_as_uom\":\"Dozen\",\"modified_by\":\"Administrator\",\"name\":\"Egg Collection\",\"destination_warehouse\":\"Finished Goods - AT\",\"collection_date\":\"2017-07-08T18:23:30.007Z\",\"creation\":\"2017-07-01 17:19:30.393058\",\"modified\":\"2017-07-07 21:23:41.191085\",\"doctype\":\"Egg Collection\",\"idx\":\"0\",\"batched_egg_yield\":24,\"at_enter_as_item\":\"Eggs-Dozen\",\"owner\":\"Administrator\",\"docstatus\":0,\"__last_sync_on\":\"2017-07-08T18:23:30.283Z\",\"__unsaved\":1}", 
 "method": "collect_egg_yield"
}
Request Error
Traceback (most recent call last):
  File "/home/tyler/frappe-bench/apps/frappe/frappe/app.py", line 55, in application
    response = frappe.handler.handle()
  File "/home/tyler/frappe-bench/apps/frappe/frappe/handler.py", line 21, in handle
    data = execute_cmd(cmd)
  File "/home/tyler/frappe-bench/apps/frappe/frappe/handler.py", line 52, in execute_cmd
    return frappe.call(method, **frappe.form_dict)
  File "/home/tyler/frappe-bench/apps/frappe/frappe/__init__.py", line 907, in call
    return fn(*args, **newargs)
  File "/home/tyler/frappe-bench/apps/frappe/frappe/handler.py", line 80, in runserverobj
    frappe.desk.form.run_method.runserverobj(method, docs=docs, dt=dt, dn=dn, arg=arg, args=args)
  File "/home/tyler/frappe-bench/apps/frappe/frappe/desk/form/run_method.py", line 35, in runserverobj
    r = doc.run_method(method)
  File "/home/tyler/frappe-bench/apps/frappe/frappe/model/document.py", line 666, in run_method
    out = Document.hook(fn)(self, *args, **kwargs)
  File "/home/tyler/frappe-bench/apps/frappe/frappe/model/document.py", line 892, in composer
    return composed(self, method, *args, **kwargs)
  File "/home/tyler/frappe-bench/apps/frappe/frappe/model/document.py", line 875, in runner
    add_to_return_value(self, fn(self, *args, **kwargs))
  File "/home/tyler/frappe-bench/apps/frappe/frappe/model/document.py", line 660, in <lambda>
    fn = lambda self, *args, **kwargs: getattr(self, method)(*args, **kwargs)
  File "/home/tyler/frappe-bench/apps/at_livestock/at_livestock/livestock/doctype/egg_collection/egg_collection.py", line 36, in collect_egg_yield
    frappe.msgprint(collected_eggs, "Egg Collection Records Saved")
NameError: global name 'collected_eggs' is not defined
[ERROR] 2017-07-08 14:23:35,575 | /home/tyler/frappe-bench/apps/frappe/frappe/utils/error.py:
New Exception collected with id: 2017-07-08 14:23:35.523446-127.0.0.1-63d
[DEBUG] 2017-07-08 14:25:57,347 | /home/tyler/frappe-bench/apps/frappe/frappe/utils/scheduler.py:
Site: silverbell
Queued events for site silverbell
[DEBUG] 2017-07-08 14:29:57,716 | /home/tyler/frappe-bench/apps/frappe/frappe/utils/scheduler.py:
Site: silverbell
Queued events for site silverbell
[DEBUG] 2017-07-08 14:33:58,097 | /home/tyler/frappe-bench/apps/frappe/frappe/utils/scheduler.py:
Site: silverbell
Queued events for site silverbell
[DEBUG] 2017-07-08 14:37:58,476 | /home/tyler/frappe-bench/apps/frappe/frappe/utils/scheduler.py:
Site: silverbell
Queued events for site silverbell
[DEBUG] 2017-07-08 14:41:58,816 | /home/tyler/frappe-bench/apps/frappe/frappe/utils/scheduler.py:
Site: silverbell
Queued events for site silverbell
[DEBUG] 2017-07-08 14:45:59,196 | /home/tyler/frappe-bench/apps/frappe/frappe/utils/scheduler.py:
Site: silverbell
Queued events for site silverbell
[DEBUG] 2017-07-08 14:49:59,548 | /home/tyler/frappe-bench/apps/frappe/frappe/utils/scheduler.py:
Site: silverbell
Queued events for site silverbell
[DEBUG] 2017-07-08 14:53:59,924 | /home/tyler/frappe-bench/apps/frappe/frappe/utils/scheduler.py:
Site: silverbell
Queued events for site silverbell
[DEBUG] 2017-07-08 14:58:00,218 | /home/tyler/frappe-bench/apps/frappe/frappe/utils/scheduler.py:
Site: silverbell
Queued events for site silverbell
[DEBUG] 2017-07-08 15:02:00,567 | /home/tyler/frappe-bench/apps/frappe/frappe/utils/scheduler.py:
Site: silverbell
Queued events for site silverbell
[DEBUG] 2017-07-08 15:06:00,909 | /home/tyler/frappe-bench/apps/frappe/frappe/utils/scheduler.py:
Site: silverbell
Queued events for site silverbell
[DEBUG] 2017-07-08 15:10:01,284 | /home/tyler/frappe-bench/apps/frappe/frappe/utils/scheduler.py:
Site: silverbell
Queued events for site silverbell
[DEBUG] 2017-07-08 15:14:01,644 | /home/tyler/frappe-bench/apps/frappe/frappe/utils/scheduler.py:
Site: silverbell
Queued events for site silverbell
[DEBUG] 2017-07-08 15:18:02,005 | /home/tyler/frappe-bench/apps/frappe/frappe/utils/scheduler.py:
Site: silverbell
Queued events for site silverbell
[DEBUG] 2017-07-08 15:22:02,378 | /home/tyler/frappe-bench/apps/frappe/frappe/utils/scheduler.py:
Site: silverbell
Queued events for site silverbell
[DEBUG] 2017-07-08 15:26:02,749 | /home/tyler/frappe-bench/apps/frappe/frappe/utils/scheduler.py:
Site: silverbell
Queued events for site silverbell
[DEBUG] 2017-07-08 15:30:03,228 | /home/tyler/frappe-bench/apps/frappe/frappe/utils/scheduler.py:
Site: silverbell
Queued events for site silverbell
[DEBUG] 2017-07-08 15:34:03,601 | /home/tyler/frappe-bench/apps/frappe/frappe/utils/scheduler.py:
Site: silverbell
Queued events for site silverbell
[DEBUG] 2017-07-08 15:38:03,937 | /home/tyler/frappe-bench/apps/frappe/frappe/utils/scheduler.py:
Site: silverbell
Queued events for site silverbell
[DEBUG] 2017-07-08 15:42:04,303 | /home/tyler/frappe-bench/apps/frappe/frappe/utils/scheduler.py:
Site: silverbell
Queued events for site silverbell
[DEBUG] 2017-07-08 15:46:04,617 | /home/tyler/frappe-bench/apps/frappe/frappe/utils/scheduler.py:
Site: silverbell
Queued events for site silverbell
[DEBUG] 2017-07-08 15:50:04,956 | /home/tyler/frappe-bench/apps/frappe/frappe/utils/scheduler.py:
Site: silverbell
Queued events for site silverbell
[DEBUG] 2017-07-08 15:54:05,313 | /home/tyler/frappe-bench/apps/frappe/frappe/utils/scheduler.py:
Site: silverbell
Queued events for site silverbell
[DEBUG] 2017-07-08 15:58:05,653 | /home/tyler/frappe-bench/apps/frappe/frappe/utils/scheduler.py:
Site: silverbell
Queued events for site silverbell
[DEBUG] 2017-07-08 16:02:06,076 | /home/tyler/frappe-bench/apps/frappe/frappe/utils/scheduler.py:
Site: silverbell
Queued events for site silverbell
[DEBUG] 2017-07-08 16:06:06,408 | /home/tyler/frappe-bench/apps/frappe/frappe/utils/scheduler.py:
Site: silverbell
Queued events for site silverbell
[DEBUG] 2017-07-08 16:10:06,753 | /home/tyler/frappe-bench/apps/frappe/frappe/utils/scheduler.py:
Site: silverbell
Queued events for site silverbell
[DEBUG] 2017-07-08 16:14:07,116 | /home/tyler/frappe-bench/apps/frappe/frappe/utils/scheduler.py:
Site: silverbell
Queued events for site silverbell
[DEBUG] 2017-07-08 16:18:07,419 | /home/tyler/frappe-bench/apps/frappe/frappe/utils/scheduler.py:
Site: silverbell
Queued events for site silverbell
[DEBUG] 2017-07-08 16:22:07,811 | /home/tyler/frappe-bench/apps/frappe/frappe/utils/scheduler.py:
Site: silverbell
Queued events for site silverbell
[DEBUG] 2017-07-08 16:26:08,111 | /home/tyler/frappe-bench/apps/frappe/frappe/utils/scheduler.py:
Site: silverbell
Queued events for site silverbell
[DEBUG] 2017-07-08 16:30:08,444 | /home/tyler/frappe-bench/apps/frappe/frappe/utils/scheduler.py:
Site: silverbell
Queued events for site silverbell
[DEBUG] 2017-07-08 16:34:08,811 | /home/tyler/frappe-bench/apps/frappe/frappe/utils/scheduler.py:
Site: silverbell
Queued events for site silverbell
[DEBUG] 2017-07-08 16:38:09,145 | /home/tyler/frappe-bench/apps/frappe/frappe/utils/scheduler.py:
Site: silverbell
Queued events for site silverbell
[DEBUG] 2017-07-08 16:42:09,463 | /home/tyler/frappe-bench/apps/frappe/frappe/utils/scheduler.py:
Site: silverbell
Queued events for site silverbell
[DEBUG] 2017-07-08 16:46:09,806 | /home/tyler/frappe-bench/apps/frappe/frappe/utils/scheduler.py:
Site: silverbell
Queued events for site silverbell
[DEBUG] 2017-07-08 16:50:10,165 | /home/tyler/frappe-bench/apps/frappe/frappe/utils/scheduler.py:
Site: silverbell
Queued events for site silverbell
[DEBUG] 2017-07-08 16:54:10,492 | /home/tyler/frappe-bench/apps/frappe/frappe/utils/scheduler.py:
Site: silverbell
Queued events for site silverbell
[DEBUG] 2017-07-08 16:58:10,851 | /home/tyler/frappe-bench/apps/frappe/frappe/utils/scheduler.py:
Site: silverbell
Queued events for site silverbell
[DEBUG] 2017-07-08 17:02:11,186 | /home/tyler/frappe-bench/apps/frappe/frappe/utils/scheduler.py:
Site: silverbell
Queued events for site silverbell
[DEBUG] 2017-07-08 17:06:11,545 | /home/tyler/frappe-bench/apps/frappe/frappe/utils/scheduler.py:
Site: silverbell
Queued events for site silverbell
[ERROR] 2017-07-08 17:07:57,726 | /home/tyler/frappe-bench/apps/frappe/frappe/app.py:
Site: silverbell
Form Dict: {
 "Americauna": "4", 
 "Barred Rocks": "4", 
 "Rhode Island Reds": "4", 
 "args": "{\"Americauna\":\"4\",\"Barred Rocks\":\"4\",\"Rhode Island Reds\":\"4\"}", 
 "cmd": "runserverobj", 
 "docs": "{\"at_enter_as_uom\":\"Dozen\",\"modified_by\":\"Administrator\",\"name\":\"Egg Collection\",\"destination_warehouse\":\"Finished Goods - AT\",\"collection_date\":\"2017-07-08T21:07:50.093Z\",\"creation\":\"2017-07-01 17:19:30.393058\",\"modified\":\"2017-07-08 17:04:57.115412\",\"doctype\":\"Egg Collection\",\"idx\":\"0\",\"batched_egg_yield\":12,\"at_enter_as_item\":\"Eggs-Dozen\",\"owner\":\"Administrator\",\"docstatus\":0,\"__last_sync_on\":\"2017-07-08T21:07:50.280Z\",\"__unsaved\":1}", 
 "method": "collect_egg_yield"
}
Request Error
Traceback (most recent call last):
  File "/home/tyler/frappe-bench/apps/frappe/frappe/app.py", line 55, in application
    response = frappe.handler.handle()
  File "/home/tyler/frappe-bench/apps/frappe/frappe/handler.py", line 21, in handle
    data = execute_cmd(cmd)
  File "/home/tyler/frappe-bench/apps/frappe/frappe/handler.py", line 52, in execute_cmd
    return frappe.call(method, **frappe.form_dict)
  File "/home/tyler/frappe-bench/apps/frappe/frappe/__init__.py", line 907, in call
    return fn(*args, **newargs)
  File "/home/tyler/frappe-bench/apps/frappe/frappe/handler.py", line 80, in runserverobj
    frappe.desk.form.run_method.runserverobj(method, docs=docs, dt=dt, dn=dn, arg=arg, args=args)
  File "/home/tyler/frappe-bench/apps/frappe/frappe/desk/form/run_method.py", line 35, in runserverobj
    r = doc.run_method(method)
  File "/home/tyler/frappe-bench/apps/frappe/frappe/model/document.py", line 666, in run_method
    out = Document.hook(fn)(self, *args, **kwargs)
  File "/home/tyler/frappe-bench/apps/frappe/frappe/model/document.py", line 892, in composer
    return composed(self, method, *args, **kwargs)
  File "/home/tyler/frappe-bench/apps/frappe/frappe/model/document.py", line 875, in runner
    add_to_return_value(self, fn(self, *args, **kwargs))
  File "/home/tyler/frappe-bench/apps/frappe/frappe/model/document.py", line 660, in <lambda>
    fn = lambda self, *args, **kwargs: getattr(self, method)(*args, **kwargs)
  File "/home/tyler/frappe-bench/apps/at_livestock/at_livestock/livestock/doctype/egg_collection/egg_collection.py", line 23, in collect_egg_yield
    collected_eggs = parse_data_types(kwargs)
NameError: global name 'parse_data_types' is not defined
[ERROR] 2017-07-08 17:07:57,769 | /home/tyler/frappe-bench/apps/frappe/frappe/utils/error.py:
New Exception collected with id: 2017-07-08 17:07:57.726918-127.0.0.1-642
[DEBUG] 2017-07-09 10:04:41,215 | /home/tyler/frappe-bench/apps/frappe/frappe/utils/scheduler.py:
Site: silverbell
Queued events for site silverbell
[ERROR] 2017-07-09 10:06:39,933 | /home/tyler/frappe-bench/apps/frappe/frappe/app.py:
Site: silverbell
Form Dict: {
 "cached_timestamp": "", 
 "cmd": "frappe.desk.form.load.getdoctype", 
 "doctype": "Egg Collection", 
 "with_parent": "1"
}
Request Error
Traceback (most recent call last):
  File "/home/tyler/frappe-bench/apps/frappe/frappe/app.py", line 55, in application
    response = frappe.handler.handle()
  File "/home/tyler/frappe-bench/apps/frappe/frappe/handler.py", line 21, in handle
    data = execute_cmd(cmd)
  File "/home/tyler/frappe-bench/apps/frappe/frappe/handler.py", line 52, in execute_cmd
    return frappe.call(method, **frappe.form_dict)
  File "/home/tyler/frappe-bench/apps/frappe/frappe/__init__.py", line 907, in call
    return fn(*args, **newargs)
  File "/home/tyler/frappe-bench/apps/frappe/frappe/desk/form/load.py", line 71, in getdoctype
    docs = get_meta_bundle(doctype)
  File "/home/tyler/frappe-bench/apps/frappe/frappe/desk/form/load.py", line 82, in get_meta_bundle
    bundle = [frappe.desk.form.meta.get_meta(doctype)]
  File "/home/tyler/frappe-bench/apps/frappe/frappe/desk/form/meta.py", line 22, in get_meta
    meta = FormMeta(doctype)
  File "/home/tyler/frappe-bench/apps/frappe/frappe/desk/form/meta.py", line 32, in __init__
    self.load_assets()
  File "/home/tyler/frappe-bench/apps/frappe/frappe/desk/form/meta.py", line 42, in load_assets
    self.load_templates()
  File "/home/tyler/frappe-bench/apps/frappe/frappe/desk/form/meta.py", line 152, in load_templates
    module = load_doctype_module(self.name)
  File "/home/tyler/frappe-bench/apps/frappe/frappe/modules/utils.py", line 182, in load_doctype_module
    doctype_python_modules[key] = frappe.get_module(module_name)
  File "/home/tyler/frappe-bench/apps/frappe/frappe/__init__.py", line 672, in get_module
    return importlib.import_module(modulename)
  File "/usr/lib/python2.7/importlib/__init__.py", line 37, in import_module
    __import__(name)
  File "/home/tyler/frappe-bench/apps/at_livestock/at_livestock/livestock/doctype/egg_collection/egg_collection.py", line 62
    // indentation?
     ^
SyntaxError: invalid syntax
[ERROR] 2017-07-09 10:06:40,015 | /home/tyler/frappe-bench/apps/frappe/frappe/utils/error.py:
New Exception collected with id: 2017-07-09 10:06:39.934104-127.0.0.1-2ce
[ERROR] 2017-07-09 10:07:01,267 | /home/tyler/frappe-bench/apps/frappe/frappe/app.py:
Site: silverbell
Form Dict: {
 "Americauna": "4", 
 "Barred Rocks": "4", 
 "Rhode Island Reds": "4", 
 "args": "{\"Americauna\":\"4\",\"Barred Rocks\":\"4\",\"Rhode Island Reds\":\"4\"}", 
 "cmd": "runserverobj", 
 "docs": "{\"at_enter_as_uom\":\"Dozen\",\"modified_by\":\"Administrator\",\"name\":\"Egg Collection\",\"destination_warehouse\":\"Finished Goods - AT\",\"collection_date\":\"2017-07-09T14:06:55.329Z\",\"creation\":\"2017-07-01 17:19:30.393058\",\"modified\":\"2017-07-08 17:07:57.536595\",\"doctype\":\"Egg Collection\",\"idx\":\"0\",\"batched_egg_yield\":12,\"at_enter_as_item\":\"Eggs-Dozen\",\"owner\":\"Administrator\",\"docstatus\":0,\"__last_sync_on\":\"2017-07-09T14:06:55.582Z\",\"__unsaved\":1}", 
 "method": "collect_egg_yield"
}
Request Error
Traceback (most recent call last):
  File "/home/tyler/frappe-bench/apps/frappe/frappe/app.py", line 55, in application
    response = frappe.handler.handle()
  File "/home/tyler/frappe-bench/apps/frappe/frappe/handler.py", line 21, in handle
    data = execute_cmd(cmd)
  File "/home/tyler/frappe-bench/apps/frappe/frappe/handler.py", line 52, in execute_cmd
    return frappe.call(method, **frappe.form_dict)
  File "/home/tyler/frappe-bench/apps/frappe/frappe/__init__.py", line 907, in call
    return fn(*args, **newargs)
  File "/home/tyler/frappe-bench/apps/frappe/frappe/handler.py", line 80, in runserverobj
    frappe.desk.form.run_method.runserverobj(method, docs=docs, dt=dt, dn=dn, arg=arg, args=args)
  File "/home/tyler/frappe-bench/apps/frappe/frappe/desk/form/run_method.py", line 35, in runserverobj
    r = doc.run_method(method)
  File "/home/tyler/frappe-bench/apps/frappe/frappe/model/document.py", line 666, in run_method
    out = Document.hook(fn)(self, *args, **kwargs)
  File "/home/tyler/frappe-bench/apps/frappe/frappe/model/document.py", line 892, in composer
    return composed(self, method, *args, **kwargs)
  File "/home/tyler/frappe-bench/apps/frappe/frappe/model/document.py", line 875, in runner
    add_to_return_value(self, fn(self, *args, **kwargs))
  File "/home/tyler/frappe-bench/apps/frappe/frappe/model/document.py", line 660, in <lambda>
    fn = lambda self, *args, **kwargs: getattr(self, method)(*args, **kwargs)
  File "/home/tyler/frappe-bench/apps/at_livestock/at_livestock/livestock/doctype/egg_collection/egg_collection.py", line 23, in collect_egg_yield
    collected_eggs = parse_data_types(kwargs)
NameError: global name 'parse_data_types' is not defined
[ERROR] 2017-07-09 10:07:01,340 | /home/tyler/frappe-bench/apps/frappe/frappe/utils/error.py:
New Exception collected with id: 2017-07-09 10:07:01.276575-127.0.0.1-b6d
[ERROR] 2017-07-09 10:07:23,791 | /home/tyler/frappe-bench/apps/frappe/frappe/app.py:
Site: silverbell
Form Dict: {
 "Americauna": "4", 
 "Barred Rocks": "4", 
 "Rhode Island Reds": "4", 
 "args": "{\"Americauna\":\"4\",\"Barred Rocks\":\"4\",\"Rhode Island Reds\":\"4\"}", 
 "cmd": "runserverobj", 
 "docs": "{\"at_enter_as_uom\":\"Dozen\",\"modified_by\":\"Administrator\",\"name\":\"Egg Collection\",\"parent\":null,\"destination_warehouse\":\"Finished Goods - AT\",\"collection_date\":\"2017-07-09T14:06:55.329Z\",\"creation\":\"2017-07-01 17:19:30.393058\",\"modified\":\"2017-07-09 10:07:01.212436\",\"doctype\":\"Egg Collection\",\"idx\":\"0\",\"parenttype\":null,\"batched_egg_yield\":12,\"at_enter_as_item\":\"Eggs-Dozen\",\"owner\":\"Administrator\",\"docstatus\":0,\"parentfield\":null,\"__last_sync_on\":\"2017-07-09T14:07:01.658Z\"}", 
 "method": "collect_egg_yield"
}
Request Error
Traceback (most recent call last):
  File "/home/tyler/frappe-bench/apps/frappe/frappe/app.py", line 55, in application
    response = frappe.handler.handle()
  File "/home/tyler/frappe-bench/apps/frappe/frappe/handler.py", line 21, in handle
    data = execute_cmd(cmd)
  File "/home/tyler/frappe-bench/apps/frappe/frappe/handler.py", line 52, in execute_cmd
    return frappe.call(method, **frappe.form_dict)
  File "/home/tyler/frappe-bench/apps/frappe/frappe/__init__.py", line 907, in call
    return fn(*args, **newargs)
  File "/home/tyler/frappe-bench/apps/frappe/frappe/handler.py", line 80, in runserverobj
    frappe.desk.form.run_method.runserverobj(method, docs=docs, dt=dt, dn=dn, arg=arg, args=args)
  File "/home/tyler/frappe-bench/apps/frappe/frappe/desk/form/run_method.py", line 35, in runserverobj
    r = doc.run_method(method)
  File "/home/tyler/frappe-bench/apps/frappe/frappe/model/document.py", line 666, in run_method
    out = Document.hook(fn)(self, *args, **kwargs)
  File "/home/tyler/frappe-bench/apps/frappe/frappe/model/document.py", line 892, in composer
    return composed(self, method, *args, **kwargs)
  File "/home/tyler/frappe-bench/apps/frappe/frappe/model/document.py", line 875, in runner
    add_to_return_value(self, fn(self, *args, **kwargs))
  File "/home/tyler/frappe-bench/apps/frappe/frappe/model/document.py", line 660, in <lambda>
    fn = lambda self, *args, **kwargs: getattr(self, method)(*args, **kwargs)
  File "/home/tyler/frappe-bench/apps/at_livestock/at_livestock/livestock/doctype/egg_collection/egg_collection.py", line 23, in collect_egg_yield
    collected_eggs = parse_data_types(kwargs)
NameError: global name 'parse_data_types' is not defined
[ERROR] 2017-07-09 10:07:23,854 | /home/tyler/frappe-bench/apps/frappe/frappe/utils/error.py:
New Exception collected with id: 2017-07-09 10:07:23.791516-127.0.0.1-da6
[ERROR] 2017-07-09 10:07:41,985 | /home/tyler/frappe-bench/apps/frappe/frappe/app.py:
Site: silverbell
Form Dict: {
 "Americauna": "4", 
 "Barred Rocks": "4", 
 "Rhode Island Reds": "4", 
 "args": "{\"Americauna\":\"4\",\"Barred Rocks\":\"4\",\"Rhode Island Reds\":\"4\"}", 
 "cmd": "runserverobj", 
 "docs": "{\"at_enter_as_uom\":\"Dozen\",\"modified_by\":\"Administrator\",\"name\":\"Egg Collection\",\"parent\":null,\"destination_warehouse\":\"Finished Goods - AT\",\"collection_date\":\"2017-07-09T14:06:55.329Z\",\"creation\":\"2017-07-01 17:19:30.393058\",\"modified\":\"2017-07-09 10:07:23.787825\",\"doctype\":\"Egg Collection\",\"idx\":\"0\",\"parenttype\":null,\"batched_egg_yield\":12,\"at_enter_as_item\":\"Eggs-Dozen\",\"owner\":\"Administrator\",\"docstatus\":0,\"parentfield\":null,\"__last_sync_on\":\"2017-07-09T14:07:24.079Z\"}", 
 "method": "collect_egg_yield"
}
Request Error
Traceback (most recent call last):
  File "/home/tyler/frappe-bench/apps/frappe/frappe/app.py", line 55, in application
    response = frappe.handler.handle()
  File "/home/tyler/frappe-bench/apps/frappe/frappe/handler.py", line 21, in handle
    data = execute_cmd(cmd)
  File "/home/tyler/frappe-bench/apps/frappe/frappe/handler.py", line 52, in execute_cmd
    return frappe.call(method, **frappe.form_dict)
  File "/home/tyler/frappe-bench/apps/frappe/frappe/__init__.py", line 907, in call
    return fn(*args, **newargs)
  File "/home/tyler/frappe-bench/apps/frappe/frappe/handler.py", line 80, in runserverobj
    frappe.desk.form.run_method.runserverobj(method, docs=docs, dt=dt, dn=dn, arg=arg, args=args)
  File "/home/tyler/frappe-bench/apps/frappe/frappe/desk/form/run_method.py", line 35, in runserverobj
    r = doc.run_method(method)
  File "/home/tyler/frappe-bench/apps/frappe/frappe/model/document.py", line 666, in run_method
    out = Document.hook(fn)(self, *args, **kwargs)
  File "/home/tyler/frappe-bench/apps/frappe/frappe/model/document.py", line 892, in composer
    return composed(self, method, *args, **kwargs)
  File "/home/tyler/frappe-bench/apps/frappe/frappe/model/document.py", line 875, in runner
    add_to_return_value(self, fn(self, *args, **kwargs))
  File "/home/tyler/frappe-bench/apps/frappe/frappe/model/document.py", line 660, in <lambda>
    fn = lambda self, *args, **kwargs: getattr(self, method)(*args, **kwargs)
  File "/home/tyler/frappe-bench/apps/at_livestock/at_livestock/livestock/doctype/egg_collection/egg_collection.py", line 23, in collect_egg_yield
    collected_eggs = parse_data_types(kwargs)
NameError: global name 'parse_data_types' is not defined
[ERROR] 2017-07-09 10:07:42,039 | /home/tyler/frappe-bench/apps/frappe/frappe/utils/error.py:
New Exception collected with id: 2017-07-09 10:07:41.985675-127.0.0.1-7a3
[ERROR] 2017-07-09 10:08:25,160 | /home/tyler/frappe-bench/apps/frappe/frappe/app.py:
Site: silverbell
Form Dict: {
 "Americauna": "4", 
 "Barred Rocks": "4", 
 "Rhode Island Reds": "4", 
 "args": "{\"Americauna\":\"4\",\"Barred Rocks\":\"4\",\"Rhode Island Reds\":\"4\"}", 
 "cmd": "runserverobj", 
 "docs": "{\"at_enter_as_uom\":\"Dozen\",\"modified_by\":\"Administrator\",\"name\":\"Egg Collection\",\"parent\":null,\"destination_warehouse\":\"Finished Goods - AT\",\"collection_date\":\"2017-07-09T14:06:55.329Z\",\"creation\":\"2017-07-01 17:19:30.393058\",\"modified\":\"2017-07-09 10:07:41.977042\",\"doctype\":\"Egg Collection\",\"idx\":\"0\",\"parenttype\":null,\"batched_egg_yield\":12,\"at_enter_as_item\":\"Eggs-Dozen\",\"owner\":\"Administrator\",\"docstatus\":0,\"parentfield\":null,\"__last_sync_on\":\"2017-07-09T14:07:42.356Z\"}", 
 "method": "collect_egg_yield"
}
Request Error
Traceback (most recent call last):
  File "/home/tyler/frappe-bench/apps/frappe/frappe/app.py", line 55, in application
    response = frappe.handler.handle()
  File "/home/tyler/frappe-bench/apps/frappe/frappe/handler.py", line 21, in handle
    data = execute_cmd(cmd)
  File "/home/tyler/frappe-bench/apps/frappe/frappe/handler.py", line 52, in execute_cmd
    return frappe.call(method, **frappe.form_dict)
  File "/home/tyler/frappe-bench/apps/frappe/frappe/__init__.py", line 907, in call
    return fn(*args, **newargs)
  File "/home/tyler/frappe-bench/apps/frappe/frappe/handler.py", line 80, in runserverobj
    frappe.desk.form.run_method.runserverobj(method, docs=docs, dt=dt, dn=dn, arg=arg, args=args)
  File "/home/tyler/frappe-bench/apps/frappe/frappe/desk/form/run_method.py", line 35, in runserverobj
    r = doc.run_method(method)
  File "/home/tyler/frappe-bench/apps/frappe/frappe/model/document.py", line 666, in run_method
    out = Document.hook(fn)(self, *args, **kwargs)
  File "/home/tyler/frappe-bench/apps/frappe/frappe/model/document.py", line 892, in composer
    return composed(self, method, *args, **kwargs)
  File "/home/tyler/frappe-bench/apps/frappe/frappe/model/document.py", line 875, in runner
    add_to_return_value(self, fn(self, *args, **kwargs))
  File "/home/tyler/frappe-bench/apps/frappe/frappe/model/document.py", line 660, in <lambda>
    fn = lambda self, *args, **kwargs: getattr(self, method)(*args, **kwargs)
  File "/home/tyler/frappe-bench/apps/at_livestock/at_livestock/livestock/doctype/egg_collection/egg_collection.py", line 23, in collect_egg_yield
    collected_eggs = parse_data_types(kwargs)
NameError: global name 'parse_data_types' is not defined
[ERROR] 2017-07-09 10:08:25,187 | /home/tyler/frappe-bench/apps/frappe/frappe/utils/error.py:
New Exception collected with id: 2017-07-09 10:08:25.161550-127.0.0.1-ffc
[DEBUG] 2017-07-09 10:08:41,621 | /home/tyler/frappe-bench/apps/frappe/frappe/utils/scheduler.py:
Site: silverbell
Queued events for site silverbell
[ERROR] 2017-07-09 10:09:24,020 | /home/tyler/frappe-bench/apps/frappe/frappe/app.py:
Site: silverbell
Form Dict: {
 "Americauna": "4", 
 "Barred Rocks": "4", 
 "Rhode Island Reds": "4", 
 "args": "{\"Americauna\":\"4\",\"Barred Rocks\":\"4\",\"Rhode Island Reds\":\"4\"}", 
 "cmd": "runserverobj", 
 "docs": "{\"at_enter_as_uom\":\"Dozen\",\"modified_by\":\"Administrator\",\"name\":\"Egg Collection\",\"destination_warehouse\":\"Finished Goods - AT\",\"collection_date\":\"2017-07-09T14:09:18.806Z\",\"creation\":\"2017-07-01 17:19:30.393058\",\"modified\":\"2017-07-09 10:08:25.183200\",\"doctype\":\"Egg Collection\",\"idx\":\"0\",\"batched_egg_yield\":12,\"at_enter_as_item\":\"Eggs-Dozen\",\"owner\":\"Administrator\",\"docstatus\":0,\"__last_sync_on\":\"2017-07-09T14:09:19.078Z\",\"__unsaved\":1}", 
 "method": "collect_egg_yield"
}
Request Error
Traceback (most recent call last):
  File "/home/tyler/frappe-bench/apps/frappe/frappe/app.py", line 55, in application
    response = frappe.handler.handle()
  File "/home/tyler/frappe-bench/apps/frappe/frappe/handler.py", line 21, in handle
    data = execute_cmd(cmd)
  File "/home/tyler/frappe-bench/apps/frappe/frappe/handler.py", line 52, in execute_cmd
    return frappe.call(method, **frappe.form_dict)
  File "/home/tyler/frappe-bench/apps/frappe/frappe/__init__.py", line 907, in call
    return fn(*args, **newargs)
  File "/home/tyler/frappe-bench/apps/frappe/frappe/handler.py", line 80, in runserverobj
    frappe.desk.form.run_method.runserverobj(method, docs=docs, dt=dt, dn=dn, arg=arg, args=args)
  File "/home/tyler/frappe-bench/apps/frappe/frappe/desk/form/run_method.py", line 35, in runserverobj
    r = doc.run_method(method)
  File "/home/tyler/frappe-bench/apps/frappe/frappe/model/document.py", line 666, in run_method
    out = Document.hook(fn)(self, *args, **kwargs)
  File "/home/tyler/frappe-bench/apps/frappe/frappe/model/document.py", line 892, in composer
    return composed(self, method, *args, **kwargs)
  File "/home/tyler/frappe-bench/apps/frappe/frappe/model/document.py", line 875, in runner
    add_to_return_value(self, fn(self, *args, **kwargs))
  File "/home/tyler/frappe-bench/apps/frappe/frappe/model/document.py", line 660, in <lambda>
    fn = lambda self, *args, **kwargs: getattr(self, method)(*args, **kwargs)
  File "/home/tyler/frappe-bench/apps/at_livestock/at_livestock/livestock/doctype/egg_collection/egg_collection.py", line 23, in collect_egg_yield
    collected_eggs = parse_data_types(kwargs)
NameError: global name 'parse_data_types' is not defined
[ERROR] 2017-07-09 10:09:24,029 | /home/tyler/frappe-bench/apps/frappe/frappe/utils/error.py:
New Exception collected with id: 2017-07-09 10:09:24.021253-127.0.0.1-2e7
[ERROR] 2017-07-09 10:09:47,317 | /home/tyler/frappe-bench/apps/frappe/frappe/app.py:
Site: silverbell
Form Dict: {
 "Americauna": "4", 
 "Barred Rocks": "4", 
 "Rhode Island Reds": "4", 
 "args": "{\"Americauna\":\"4\",\"Barred Rocks\":\"4\",\"Rhode Island Reds\":\"4\"}", 
 "cmd": "runserverobj", 
 "docs": "{\"at_enter_as_uom\":\"Dozen\",\"modified_by\":\"Administrator\",\"name\":\"Egg Collection\",\"parent\":null,\"destination_warehouse\":\"Finished Goods - AT\",\"collection_date\":\"2017-07-09T14:09:18.806Z\",\"creation\":\"2017-07-01 17:19:30.393058\",\"modified\":\"2017-07-09 10:09:24.064421\",\"doctype\":\"Egg Collection\",\"idx\":\"0\",\"parenttype\":null,\"batched_egg_yield\":12,\"at_enter_as_item\":\"Eggs-Dozen\",\"owner\":\"Administrator\",\"docstatus\":0,\"parentfield\":null,\"__last_sync_on\":\"2017-07-09T14:09:24.335Z\"}", 
 "method": "collect_egg_yield"
}
Request Error
Traceback (most recent call last):
  File "/home/tyler/frappe-bench/apps/frappe/frappe/app.py", line 55, in application
    response = frappe.handler.handle()
  File "/home/tyler/frappe-bench/apps/frappe/frappe/handler.py", line 21, in handle
    data = execute_cmd(cmd)
  File "/home/tyler/frappe-bench/apps/frappe/frappe/handler.py", line 52, in execute_cmd
    return frappe.call(method, **frappe.form_dict)
  File "/home/tyler/frappe-bench/apps/frappe/frappe/__init__.py", line 907, in call
    return fn(*args, **newargs)
  File "/home/tyler/frappe-bench/apps/frappe/frappe/handler.py", line 80, in runserverobj
    frappe.desk.form.run_method.runserverobj(method, docs=docs, dt=dt, dn=dn, arg=arg, args=args)
  File "/home/tyler/frappe-bench/apps/frappe/frappe/desk/form/run_method.py", line 35, in runserverobj
    r = doc.run_method(method)
  File "/home/tyler/frappe-bench/apps/frappe/frappe/model/document.py", line 666, in run_method
    out = Document.hook(fn)(self, *args, **kwargs)
  File "/home/tyler/frappe-bench/apps/frappe/frappe/model/document.py", line 892, in composer
    return composed(self, method, *args, **kwargs)
  File "/home/tyler/frappe-bench/apps/frappe/frappe/model/document.py", line 875, in runner
    add_to_return_value(self, fn(self, *args, **kwargs))
  File "/home/tyler/frappe-bench/apps/frappe/frappe/model/document.py", line 660, in <lambda>
    fn = lambda self, *args, **kwargs: getattr(self, method)(*args, **kwargs)
  File "/home/tyler/frappe-bench/apps/at_livestock/at_livestock/livestock/doctype/egg_collection/egg_collection.py", line 23, in collect_egg_yield
    collected_eggs = parse_data_types(kwargs)
NameError: global name 'parse_data_types' is not defined
[ERROR] 2017-07-09 10:09:47,428 | /home/tyler/frappe-bench/apps/frappe/frappe/utils/error.py:
New Exception collected with id: 2017-07-09 10:09:47.336596-127.0.0.1-556
[DEBUG] 2017-07-09 10:12:41,957 | /home/tyler/frappe-bench/apps/frappe/frappe/utils/scheduler.py:
Site: silverbell
Queued events for site silverbell
[DEBUG] 2017-07-09 10:16:42,286 | /home/tyler/frappe-bench/apps/frappe/frappe/utils/scheduler.py:
Site: silverbell
Queued events for site silverbell
[DEBUG] 2017-07-09 10:20:42,613 | /home/tyler/frappe-bench/apps/frappe/frappe/utils/scheduler.py:
Site: silverbell
Queued events for site silverbell
[DEBUG] 2017-07-09 10:24:42,956 | /home/tyler/frappe-bench/apps/frappe/frappe/utils/scheduler.py:
Site: silverbell
Queued events for site silverbell
[DEBUG] 2017-07-09 10:28:43,298 | /home/tyler/frappe-bench/apps/frappe/frappe/utils/scheduler.py:
Site: silverbell
Queued events for site silverbell
[DEBUG] 2017-07-09 10:32:43,634 | /home/tyler/frappe-bench/apps/frappe/frappe/utils/scheduler.py:
Site: silverbell
Queued events for site silverbell
[DEBUG] 2017-07-09 10:36:43,988 | /home/tyler/frappe-bench/apps/frappe/frappe/utils/scheduler.py:
Site: silverbell
Queued events for site silverbell
[DEBUG] 2017-07-09 10:40:44,324 | /home/tyler/frappe-bench/apps/frappe/frappe/utils/scheduler.py:
Site: silverbell
Queued events for site silverbell
[DEBUG] 2017-07-09 10:44:44,661 | /home/tyler/frappe-bench/apps/frappe/frappe/utils/scheduler.py:
Site: silverbell
Queued events for site silverbell
[DEBUG] 2017-07-09 10:48:45,000 | /home/tyler/frappe-bench/apps/frappe/frappe/utils/scheduler.py:
Site: silverbell
Queued events for site silverbell
[DEBUG] 2017-07-09 10:52:45,350 | /home/tyler/frappe-bench/apps/frappe/frappe/utils/scheduler.py:
Site: silverbell
Queued events for site silverbell
[DEBUG] 2017-07-09 10:56:45,687 | /home/tyler/frappe-bench/apps/frappe/frappe/utils/scheduler.py:
Site: silverbell
Queued events for site silverbell
[DEBUG] 2017-07-09 11:00:46,043 | /home/tyler/frappe-bench/apps/frappe/frappe/utils/scheduler.py:
Site: silverbell
Queued events for site silverbell
[DEBUG] 2017-07-09 11:04:46,391 | /home/tyler/frappe-bench/apps/frappe/frappe/utils/scheduler.py:
Site: silverbell
Queued events for site silverbell
[DEBUG] 2017-07-09 11:08:46,722 | /home/tyler/frappe-bench/apps/frappe/frappe/utils/scheduler.py:
Site: silverbell
Queued events for site silverbell
[DEBUG] 2017-07-09 11:12:47,107 | /home/tyler/frappe-bench/apps/frappe/frappe/utils/scheduler.py:
Site: silverbell
Queued events for site silverbell
[DEBUG] 2017-07-09 11:16:47,435 | /home/tyler/frappe-bench/apps/frappe/frappe/utils/scheduler.py:
Site: silverbell
Queued events for site silverbell
[DEBUG] 2017-07-09 11:20:47,771 | /home/tyler/frappe-bench/apps/frappe/frappe/utils/scheduler.py:
Site: silverbell
Queued events for site silverbell
[DEBUG] 2017-07-09 11:24:48,164 | /home/tyler/frappe-bench/apps/frappe/frappe/utils/scheduler.py:
Site: silverbell
Queued events for site silverbell
[DEBUG] 2017-07-09 11:28:48,532 | /home/tyler/frappe-bench/apps/frappe/frappe/utils/scheduler.py:
Site: silverbell
Queued events for site silverbell
[DEBUG] 2017-07-09 11:32:48,874 | /home/tyler/frappe-bench/apps/frappe/frappe/utils/scheduler.py:
Site: silverbell
Queued events for site silverbell
[DEBUG] 2017-07-09 11:36:49,220 | /home/tyler/frappe-bench/apps/frappe/frappe/utils/scheduler.py:
Site: silverbell
Queued events for site silverbell
[DEBUG] 2017-07-09 11:40:49,550 | /home/tyler/frappe-bench/apps/frappe/frappe/utils/scheduler.py:
Site: silverbell
Queued events for site silverbell
[DEBUG] 2017-07-09 11:44:49,876 | /home/tyler/frappe-bench/apps/frappe/frappe/utils/scheduler.py:
Site: silverbell
Queued events for site silverbell
[DEBUG] 2017-07-09 11:48:50,260 | /home/tyler/frappe-bench/apps/frappe/frappe/utils/scheduler.py:
Site: silverbell
Queued events for site silverbell
[DEBUG] 2017-07-09 11:52:50,591 | /home/tyler/frappe-bench/apps/frappe/frappe/utils/scheduler.py:
Site: silverbell
Queued events for site silverbell
[DEBUG] 2017-07-09 11:56:50,928 | /home/tyler/frappe-bench/apps/frappe/frappe/utils/scheduler.py:
Site: silverbell
Queued events for site silverbell
[DEBUG] 2017-07-09 12:00:51,282 | /home/tyler/frappe-bench/apps/frappe/frappe/utils/scheduler.py:
Site: silverbell
Queued events for site silverbell
[DEBUG] 2017-07-09 12:04:51,620 | /home/tyler/frappe-bench/apps/frappe/frappe/utils/scheduler.py:
Site: silverbell
Queued events for site silverbell
[DEBUG] 2017-07-09 12:08:51,961 | /home/tyler/frappe-bench/apps/frappe/frappe/utils/scheduler.py:
Site: silverbell
Queued events for site silverbell
[DEBUG] 2017-07-09 12:12:52,305 | /home/tyler/frappe-bench/apps/frappe/frappe/utils/scheduler.py:
Site: silverbell
Queued events for site silverbell
[DEBUG] 2017-07-09 12:16:52,639 | /home/tyler/frappe-bench/apps/frappe/frappe/utils/scheduler.py:
Site: silverbell
Queued events for site silverbell
[DEBUG] 2017-07-09 12:20:52,992 | /home/tyler/frappe-bench/apps/frappe/frappe/utils/scheduler.py:
Site: silverbell
Queued events for site silverbell
[DEBUG] 2017-07-09 12:24:53,324 | /home/tyler/frappe-bench/apps/frappe/frappe/utils/scheduler.py:
Site: silverbell
Queued events for site silverbell
[DEBUG] 2017-07-09 12:28:53,672 | /home/tyler/frappe-bench/apps/frappe/frappe/utils/scheduler.py:
Site: silverbell
Queued events for site silverbell
[DEBUG] 2017-07-09 12:32:54,017 | /home/tyler/frappe-bench/apps/frappe/frappe/utils/scheduler.py:
Site: silverbell
Queued events for site silverbell
[DEBUG] 2017-07-09 12:36:54,355 | /home/tyler/frappe-bench/apps/frappe/frappe/utils/scheduler.py:
Site: silverbell
Queued events for site silverbell
[DEBUG] 2017-07-09 12:40:54,695 | /home/tyler/frappe-bench/apps/frappe/frappe/utils/scheduler.py:
Site: silverbell
Queued events for site silverbell
[DEBUG] 2017-07-09 12:44:55,033 | /home/tyler/frappe-bench/apps/frappe/frappe/utils/scheduler.py:
Site: silverbell
Queued events for site silverbell
[DEBUG] 2017-07-09 12:48:55,383 | /home/tyler/frappe-bench/apps/frappe/frappe/utils/scheduler.py:
Site: silverbell
Queued events for site silverbell
[DEBUG] 2017-07-09 12:52:55,724 | /home/tyler/frappe-bench/apps/frappe/frappe/utils/scheduler.py:
Site: silverbell
Queued events for site silverbell
[DEBUG] 2017-07-09 12:56:56,061 | /home/tyler/frappe-bench/apps/frappe/frappe/utils/scheduler.py:
Site: silverbell
Queued events for site silverbell
[DEBUG] 2017-07-09 13:00:56,406 | /home/tyler/frappe-bench/apps/frappe/frappe/utils/scheduler.py:
Site: silverbell
Queued events for site silverbell
[DEBUG] 2017-07-09 13:04:56,747 | /home/tyler/frappe-bench/apps/frappe/frappe/utils/scheduler.py:
Site: silverbell
Queued events for site silverbell
[DEBUG] 2017-07-09 13:08:57,083 | /home/tyler/frappe-bench/apps/frappe/frappe/utils/scheduler.py:
Site: silverbell
Queued events for site silverbell
[DEBUG] 2017-07-09 13:12:57,432 | /home/tyler/frappe-bench/apps/frappe/frappe/utils/scheduler.py:
Site: silverbell
Queued events for site silverbell
[DEBUG] 2017-07-09 13:16:57,771 | /home/tyler/frappe-bench/apps/frappe/frappe/utils/scheduler.py:
Site: silverbell
Queued events for site silverbell
[DEBUG] 2017-07-09 13:20:58,116 | /home/tyler/frappe-bench/apps/frappe/frappe/utils/scheduler.py:
Site: silverbell
Queued events for site silverbell
[DEBUG] 2017-07-09 13:24:58,458 | /home/tyler/frappe-bench/apps/frappe/frappe/utils/scheduler.py:
Site: silverbell
Queued events for site silverbell
[DEBUG] 2017-07-09 13:28:58,792 | /home/tyler/frappe-bench/apps/frappe/frappe/utils/scheduler.py:
Site: silverbell
Queued events for site silverbell
[DEBUG] 2017-07-09 13:32:59,139 | /home/tyler/frappe-bench/apps/frappe/frappe/utils/scheduler.py:
Site: silverbell
Queued events for site silverbell
[DEBUG] 2017-07-09 13:36:59,493 | /home/tyler/frappe-bench/apps/frappe/frappe/utils/scheduler.py:
Site: silverbell
Queued events for site silverbell
[DEBUG] 2017-07-09 13:40:59,841 | /home/tyler/frappe-bench/apps/frappe/frappe/utils/scheduler.py:
Site: silverbell
Queued events for site silverbell
[DEBUG] 2017-07-09 13:45:00,188 | /home/tyler/frappe-bench/apps/frappe/frappe/utils/scheduler.py:
Site: silverbell
Queued events for site silverbell
[DEBUG] 2017-07-09 13:49:00,519 | /home/tyler/frappe-bench/apps/frappe/frappe/utils/scheduler.py:
Site: silverbell
Queued events for site silverbell
[DEBUG] 2017-07-09 13:53:00,849 | /home/tyler/frappe-bench/apps/frappe/frappe/utils/scheduler.py:
Site: silverbell
Queued events for site silverbell
[DEBUG] 2017-07-09 13:57:01,232 | /home/tyler/frappe-bench/apps/frappe/frappe/utils/scheduler.py:
Site: silverbell
Queued events for site silverbell
[DEBUG] 2017-07-09 14:01:01,570 | /home/tyler/frappe-bench/apps/frappe/frappe/utils/scheduler.py:
Site: silverbell
Queued events for site silverbell
[DEBUG] 2017-07-09 14:05:01,957 | /home/tyler/frappe-bench/apps/frappe/frappe/utils/scheduler.py:
Site: silverbell
Queued events for site silverbell
[DEBUG] 2017-07-09 14:09:02,299 | /home/tyler/frappe-bench/apps/frappe/frappe/utils/scheduler.py:
Site: silverbell
Queued events for site silverbell
[DEBUG] 2017-07-09 14:13:02,626 | /home/tyler/frappe-bench/apps/frappe/frappe/utils/scheduler.py:
Site: silverbell
Queued events for site silverbell
[DEBUG] 2017-07-09 14:17:02,963 | /home/tyler/frappe-bench/apps/frappe/frappe/utils/scheduler.py:
Site: silverbell
Queued events for site silverbell
[DEBUG] 2017-07-09 14:21:03,294 | /home/tyler/frappe-bench/apps/frappe/frappe/utils/scheduler.py:
Site: silverbell
Queued events for site silverbell
[DEBUG] 2017-07-09 14:25:03,626 | /home/tyler/frappe-bench/apps/frappe/frappe/utils/scheduler.py:
Site: silverbell
Queued events for site silverbell
[DEBUG] 2017-07-09 14:29:03,975 | /home/tyler/frappe-bench/apps/frappe/frappe/utils/scheduler.py:
Site: silverbell
Queued events for site silverbell
[DEBUG] 2017-07-09 14:33:04,316 | /home/tyler/frappe-bench/apps/frappe/frappe/utils/scheduler.py:
Site: silverbell
Queued events for site silverbell
[DEBUG] 2017-07-09 14:37:04,660 | /home/tyler/frappe-bench/apps/frappe/frappe/utils/scheduler.py:
Site: silverbell
Queued events for site silverbell
[DEBUG] 2017-07-09 14:41:05,008 | /home/tyler/frappe-bench/apps/frappe/frappe/utils/scheduler.py:
Site: silverbell
Queued events for site silverbell
[DEBUG] 2017-07-09 14:45:05,347 | /home/tyler/frappe-bench/apps/frappe/frappe/utils/scheduler.py:
Site: silverbell
Queued events for site silverbell
[DEBUG] 2017-07-09 14:49:05,677 | /home/tyler/frappe-bench/apps/frappe/frappe/utils/scheduler.py:
Site: silverbell
Queued events for site silverbell
[DEBUG] 2017-07-09 14:53:06,016 | /home/tyler/frappe-bench/apps/frappe/frappe/utils/scheduler.py:
Site: silverbell
Queued events for site silverbell
[DEBUG] 2017-07-09 14:57:06,354 | /home/tyler/frappe-bench/apps/frappe/frappe/utils/scheduler.py:
Site: silverbell
Queued events for site silverbell
[DEBUG] 2017-07-09 15:01:06,714 | /home/tyler/frappe-bench/apps/frappe/frappe/utils/scheduler.py:
Site: silverbell
Queued events for site silverbell
[DEBUG] 2017-07-09 15:05:07,049 | /home/tyler/frappe-bench/apps/frappe/frappe/utils/scheduler.py:
Site: silverbell
Queued events for site silverbell
[DEBUG] 2017-07-09 15:09:07,396 | /home/tyler/frappe-bench/apps/frappe/frappe/utils/scheduler.py:
Site: silverbell
Queued events for site silverbell
[DEBUG] 2017-07-09 15:13:07,741 | /home/tyler/frappe-bench/apps/frappe/frappe/utils/scheduler.py:
Site: silverbell
Queued events for site silverbell
[DEBUG] 2017-07-09 15:17:08,082 | /home/tyler/frappe-bench/apps/frappe/frappe/utils/scheduler.py:
Site: silverbell
Queued events for site silverbell
[DEBUG] 2017-07-09 15:21:08,431 | /home/tyler/frappe-bench/apps/frappe/frappe/utils/scheduler.py:
Site: silverbell
Queued events for site silverbell
[DEBUG] 2017-07-09 15:25:08,770 | /home/tyler/frappe-bench/apps/frappe/frappe/utils/scheduler.py:
Site: silverbell
Queued events for site silverbell
[DEBUG] 2017-07-09 15:29:09,112 | /home/tyler/frappe-bench/apps/frappe/frappe/utils/scheduler.py:
Site: silverbell
Queued events for site silverbell
[DEBUG] 2017-07-09 15:33:09,447 | /home/tyler/frappe-bench/apps/frappe/frappe/utils/scheduler.py:
Site: silverbell
Queued events for site silverbell
[DEBUG] 2017-07-09 15:37:09,788 | /home/tyler/frappe-bench/apps/frappe/frappe/utils/scheduler.py:
Site: silverbell
Queued events for site silverbell
[DEBUG] 2017-07-09 15:41:10,127 | /home/tyler/frappe-bench/apps/frappe/frappe/utils/scheduler.py:
Site: silverbell
Queued events for site silverbell
[DEBUG] 2017-07-09 15:45:10,452 | /home/tyler/frappe-bench/apps/frappe/frappe/utils/scheduler.py:
Site: silverbell
Queued events for site silverbell
[DEBUG] 2017-07-09 15:49:10,831 | /home/tyler/frappe-bench/apps/frappe/frappe/utils/scheduler.py:
Site: silverbell
Queued events for site silverbell
[DEBUG] 2017-07-09 15:53:11,182 | /home/tyler/frappe-bench/apps/frappe/frappe/utils/scheduler.py:
Site: silverbell
Queued events for site silverbell
[DEBUG] 2017-07-09 15:57:11,504 | /home/tyler/frappe-bench/apps/frappe/frappe/utils/scheduler.py:
Site: silverbell
Queued events for site silverbell
[ERROR] 2017-07-09 15:57:28,904 | /home/tyler/frappe-bench/apps/frappe/frappe/app.py:
Site: silverbell
Form Dict: {
 "0": "{", 
 "1": "\"", 
 "10": "n", 
 "11": "a", 
 "12": "\"", 
 "13": ":", 
 "14": "4", 
 "15": ",", 
 "16": "\"", 
 "17": "B", 
 "18": "a", 
 "19": "r", 
 "2": "A", 
 "20": "r", 
 "21": "e", 
 "22": "d", 
 "23": " ", 
 "24": "R", 
 "25": "o", 
 "26": "c", 
 "27": "k", 
 "28": "s", 
 "29": "\"", 
 "3": "m", 
 "30": ":", 
 "31": "4", 
 "32": ",", 
 "33": "\"", 
 "34": "R", 
 "35": "h", 
 "36": "o", 
 "37": "d", 
 "38": "e", 
 "39": " ", 
 "4": "e", 
 "40": "I", 
 "41": "s", 
 "42": "l", 
 "43": "a", 
 "44": "n", 
 "45": "d", 
 "46": " ", 
 "47": "R", 
 "48": "e", 
 "49": "d", 
 "5": "r", 
 "50": "s", 
 "51": "\"", 
 "52": ":", 
 "53": "4", 
 "54": "}", 
 "6": "i", 
 "7": "c", 
 "8": "a", 
 "9": "u", 
 "args": "{\"Americauna\":4,\"Barred Rocks\":4,\"Rhode Island Reds\":4}", 
 "cmd": "runserverobj", 
 "docs": "{\"at_enter_as_uom\":\"Dozen\",\"modified_by\":\"Administrator\",\"name\":\"Egg Collection\",\"destination_warehouse\":\"Finished Goods - AT\",\"collection_date\":\"2017-07-09T19:57:23.881Z\",\"creation\":\"2017-07-01 17:19:30.393058\",\"modified\":\"2017-07-09 15:55:50.428439\",\"doctype\":\"Egg Collection\",\"idx\":\"0\",\"batched_egg_yield\":12,\"at_enter_as_item\":\"Eggs-Dozen\",\"owner\":\"Administrator\",\"docstatus\":0,\"__last_sync_on\":\"2017-07-09T19:57:24.086Z\",\"__unsaved\":1}", 
 "format": "undefined", 
 "method": "collect_egg_yield"
}
Request Error
Traceback (most recent call last):
  File "/home/tyler/frappe-bench/apps/frappe/frappe/app.py", line 55, in application
    response = frappe.handler.handle()
  File "/home/tyler/frappe-bench/apps/frappe/frappe/handler.py", line 21, in handle
    data = execute_cmd(cmd)
  File "/home/tyler/frappe-bench/apps/frappe/frappe/handler.py", line 52, in execute_cmd
    return frappe.call(method, **frappe.form_dict)
  File "/home/tyler/frappe-bench/apps/frappe/frappe/__init__.py", line 907, in call
    return fn(*args, **newargs)
  File "/home/tyler/frappe-bench/apps/frappe/frappe/handler.py", line 80, in runserverobj
    frappe.desk.form.run_method.runserverobj(method, docs=docs, dt=dt, dn=dn, arg=arg, args=args)
  File "/home/tyler/frappe-bench/apps/frappe/frappe/desk/form/run_method.py", line 41, in runserverobj
    r = doc.run_method(method, **args)
  File "/home/tyler/frappe-bench/apps/frappe/frappe/model/document.py", line 666, in run_method
    out = Document.hook(fn)(self, *args, **kwargs)
  File "/home/tyler/frappe-bench/apps/frappe/frappe/model/document.py", line 892, in composer
    return composed(self, method, *args, **kwargs)
  File "/home/tyler/frappe-bench/apps/frappe/frappe/model/document.py", line 875, in runner
    add_to_return_value(self, fn(self, *args, **kwargs))
  File "/home/tyler/frappe-bench/apps/frappe/frappe/model/document.py", line 660, in <lambda>
    fn = lambda self, *args, **kwargs: getattr(self, method)(*args, **kwargs)
TypeError: collect_egg_yield() got an unexpected keyword argument 'Rhode Island Reds'
[ERROR] 2017-07-09 15:57:28,959 | /home/tyler/frappe-bench/apps/frappe/frappe/utils/error.py:
New Exception collected with id: 2017-07-09 15:57:28.904701-127.0.0.1-b22
[DEBUG] 2017-07-09 16:01:11,849 | /home/tyler/frappe-bench/apps/frappe/frappe/utils/scheduler.py:
Site: silverbell
Queued events for site silverbell
[DEBUG] 2017-07-09 16:05:12,196 | /home/tyler/frappe-bench/apps/frappe/frappe/utils/scheduler.py:
Site: silverbell
Queued events for site silverbell
[ERROR] 2017-07-09 16:05:22,371 | /home/tyler/frappe-bench/apps/frappe/frappe/app.py:
Site: silverbell
Form Dict: {
 "0": "{", 
 "1": "\"", 
 "10": "n", 
 "11": "a", 
 "12": "\"", 
 "13": ":", 
 "14": "4", 
 "15": ",", 
 "16": "\"", 
 "17": "B", 
 "18": "a", 
 "19": "r", 
 "2": "A", 
 "20": "r", 
 "21": "e", 
 "22": "d", 
 "23": " ", 
 "24": "R", 
 "25": "o", 
 "26": "c", 
 "27": "k", 
 "28": "s", 
 "29": "\"", 
 "3": "m", 
 "30": ":", 
 "31": "4", 
 "32": ",", 
 "33": "\"", 
 "34": "R", 
 "35": "h", 
 "36": "o", 
 "37": "d", 
 "38": "e", 
 "39": " ", 
 "4": "e", 
 "40": "I", 
 "41": "s", 
 "42": "l", 
 "43": "a", 
 "44": "n", 
 "45": "d", 
 "46": " ", 
 "47": "R", 
 "48": "e", 
 "49": "d", 
 "5": "r", 
 "50": "s", 
 "51": "\"", 
 "52": ":", 
 "53": "4", 
 "54": "}", 
 "6": "i", 
 "7": "c", 
 "8": "a", 
 "9": "u", 
 "args": "{\"Americauna\":4,\"Barred Rocks\":4,\"Rhode Island Reds\":4}", 
 "cmd": "runserverobj", 
 "docs": "{\"at_enter_as_uom\":\"Dozen\",\"modified_by\":\"Administrator\",\"name\":\"Egg Collection\",\"parent\":null,\"destination_warehouse\":\"Finished Goods - AT\",\"collection_date\":\"2017-07-09T19:57:23.881Z\",\"creation\":\"2017-07-01 17:19:30.393058\",\"modified\":\"2017-07-09 15:57:28.842012\",\"doctype\":\"Egg Collection\",\"idx\":\"0\",\"parenttype\":null,\"batched_egg_yield\":12,\"at_enter_as_item\":\"Eggs-Dozen\",\"owner\":\"Administrator\",\"docstatus\":0,\"parentfield\":null,\"__last_sync_on\":\"2017-07-09T19:57:29.223Z\"}", 
 "format": "undefined", 
 "method": "collect_egg_yield"
}
Request Error
Traceback (most recent call last):
  File "/home/tyler/frappe-bench/apps/frappe/frappe/app.py", line 55, in application
    response = frappe.handler.handle()
  File "/home/tyler/frappe-bench/apps/frappe/frappe/handler.py", line 21, in handle
    data = execute_cmd(cmd)
  File "/home/tyler/frappe-bench/apps/frappe/frappe/handler.py", line 52, in execute_cmd
    return frappe.call(method, **frappe.form_dict)
  File "/home/tyler/frappe-bench/apps/frappe/frappe/__init__.py", line 907, in call
    return fn(*args, **newargs)
  File "/home/tyler/frappe-bench/apps/frappe/frappe/handler.py", line 80, in runserverobj
    frappe.desk.form.run_method.runserverobj(method, docs=docs, dt=dt, dn=dn, arg=arg, args=args)
  File "/home/tyler/frappe-bench/apps/frappe/frappe/desk/form/run_method.py", line 35, in runserverobj
    r = doc.run_method(method)
  File "/home/tyler/frappe-bench/apps/frappe/frappe/model/document.py", line 666, in run_method
    out = Document.hook(fn)(self, *args, **kwargs)
  File "/home/tyler/frappe-bench/apps/frappe/frappe/model/document.py", line 892, in composer
    return composed(self, method, *args, **kwargs)
  File "/home/tyler/frappe-bench/apps/frappe/frappe/model/document.py", line 875, in runner
    add_to_return_value(self, fn(self, *args, **kwargs))
  File "/home/tyler/frappe-bench/apps/frappe/frappe/model/document.py", line 660, in <lambda>
    fn = lambda self, *args, **kwargs: getattr(self, method)(*args, **kwargs)
  File "/home/tyler/frappe-bench/apps/at_livestock/at_livestock/livestock/doctype/egg_collection/egg_collection.py", line 23, in collect_egg_yield
    collected_eggs = parse_data_types(kwargs)
NameError: global name 'parse_data_types' is not defined
[ERROR] 2017-07-09 16:05:22,421 | /home/tyler/frappe-bench/apps/frappe/frappe/utils/error.py:
New Exception collected with id: 2017-07-09 16:05:22.372575-127.0.0.1-aa9
[ERROR] 2017-07-09 16:07:31,858 | /home/tyler/frappe-bench/apps/frappe/frappe/app.py:
Site: silverbell
Form Dict: {
 "0": "{", 
 "1": "\"", 
 "10": "n", 
 "11": "a", 
 "12": "\"", 
 "13": ":", 
 "14": "4", 
 "15": ",", 
 "16": "\"", 
 "17": "B", 
 "18": "a", 
 "19": "r", 
 "2": "A", 
 "20": "r", 
 "21": "e", 
 "22": "d", 
 "23": " ", 
 "24": "R", 
 "25": "o", 
 "26": "c", 
 "27": "k", 
 "28": "s", 
 "29": "\"", 
 "3": "m", 
 "30": ":", 
 "31": "4", 
 "32": ",", 
 "33": "\"", 
 "34": "R", 
 "35": "h", 
 "36": "o", 
 "37": "d", 
 "38": "e", 
 "39": " ", 
 "4": "e", 
 "40": "I", 
 "41": "s", 
 "42": "l", 
 "43": "a", 
 "44": "n", 
 "45": "d", 
 "46": " ", 
 "47": "R", 
 "48": "e", 
 "49": "d", 
 "5": "r", 
 "50": "s", 
 "51": "\"", 
 "52": ":", 
 "53": "4", 
 "54": "}", 
 "6": "i", 
 "7": "c", 
 "8": "a", 
 "9": "u", 
 "args": "{\"Americauna\":4,\"Barred Rocks\":4,\"Rhode Island Reds\":4}", 
 "cmd": "runserverobj", 
 "docs": "{\"at_enter_as_uom\":\"Dozen\",\"modified_by\":\"Administrator\",\"name\":\"Egg Collection\",\"destination_warehouse\":\"Finished Goods - AT\",\"collection_date\":\"2017-07-09T20:07:27.493Z\",\"creation\":\"2017-07-01 17:19:30.393058\",\"modified\":\"2017-07-09 16:05:22.361642\",\"doctype\":\"Egg Collection\",\"idx\":\"0\",\"batched_egg_yield\":12,\"at_enter_as_item\":\"Eggs-Dozen\",\"owner\":\"Administrator\",\"docstatus\":0,\"__last_sync_on\":\"2017-07-09T20:07:27.677Z\",\"__unsaved\":1}", 
 "format": "undefined", 
 "method": "collect_egg_yield"
}
Request Error
Traceback (most recent call last):
  File "/home/tyler/frappe-bench/apps/frappe/frappe/app.py", line 55, in application
    response = frappe.handler.handle()
  File "/home/tyler/frappe-bench/apps/frappe/frappe/handler.py", line 21, in handle
    data = execute_cmd(cmd)
  File "/home/tyler/frappe-bench/apps/frappe/frappe/handler.py", line 52, in execute_cmd
    return frappe.call(method, **frappe.form_dict)
  File "/home/tyler/frappe-bench/apps/frappe/frappe/__init__.py", line 907, in call
    return fn(*args, **newargs)
  File "/home/tyler/frappe-bench/apps/frappe/frappe/handler.py", line 80, in runserverobj
    frappe.desk.form.run_method.runserverobj(method, docs=docs, dt=dt, dn=dn, arg=arg, args=args)
  File "/home/tyler/frappe-bench/apps/frappe/frappe/desk/form/run_method.py", line 35, in runserverobj
    r = doc.run_method(method)
  File "/home/tyler/frappe-bench/apps/frappe/frappe/model/document.py", line 666, in run_method
    out = Document.hook(fn)(self, *args, **kwargs)
  File "/home/tyler/frappe-bench/apps/frappe/frappe/model/document.py", line 892, in composer
    return composed(self, method, *args, **kwargs)
  File "/home/tyler/frappe-bench/apps/frappe/frappe/model/document.py", line 875, in runner
    add_to_return_value(self, fn(self, *args, **kwargs))
  File "/home/tyler/frappe-bench/apps/frappe/frappe/model/document.py", line 660, in <lambda>
    fn = lambda self, *args, **kwargs: getattr(self, method)(*args, **kwargs)
  File "/home/tyler/frappe-bench/apps/at_livestock/at_livestock/livestock/doctype/egg_collection/egg_collection.py", line 23, in collect_egg_yield
    collected_eggs = self.parse_data_types(kwargs)
NameError: global name 'self' is not defined
[ERROR] 2017-07-09 16:07:31,915 | /home/tyler/frappe-bench/apps/frappe/frappe/utils/error.py:
New Exception collected with id: 2017-07-09 16:07:31.859594-127.0.0.1-856
[ERROR] 2017-07-09 16:07:45,664 | /home/tyler/frappe-bench/apps/frappe/frappe/app.py:
Site: silverbell
Form Dict: {
 "0": "{", 
 "1": "\"", 
 "10": "n", 
 "11": "a", 
 "12": "\"", 
 "13": ":", 
 "14": "4", 
 "15": ",", 
 "16": "\"", 
 "17": "B", 
 "18": "a", 
 "19": "r", 
 "2": "A", 
 "20": "r", 
 "21": "e", 
 "22": "d", 
 "23": " ", 
 "24": "R", 
 "25": "o", 
 "26": "c", 
 "27": "k", 
 "28": "s", 
 "29": "\"", 
 "3": "m", 
 "30": ":", 
 "31": "4", 
 "32": ",", 
 "33": "\"", 
 "34": "R", 
 "35": "h", 
 "36": "o", 
 "37": "d", 
 "38": "e", 
 "39": " ", 
 "4": "e", 
 "40": "I", 
 "41": "s", 
 "42": "l", 
 "43": "a", 
 "44": "n", 
 "45": "d", 
 "46": " ", 
 "47": "R", 
 "48": "e", 
 "49": "d", 
 "5": "r", 
 "50": "s", 
 "51": "\"", 
 "52": ":", 
 "53": "4", 
 "54": "}", 
 "6": "i", 
 "7": "c", 
 "8": "a", 
 "9": "u", 
 "args": "{\"Americauna\":4,\"Barred Rocks\":4,\"Rhode Island Reds\":4}", 
 "cmd": "runserverobj", 
 "docs": "{\"at_enter_as_uom\":\"Dozen\",\"modified_by\":\"Administrator\",\"name\":\"Egg Collection\",\"parent\":null,\"destination_warehouse\":\"Finished Goods - AT\",\"collection_date\":\"2017-07-09T20:07:27.493Z\",\"creation\":\"2017-07-01 17:19:30.393058\",\"modified\":\"2017-07-09 16:07:31.851430\",\"doctype\":\"Egg Collection\",\"idx\":\"0\",\"parenttype\":null,\"batched_egg_yield\":12,\"at_enter_as_item\":\"Eggs-Dozen\",\"owner\":\"Administrator\",\"docstatus\":0,\"parentfield\":null,\"__last_sync_on\":\"2017-07-09T20:07:32.451Z\"}", 
 "format": "undefined", 
 "method": "collect_egg_yield"
}
Request Error
Traceback (most recent call last):
  File "/home/tyler/frappe-bench/apps/frappe/frappe/app.py", line 55, in application
    response = frappe.handler.handle()
  File "/home/tyler/frappe-bench/apps/frappe/frappe/handler.py", line 21, in handle
    data = execute_cmd(cmd)
  File "/home/tyler/frappe-bench/apps/frappe/frappe/handler.py", line 52, in execute_cmd
    return frappe.call(method, **frappe.form_dict)
  File "/home/tyler/frappe-bench/apps/frappe/frappe/__init__.py", line 907, in call
    return fn(*args, **newargs)
  File "/home/tyler/frappe-bench/apps/frappe/frappe/handler.py", line 80, in runserverobj
    frappe.desk.form.run_method.runserverobj(method, docs=docs, dt=dt, dn=dn, arg=arg, args=args)
  File "/home/tyler/frappe-bench/apps/frappe/frappe/desk/form/run_method.py", line 35, in runserverobj
    r = doc.run_method(method)
  File "/home/tyler/frappe-bench/apps/frappe/frappe/model/document.py", line 666, in run_method
    out = Document.hook(fn)(self, *args, **kwargs)
  File "/home/tyler/frappe-bench/apps/frappe/frappe/model/document.py", line 892, in composer
    return composed(self, method, *args, **kwargs)
  File "/home/tyler/frappe-bench/apps/frappe/frappe/model/document.py", line 875, in runner
    add_to_return_value(self, fn(self, *args, **kwargs))
  File "/home/tyler/frappe-bench/apps/frappe/frappe/model/document.py", line 660, in <lambda>
    fn = lambda self, *args, **kwargs: getattr(self, method)(*args, **kwargs)
  File "/home/tyler/frappe-bench/apps/at_livestock/at_livestock/livestock/doctype/egg_collection/egg_collection.py", line 25, in collect_egg_yield
    json.loads(collected_eggs, parse_float=True, parse_int=True)
  File "/usr/lib/python2.7/json/__init__.py", line 352, in loads
    return cls(encoding=encoding, **kw).decode(s)
  File "/usr/lib/python2.7/json/decoder.py", line 364, in decode
    obj, end = self.raw_decode(s, idx=_w(s, 0).end())
TypeError: expected string or buffer
[ERROR] 2017-07-09 16:07:45,712 | /home/tyler/frappe-bench/apps/frappe/frappe/utils/error.py:
New Exception collected with id: 2017-07-09 16:07:45.665508-127.0.0.1-7cd
[ERROR] 2017-07-09 16:08:08,336 | /home/tyler/frappe-bench/apps/frappe/frappe/app.py:
Site: silverbell
Form Dict: {
 "0": "{", 
 "1": "\"", 
 "10": "n", 
 "11": "a", 
 "12": "\"", 
 "13": ":", 
 "14": "4", 
 "15": ",", 
 "16": "\"", 
 "17": "B", 
 "18": "a", 
 "19": "r", 
 "2": "A", 
 "20": "r", 
 "21": "e", 
 "22": "d", 
 "23": " ", 
 "24": "R", 
 "25": "o", 
 "26": "c", 
 "27": "k", 
 "28": "s", 
 "29": "\"", 
 "3": "m", 
 "30": ":", 
 "31": "4", 
 "32": ",", 
 "33": "\"", 
 "34": "R", 
 "35": "h", 
 "36": "o", 
 "37": "d", 
 "38": "e", 
 "39": " ", 
 "4": "e", 
 "40": "I", 
 "41": "s", 
 "42": "l", 
 "43": "a", 
 "44": "n", 
 "45": "d", 
 "46": " ", 
 "47": "R", 
 "48": "e", 
 "49": "d", 
 "5": "r", 
 "50": "s", 
 "51": "\"", 
 "52": ":", 
 "53": "4", 
 "54": "}", 
 "6": "i", 
 "7": "c", 
 "8": "a", 
 "9": "u", 
 "args": "{\"Americauna\":4,\"Barred Rocks\":4,\"Rhode Island Reds\":4}", 
 "cmd": "runserverobj", 
 "docs": "{\"at_enter_as_uom\":\"Dozen\",\"modified_by\":\"Administrator\",\"name\":\"Egg Collection\",\"parent\":null,\"destination_warehouse\":\"Finished Goods - AT\",\"collection_date\":\"2017-07-09T20:07:27.493Z\",\"creation\":\"2017-07-01 17:19:30.393058\",\"modified\":\"2017-07-09 16:07:45.637575\",\"doctype\":\"Egg Collection\",\"idx\":\"0\",\"parenttype\":null,\"batched_egg_yield\":12,\"at_enter_as_item\":\"Eggs-Dozen\",\"owner\":\"Administrator\",\"docstatus\":0,\"parentfield\":null,\"__last_sync_on\":\"2017-07-09T20:07:45.918Z\"}", 
 "format": "undefined", 
 "method": "collect_egg_yield"
}
Request Error
Traceback (most recent call last):
  File "/home/tyler/frappe-bench/apps/frappe/frappe/app.py", line 55, in application
    response = frappe.handler.handle()
  File "/home/tyler/frappe-bench/apps/frappe/frappe/handler.py", line 21, in handle
    data = execute_cmd(cmd)
  File "/home/tyler/frappe-bench/apps/frappe/frappe/handler.py", line 52, in execute_cmd
    return frappe.call(method, **frappe.form_dict)
  File "/home/tyler/frappe-bench/apps/frappe/frappe/__init__.py", line 907, in call
    return fn(*args, **newargs)
  File "/home/tyler/frappe-bench/apps/frappe/frappe/handler.py", line 80, in runserverobj
    frappe.desk.form.run_method.runserverobj(method, docs=docs, dt=dt, dn=dn, arg=arg, args=args)
  File "/home/tyler/frappe-bench/apps/frappe/frappe/desk/form/run_method.py", line 20, in runserverobj
    doc = frappe.get_doc(json.loads(docs))
  File "/home/tyler/frappe-bench/apps/frappe/frappe/__init__.py", line 606, in get_doc
    return frappe.model.document.get_doc(arg1, arg2)
  File "/home/tyler/frappe-bench/apps/frappe/frappe/model/document.py", line 49, in get_doc
    controller = get_controller(doctype)
  File "/home/tyler/frappe-bench/apps/frappe/frappe/model/base_document.py", line 35, in get_controller
    module = load_doctype_module(doctype, module_name)
  File "/home/tyler/frappe-bench/apps/frappe/frappe/modules/utils.py", line 182, in load_doctype_module
    doctype_python_modules[key] = frappe.get_module(module_name)
  File "/home/tyler/frappe-bench/apps/frappe/frappe/__init__.py", line 672, in get_module
    return importlib.import_module(modulename)
  File "/usr/lib/python2.7/importlib/__init__.py", line 37, in import_module
    __import__(name)
  File "/home/tyler/frappe-bench/apps/at_livestock/at_livestock/livestock/doctype/egg_collection/egg_collection.py", line 25
    json.loads(collected_eggs, parse_float=True, parse_int=True)
       ^
SyntaxError: invalid syntax
[ERROR] 2017-07-09 16:08:08,398 | /home/tyler/frappe-bench/apps/frappe/frappe/utils/error.py:
New Exception collected with id: 2017-07-09 16:08:08.337195-127.0.0.1-ec3
[ERROR] 2017-07-09 16:08:08,433 | /home/tyler/frappe-bench/apps/frappe/frappe/utils/error.py:
New Exception collected with id: 2017-07-09 16:08:08.421785-127.0.0.1-2bf
[DEBUG] 2017-07-09 16:09:12,519 | /home/tyler/frappe-bench/apps/frappe/frappe/utils/scheduler.py:
Site: silverbell
Queued events for site silverbell
