[DEBUG] 2017-08-30 21:49:52,024 | /home/tyler/frappe-bench/apps/frappe/frappe/utils/scheduler.py:
Site: silverbell
Queued events for site silverbell
[DEBUG] 2017-08-30 21:53:52,463 | /home/tyler/frappe-bench/apps/frappe/frappe/utils/scheduler.py:
Site: silverbell
Queued events for site silverbell
[DEBUG] 2017-08-30 21:57:52,878 | /home/tyler/frappe-bench/apps/frappe/frappe/utils/scheduler.py:
Site: silverbell
Queued events for site silverbell
[DEBUG] 2017-08-30 22:01:53,212 | /home/tyler/frappe-bench/apps/frappe/frappe/utils/scheduler.py:
Site: silverbell
Queued events for site silverbell
[DEBUG] 2017-08-30 22:05:53,512 | /home/tyler/frappe-bench/apps/frappe/frappe/utils/scheduler.py:
Site: silverbell
Queued events for site silverbell
[DEBUG] 2017-08-30 22:09:53,792 | /home/tyler/frappe-bench/apps/frappe/frappe/utils/scheduler.py:
Site: silverbell
Queued events for site silverbell
[DEBUG] 2017-08-30 22:13:54,104 | /home/tyler/frappe-bench/apps/frappe/frappe/utils/scheduler.py:
Site: silverbell
Queued events for site silverbell
[DEBUG] 2017-08-30 22:17:54,417 | /home/tyler/frappe-bench/apps/frappe/frappe/utils/scheduler.py:
Site: silverbell
Queued events for site silverbell
[DEBUG] 2017-08-30 22:21:54,734 | /home/tyler/frappe-bench/apps/frappe/frappe/utils/scheduler.py:
Site: silverbell
Queued events for site silverbell
[DEBUG] 2017-08-30 22:25:55,066 | /home/tyler/frappe-bench/apps/frappe/frappe/utils/scheduler.py:
Site: silverbell
Queued events for site silverbell
[DEBUG] 2017-08-30 22:29:55,393 | /home/tyler/frappe-bench/apps/frappe/frappe/utils/scheduler.py:
Site: silverbell
Queued events for site silverbell
[DEBUG] 2017-08-30 22:33:55,701 | /home/tyler/frappe-bench/apps/frappe/frappe/utils/scheduler.py:
Site: silverbell
Queued events for site silverbell
[DEBUG] 2017-08-30 22:37:56,013 | /home/tyler/frappe-bench/apps/frappe/frappe/utils/scheduler.py:
Site: silverbell
Queued events for site silverbell
[DEBUG] 2017-08-30 22:41:56,313 | /home/tyler/frappe-bench/apps/frappe/frappe/utils/scheduler.py:
Site: silverbell
Queued events for site silverbell
[DEBUG] 2017-08-30 22:45:56,627 | /home/tyler/frappe-bench/apps/frappe/frappe/utils/scheduler.py:
Site: silverbell
Queued events for site silverbell
[DEBUG] 2017-08-30 22:49:56,958 | /home/tyler/frappe-bench/apps/frappe/frappe/utils/scheduler.py:
Site: silverbell
Queued events for site silverbell
[DEBUG] 2017-08-30 22:53:57,390 | /home/tyler/frappe-bench/apps/frappe/frappe/utils/scheduler.py:
Site: silverbell
Queued events for site silverbell
[DEBUG] 2017-08-30 22:57:57,694 | /home/tyler/frappe-bench/apps/frappe/frappe/utils/scheduler.py:
Site: silverbell
Queued events for site silverbell
[DEBUG] 2017-08-30 23:01:58,009 | /home/tyler/frappe-bench/apps/frappe/frappe/utils/scheduler.py:
Site: silverbell
Queued events for site silverbell
[DEBUG] 2017-08-30 23:05:58,314 | /home/tyler/frappe-bench/apps/frappe/frappe/utils/scheduler.py:
Site: silverbell
Queued events for site silverbell
[DEBUG] 2017-08-30 23:09:58,625 | /home/tyler/frappe-bench/apps/frappe/frappe/utils/scheduler.py:
Site: silverbell
Queued events for site silverbell
[DEBUG] 2017-08-30 23:13:58,941 | /home/tyler/frappe-bench/apps/frappe/frappe/utils/scheduler.py:
Site: silverbell
Queued events for site silverbell
[DEBUG] 2017-08-30 23:17:59,299 | /home/tyler/frappe-bench/apps/frappe/frappe/utils/scheduler.py:
Site: silverbell
Queued events for site silverbell
[DEBUG] 2017-08-30 23:21:59,652 | /home/tyler/frappe-bench/apps/frappe/frappe/utils/scheduler.py:
Site: silverbell
Queued events for site silverbell
[DEBUG] 2017-08-30 23:25:59,975 | /home/tyler/frappe-bench/apps/frappe/frappe/utils/scheduler.py:
Site: silverbell
Queued events for site silverbell
[DEBUG] 2017-08-30 23:30:00,308 | /home/tyler/frappe-bench/apps/frappe/frappe/utils/scheduler.py:
Site: silverbell
Queued events for site silverbell
[DEBUG] 2017-08-30 23:34:00,633 | /home/tyler/frappe-bench/apps/frappe/frappe/utils/scheduler.py:
Site: silverbell
Queued events for site silverbell
[DEBUG] 2017-08-30 23:38:00,965 | /home/tyler/frappe-bench/apps/frappe/frappe/utils/scheduler.py:
Site: silverbell
Queued events for site silverbell
[DEBUG] 2017-08-30 23:42:01,290 | /home/tyler/frappe-bench/apps/frappe/frappe/utils/scheduler.py:
Site: silverbell
Queued events for site silverbell
[DEBUG] 2017-08-30 23:46:01,622 | /home/tyler/frappe-bench/apps/frappe/frappe/utils/scheduler.py:
Site: silverbell
Queued events for site silverbell
[DEBUG] 2017-08-30 23:50:01,954 | /home/tyler/frappe-bench/apps/frappe/frappe/utils/scheduler.py:
Site: silverbell
Queued events for site silverbell
[DEBUG] 2017-08-30 23:54:02,295 | /home/tyler/frappe-bench/apps/frappe/frappe/utils/scheduler.py:
Site: silverbell
Queued events for site silverbell
[DEBUG] 2017-08-30 23:58:02,627 | /home/tyler/frappe-bench/apps/frappe/frappe/utils/scheduler.py:
Site: silverbell
Queued events for site silverbell
[DEBUG] 2017-08-31 00:02:03,019 | /home/tyler/frappe-bench/apps/frappe/frappe/utils/scheduler.py:
Site: silverbell
Queued events for site silverbell
[DEBUG] 2017-08-31 00:06:03,351 | /home/tyler/frappe-bench/apps/frappe/frappe/utils/scheduler.py:
Site: silverbell
Queued events for site silverbell
[DEBUG] 2017-08-31 00:10:03,674 | /home/tyler/frappe-bench/apps/frappe/frappe/utils/scheduler.py:
Site: silverbell
Queued events for site silverbell
[DEBUG] 2017-08-31 00:14:03,997 | /home/tyler/frappe-bench/apps/frappe/frappe/utils/scheduler.py:
Site: silverbell
Queued events for site silverbell
[DEBUG] 2017-08-31 00:18:04,321 | /home/tyler/frappe-bench/apps/frappe/frappe/utils/scheduler.py:
Site: silverbell
Queued events for site silverbell
[DEBUG] 2017-08-31 00:22:04,677 | /home/tyler/frappe-bench/apps/frappe/frappe/utils/scheduler.py:
Site: silverbell
Queued events for site silverbell
[DEBUG] 2017-08-31 00:26:05,043 | /home/tyler/frappe-bench/apps/frappe/frappe/utils/scheduler.py:
Site: silverbell
Queued events for site silverbell
[DEBUG] 2017-08-31 00:30:05,375 | /home/tyler/frappe-bench/apps/frappe/frappe/utils/scheduler.py:
Site: silverbell
Queued events for site silverbell
[DEBUG] 2017-08-31 00:34:05,707 | /home/tyler/frappe-bench/apps/frappe/frappe/utils/scheduler.py:
Site: silverbell
Queued events for site silverbell
[DEBUG] 2017-08-31 00:38:06,039 | /home/tyler/frappe-bench/apps/frappe/frappe/utils/scheduler.py:
Site: silverbell
Queued events for site silverbell
[DEBUG] 2017-08-31 00:42:06,362 | /home/tyler/frappe-bench/apps/frappe/frappe/utils/scheduler.py:
Site: silverbell
Queued events for site silverbell
[DEBUG] 2017-08-31 00:46:06,711 | /home/tyler/frappe-bench/apps/frappe/frappe/utils/scheduler.py:
Site: silverbell
Queued events for site silverbell
[DEBUG] 2017-08-31 00:50:07,061 | /home/tyler/frappe-bench/apps/frappe/frappe/utils/scheduler.py:
Site: silverbell
Queued events for site silverbell
[DEBUG] 2017-08-31 00:54:07,394 | /home/tyler/frappe-bench/apps/frappe/frappe/utils/scheduler.py:
Site: silverbell
Queued events for site silverbell
[DEBUG] 2017-08-31 00:58:07,725 | /home/tyler/frappe-bench/apps/frappe/frappe/utils/scheduler.py:
Site: silverbell
Queued events for site silverbell
[DEBUG] 2017-08-31 01:02:08,084 | /home/tyler/frappe-bench/apps/frappe/frappe/utils/scheduler.py:
Site: silverbell
Queued events for site silverbell
[DEBUG] 2017-08-31 01:06:08,414 | /home/tyler/frappe-bench/apps/frappe/frappe/utils/scheduler.py:
Site: silverbell
Queued events for site silverbell
[DEBUG] 2017-08-31 01:10:08,754 | /home/tyler/frappe-bench/apps/frappe/frappe/utils/scheduler.py:
Site: silverbell
Queued events for site silverbell
[DEBUG] 2017-08-31 01:14:09,085 | /home/tyler/frappe-bench/apps/frappe/frappe/utils/scheduler.py:
Site: silverbell
Queued events for site silverbell
[DEBUG] 2017-08-31 01:18:09,417 | /home/tyler/frappe-bench/apps/frappe/frappe/utils/scheduler.py:
Site: silverbell
Queued events for site silverbell
[DEBUG] 2017-08-31 01:22:09,750 | /home/tyler/frappe-bench/apps/frappe/frappe/utils/scheduler.py:
Site: silverbell
Queued events for site silverbell
[DEBUG] 2017-08-31 01:26:10,081 | /home/tyler/frappe-bench/apps/frappe/frappe/utils/scheduler.py:
Site: silverbell
Queued events for site silverbell
[DEBUG] 2017-08-31 01:30:10,422 | /home/tyler/frappe-bench/apps/frappe/frappe/utils/scheduler.py:
Site: silverbell
Queued events for site silverbell
[DEBUG] 2017-08-31 01:34:10,786 | /home/tyler/frappe-bench/apps/frappe/frappe/utils/scheduler.py:
Site: silverbell
Queued events for site silverbell
[DEBUG] 2017-08-31 01:38:11,110 | /home/tyler/frappe-bench/apps/frappe/frappe/utils/scheduler.py:
Site: silverbell
Queued events for site silverbell
[DEBUG] 2017-08-31 01:42:11,433 | /home/tyler/frappe-bench/apps/frappe/frappe/utils/scheduler.py:
Site: silverbell
Queued events for site silverbell
[DEBUG] 2017-08-31 01:46:11,765 | /home/tyler/frappe-bench/apps/frappe/frappe/utils/scheduler.py:
Site: silverbell
Queued events for site silverbell
[DEBUG] 2017-08-31 01:50:12,097 | /home/tyler/frappe-bench/apps/frappe/frappe/utils/scheduler.py:
Site: silverbell
Queued events for site silverbell
[DEBUG] 2017-08-31 01:54:12,428 | /home/tyler/frappe-bench/apps/frappe/frappe/utils/scheduler.py:
Site: silverbell
Queued events for site silverbell
[DEBUG] 2017-08-31 01:58:12,768 | /home/tyler/frappe-bench/apps/frappe/frappe/utils/scheduler.py:
Site: silverbell
Queued events for site silverbell
[DEBUG] 2017-08-31 02:02:13,120 | /home/tyler/frappe-bench/apps/frappe/frappe/utils/scheduler.py:
Site: silverbell
Queued events for site silverbell
[DEBUG] 2017-08-31 02:06:13,483 | /home/tyler/frappe-bench/apps/frappe/frappe/utils/scheduler.py:
Site: silverbell
Queued events for site silverbell
[DEBUG] 2017-08-31 02:10:13,824 | /home/tyler/frappe-bench/apps/frappe/frappe/utils/scheduler.py:
Site: silverbell
Queued events for site silverbell
[DEBUG] 2017-08-31 02:14:14,147 | /home/tyler/frappe-bench/apps/frappe/frappe/utils/scheduler.py:
Site: silverbell
Queued events for site silverbell
[DEBUG] 2017-08-31 02:18:14,487 | /home/tyler/frappe-bench/apps/frappe/frappe/utils/scheduler.py:
Site: silverbell
Queued events for site silverbell
[DEBUG] 2017-08-31 02:22:14,827 | /home/tyler/frappe-bench/apps/frappe/frappe/utils/scheduler.py:
Site: silverbell
Queued events for site silverbell
[DEBUG] 2017-08-31 02:26:15,150 | /home/tyler/frappe-bench/apps/frappe/frappe/utils/scheduler.py:
Site: silverbell
Queued events for site silverbell
[DEBUG] 2017-08-31 02:30:15,474 | /home/tyler/frappe-bench/apps/frappe/frappe/utils/scheduler.py:
Site: silverbell
Queued events for site silverbell
[DEBUG] 2017-08-31 02:34:15,798 | /home/tyler/frappe-bench/apps/frappe/frappe/utils/scheduler.py:
Site: silverbell
Queued events for site silverbell
[DEBUG] 2017-08-31 02:38:16,121 | /home/tyler/frappe-bench/apps/frappe/frappe/utils/scheduler.py:
Site: silverbell
Queued events for site silverbell
[DEBUG] 2017-08-31 02:42:16,454 | /home/tyler/frappe-bench/apps/frappe/frappe/utils/scheduler.py:
Site: silverbell
Queued events for site silverbell
[DEBUG] 2017-08-31 02:46:16,785 | /home/tyler/frappe-bench/apps/frappe/frappe/utils/scheduler.py:
Site: silverbell
Queued events for site silverbell
[DEBUG] 2017-08-31 02:50:17,109 | /home/tyler/frappe-bench/apps/frappe/frappe/utils/scheduler.py:
Site: silverbell
Queued events for site silverbell
[DEBUG] 2017-08-31 02:54:17,466 | /home/tyler/frappe-bench/apps/frappe/frappe/utils/scheduler.py:
Site: silverbell
Queued events for site silverbell
[DEBUG] 2017-08-31 02:58:17,797 | /home/tyler/frappe-bench/apps/frappe/frappe/utils/scheduler.py:
Site: silverbell
Queued events for site silverbell
[DEBUG] 2017-08-31 03:02:18,139 | /home/tyler/frappe-bench/apps/frappe/frappe/utils/scheduler.py:
Site: silverbell
Queued events for site silverbell
[DEBUG] 2017-08-31 03:06:18,487 | /home/tyler/frappe-bench/apps/frappe/frappe/utils/scheduler.py:
Site: silverbell
Queued events for site silverbell
[DEBUG] 2017-08-31 03:10:18,810 | /home/tyler/frappe-bench/apps/frappe/frappe/utils/scheduler.py:
Site: silverbell
Queued events for site silverbell
[DEBUG] 2017-08-31 03:14:19,143 | /home/tyler/frappe-bench/apps/frappe/frappe/utils/scheduler.py:
Site: silverbell
Queued events for site silverbell
[DEBUG] 2017-08-31 03:18:19,482 | /home/tyler/frappe-bench/apps/frappe/frappe/utils/scheduler.py:
Site: silverbell
Queued events for site silverbell
[DEBUG] 2017-08-31 03:22:19,814 | /home/tyler/frappe-bench/apps/frappe/frappe/utils/scheduler.py:
Site: silverbell
Queued events for site silverbell
[DEBUG] 2017-08-31 03:26:20,139 | /home/tyler/frappe-bench/apps/frappe/frappe/utils/scheduler.py:
Site: silverbell
Queued events for site silverbell
[DEBUG] 2017-08-31 03:30:20,471 | /home/tyler/frappe-bench/apps/frappe/frappe/utils/scheduler.py:
Site: silverbell
Queued events for site silverbell
[DEBUG] 2017-08-31 03:34:20,802 | /home/tyler/frappe-bench/apps/frappe/frappe/utils/scheduler.py:
Site: silverbell
Queued events for site silverbell
[DEBUG] 2017-08-31 03:38:21,133 | /home/tyler/frappe-bench/apps/frappe/frappe/utils/scheduler.py:
Site: silverbell
Queued events for site silverbell
[DEBUG] 2017-08-31 03:42:21,465 | /home/tyler/frappe-bench/apps/frappe/frappe/utils/scheduler.py:
Site: silverbell
Queued events for site silverbell
[DEBUG] 2017-08-31 03:46:21,797 | /home/tyler/frappe-bench/apps/frappe/frappe/utils/scheduler.py:
Site: silverbell
Queued events for site silverbell
[DEBUG] 2017-08-31 03:50:22,120 | /home/tyler/frappe-bench/apps/frappe/frappe/utils/scheduler.py:
Site: silverbell
Queued events for site silverbell
[DEBUG] 2017-08-31 03:54:22,460 | /home/tyler/frappe-bench/apps/frappe/frappe/utils/scheduler.py:
Site: silverbell
Queued events for site silverbell
[DEBUG] 2017-08-31 03:58:22,800 | /home/tyler/frappe-bench/apps/frappe/frappe/utils/scheduler.py:
Site: silverbell
Queued events for site silverbell
[DEBUG] 2017-08-31 04:02:23,158 | /home/tyler/frappe-bench/apps/frappe/frappe/utils/scheduler.py:
Site: silverbell
Queued events for site silverbell
[DEBUG] 2017-08-31 04:06:23,507 | /home/tyler/frappe-bench/apps/frappe/frappe/utils/scheduler.py:
Site: silverbell
Queued events for site silverbell
[DEBUG] 2017-08-31 04:10:23,834 | /home/tyler/frappe-bench/apps/frappe/frappe/utils/scheduler.py:
Site: silverbell
Queued events for site silverbell
[DEBUG] 2017-08-31 04:14:24,167 | /home/tyler/frappe-bench/apps/frappe/frappe/utils/scheduler.py:
Site: silverbell
Queued events for site silverbell
[DEBUG] 2017-08-31 04:18:24,499 | /home/tyler/frappe-bench/apps/frappe/frappe/utils/scheduler.py:
Site: silverbell
Queued events for site silverbell
[DEBUG] 2017-08-31 04:22:24,831 | /home/tyler/frappe-bench/apps/frappe/frappe/utils/scheduler.py:
Site: silverbell
Queued events for site silverbell
[DEBUG] 2017-08-31 04:26:25,156 | /home/tyler/frappe-bench/apps/frappe/frappe/utils/scheduler.py:
Site: silverbell
Queued events for site silverbell
[DEBUG] 2017-08-31 04:30:25,487 | /home/tyler/frappe-bench/apps/frappe/frappe/utils/scheduler.py:
Site: silverbell
Queued events for site silverbell
[DEBUG] 2017-08-31 04:34:25,819 | /home/tyler/frappe-bench/apps/frappe/frappe/utils/scheduler.py:
Site: silverbell
Queued events for site silverbell
[DEBUG] 2017-08-31 04:38:26,142 | /home/tyler/frappe-bench/apps/frappe/frappe/utils/scheduler.py:
Site: silverbell
Queued events for site silverbell
[DEBUG] 2017-08-31 04:42:26,474 | /home/tyler/frappe-bench/apps/frappe/frappe/utils/scheduler.py:
Site: silverbell
Queued events for site silverbell
[DEBUG] 2017-08-31 04:46:26,799 | /home/tyler/frappe-bench/apps/frappe/frappe/utils/scheduler.py:
Site: silverbell
Queued events for site silverbell
[DEBUG] 2017-08-31 04:50:27,123 | /home/tyler/frappe-bench/apps/frappe/frappe/utils/scheduler.py:
Site: silverbell
Queued events for site silverbell
[DEBUG] 2017-08-31 04:54:27,447 | /home/tyler/frappe-bench/apps/frappe/frappe/utils/scheduler.py:
Site: silverbell
Queued events for site silverbell
[DEBUG] 2017-08-31 04:58:27,787 | /home/tyler/frappe-bench/apps/frappe/frappe/utils/scheduler.py:
Site: silverbell
Queued events for site silverbell
[DEBUG] 2017-08-31 05:02:28,131 | /home/tyler/frappe-bench/apps/frappe/frappe/utils/scheduler.py:
Site: silverbell
Queued events for site silverbell
[DEBUG] 2017-08-31 05:06:28,459 | /home/tyler/frappe-bench/apps/frappe/frappe/utils/scheduler.py:
Site: silverbell
Queued events for site silverbell
[DEBUG] 2017-08-31 05:10:28,783 | /home/tyler/frappe-bench/apps/frappe/frappe/utils/scheduler.py:
Site: silverbell
Queued events for site silverbell
[DEBUG] 2017-08-31 05:14:29,105 | /home/tyler/frappe-bench/apps/frappe/frappe/utils/scheduler.py:
Site: silverbell
Queued events for site silverbell
[DEBUG] 2017-08-31 05:18:29,428 | /home/tyler/frappe-bench/apps/frappe/frappe/utils/scheduler.py:
Site: silverbell
Queued events for site silverbell
[DEBUG] 2017-08-31 05:22:29,750 | /home/tyler/frappe-bench/apps/frappe/frappe/utils/scheduler.py:
Site: silverbell
Queued events for site silverbell
[DEBUG] 2017-08-31 05:26:30,108 | /home/tyler/frappe-bench/apps/frappe/frappe/utils/scheduler.py:
Site: silverbell
Queued events for site silverbell
[DEBUG] 2017-08-31 05:30:30,439 | /home/tyler/frappe-bench/apps/frappe/frappe/utils/scheduler.py:
Site: silverbell
Queued events for site silverbell
[DEBUG] 2017-08-31 05:34:30,771 | /home/tyler/frappe-bench/apps/frappe/frappe/utils/scheduler.py:
Site: silverbell
Queued events for site silverbell
[DEBUG] 2017-08-31 05:38:31,094 | /home/tyler/frappe-bench/apps/frappe/frappe/utils/scheduler.py:
Site: silverbell
Queued events for site silverbell
[DEBUG] 2017-08-31 05:42:31,426 | /home/tyler/frappe-bench/apps/frappe/frappe/utils/scheduler.py:
Site: silverbell
Queued events for site silverbell
[DEBUG] 2017-08-31 05:46:31,756 | /home/tyler/frappe-bench/apps/frappe/frappe/utils/scheduler.py:
Site: silverbell
Queued events for site silverbell
[DEBUG] 2017-08-31 05:50:32,080 | /home/tyler/frappe-bench/apps/frappe/frappe/utils/scheduler.py:
Site: silverbell
Queued events for site silverbell
[DEBUG] 2017-08-31 05:54:32,411 | /home/tyler/frappe-bench/apps/frappe/frappe/utils/scheduler.py:
Site: silverbell
Queued events for site silverbell
[DEBUG] 2017-08-31 05:58:33,331 | /home/tyler/frappe-bench/apps/frappe/frappe/utils/scheduler.py:
Site: silverbell
Queued events for site silverbell
[DEBUG] 2017-08-31 06:02:33,711 | /home/tyler/frappe-bench/apps/frappe/frappe/utils/scheduler.py:
Site: silverbell
Queued events for site silverbell
[DEBUG] 2017-08-31 06:06:34,043 | /home/tyler/frappe-bench/apps/frappe/frappe/utils/scheduler.py:
Site: silverbell
Queued events for site silverbell
[DEBUG] 2017-08-31 06:10:34,382 | /home/tyler/frappe-bench/apps/frappe/frappe/utils/scheduler.py:
Site: silverbell
Queued events for site silverbell
[DEBUG] 2017-08-31 06:14:34,818 | /home/tyler/frappe-bench/apps/frappe/frappe/utils/scheduler.py:
Site: silverbell
Queued events for site silverbell
[DEBUG] 2017-08-31 06:18:35,141 | /home/tyler/frappe-bench/apps/frappe/frappe/utils/scheduler.py:
Site: silverbell
Queued events for site silverbell
[DEBUG] 2017-08-31 06:22:35,475 | /home/tyler/frappe-bench/apps/frappe/frappe/utils/scheduler.py:
Site: silverbell
Queued events for site silverbell
[DEBUG] 2017-08-31 06:26:35,809 | /home/tyler/frappe-bench/apps/frappe/frappe/utils/scheduler.py:
Site: silverbell
Queued events for site silverbell
[DEBUG] 2017-08-31 06:30:36,142 | /home/tyler/frappe-bench/apps/frappe/frappe/utils/scheduler.py:
Site: silverbell
Queued events for site silverbell
[DEBUG] 2017-08-31 06:34:36,474 | /home/tyler/frappe-bench/apps/frappe/frappe/utils/scheduler.py:
Site: silverbell
Queued events for site silverbell
[DEBUG] 2017-08-31 06:38:36,806 | /home/tyler/frappe-bench/apps/frappe/frappe/utils/scheduler.py:
Site: silverbell
Queued events for site silverbell
[DEBUG] 2017-08-31 06:42:37,130 | /home/tyler/frappe-bench/apps/frappe/frappe/utils/scheduler.py:
Site: silverbell
Queued events for site silverbell
[DEBUG] 2017-08-31 06:46:37,478 | /home/tyler/frappe-bench/apps/frappe/frappe/utils/scheduler.py:
Site: silverbell
Queued events for site silverbell
[DEBUG] 2017-08-31 06:50:37,810 | /home/tyler/frappe-bench/apps/frappe/frappe/utils/scheduler.py:
Site: silverbell
Queued events for site silverbell
[DEBUG] 2017-08-31 06:54:38,141 | /home/tyler/frappe-bench/apps/frappe/frappe/utils/scheduler.py:
Site: silverbell
Queued events for site silverbell
[DEBUG] 2017-08-31 06:58:38,473 | /home/tyler/frappe-bench/apps/frappe/frappe/utils/scheduler.py:
Site: silverbell
Queued events for site silverbell
[DEBUG] 2017-08-31 07:02:38,845 | /home/tyler/frappe-bench/apps/frappe/frappe/utils/scheduler.py:
Site: silverbell
Queued events for site silverbell
[DEBUG] 2017-08-31 07:06:39,173 | /home/tyler/frappe-bench/apps/frappe/frappe/utils/scheduler.py:
Site: silverbell
Queued events for site silverbell
[DEBUG] 2017-08-31 07:10:39,513 | /home/tyler/frappe-bench/apps/frappe/frappe/utils/scheduler.py:
Site: silverbell
Queued events for site silverbell
[DEBUG] 2017-08-31 07:14:39,861 | /home/tyler/frappe-bench/apps/frappe/frappe/utils/scheduler.py:
Site: silverbell
Queued events for site silverbell
[DEBUG] 2017-08-31 07:18:40,192 | /home/tyler/frappe-bench/apps/frappe/frappe/utils/scheduler.py:
Site: silverbell
Queued events for site silverbell
[DEBUG] 2017-08-31 07:22:40,516 | /home/tyler/frappe-bench/apps/frappe/frappe/utils/scheduler.py:
Site: silverbell
Queued events for site silverbell
[DEBUG] 2017-08-31 07:26:40,839 | /home/tyler/frappe-bench/apps/frappe/frappe/utils/scheduler.py:
Site: silverbell
Queued events for site silverbell
[DEBUG] 2017-08-31 19:56:27,049 | /home/tyler/frappe-bench/apps/frappe/frappe/utils/scheduler.py:
Site: silverbell
Queued events for site silverbell
[ERROR] 2017-08-31 19:59:48,415 | /home/tyler/frappe-bench/apps/frappe/frappe/app.py:
Site: silverbell
Form Dict: {
 "cached_timestamp": "", 
 "cmd": "frappe.desk.form.load.getdoctype", 
 "doctype": "Dynamic Docfield Loading", 
 "with_parent": "1"
}
Request Error
Traceback (most recent call last):
  File "/home/tyler/frappe-bench/apps/frappe/frappe/app.py", line 55, in application
    response = frappe.handler.handle()
  File "/home/tyler/frappe-bench/apps/frappe/frappe/handler.py", line 21, in handle
    data = execute_cmd(cmd)
  File "/home/tyler/frappe-bench/apps/frappe/frappe/handler.py", line 52, in execute_cmd
    return frappe.call(method, **frappe.form_dict)
  File "/home/tyler/frappe-bench/apps/frappe/frappe/__init__.py", line 907, in call
    return fn(*args, **newargs)
  File "/home/tyler/frappe-bench/apps/frappe/frappe/desk/form/load.py", line 71, in getdoctype
    docs = get_meta_bundle(doctype)
  File "/home/tyler/frappe-bench/apps/frappe/frappe/desk/form/load.py", line 82, in get_meta_bundle
    bundle = [frappe.desk.form.meta.get_meta(doctype)]
  File "/home/tyler/frappe-bench/apps/frappe/frappe/desk/form/meta.py", line 22, in get_meta
    meta = FormMeta(doctype)
  File "/home/tyler/frappe-bench/apps/frappe/frappe/desk/form/meta.py", line 32, in __init__
    self.load_assets()
  File "/home/tyler/frappe-bench/apps/frappe/frappe/desk/form/meta.py", line 42, in load_assets
    self.load_templates()
  File "/home/tyler/frappe-bench/apps/frappe/frappe/desk/form/meta.py", line 152, in load_templates
    module = load_doctype_module(self.name)
  File "/home/tyler/frappe-bench/apps/frappe/frappe/modules/utils.py", line 182, in load_doctype_module
    doctype_python_modules[key] = frappe.get_module(module_name)
  File "/home/tyler/frappe-bench/apps/frappe/frappe/__init__.py", line 672, in get_module
    return importlib.import_module(modulename)
  File "/usr/lib/python2.7/importlib/__init__.py", line 37, in import_module
    __import__(name)
  File "/home/tyler/frappe-bench/apps/at_livestock/at_livestock/livestock/doctype/dynamic_docfield_loading/dynamic_docfield_loading.py", line 11, in <module>
    class DynamicDocfieldLoading(Document):
  File "/home/tyler/frappe-bench/apps/at_livestock/at_livestock/livestock/doctype/dynamic_docfield_loading/dynamic_docfield_loading.py", line 13, in DynamicDocfieldLoading
    self.ddf_list = []
NameError: name 'self' is not defined
[ERROR] 2017-08-31 19:59:48,775 | /home/tyler/frappe-bench/apps/frappe/frappe/utils/error.py:
New Exception collected with id: 2017-08-31 19:59:48.445829-127.0.0.1-b1d
[DEBUG] 2017-08-31 20:00:27,467 | /home/tyler/frappe-bench/apps/frappe/frappe/utils/scheduler.py:
Site: silverbell
Queued events for site silverbell
[ERROR] 2017-08-31 20:02:59,085 | /home/tyler/frappe-bench/apps/frappe/frappe/app.py:
Site: silverbell
Form Dict: {
 "args": "{}", 
 "cmd": "runserverobj", 
 "docs": "{\"modified_by\":\"Administrator\",\"name\":\"Dynamic Docfield Loading\",\"creation\":\"2017-08-30 20:21:08.483161\",\"modified\":\"2017-08-31 20:01:45.677706\",\"doctype\":\"Dynamic Docfield Loading\",\"idx\":\"0\",\"owner\":\"Administrator\",\"docstatus\":0,\"__last_sync_on\":\"2017-09-01T00:02:54.703Z\"}", 
 "method": "handle_ddf_inputs"
}
Request Error
Traceback (most recent call last):
  File "/home/tyler/frappe-bench/apps/frappe/frappe/app.py", line 55, in application
    response = frappe.handler.handle()
  File "/home/tyler/frappe-bench/apps/frappe/frappe/handler.py", line 21, in handle
    data = execute_cmd(cmd)
  File "/home/tyler/frappe-bench/apps/frappe/frappe/handler.py", line 52, in execute_cmd
    return frappe.call(method, **frappe.form_dict)
  File "/home/tyler/frappe-bench/apps/frappe/frappe/__init__.py", line 907, in call
    return fn(*args, **newargs)
  File "/home/tyler/frappe-bench/apps/frappe/frappe/handler.py", line 80, in runserverobj
    frappe.desk.form.run_method.runserverobj(method, docs=docs, dt=dt, dn=dn, arg=arg, args=args)
  File "/home/tyler/frappe-bench/apps/frappe/frappe/desk/form/run_method.py", line 41, in runserverobj
    r = doc.run_method(method, **args)
  File "/home/tyler/frappe-bench/apps/frappe/frappe/model/document.py", line 666, in run_method
    out = Document.hook(fn)(self, *args, **kwargs)
  File "/home/tyler/frappe-bench/apps/frappe/frappe/model/document.py", line 892, in composer
    return composed(self, method, *args, **kwargs)
  File "/home/tyler/frappe-bench/apps/frappe/frappe/model/document.py", line 875, in runner
    add_to_return_value(self, fn(self, *args, **kwargs))
  File "/home/tyler/frappe-bench/apps/frappe/frappe/model/document.py", line 660, in <lambda>
    fn = lambda self, *args, **kwargs: getattr(self, method)(*args, **kwargs)
TypeError: handle_ddf_inputs() takes exactly 2 arguments (1 given)
[ERROR] 2017-08-31 20:02:59,176 | /home/tyler/frappe-bench/apps/frappe/frappe/utils/error.py:
New Exception collected with id: 2017-08-31 20:02:59.101946-127.0.0.1-389
[ERROR] 2017-08-31 20:03:34,402 | /home/tyler/frappe-bench/apps/frappe/frappe/app.py:
Site: silverbell
Form Dict: {
 "args": "{}", 
 "cmd": "runserverobj", 
 "docs": "{\"modified_by\":\"Administrator\",\"name\":\"Dynamic Docfield Loading\",\"parent\":null,\"creation\":\"2017-08-30 20:21:08.483161\",\"modified\":\"2017-08-31 20:02:59.114126\",\"doctype\":\"Dynamic Docfield Loading\",\"idx\":\"0\",\"parenttype\":null,\"owner\":\"Administrator\",\"docstatus\":0,\"parentfield\":null,\"__last_sync_on\":\"2017-09-01T00:02:59.615Z\"}", 
 "method": "handle_ddf_inputs"
}
Request Error
Traceback (most recent call last):
  File "/home/tyler/frappe-bench/apps/frappe/frappe/app.py", line 55, in application
    response = frappe.handler.handle()
  File "/home/tyler/frappe-bench/apps/frappe/frappe/handler.py", line 21, in handle
    data = execute_cmd(cmd)
  File "/home/tyler/frappe-bench/apps/frappe/frappe/handler.py", line 52, in execute_cmd
    return frappe.call(method, **frappe.form_dict)
  File "/home/tyler/frappe-bench/apps/frappe/frappe/__init__.py", line 907, in call
    return fn(*args, **newargs)
  File "/home/tyler/frappe-bench/apps/frappe/frappe/handler.py", line 80, in runserverobj
    frappe.desk.form.run_method.runserverobj(method, docs=docs, dt=dt, dn=dn, arg=arg, args=args)
  File "/home/tyler/frappe-bench/apps/frappe/frappe/desk/form/run_method.py", line 22, in runserverobj
    doc.check_if_latest()
  File "/home/tyler/frappe-bench/apps/frappe/frappe/model/document.py", line 517, in check_if_latest
    where doctype=%s and field='modified' for update''', self.doctype)
  File "/home/tyler/frappe-bench/apps/frappe/frappe/database.py", line 138, in sql
    self._cursor.execute(query, values)
  File "/home/tyler/frappe-bench/env/local/lib/python2.7/site-packages/MySQLdb/cursors.py", line 250, in execute
    self.errorhandler(self, exc, value)
  File "/home/tyler/frappe-bench/env/local/lib/python2.7/site-packages/MySQLdb/connections.py", line 42, in defaulterrorhandler
    raise errorvalue
OperationalError: (1213, 'Deadlock found when trying to get lock; try restarting transaction')
[ERROR] 2017-08-31 20:03:34,408 | /home/tyler/frappe-bench/apps/frappe/frappe/utils/error.py:
Could not take error snapshot: 'connection'
Traceback (most recent call last):
  File "/home/tyler/frappe-bench/apps/frappe/frappe/utils/error.py", line 36, in make_error_snapshot
    snapshot = get_snapshot(exception)
  File "/home/tyler/frappe-bench/apps/frappe/frappe/utils/error.py", line 81, in get_snapshot
    call = inspect.formatargvalues(args, varargs, varkw, locals, formatvalue=lambda value: '={}'.format(pydoc.text.repr(value)))
  File "/usr/lib/python2.7/inspect.py", line 888, in formatargvalues
    specs.append(strseq(args[i], convert, join))
  File "/usr/lib/python2.7/inspect.py", line 843, in strseq
    return convert(object)
  File "/usr/lib/python2.7/inspect.py", line 885, in convert
    return formatarg(name) + formatvalue(locals[name])
KeyError: 'connection'
[DEBUG] 2017-08-31 20:04:27,793 | /home/tyler/frappe-bench/apps/frappe/frappe/utils/scheduler.py:
Site: silverbell
Queued events for site silverbell
[DEBUG] 2017-08-31 20:08:28,109 | /home/tyler/frappe-bench/apps/frappe/frappe/utils/scheduler.py:
Site: silverbell
Queued events for site silverbell
[DEBUG] 2017-08-31 20:12:28,417 | /home/tyler/frappe-bench/apps/frappe/frappe/utils/scheduler.py:
Site: silverbell
Queued events for site silverbell
[DEBUG] 2017-09-01 20:49:25,713 | /home/tyler/frappe-bench/apps/frappe/frappe/utils/scheduler.py:
Site: silverbell
Queued events for site silverbell
[ERROR] 2017-09-01 20:50:11,568 | /home/tyler/frappe-bench/apps/frappe/frappe/app.py:
Site: silverbell
Form Dict: {
 "action": "Save", 
 "cmd": "frappe.desk.form.save.savedocs", 
 "doc": "{\"modified_by\":\"Administrator\",\"name\":\"Dynamic Docfield Loading\",\"parent\":null,\"creation\":\"2017-08-30 20:21:08.483161\",\"modified\":\"2017-09-01 20:50:04.263931\",\"doctype\":\"Dynamic Docfield Loading\",\"idx\":\"0\",\"parenttype\":null,\"owner\":\"Administrator\",\"docstatus\":0,\"parentfield\":null,\"__last_sync_on\":\"2017-09-02T00:50:04.474Z\"}"
}
Request Error
Traceback (most recent call last):
  File "/home/tyler/frappe-bench/apps/frappe/frappe/app.py", line 55, in application
    response = frappe.handler.handle()
  File "/home/tyler/frappe-bench/apps/frappe/frappe/handler.py", line 21, in handle
    data = execute_cmd(cmd)
  File "/home/tyler/frappe-bench/apps/frappe/frappe/handler.py", line 52, in execute_cmd
    return frappe.call(method, **frappe.form_dict)
  File "/home/tyler/frappe-bench/apps/frappe/frappe/__init__.py", line 907, in call
    return fn(*args, **newargs)
  File "/home/tyler/frappe-bench/apps/frappe/frappe/desk/form/save.py", line 22, in savedocs
    doc.save()
  File "/home/tyler/frappe-bench/apps/frappe/frappe/model/document.py", line 230, in save
    return self._save(*args, **kwargs)
  File "/home/tyler/frappe-bench/apps/frappe/frappe/model/document.py", line 263, in _save
    self.run_before_save_methods()
  File "/home/tyler/frappe-bench/apps/frappe/frappe/model/document.py", line 772, in run_before_save_methods
    self.run_method("validate")
  File "/home/tyler/frappe-bench/apps/frappe/frappe/model/document.py", line 666, in run_method
    out = Document.hook(fn)(self, *args, **kwargs)
  File "/home/tyler/frappe-bench/apps/frappe/frappe/model/document.py", line 892, in composer
    return composed(self, method, *args, **kwargs)
  File "/home/tyler/frappe-bench/apps/frappe/frappe/model/document.py", line 875, in runner
    add_to_return_value(self, fn(self, *args, **kwargs))
  File "/home/tyler/frappe-bench/apps/frappe/frappe/model/document.py", line 660, in <lambda>
    fn = lambda self, *args, **kwargs: getattr(self, method)(*args, **kwargs)
  File "/home/tyler/frappe-bench/apps/at_livestock/at_livestock/livestock/doctype/dynamic_docfield_loading/dynamic_docfield_loading.py", line 24, in validate
    frappe.msgprint(str(ddf_list))
NameError: global name 'ddf_list' is not defined
[ERROR] 2017-09-01 20:50:11,629 | /home/tyler/frappe-bench/apps/frappe/frappe/utils/error.py:
New Exception collected with id: 2017-09-01 20:50:11.571287-127.0.0.1-f83
[ERROR] 2017-09-01 20:52:20,698 | /home/tyler/frappe-bench/apps/frappe/frappe/app.py:
Site: silverbell
Form Dict: {
 "0": "[", 
 "1": "{", 
 "10": "t", 
 "100": "C", 
 "101": "o", 
 "102": "l", 
 "103": "l", 
 "104": "e", 
 "105": "c", 
 "106": "t", 
 "107": "i", 
 "108": "o", 
 "109": "n", 
 "11": "i", 
 "110": " ", 
 "111": "A", 
 "112": "p", 
 "113": "p", 
 "114": "\"", 
 "115": "}", 
 "116": ",", 
 "117": "{", 
 "118": "\"", 
 "119": "d", 
 "12": "o", 
 "120": "e", 
 "121": "s", 
 "122": "c", 
 "123": "r", 
 "124": "i", 
 "125": "p", 
 "126": "t", 
 "127": "i", 
 "128": "o", 
 "129": "n", 
 "13": "n", 
 "130": "\"", 
 "131": ":", 
 "132": "\"", 
 "133": "P", 
 "134": "o", 
 "135": "r", 
 "136": "t", 
 "137": " ", 
 "138": "D", 
 "139": "D", 
 "14": "\"", 
 "140": "F", 
 "141": "s", 
 "142": " ", 
 "143": "t", 
 "144": "o", 
 "145": " ", 
 "146": "M", 
 "147": "i", 
 "148": "l", 
 "149": "k", 
 "15": ":", 
 "150": "i", 
 "151": "n", 
 "152": "g", 
 "153": " ", 
 "154": "A", 
 "155": "p", 
 "156": "p", 
 "157": "\"", 
 "158": "}", 
 "159": "]", 
 "16": "\"", 
 "17": "M", 
 "18": "a", 
 "19": "k", 
 "2": "\"", 
 "20": "e", 
 "21": " ", 
 "22": "D", 
 "23": "y", 
 "24": "n", 
 "25": "a", 
 "26": "m", 
 "27": "i", 
 "28": "c", 
 "29": " ", 
 "3": "d", 
 "30": "D", 
 "31": "o", 
 "32": "c", 
 "33": "f", 
 "34": "i", 
 "35": "e", 
 "36": "l", 
 "37": "d", 
 "38": "s", 
 "39": " ", 
 "4": "e", 
 "40": "m", 
 "41": "a", 
 "42": "g", 
 "43": "i", 
 "44": "c", 
 "45": "a", 
 "46": "l", 
 "47": "l", 
 "48": "y", 
 "49": " ", 
 "5": "s", 
 "50": "a", 
 "51": "p", 
 "52": "p", 
 "53": "e", 
 "54": "a", 
 "55": "r", 
 "56": " ", 
 "57": "i", 
 "58": "n", 
 "59": " ", 
 "6": "c", 
 "60": "H", 
 "61": "T", 
 "62": "M", 
 "63": "L", 
 "64": "\"", 
 "65": "}", 
 "66": ",", 
 "67": "{", 
 "68": "\"", 
 "69": "d", 
 "7": "r", 
 "70": "e", 
 "71": "s", 
 "72": "c", 
 "73": "r", 
 "74": "i", 
 "75": "p", 
 "76": "t", 
 "77": "i", 
 "78": "o", 
 "79": "n", 
 "8": "i", 
 "80": "\"", 
 "81": ":", 
 "82": "\"", 
 "83": "P", 
 "84": "o", 
 "85": "r", 
 "86": "t", 
 "87": " ", 
 "88": "D", 
 "89": "D", 
 "9": "p", 
 "90": "F", 
 "91": "s", 
 "92": " ", 
 "93": "t", 
 "94": "o", 
 "95": " ", 
 "96": "E", 
 "97": "g", 
 "98": "g", 
 "99": " ", 
 "args": "[{\"description\":\"Make Dynamic Docfields magically appear in HTML\"},{\"description\":\"Port DDFs to Egg Collection App\"},{\"description\":\"Port DDFs to Milking App\"}]", 
 "cmd": "runserverobj", 
 "docs": "{\"modified_by\":\"Administrator\",\"name\":\"Dynamic Docfield Loading\",\"parent\":null,\"creation\":\"2017-08-30 20:21:08.483161\",\"modified\":\"2017-09-01 20:52:10.488758\",\"doctype\":\"Dynamic Docfield Loading\",\"idx\":\"0\",\"parenttype\":null,\"owner\":\"Administrator\",\"docstatus\":0,\"parentfield\":null,\"__last_sync_on\":\"2017-09-02T00:52:10.673Z\"}", 
 "format": "undefined", 
 "method": "handle_ddf_inputs"
}
Request Error
Traceback (most recent call last):
  File "/home/tyler/frappe-bench/apps/frappe/frappe/app.py", line 55, in application
    response = frappe.handler.handle()
  File "/home/tyler/frappe-bench/apps/frappe/frappe/handler.py", line 21, in handle
    data = execute_cmd(cmd)
  File "/home/tyler/frappe-bench/apps/frappe/frappe/handler.py", line 52, in execute_cmd
    return frappe.call(method, **frappe.form_dict)
  File "/home/tyler/frappe-bench/apps/frappe/frappe/__init__.py", line 907, in call
    return fn(*args, **newargs)
  File "/home/tyler/frappe-bench/apps/frappe/frappe/handler.py", line 80, in runserverobj
    frappe.desk.form.run_method.runserverobj(method, docs=docs, dt=dt, dn=dn, arg=arg, args=args)
  File "/home/tyler/frappe-bench/apps/frappe/frappe/desk/form/run_method.py", line 22, in runserverobj
    doc.check_if_latest()
  File "/home/tyler/frappe-bench/apps/frappe/frappe/model/document.py", line 517, in check_if_latest
    where doctype=%s and field='modified' for update''', self.doctype)
  File "/home/tyler/frappe-bench/apps/frappe/frappe/database.py", line 138, in sql
    self._cursor.execute(query, values)
  File "/home/tyler/frappe-bench/env/local/lib/python2.7/site-packages/MySQLdb/cursors.py", line 250, in execute
    self.errorhandler(self, exc, value)
  File "/home/tyler/frappe-bench/env/local/lib/python2.7/site-packages/MySQLdb/connections.py", line 42, in defaulterrorhandler
    raise errorvalue
OperationalError: (1213, 'Deadlock found when trying to get lock; try restarting transaction')
[ERROR] 2017-09-01 20:52:20,843 | /home/tyler/frappe-bench/apps/frappe/frappe/utils/error.py:
Could not take error snapshot: 'connection'
Traceback (most recent call last):
  File "/home/tyler/frappe-bench/apps/frappe/frappe/utils/error.py", line 36, in make_error_snapshot
    snapshot = get_snapshot(exception)
  File "/home/tyler/frappe-bench/apps/frappe/frappe/utils/error.py", line 81, in get_snapshot
    call = inspect.formatargvalues(args, varargs, varkw, locals, formatvalue=lambda value: '={}'.format(pydoc.text.repr(value)))
  File "/usr/lib/python2.7/inspect.py", line 888, in formatargvalues
    specs.append(strseq(args[i], convert, join))
  File "/usr/lib/python2.7/inspect.py", line 843, in strseq
    return convert(object)
  File "/usr/lib/python2.7/inspect.py", line 885, in convert
    return formatarg(name) + formatvalue(locals[name])
KeyError: 'connection'
[ERROR] 2017-09-01 20:52:56,935 | /home/tyler/frappe-bench/apps/frappe/frappe/app.py:
Site: silverbell
Form Dict: {
 "0": "[", 
 "1": "{", 
 "10": "t", 
 "100": "C", 
 "101": "o", 
 "102": "l", 
 "103": "l", 
 "104": "e", 
 "105": "c", 
 "106": "t", 
 "107": "i", 
 "108": "o", 
 "109": "n", 
 "11": "i", 
 "110": " ", 
 "111": "A", 
 "112": "p", 
 "113": "p", 
 "114": "\"", 
 "115": "}", 
 "116": ",", 
 "117": "{", 
 "118": "\"", 
 "119": "d", 
 "12": "o", 
 "120": "e", 
 "121": "s", 
 "122": "c", 
 "123": "r", 
 "124": "i", 
 "125": "p", 
 "126": "t", 
 "127": "i", 
 "128": "o", 
 "129": "n", 
 "13": "n", 
 "130": "\"", 
 "131": ":", 
 "132": "\"", 
 "133": "P", 
 "134": "o", 
 "135": "r", 
 "136": "t", 
 "137": " ", 
 "138": "D", 
 "139": "D", 
 "14": "\"", 
 "140": "F", 
 "141": "s", 
 "142": " ", 
 "143": "t", 
 "144": "o", 
 "145": " ", 
 "146": "M", 
 "147": "i", 
 "148": "l", 
 "149": "k", 
 "15": ":", 
 "150": "i", 
 "151": "n", 
 "152": "g", 
 "153": " ", 
 "154": "A", 
 "155": "p", 
 "156": "p", 
 "157": "\"", 
 "158": "}", 
 "159": "]", 
 "16": "\"", 
 "17": "M", 
 "18": "a", 
 "19": "k", 
 "2": "\"", 
 "20": "e", 
 "21": " ", 
 "22": "D", 
 "23": "y", 
 "24": "n", 
 "25": "a", 
 "26": "m", 
 "27": "i", 
 "28": "c", 
 "29": " ", 
 "3": "d", 
 "30": "D", 
 "31": "o", 
 "32": "c", 
 "33": "f", 
 "34": "i", 
 "35": "e", 
 "36": "l", 
 "37": "d", 
 "38": "s", 
 "39": " ", 
 "4": "e", 
 "40": "m", 
 "41": "a", 
 "42": "g", 
 "43": "i", 
 "44": "c", 
 "45": "a", 
 "46": "l", 
 "47": "l", 
 "48": "y", 
 "49": " ", 
 "5": "s", 
 "50": "a", 
 "51": "p", 
 "52": "p", 
 "53": "e", 
 "54": "a", 
 "55": "r", 
 "56": " ", 
 "57": "i", 
 "58": "n", 
 "59": " ", 
 "6": "c", 
 "60": "H", 
 "61": "T", 
 "62": "M", 
 "63": "L", 
 "64": "\"", 
 "65": "}", 
 "66": ",", 
 "67": "{", 
 "68": "\"", 
 "69": "d", 
 "7": "r", 
 "70": "e", 
 "71": "s", 
 "72": "c", 
 "73": "r", 
 "74": "i", 
 "75": "p", 
 "76": "t", 
 "77": "i", 
 "78": "o", 
 "79": "n", 
 "8": "i", 
 "80": "\"", 
 "81": ":", 
 "82": "\"", 
 "83": "P", 
 "84": "o", 
 "85": "r", 
 "86": "t", 
 "87": " ", 
 "88": "D", 
 "89": "D", 
 "9": "p", 
 "90": "F", 
 "91": "s", 
 "92": " ", 
 "93": "t", 
 "94": "o", 
 "95": " ", 
 "96": "E", 
 "97": "g", 
 "98": "g", 
 "99": " ", 
 "args": "[{\"description\":\"Make Dynamic Docfields magically appear in HTML\"},{\"description\":\"Port DDFs to Egg Collection App\"},{\"description\":\"Port DDFs to Milking App\"}]", 
 "cmd": "runserverobj", 
 "docs": "{\"modified_by\":\"Administrator\",\"name\":\"Dynamic Docfield Loading\",\"parent\":null,\"creation\":\"2017-08-30 20:21:08.483161\",\"modified\":\"2017-09-01 20:52:31.358317\",\"doctype\":\"Dynamic Docfield Loading\",\"idx\":\"0\",\"parenttype\":null,\"owner\":\"Administrator\",\"docstatus\":0,\"parentfield\":null,\"__last_sync_on\":\"2017-09-02T00:52:31.544Z\"}", 
 "format": "undefined", 
 "method": "handle_ddf_inputs"
}
Request Error
Traceback (most recent call last):
  File "/home/tyler/frappe-bench/apps/frappe/frappe/app.py", line 55, in application
    response = frappe.handler.handle()
  File "/home/tyler/frappe-bench/apps/frappe/frappe/handler.py", line 21, in handle
    data = execute_cmd(cmd)
  File "/home/tyler/frappe-bench/apps/frappe/frappe/handler.py", line 52, in execute_cmd
    return frappe.call(method, **frappe.form_dict)
  File "/home/tyler/frappe-bench/apps/frappe/frappe/__init__.py", line 907, in call
    return fn(*args, **newargs)
  File "/home/tyler/frappe-bench/apps/frappe/frappe/handler.py", line 80, in runserverobj
    frappe.desk.form.run_method.runserverobj(method, docs=docs, dt=dt, dn=dn, arg=arg, args=args)
  File "/home/tyler/frappe-bench/apps/frappe/frappe/desk/form/run_method.py", line 22, in runserverobj
    doc.check_if_latest()
  File "/home/tyler/frappe-bench/apps/frappe/frappe/model/document.py", line 517, in check_if_latest
    where doctype=%s and field='modified' for update''', self.doctype)
  File "/home/tyler/frappe-bench/apps/frappe/frappe/database.py", line 138, in sql
    self._cursor.execute(query, values)
  File "/home/tyler/frappe-bench/env/local/lib/python2.7/site-packages/MySQLdb/cursors.py", line 250, in execute
    self.errorhandler(self, exc, value)
  File "/home/tyler/frappe-bench/env/local/lib/python2.7/site-packages/MySQLdb/connections.py", line 42, in defaulterrorhandler
    raise errorvalue
OperationalError: (1213, 'Deadlock found when trying to get lock; try restarting transaction')
[ERROR] 2017-09-01 20:52:57,067 | /home/tyler/frappe-bench/apps/frappe/frappe/utils/error.py:
Could not take error snapshot: 'connection'
Traceback (most recent call last):
  File "/home/tyler/frappe-bench/apps/frappe/frappe/utils/error.py", line 36, in make_error_snapshot
    snapshot = get_snapshot(exception)
  File "/home/tyler/frappe-bench/apps/frappe/frappe/utils/error.py", line 81, in get_snapshot
    call = inspect.formatargvalues(args, varargs, varkw, locals, formatvalue=lambda value: '={}'.format(pydoc.text.repr(value)))
  File "/usr/lib/python2.7/inspect.py", line 888, in formatargvalues
    specs.append(strseq(args[i], convert, join))
  File "/usr/lib/python2.7/inspect.py", line 843, in strseq
    return convert(object)
  File "/usr/lib/python2.7/inspect.py", line 885, in convert
    return formatarg(name) + formatvalue(locals[name])
KeyError: 'connection'
[DEBUG] 2017-09-01 20:53:26,096 | /home/tyler/frappe-bench/apps/frappe/frappe/utils/scheduler.py:
Site: silverbell
Queued events for site silverbell
[ERROR] 2017-09-01 20:53:34,881 | /home/tyler/frappe-bench/apps/frappe/frappe/app.py:
Site: silverbell
Form Dict: {
 "action": "Save", 
 "cmd": "frappe.desk.form.save.savedocs", 
 "doc": "{\"modified_by\":\"Administrator\",\"name\":\"Dynamic Docfield Loading\",\"parent\":null,\"creation\":\"2017-08-30 20:21:08.483161\",\"modified\":\"2017-09-01 20:53:24.345653\",\"doctype\":\"Dynamic Docfield Loading\",\"idx\":\"0\",\"parenttype\":null,\"owner\":\"Administrator\",\"docstatus\":0,\"parentfield\":null,\"__last_sync_on\":\"2017-09-02T00:53:24.529Z\"}"
}
Request Error
Traceback (most recent call last):
  File "/home/tyler/frappe-bench/apps/frappe/frappe/app.py", line 55, in application
    response = frappe.handler.handle()
  File "/home/tyler/frappe-bench/apps/frappe/frappe/handler.py", line 21, in handle
    data = execute_cmd(cmd)
  File "/home/tyler/frappe-bench/apps/frappe/frappe/handler.py", line 52, in execute_cmd
    return frappe.call(method, **frappe.form_dict)
  File "/home/tyler/frappe-bench/apps/frappe/frappe/__init__.py", line 907, in call
    return fn(*args, **newargs)
  File "/home/tyler/frappe-bench/apps/frappe/frappe/desk/form/save.py", line 22, in savedocs
    doc.save()
  File "/home/tyler/frappe-bench/apps/frappe/frappe/model/document.py", line 230, in save
    return self._save(*args, **kwargs)
  File "/home/tyler/frappe-bench/apps/frappe/frappe/model/document.py", line 263, in _save
    self.run_before_save_methods()
  File "/home/tyler/frappe-bench/apps/frappe/frappe/model/document.py", line 772, in run_before_save_methods
    self.run_method("validate")
  File "/home/tyler/frappe-bench/apps/frappe/frappe/model/document.py", line 666, in run_method
    out = Document.hook(fn)(self, *args, **kwargs)
  File "/home/tyler/frappe-bench/apps/frappe/frappe/model/document.py", line 892, in composer
    return composed(self, method, *args, **kwargs)
  File "/home/tyler/frappe-bench/apps/frappe/frappe/model/document.py", line 875, in runner
    add_to_return_value(self, fn(self, *args, **kwargs))
  File "/home/tyler/frappe-bench/apps/frappe/frappe/model/document.py", line 660, in <lambda>
    fn = lambda self, *args, **kwargs: getattr(self, method)(*args, **kwargs)
  File "/home/tyler/frappe-bench/apps/at_livestock/at_livestock/livestock/doctype/dynamic_docfield_loading/dynamic_docfield_loading.py", line 23, in validate
    frappe.msgprint(str(ddf_list),"self.ddf_list")
NameError: global name 'ddf_list' is not defined
[ERROR] 2017-09-01 20:53:34,930 | /home/tyler/frappe-bench/apps/frappe/frappe/utils/error.py:
New Exception collected with id: 2017-09-01 20:53:34.882048-127.0.0.1-7a1
[DEBUG] 2017-09-01 20:57:26,461 | /home/tyler/frappe-bench/apps/frappe/frappe/utils/scheduler.py:
Site: silverbell
Queued events for site silverbell
[ERROR] 2017-09-01 20:57:32,130 | /home/tyler/frappe-bench/apps/frappe/frappe/app.py:
Site: silverbell
Form Dict: {
 "action": "Save", 
 "cmd": "frappe.desk.form.save.savedocs", 
 "doc": "{\"modified_by\":\"Administrator\",\"name\":\"Dynamic Docfield Loading\",\"creation\":\"2017-08-30 20:21:08.483161\",\"modified\":\"2017-09-01 20:53:24.345653\",\"doctype\":\"Dynamic Docfield Loading\",\"idx\":\"0\",\"owner\":\"Administrator\",\"docstatus\":0,\"__last_sync_on\":\"2017-09-02T00:53:34.860Z\"}"
}
Request Error
Traceback (most recent call last):
  File "/home/tyler/frappe-bench/apps/frappe/frappe/app.py", line 55, in application
    response = frappe.handler.handle()
  File "/home/tyler/frappe-bench/apps/frappe/frappe/handler.py", line 21, in handle
    data = execute_cmd(cmd)
  File "/home/tyler/frappe-bench/apps/frappe/frappe/handler.py", line 52, in execute_cmd
    return frappe.call(method, **frappe.form_dict)
  File "/home/tyler/frappe-bench/apps/frappe/frappe/__init__.py", line 907, in call
    return fn(*args, **newargs)
  File "/home/tyler/frappe-bench/apps/frappe/frappe/desk/form/save.py", line 22, in savedocs
    doc.save()
  File "/home/tyler/frappe-bench/apps/frappe/frappe/model/document.py", line 230, in save
    return self._save(*args, **kwargs)
  File "/home/tyler/frappe-bench/apps/frappe/frappe/model/document.py", line 263, in _save
    self.run_before_save_methods()
  File "/home/tyler/frappe-bench/apps/frappe/frappe/model/document.py", line 772, in run_before_save_methods
    self.run_method("validate")
  File "/home/tyler/frappe-bench/apps/frappe/frappe/model/document.py", line 666, in run_method
    out = Document.hook(fn)(self, *args, **kwargs)
  File "/home/tyler/frappe-bench/apps/frappe/frappe/model/document.py", line 892, in composer
    return composed(self, method, *args, **kwargs)
  File "/home/tyler/frappe-bench/apps/frappe/frappe/model/document.py", line 875, in runner
    add_to_return_value(self, fn(self, *args, **kwargs))
  File "/home/tyler/frappe-bench/apps/frappe/frappe/model/document.py", line 660, in <lambda>
    fn = lambda self, *args, **kwargs: getattr(self, method)(*args, **kwargs)
  File "/home/tyler/frappe-bench/apps/at_livestock/at_livestock/livestock/doctype/dynamic_docfield_loading/dynamic_docfield_loading.py", line 23, in validate
    frappe.msgprint(str(self.ddf_list[0]),"self.ddf_list")
IndexError: list index out of range
[ERROR] 2017-09-01 20:57:32,192 | /home/tyler/frappe-bench/apps/frappe/frappe/utils/error.py:
New Exception collected with id: 2017-09-01 20:57:32.130826-127.0.0.1-d86
[DEBUG] 2017-09-01 21:01:26,785 | /home/tyler/frappe-bench/apps/frappe/frappe/utils/scheduler.py:
Site: silverbell
Queued events for site silverbell
[ERROR] 2017-09-01 21:02:45,345 | /home/tyler/frappe-bench/apps/frappe/frappe/app.py:
Site: silverbell
Form Dict: {
 "cmd": "frappe.desk.form.load.getdoctype", 
 "doctype": "Dynamic Docfield Loading", 
 "with_parent": "1"
}
Request Error
Traceback (most recent call last):
  File "/home/tyler/frappe-bench/apps/frappe/frappe/app.py", line 55, in application
    response = frappe.handler.handle()
  File "/home/tyler/frappe-bench/apps/frappe/frappe/handler.py", line 21, in handle
    data = execute_cmd(cmd)
  File "/home/tyler/frappe-bench/apps/frappe/frappe/handler.py", line 52, in execute_cmd
    return frappe.call(method, **frappe.form_dict)
  File "/home/tyler/frappe-bench/apps/frappe/frappe/__init__.py", line 907, in call
    return fn(*args, **newargs)
  File "/home/tyler/frappe-bench/apps/frappe/frappe/desk/form/load.py", line 71, in getdoctype
    docs = get_meta_bundle(doctype)
  File "/home/tyler/frappe-bench/apps/frappe/frappe/desk/form/load.py", line 82, in get_meta_bundle
    bundle = [frappe.desk.form.meta.get_meta(doctype)]
  File "/home/tyler/frappe-bench/apps/frappe/frappe/desk/form/meta.py", line 22, in get_meta
    meta = FormMeta(doctype)
  File "/home/tyler/frappe-bench/apps/frappe/frappe/desk/form/meta.py", line 32, in __init__
    self.load_assets()
  File "/home/tyler/frappe-bench/apps/frappe/frappe/desk/form/meta.py", line 42, in load_assets
    self.load_templates()
  File "/home/tyler/frappe-bench/apps/frappe/frappe/desk/form/meta.py", line 152, in load_templates
    module = load_doctype_module(self.name)
  File "/home/tyler/frappe-bench/apps/frappe/frappe/modules/utils.py", line 182, in load_doctype_module
    doctype_python_modules[key] = frappe.get_module(module_name)
  File "/home/tyler/frappe-bench/apps/frappe/frappe/__init__.py", line 672, in get_module
    return importlib.import_module(modulename)
  File "/usr/lib/python2.7/importlib/__init__.py", line 37, in import_module
    __import__(name)
  File "/home/tyler/frappe-bench/apps/at_livestock/at_livestock/livestock/doctype/dynamic_docfield_loading/dynamic_docfield_loading.py", line 21
    frappe.msgprint(self.0_ddf_list)
                         ^
SyntaxError: invalid syntax
[ERROR] 2017-09-01 21:02:45,560 | /home/tyler/frappe-bench/apps/frappe/frappe/utils/error.py:
New Exception collected with id: 2017-09-01 21:02:45.346758-127.0.0.1-c52
[ERROR] 2017-09-01 21:03:31,166 | /home/tyler/frappe-bench/apps/frappe/frappe/app.py:
Site: silverbell
Form Dict: {
 "cmd": "frappe.desk.form.load.getdoctype", 
 "doctype": "Dynamic Docfield Loading", 
 "with_parent": "1"
}
Request Error
Traceback (most recent call last):
  File "/home/tyler/frappe-bench/apps/frappe/frappe/app.py", line 55, in application
    response = frappe.handler.handle()
  File "/home/tyler/frappe-bench/apps/frappe/frappe/handler.py", line 21, in handle
    data = execute_cmd(cmd)
  File "/home/tyler/frappe-bench/apps/frappe/frappe/handler.py", line 52, in execute_cmd
    return frappe.call(method, **frappe.form_dict)
  File "/home/tyler/frappe-bench/apps/frappe/frappe/__init__.py", line 907, in call
    return fn(*args, **newargs)
  File "/home/tyler/frappe-bench/apps/frappe/frappe/desk/form/load.py", line 71, in getdoctype
    docs = get_meta_bundle(doctype)
  File "/home/tyler/frappe-bench/apps/frappe/frappe/desk/form/load.py", line 82, in get_meta_bundle
    bundle = [frappe.desk.form.meta.get_meta(doctype)]
  File "/home/tyler/frappe-bench/apps/frappe/frappe/desk/form/meta.py", line 22, in get_meta
    meta = FormMeta(doctype)
  File "/home/tyler/frappe-bench/apps/frappe/frappe/desk/form/meta.py", line 32, in __init__
    self.load_assets()
  File "/home/tyler/frappe-bench/apps/frappe/frappe/desk/form/meta.py", line 42, in load_assets
    self.load_templates()
  File "/home/tyler/frappe-bench/apps/frappe/frappe/desk/form/meta.py", line 152, in load_templates
    module = load_doctype_module(self.name)
  File "/home/tyler/frappe-bench/apps/frappe/frappe/modules/utils.py", line 182, in load_doctype_module
    doctype_python_modules[key] = frappe.get_module(module_name)
  File "/home/tyler/frappe-bench/apps/frappe/frappe/__init__.py", line 672, in get_module
    return importlib.import_module(modulename)
  File "/usr/lib/python2.7/importlib/__init__.py", line 37, in import_module
    __import__(name)
  File "/home/tyler/frappe-bench/apps/at_livestock/at_livestock/livestock/doctype/dynamic_docfield_loading/dynamic_docfield_loading.py", line 21
    frappe.msgprint(self.0_ddf_list)
                         ^
SyntaxError: invalid syntax
[ERROR] 2017-09-01 21:03:31,178 | /home/tyler/frappe-bench/apps/frappe/frappe/utils/error.py:
New Exception collected with id: 2017-09-01 21:03:31.167274-127.0.0.1-506
[ERROR] 2017-09-01 21:04:03,109 | /home/tyler/frappe-bench/apps/frappe/frappe/app.py:
Site: silverbell
Form Dict: {
 "0": "[", 
 "1": "{", 
 "10": "t", 
 "100": "C", 
 "101": "o", 
 "102": "l", 
 "103": "l", 
 "104": "e", 
 "105": "c", 
 "106": "t", 
 "107": "i", 
 "108": "o", 
 "109": "n", 
 "11": "i", 
 "110": " ", 
 "111": "A", 
 "112": "p", 
 "113": "p", 
 "114": "\"", 
 "115": "}", 
 "116": ",", 
 "117": "{", 
 "118": "\"", 
 "119": "d", 
 "12": "o", 
 "120": "e", 
 "121": "s", 
 "122": "c", 
 "123": "r", 
 "124": "i", 
 "125": "p", 
 "126": "t", 
 "127": "i", 
 "128": "o", 
 "129": "n", 
 "13": "n", 
 "130": "\"", 
 "131": ":", 
 "132": "\"", 
 "133": "P", 
 "134": "o", 
 "135": "r", 
 "136": "t", 
 "137": " ", 
 "138": "D", 
 "139": "D", 
 "14": "\"", 
 "140": "F", 
 "141": "s", 
 "142": " ", 
 "143": "t", 
 "144": "o", 
 "145": " ", 
 "146": "M", 
 "147": "i", 
 "148": "l", 
 "149": "k", 
 "15": ":", 
 "150": "i", 
 "151": "n", 
 "152": "g", 
 "153": " ", 
 "154": "A", 
 "155": "p", 
 "156": "p", 
 "157": "\"", 
 "158": "}", 
 "159": "]", 
 "16": "\"", 
 "17": "M", 
 "18": "a", 
 "19": "k", 
 "2": "\"", 
 "20": "e", 
 "21": " ", 
 "22": "D", 
 "23": "y", 
 "24": "n", 
 "25": "a", 
 "26": "m", 
 "27": "i", 
 "28": "c", 
 "29": " ", 
 "3": "d", 
 "30": "D", 
 "31": "o", 
 "32": "c", 
 "33": "f", 
 "34": "i", 
 "35": "e", 
 "36": "l", 
 "37": "d", 
 "38": "s", 
 "39": " ", 
 "4": "e", 
 "40": "m", 
 "41": "a", 
 "42": "g", 
 "43": "i", 
 "44": "c", 
 "45": "a", 
 "46": "l", 
 "47": "l", 
 "48": "y", 
 "49": " ", 
 "5": "s", 
 "50": "a", 
 "51": "p", 
 "52": "p", 
 "53": "e", 
 "54": "a", 
 "55": "r", 
 "56": " ", 
 "57": "i", 
 "58": "n", 
 "59": " ", 
 "6": "c", 
 "60": "H", 
 "61": "T", 
 "62": "M", 
 "63": "L", 
 "64": "\"", 
 "65": "}", 
 "66": ",", 
 "67": "{", 
 "68": "\"", 
 "69": "d", 
 "7": "r", 
 "70": "e", 
 "71": "s", 
 "72": "c", 
 "73": "r", 
 "74": "i", 
 "75": "p", 
 "76": "t", 
 "77": "i", 
 "78": "o", 
 "79": "n", 
 "8": "i", 
 "80": "\"", 
 "81": ":", 
 "82": "\"", 
 "83": "P", 
 "84": "o", 
 "85": "r", 
 "86": "t", 
 "87": " ", 
 "88": "D", 
 "89": "D", 
 "9": "p", 
 "90": "F", 
 "91": "s", 
 "92": " ", 
 "93": "t", 
 "94": "o", 
 "95": " ", 
 "96": "E", 
 "97": "g", 
 "98": "g", 
 "99": " ", 
 "args": "[{\"description\":\"Make Dynamic Docfields magically appear in HTML\"},{\"description\":\"Port DDFs to Egg Collection App\"},{\"description\":\"Port DDFs to Milking App\"}]", 
 "cmd": "runserverobj", 
 "docs": "{\"modified_by\":\"Administrator\",\"name\":\"Dynamic Docfield Loading\",\"creation\":\"2017-08-30 20:21:08.483161\",\"modified\":\"2017-09-01 21:01:23.342995\",\"doctype\":\"Dynamic Docfield Loading\",\"idx\":\"0\",\"owner\":\"Administrator\",\"docstatus\":0,\"__last_sync_on\":\"2017-09-02T01:03:57.276Z\"}", 
 "format": "undefined", 
 "method": "handle_ddf_inputs"
}
Request Error
Traceback (most recent call last):
  File "/home/tyler/frappe-bench/apps/frappe/frappe/app.py", line 55, in application
    response = frappe.handler.handle()
  File "/home/tyler/frappe-bench/apps/frappe/frappe/handler.py", line 21, in handle
    data = execute_cmd(cmd)
  File "/home/tyler/frappe-bench/apps/frappe/frappe/handler.py", line 52, in execute_cmd
    return frappe.call(method, **frappe.form_dict)
  File "/home/tyler/frappe-bench/apps/frappe/frappe/__init__.py", line 907, in call
    return fn(*args, **newargs)
  File "/home/tyler/frappe-bench/apps/frappe/frappe/handler.py", line 80, in runserverobj
    frappe.desk.form.run_method.runserverobj(method, docs=docs, dt=dt, dn=dn, arg=arg, args=args)
  File "/home/tyler/frappe-bench/apps/frappe/frappe/desk/form/run_method.py", line 35, in runserverobj
    r = doc.run_method(method)
  File "/home/tyler/frappe-bench/apps/frappe/frappe/model/document.py", line 666, in run_method
    out = Document.hook(fn)(self, *args, **kwargs)
  File "/home/tyler/frappe-bench/apps/frappe/frappe/model/document.py", line 892, in composer
    return composed(self, method, *args, **kwargs)
  File "/home/tyler/frappe-bench/apps/frappe/frappe/model/document.py", line 875, in runner
    add_to_return_value(self, fn(self, *args, **kwargs))
  File "/home/tyler/frappe-bench/apps/frappe/frappe/model/document.py", line 660, in <lambda>
    fn = lambda self, *args, **kwargs: getattr(self, method)(*args, **kwargs)
  File "/home/tyler/frappe-bench/apps/at_livestock/at_livestock/livestock/doctype/dynamic_docfield_loading/dynamic_docfield_loading.py", line 21, in handle_ddf_inputs
    frappe.msgprint(self.ddf_list_0)
AttributeError: 'DynamicDocfieldLoading' object has no attribute 'ddf_list_0'
[ERROR] 2017-09-01 21:04:03,185 | /home/tyler/frappe-bench/apps/frappe/frappe/utils/error.py:
New Exception collected with id: 2017-09-01 21:04:03.112050-127.0.0.1-f41
[DEBUG] 2017-09-01 21:05:27,103 | /home/tyler/frappe-bench/apps/frappe/frappe/utils/scheduler.py:
Site: silverbell
Queued events for site silverbell
[DEBUG] 2017-09-01 21:09:27,451 | /home/tyler/frappe-bench/apps/frappe/frappe/utils/scheduler.py:
Site: silverbell
Queued events for site silverbell
[ERROR] 2017-09-01 21:10:07,839 | /home/tyler/frappe-bench/apps/frappe/frappe/app.py:
Site: silverbell
Form Dict: {
 "cmd": "frappe.desk.form.load.getdoctype", 
 "doctype": "Dynamic Docfield Loading", 
 "with_parent": "1"
}
Request Error
Traceback (most recent call last):
  File "/home/tyler/frappe-bench/apps/frappe/frappe/app.py", line 55, in application
    response = frappe.handler.handle()
  File "/home/tyler/frappe-bench/apps/frappe/frappe/handler.py", line 21, in handle
    data = execute_cmd(cmd)
  File "/home/tyler/frappe-bench/apps/frappe/frappe/handler.py", line 52, in execute_cmd
    return frappe.call(method, **frappe.form_dict)
  File "/home/tyler/frappe-bench/apps/frappe/frappe/__init__.py", line 907, in call
    return fn(*args, **newargs)
  File "/home/tyler/frappe-bench/apps/frappe/frappe/desk/form/load.py", line 71, in getdoctype
    docs = get_meta_bundle(doctype)
  File "/home/tyler/frappe-bench/apps/frappe/frappe/desk/form/load.py", line 82, in get_meta_bundle
    bundle = [frappe.desk.form.meta.get_meta(doctype)]
  File "/home/tyler/frappe-bench/apps/frappe/frappe/desk/form/meta.py", line 22, in get_meta
    meta = FormMeta(doctype)
  File "/home/tyler/frappe-bench/apps/frappe/frappe/desk/form/meta.py", line 32, in __init__
    self.load_assets()
  File "/home/tyler/frappe-bench/apps/frappe/frappe/desk/form/meta.py", line 42, in load_assets
    self.load_templates()
  File "/home/tyler/frappe-bench/apps/frappe/frappe/desk/form/meta.py", line 152, in load_templates
    module = load_doctype_module(self.name)
  File "/home/tyler/frappe-bench/apps/frappe/frappe/modules/utils.py", line 182, in load_doctype_module
    doctype_python_modules[key] = frappe.get_module(module_name)
  File "/home/tyler/frappe-bench/apps/frappe/frappe/__init__.py", line 672, in get_module
    return importlib.import_module(modulename)
  File "/usr/lib/python2.7/importlib/__init__.py", line 37, in import_module
    __import__(name)
  File "/home/tyler/frappe-bench/apps/at_livestock/at_livestock/livestock/doctype/dynamic_docfield_loading/dynamic_docfield_loading.py", line 19
    
    ^
IndentationError: expected an indented block
[ERROR] 2017-09-01 21:10:07,920 | /home/tyler/frappe-bench/apps/frappe/frappe/utils/error.py:
New Exception collected with id: 2017-09-01 21:10:07.841747-127.0.0.1-1b7
[DEBUG] 2017-09-01 21:13:27,751 | /home/tyler/frappe-bench/apps/frappe/frappe/utils/scheduler.py:
Site: silverbell
Queued events for site silverbell
[DEBUG] 2017-09-01 21:17:28,082 | /home/tyler/frappe-bench/apps/frappe/frappe/utils/scheduler.py:
Site: silverbell
Queued events for site silverbell
[DEBUG] 2017-09-01 21:21:28,412 | /home/tyler/frappe-bench/apps/frappe/frappe/utils/scheduler.py:
Site: silverbell
Queued events for site silverbell
[DEBUG] 2017-09-01 21:25:28,737 | /home/tyler/frappe-bench/apps/frappe/frappe/utils/scheduler.py:
Site: silverbell
Queued events for site silverbell
[DEBUG] 2017-09-01 21:29:29,115 | /home/tyler/frappe-bench/apps/frappe/frappe/utils/scheduler.py:
Site: silverbell
Queued events for site silverbell
[DEBUG] 2017-09-01 21:33:29,441 | /home/tyler/frappe-bench/apps/frappe/frappe/utils/scheduler.py:
Site: silverbell
Queued events for site silverbell
[DEBUG] 2017-09-01 21:37:29,768 | /home/tyler/frappe-bench/apps/frappe/frappe/utils/scheduler.py:
Site: silverbell
Queued events for site silverbell
[DEBUG] 2017-09-01 21:41:30,088 | /home/tyler/frappe-bench/apps/frappe/frappe/utils/scheduler.py:
Site: silverbell
Queued events for site silverbell
[DEBUG] 2017-09-01 21:45:30,410 | /home/tyler/frappe-bench/apps/frappe/frappe/utils/scheduler.py:
Site: silverbell
Queued events for site silverbell
[DEBUG] 2017-09-01 21:49:30,749 | /home/tyler/frappe-bench/apps/frappe/frappe/utils/scheduler.py:
Site: silverbell
Queued events for site silverbell
[DEBUG] 2017-09-01 21:53:31,084 | /home/tyler/frappe-bench/apps/frappe/frappe/utils/scheduler.py:
Site: silverbell
Queued events for site silverbell
[DEBUG] 2017-09-01 21:57:31,422 | /home/tyler/frappe-bench/apps/frappe/frappe/utils/scheduler.py:
Site: silverbell
Queued events for site silverbell
[DEBUG] 2017-09-01 22:01:31,772 | /home/tyler/frappe-bench/apps/frappe/frappe/utils/scheduler.py:
Site: silverbell
Queued events for site silverbell
[DEBUG] 2017-09-01 22:05:32,110 | /home/tyler/frappe-bench/apps/frappe/frappe/utils/scheduler.py:
Site: silverbell
Queued events for site silverbell
[DEBUG] 2017-09-01 22:09:32,446 | /home/tyler/frappe-bench/apps/frappe/frappe/utils/scheduler.py:
Site: silverbell
Queued events for site silverbell
[DEBUG] 2017-09-01 22:13:32,780 | /home/tyler/frappe-bench/apps/frappe/frappe/utils/scheduler.py:
Site: silverbell
Queued events for site silverbell
[DEBUG] 2017-09-01 22:17:33,118 | /home/tyler/frappe-bench/apps/frappe/frappe/utils/scheduler.py:
Site: silverbell
Queued events for site silverbell
[DEBUG] 2017-09-01 22:21:33,453 | /home/tyler/frappe-bench/apps/frappe/frappe/utils/scheduler.py:
Site: silverbell
Queued events for site silverbell
[DEBUG] 2017-09-01 22:25:33,796 | /home/tyler/frappe-bench/apps/frappe/frappe/utils/scheduler.py:
Site: silverbell
Queued events for site silverbell
[DEBUG] 2017-09-01 22:29:34,131 | /home/tyler/frappe-bench/apps/frappe/frappe/utils/scheduler.py:
Site: silverbell
Queued events for site silverbell
[DEBUG] 2017-09-01 22:33:34,457 | /home/tyler/frappe-bench/apps/frappe/frappe/utils/scheduler.py:
Site: silverbell
Queued events for site silverbell
[DEBUG] 2017-09-01 22:37:34,784 | /home/tyler/frappe-bench/apps/frappe/frappe/utils/scheduler.py:
Site: silverbell
Queued events for site silverbell
[DEBUG] 2017-09-01 22:41:35,127 | /home/tyler/frappe-bench/apps/frappe/frappe/utils/scheduler.py:
Site: silverbell
Queued events for site silverbell
[DEBUG] 2017-09-01 22:45:35,447 | /home/tyler/frappe-bench/apps/frappe/frappe/utils/scheduler.py:
Site: silverbell
Queued events for site silverbell
[DEBUG] 2017-09-01 22:49:35,775 | /home/tyler/frappe-bench/apps/frappe/frappe/utils/scheduler.py:
Site: silverbell
Queued events for site silverbell
[DEBUG] 2017-09-01 22:53:36,110 | /home/tyler/frappe-bench/apps/frappe/frappe/utils/scheduler.py:
Site: silverbell
Queued events for site silverbell
[DEBUG] 2017-09-01 22:57:36,436 | /home/tyler/frappe-bench/apps/frappe/frappe/utils/scheduler.py:
Site: silverbell
Queued events for site silverbell
[DEBUG] 2017-09-01 23:01:36,784 | /home/tyler/frappe-bench/apps/frappe/frappe/utils/scheduler.py:
Site: silverbell
Queued events for site silverbell
[DEBUG] 2017-09-01 23:05:37,115 | /home/tyler/frappe-bench/apps/frappe/frappe/utils/scheduler.py:
Site: silverbell
Queued events for site silverbell
[DEBUG] 2017-09-01 23:09:37,443 | /home/tyler/frappe-bench/apps/frappe/frappe/utils/scheduler.py:
Site: silverbell
Queued events for site silverbell
[DEBUG] 2017-09-01 23:13:37,770 | /home/tyler/frappe-bench/apps/frappe/frappe/utils/scheduler.py:
Site: silverbell
Queued events for site silverbell
[DEBUG] 2017-09-01 23:17:38,111 | /home/tyler/frappe-bench/apps/frappe/frappe/utils/scheduler.py:
Site: silverbell
Queued events for site silverbell
[DEBUG] 2017-09-01 23:21:38,424 | /home/tyler/frappe-bench/apps/frappe/frappe/utils/scheduler.py:
Site: silverbell
Queued events for site silverbell
[DEBUG] 2017-09-01 23:25:38,753 | /home/tyler/frappe-bench/apps/frappe/frappe/utils/scheduler.py:
Site: silverbell
Queued events for site silverbell
[DEBUG] 2017-09-01 23:29:39,097 | /home/tyler/frappe-bench/apps/frappe/frappe/utils/scheduler.py:
Site: silverbell
Queued events for site silverbell
[DEBUG] 2017-09-01 23:33:39,424 | /home/tyler/frappe-bench/apps/frappe/frappe/utils/scheduler.py:
Site: silverbell
Queued events for site silverbell
[DEBUG] 2017-09-01 23:37:39,762 | /home/tyler/frappe-bench/apps/frappe/frappe/utils/scheduler.py:
Site: silverbell
Queued events for site silverbell
[DEBUG] 2017-09-01 23:41:40,099 | /home/tyler/frappe-bench/apps/frappe/frappe/utils/scheduler.py:
Site: silverbell
Queued events for site silverbell
[DEBUG] 2017-09-01 23:45:40,434 | /home/tyler/frappe-bench/apps/frappe/frappe/utils/scheduler.py:
Site: silverbell
Queued events for site silverbell
[DEBUG] 2017-09-01 23:49:40,771 | /home/tyler/frappe-bench/apps/frappe/frappe/utils/scheduler.py:
Site: silverbell
Queued events for site silverbell
[DEBUG] 2017-09-01 23:53:41,104 | /home/tyler/frappe-bench/apps/frappe/frappe/utils/scheduler.py:
Site: silverbell
Queued events for site silverbell
[DEBUG] 2017-09-01 23:57:41,431 | /home/tyler/frappe-bench/apps/frappe/frappe/utils/scheduler.py:
Site: silverbell
Queued events for site silverbell
[DEBUG] 2017-09-02 00:01:41,847 | /home/tyler/frappe-bench/apps/frappe/frappe/utils/scheduler.py:
Site: silverbell
Queued events for site silverbell
[DEBUG] 2017-09-02 00:05:42,177 | /home/tyler/frappe-bench/apps/frappe/frappe/utils/scheduler.py:
Site: silverbell
Queued events for site silverbell
[DEBUG] 2017-09-02 00:09:42,502 | /home/tyler/frappe-bench/apps/frappe/frappe/utils/scheduler.py:
Site: silverbell
Queued events for site silverbell
[DEBUG] 2017-09-02 00:13:42,838 | /home/tyler/frappe-bench/apps/frappe/frappe/utils/scheduler.py:
Site: silverbell
Queued events for site silverbell
[DEBUG] 2017-09-02 00:17:43,176 | /home/tyler/frappe-bench/apps/frappe/frappe/utils/scheduler.py:
Site: silverbell
Queued events for site silverbell
[DEBUG] 2017-09-02 00:21:43,513 | /home/tyler/frappe-bench/apps/frappe/frappe/utils/scheduler.py:
Site: silverbell
Queued events for site silverbell
[DEBUG] 2017-09-02 00:25:43,865 | /home/tyler/frappe-bench/apps/frappe/frappe/utils/scheduler.py:
Site: silverbell
Queued events for site silverbell
[DEBUG] 2017-09-02 00:29:44,199 | /home/tyler/frappe-bench/apps/frappe/frappe/utils/scheduler.py:
Site: silverbell
Queued events for site silverbell
[DEBUG] 2017-09-02 00:33:44,527 | /home/tyler/frappe-bench/apps/frappe/frappe/utils/scheduler.py:
Site: silverbell
Queued events for site silverbell
[DEBUG] 2017-09-02 00:37:44,853 | /home/tyler/frappe-bench/apps/frappe/frappe/utils/scheduler.py:
Site: silverbell
Queued events for site silverbell
[DEBUG] 2017-09-02 00:41:45,189 | /home/tyler/frappe-bench/apps/frappe/frappe/utils/scheduler.py:
Site: silverbell
Queued events for site silverbell
[DEBUG] 2017-09-02 00:45:45,524 | /home/tyler/frappe-bench/apps/frappe/frappe/utils/scheduler.py:
Site: silverbell
Queued events for site silverbell
[DEBUG] 2017-09-02 00:49:45,854 | /home/tyler/frappe-bench/apps/frappe/frappe/utils/scheduler.py:
Site: silverbell
Queued events for site silverbell
[DEBUG] 2017-09-02 00:53:46,197 | /home/tyler/frappe-bench/apps/frappe/frappe/utils/scheduler.py:
Site: silverbell
Queued events for site silverbell
[DEBUG] 2017-09-02 00:57:46,532 | /home/tyler/frappe-bench/apps/frappe/frappe/utils/scheduler.py:
Site: silverbell
Queued events for site silverbell
[DEBUG] 2017-09-02 01:01:46,898 | /home/tyler/frappe-bench/apps/frappe/frappe/utils/scheduler.py:
Site: silverbell
Queued events for site silverbell
[DEBUG] 2017-09-02 01:05:47,220 | /home/tyler/frappe-bench/apps/frappe/frappe/utils/scheduler.py:
Site: silverbell
Queued events for site silverbell
[DEBUG] 2017-09-02 01:09:47,545 | /home/tyler/frappe-bench/apps/frappe/frappe/utils/scheduler.py:
Site: silverbell
Queued events for site silverbell
[DEBUG] 2017-09-02 01:13:47,872 | /home/tyler/frappe-bench/apps/frappe/frappe/utils/scheduler.py:
Site: silverbell
Queued events for site silverbell
[DEBUG] 2017-09-02 01:17:48,219 | /home/tyler/frappe-bench/apps/frappe/frappe/utils/scheduler.py:
Site: silverbell
Queued events for site silverbell
[DEBUG] 2017-09-02 01:21:48,540 | /home/tyler/frappe-bench/apps/frappe/frappe/utils/scheduler.py:
Site: silverbell
Queued events for site silverbell
[DEBUG] 2017-09-02 01:25:48,874 | /home/tyler/frappe-bench/apps/frappe/frappe/utils/scheduler.py:
Site: silverbell
Queued events for site silverbell
[DEBUG] 2017-09-02 01:29:49,210 | /home/tyler/frappe-bench/apps/frappe/frappe/utils/scheduler.py:
Site: silverbell
Queued events for site silverbell
[DEBUG] 2017-09-02 01:33:49,551 | /home/tyler/frappe-bench/apps/frappe/frappe/utils/scheduler.py:
Site: silverbell
Queued events for site silverbell
[DEBUG] 2017-09-02 01:37:49,884 | /home/tyler/frappe-bench/apps/frappe/frappe/utils/scheduler.py:
Site: silverbell
Queued events for site silverbell
[DEBUG] 2017-09-02 01:41:50,219 | /home/tyler/frappe-bench/apps/frappe/frappe/utils/scheduler.py:
Site: silverbell
Queued events for site silverbell
[DEBUG] 2017-09-02 01:45:50,545 | /home/tyler/frappe-bench/apps/frappe/frappe/utils/scheduler.py:
Site: silverbell
Queued events for site silverbell
[DEBUG] 2017-09-02 01:49:50,873 | /home/tyler/frappe-bench/apps/frappe/frappe/utils/scheduler.py:
Site: silverbell
Queued events for site silverbell
[DEBUG] 2017-09-02 01:53:51,209 | /home/tyler/frappe-bench/apps/frappe/frappe/utils/scheduler.py:
Site: silverbell
Queued events for site silverbell
[DEBUG] 2017-09-02 01:57:51,537 | /home/tyler/frappe-bench/apps/frappe/frappe/utils/scheduler.py:
Site: silverbell
Queued events for site silverbell
[DEBUG] 2017-09-02 02:01:51,887 | /home/tyler/frappe-bench/apps/frappe/frappe/utils/scheduler.py:
Site: silverbell
Queued events for site silverbell
[DEBUG] 2017-09-02 02:05:52,225 | /home/tyler/frappe-bench/apps/frappe/frappe/utils/scheduler.py:
Site: silverbell
Queued events for site silverbell
[DEBUG] 2017-09-02 02:09:52,559 | /home/tyler/frappe-bench/apps/frappe/frappe/utils/scheduler.py:
Site: silverbell
Queued events for site silverbell
[DEBUG] 2017-09-02 02:13:52,895 | /home/tyler/frappe-bench/apps/frappe/frappe/utils/scheduler.py:
Site: silverbell
Queued events for site silverbell
[DEBUG] 2017-09-02 02:17:53,230 | /home/tyler/frappe-bench/apps/frappe/frappe/utils/scheduler.py:
Site: silverbell
Queued events for site silverbell
[DEBUG] 2017-09-02 02:21:53,551 | /home/tyler/frappe-bench/apps/frappe/frappe/utils/scheduler.py:
Site: silverbell
Queued events for site silverbell
[DEBUG] 2017-09-02 02:25:53,894 | /home/tyler/frappe-bench/apps/frappe/frappe/utils/scheduler.py:
Site: silverbell
Queued events for site silverbell
[DEBUG] 2017-09-02 02:29:54,230 | /home/tyler/frappe-bench/apps/frappe/frappe/utils/scheduler.py:
Site: silverbell
Queued events for site silverbell
[DEBUG] 2017-09-02 02:33:54,564 | /home/tyler/frappe-bench/apps/frappe/frappe/utils/scheduler.py:
Site: silverbell
Queued events for site silverbell
[DEBUG] 2017-09-02 02:37:54,907 | /home/tyler/frappe-bench/apps/frappe/frappe/utils/scheduler.py:
Site: silverbell
Queued events for site silverbell
[DEBUG] 2017-09-02 02:41:55,237 | /home/tyler/frappe-bench/apps/frappe/frappe/utils/scheduler.py:
Site: silverbell
Queued events for site silverbell
[DEBUG] 2017-09-02 02:45:55,573 | /home/tyler/frappe-bench/apps/frappe/frappe/utils/scheduler.py:
Site: silverbell
Queued events for site silverbell
[DEBUG] 2017-09-02 02:49:55,909 | /home/tyler/frappe-bench/apps/frappe/frappe/utils/scheduler.py:
Site: silverbell
Queued events for site silverbell
[DEBUG] 2017-09-02 02:53:56,228 | /home/tyler/frappe-bench/apps/frappe/frappe/utils/scheduler.py:
Site: silverbell
Queued events for site silverbell
[DEBUG] 2017-09-02 02:57:56,568 | /home/tyler/frappe-bench/apps/frappe/frappe/utils/scheduler.py:
Site: silverbell
Queued events for site silverbell
[DEBUG] 2017-09-02 03:01:56,920 | /home/tyler/frappe-bench/apps/frappe/frappe/utils/scheduler.py:
Site: silverbell
Queued events for site silverbell
[DEBUG] 2017-09-02 03:05:57,248 | /home/tyler/frappe-bench/apps/frappe/frappe/utils/scheduler.py:
Site: silverbell
Queued events for site silverbell
[DEBUG] 2017-09-02 03:09:57,584 | /home/tyler/frappe-bench/apps/frappe/frappe/utils/scheduler.py:
Site: silverbell
Queued events for site silverbell
[DEBUG] 2017-09-02 03:13:57,912 | /home/tyler/frappe-bench/apps/frappe/frappe/utils/scheduler.py:
Site: silverbell
Queued events for site silverbell
[DEBUG] 2017-09-02 03:17:58,256 | /home/tyler/frappe-bench/apps/frappe/frappe/utils/scheduler.py:
Site: silverbell
Queued events for site silverbell
[DEBUG] 2017-09-02 03:21:58,593 | /home/tyler/frappe-bench/apps/frappe/frappe/utils/scheduler.py:
Site: silverbell
Queued events for site silverbell
[DEBUG] 2017-09-02 03:25:58,929 | /home/tyler/frappe-bench/apps/frappe/frappe/utils/scheduler.py:
Site: silverbell
Queued events for site silverbell
[DEBUG] 2017-09-02 03:29:59,266 | /home/tyler/frappe-bench/apps/frappe/frappe/utils/scheduler.py:
Site: silverbell
Queued events for site silverbell
[DEBUG] 2017-09-02 03:33:59,592 | /home/tyler/frappe-bench/apps/frappe/frappe/utils/scheduler.py:
Site: silverbell
Queued events for site silverbell
[DEBUG] 2017-09-02 03:37:59,927 | /home/tyler/frappe-bench/apps/frappe/frappe/utils/scheduler.py:
Site: silverbell
Queued events for site silverbell
[DEBUG] 2017-09-02 03:42:00,254 | /home/tyler/frappe-bench/apps/frappe/frappe/utils/scheduler.py:
Site: silverbell
Queued events for site silverbell
[DEBUG] 2017-09-02 03:46:00,585 | /home/tyler/frappe-bench/apps/frappe/frappe/utils/scheduler.py:
Site: silverbell
Queued events for site silverbell
[DEBUG] 2017-09-02 03:50:00,916 | /home/tyler/frappe-bench/apps/frappe/frappe/utils/scheduler.py:
Site: silverbell
Queued events for site silverbell
[DEBUG] 2017-09-02 03:54:01,232 | /home/tyler/frappe-bench/apps/frappe/frappe/utils/scheduler.py:
Site: silverbell
Queued events for site silverbell
[DEBUG] 2017-09-02 03:58:01,563 | /home/tyler/frappe-bench/apps/frappe/frappe/utils/scheduler.py:
Site: silverbell
Queued events for site silverbell
[DEBUG] 2017-09-02 04:02:01,893 | /home/tyler/frappe-bench/apps/frappe/frappe/utils/scheduler.py:
Site: silverbell
Queued events for site silverbell
[DEBUG] 2017-09-02 04:06:02,229 | /home/tyler/frappe-bench/apps/frappe/frappe/utils/scheduler.py:
Site: silverbell
Queued events for site silverbell
[DEBUG] 2017-09-02 04:10:02,554 | /home/tyler/frappe-bench/apps/frappe/frappe/utils/scheduler.py:
Site: silverbell
Queued events for site silverbell
[DEBUG] 2017-09-02 04:14:02,886 | /home/tyler/frappe-bench/apps/frappe/frappe/utils/scheduler.py:
Site: silverbell
Queued events for site silverbell
[DEBUG] 2017-09-02 04:18:03,222 | /home/tyler/frappe-bench/apps/frappe/frappe/utils/scheduler.py:
Site: silverbell
Queued events for site silverbell
[DEBUG] 2017-09-02 04:22:03,547 | /home/tyler/frappe-bench/apps/frappe/frappe/utils/scheduler.py:
Site: silverbell
Queued events for site silverbell
[DEBUG] 2017-09-02 04:26:03,885 | /home/tyler/frappe-bench/apps/frappe/frappe/utils/scheduler.py:
Site: silverbell
Queued events for site silverbell
[DEBUG] 2017-09-02 04:30:04,221 | /home/tyler/frappe-bench/apps/frappe/frappe/utils/scheduler.py:
Site: silverbell
Queued events for site silverbell
[DEBUG] 2017-09-02 04:34:04,552 | /home/tyler/frappe-bench/apps/frappe/frappe/utils/scheduler.py:
Site: silverbell
Queued events for site silverbell
[DEBUG] 2017-09-02 04:38:04,876 | /home/tyler/frappe-bench/apps/frappe/frappe/utils/scheduler.py:
Site: silverbell
Queued events for site silverbell
[DEBUG] 2017-09-02 04:42:05,215 | /home/tyler/frappe-bench/apps/frappe/frappe/utils/scheduler.py:
Site: silverbell
Queued events for site silverbell
[DEBUG] 2017-09-02 04:46:05,544 | /home/tyler/frappe-bench/apps/frappe/frappe/utils/scheduler.py:
Site: silverbell
Queued events for site silverbell
[DEBUG] 2017-09-02 04:50:05,872 | /home/tyler/frappe-bench/apps/frappe/frappe/utils/scheduler.py:
Site: silverbell
Queued events for site silverbell
[DEBUG] 2017-09-02 04:54:06,202 | /home/tyler/frappe-bench/apps/frappe/frappe/utils/scheduler.py:
Site: silverbell
Queued events for site silverbell
[DEBUG] 2017-09-02 04:58:06,532 | /home/tyler/frappe-bench/apps/frappe/frappe/utils/scheduler.py:
Site: silverbell
Queued events for site silverbell
[DEBUG] 2017-09-02 05:02:06,895 | /home/tyler/frappe-bench/apps/frappe/frappe/utils/scheduler.py:
Site: silverbell
Queued events for site silverbell
[DEBUG] 2017-09-02 05:06:07,231 | /home/tyler/frappe-bench/apps/frappe/frappe/utils/scheduler.py:
Site: silverbell
Queued events for site silverbell
[DEBUG] 2017-09-02 05:10:07,565 | /home/tyler/frappe-bench/apps/frappe/frappe/utils/scheduler.py:
Site: silverbell
Queued events for site silverbell
[DEBUG] 2017-09-02 05:14:07,899 | /home/tyler/frappe-bench/apps/frappe/frappe/utils/scheduler.py:
Site: silverbell
Queued events for site silverbell
[DEBUG] 2017-09-02 05:18:08,243 | /home/tyler/frappe-bench/apps/frappe/frappe/utils/scheduler.py:
Site: silverbell
Queued events for site silverbell
[DEBUG] 2017-09-02 05:22:08,565 | /home/tyler/frappe-bench/apps/frappe/frappe/utils/scheduler.py:
Site: silverbell
Queued events for site silverbell
[DEBUG] 2017-09-02 05:26:08,900 | /home/tyler/frappe-bench/apps/frappe/frappe/utils/scheduler.py:
Site: silverbell
Queued events for site silverbell
[DEBUG] 2017-09-02 05:30:09,243 | /home/tyler/frappe-bench/apps/frappe/frappe/utils/scheduler.py:
Site: silverbell
Queued events for site silverbell
[DEBUG] 2017-09-02 05:34:09,564 | /home/tyler/frappe-bench/apps/frappe/frappe/utils/scheduler.py:
Site: silverbell
Queued events for site silverbell
[DEBUG] 2017-09-02 05:38:09,894 | /home/tyler/frappe-bench/apps/frappe/frappe/utils/scheduler.py:
Site: silverbell
Queued events for site silverbell
[DEBUG] 2017-09-02 05:42:10,230 | /home/tyler/frappe-bench/apps/frappe/frappe/utils/scheduler.py:
Site: silverbell
Queued events for site silverbell
[DEBUG] 2017-09-02 05:46:10,567 | /home/tyler/frappe-bench/apps/frappe/frappe/utils/scheduler.py:
Site: silverbell
Queued events for site silverbell
[DEBUG] 2017-09-02 05:50:10,904 | /home/tyler/frappe-bench/apps/frappe/frappe/utils/scheduler.py:
Site: silverbell
Queued events for site silverbell
[DEBUG] 2017-09-02 05:54:11,236 | /home/tyler/frappe-bench/apps/frappe/frappe/utils/scheduler.py:
Site: silverbell
Queued events for site silverbell
[DEBUG] 2017-09-02 05:58:11,579 | /home/tyler/frappe-bench/apps/frappe/frappe/utils/scheduler.py:
Site: silverbell
Queued events for site silverbell
[DEBUG] 2017-09-02 06:02:11,925 | /home/tyler/frappe-bench/apps/frappe/frappe/utils/scheduler.py:
Site: silverbell
Queued events for site silverbell
[DEBUG] 2017-09-02 06:06:12,258 | /home/tyler/frappe-bench/apps/frappe/frappe/utils/scheduler.py:
Site: silverbell
Queued events for site silverbell
[DEBUG] 2017-09-02 06:10:12,585 | /home/tyler/frappe-bench/apps/frappe/frappe/utils/scheduler.py:
Site: silverbell
Queued events for site silverbell
[DEBUG] 2017-09-02 06:14:12,915 | /home/tyler/frappe-bench/apps/frappe/frappe/utils/scheduler.py:
Site: silverbell
Queued events for site silverbell
[DEBUG] 2017-09-02 06:18:13,248 | /home/tyler/frappe-bench/apps/frappe/frappe/utils/scheduler.py:
Site: silverbell
Queued events for site silverbell
[DEBUG] 2017-09-02 06:22:13,576 | /home/tyler/frappe-bench/apps/frappe/frappe/utils/scheduler.py:
Site: silverbell
Queued events for site silverbell
[DEBUG] 2017-09-02 06:26:13,906 | /home/tyler/frappe-bench/apps/frappe/frappe/utils/scheduler.py:
Site: silverbell
Queued events for site silverbell
[DEBUG] 2017-09-02 06:30:14,246 | /home/tyler/frappe-bench/apps/frappe/frappe/utils/scheduler.py:
Site: silverbell
Queued events for site silverbell
[DEBUG] 2017-09-02 06:34:14,571 | /home/tyler/frappe-bench/apps/frappe/frappe/utils/scheduler.py:
Site: silverbell
Queued events for site silverbell
[DEBUG] 2017-09-02 06:38:14,904 | /home/tyler/frappe-bench/apps/frappe/frappe/utils/scheduler.py:
Site: silverbell
Queued events for site silverbell
[DEBUG] 2017-09-02 06:42:15,238 | /home/tyler/frappe-bench/apps/frappe/frappe/utils/scheduler.py:
Site: silverbell
Queued events for site silverbell
[DEBUG] 2017-09-02 06:46:15,559 | /home/tyler/frappe-bench/apps/frappe/frappe/utils/scheduler.py:
Site: silverbell
Queued events for site silverbell
[DEBUG] 2017-09-02 06:50:15,886 | /home/tyler/frappe-bench/apps/frappe/frappe/utils/scheduler.py:
Site: silverbell
Queued events for site silverbell
[DEBUG] 2017-09-02 06:54:16,231 | /home/tyler/frappe-bench/apps/frappe/frappe/utils/scheduler.py:
Site: silverbell
Queued events for site silverbell
[DEBUG] 2017-09-02 06:58:16,552 | /home/tyler/frappe-bench/apps/frappe/frappe/utils/scheduler.py:
Site: silverbell
Queued events for site silverbell
[DEBUG] 2017-09-02 07:02:16,920 | /home/tyler/frappe-bench/apps/frappe/frappe/utils/scheduler.py:
Site: silverbell
Queued events for site silverbell
[DEBUG] 2017-09-02 07:06:17,250 | /home/tyler/frappe-bench/apps/frappe/frappe/utils/scheduler.py:
Site: silverbell
Queued events for site silverbell
[DEBUG] 2017-09-02 07:10:17,591 | /home/tyler/frappe-bench/apps/frappe/frappe/utils/scheduler.py:
Site: silverbell
Queued events for site silverbell
[DEBUG] 2017-09-02 07:14:17,925 | /home/tyler/frappe-bench/apps/frappe/frappe/utils/scheduler.py:
Site: silverbell
Queued events for site silverbell
[DEBUG] 2017-09-02 07:18:18,269 | /home/tyler/frappe-bench/apps/frappe/frappe/utils/scheduler.py:
Site: silverbell
Queued events for site silverbell
[DEBUG] 2017-09-02 07:22:18,593 | /home/tyler/frappe-bench/apps/frappe/frappe/utils/scheduler.py:
Site: silverbell
Queued events for site silverbell
[DEBUG] 2017-09-02 07:26:18,927 | /home/tyler/frappe-bench/apps/frappe/frappe/utils/scheduler.py:
Site: silverbell
Queued events for site silverbell
[DEBUG] 2017-09-02 07:30:19,263 | /home/tyler/frappe-bench/apps/frappe/frappe/utils/scheduler.py:
Site: silverbell
Queued events for site silverbell
[DEBUG] 2017-09-02 07:34:19,612 | /home/tyler/frappe-bench/apps/frappe/frappe/utils/scheduler.py:
Site: silverbell
Queued events for site silverbell
[DEBUG] 2017-09-02 07:38:19,951 | /home/tyler/frappe-bench/apps/frappe/frappe/utils/scheduler.py:
Site: silverbell
Queued events for site silverbell
[DEBUG] 2017-09-02 07:42:20,294 | /home/tyler/frappe-bench/apps/frappe/frappe/utils/scheduler.py:
Site: silverbell
Queued events for site silverbell
[DEBUG] 2017-09-02 07:46:20,618 | /home/tyler/frappe-bench/apps/frappe/frappe/utils/scheduler.py:
Site: silverbell
Queued events for site silverbell
[DEBUG] 2017-09-02 07:50:20,948 | /home/tyler/frappe-bench/apps/frappe/frappe/utils/scheduler.py:
Site: silverbell
Queued events for site silverbell
[DEBUG] 2017-09-02 07:54:21,284 | /home/tyler/frappe-bench/apps/frappe/frappe/utils/scheduler.py:
Site: silverbell
Queued events for site silverbell
[DEBUG] 2017-09-02 07:58:21,623 | /home/tyler/frappe-bench/apps/frappe/frappe/utils/scheduler.py:
Site: silverbell
Queued events for site silverbell
[DEBUG] 2017-09-02 08:02:21,982 | /home/tyler/frappe-bench/apps/frappe/frappe/utils/scheduler.py:
Site: silverbell
Queued events for site silverbell
[DEBUG] 2017-09-02 08:06:22,326 | /home/tyler/frappe-bench/apps/frappe/frappe/utils/scheduler.py:
Site: silverbell
Queued events for site silverbell
[DEBUG] 2017-09-02 08:10:22,671 | /home/tyler/frappe-bench/apps/frappe/frappe/utils/scheduler.py:
Site: silverbell
Queued events for site silverbell
[DEBUG] 2017-09-02 08:14:22,988 | /home/tyler/frappe-bench/apps/frappe/frappe/utils/scheduler.py:
Site: silverbell
Queued events for site silverbell
[DEBUG] 2017-09-02 08:18:23,309 | /home/tyler/frappe-bench/apps/frappe/frappe/utils/scheduler.py:
Site: silverbell
Queued events for site silverbell
[DEBUG] 2017-09-02 08:22:23,645 | /home/tyler/frappe-bench/apps/frappe/frappe/utils/scheduler.py:
Site: silverbell
Queued events for site silverbell
[DEBUG] 2017-09-02 08:26:23,990 | /home/tyler/frappe-bench/apps/frappe/frappe/utils/scheduler.py:
Site: silverbell
Queued events for site silverbell
[DEBUG] 2017-09-02 08:30:24,325 | /home/tyler/frappe-bench/apps/frappe/frappe/utils/scheduler.py:
Site: silverbell
Queued events for site silverbell
[DEBUG] 2017-09-02 08:34:24,653 | /home/tyler/frappe-bench/apps/frappe/frappe/utils/scheduler.py:
Site: silverbell
Queued events for site silverbell
[DEBUG] 2017-09-02 08:38:24,986 | /home/tyler/frappe-bench/apps/frappe/frappe/utils/scheduler.py:
Site: silverbell
Queued events for site silverbell
[DEBUG] 2017-09-02 08:42:25,321 | /home/tyler/frappe-bench/apps/frappe/frappe/utils/scheduler.py:
Site: silverbell
Queued events for site silverbell
[DEBUG] 2017-09-02 08:46:25,677 | /home/tyler/frappe-bench/apps/frappe/frappe/utils/scheduler.py:
Site: silverbell
Queued events for site silverbell
[DEBUG] 2017-09-02 08:50:26,009 | /home/tyler/frappe-bench/apps/frappe/frappe/utils/scheduler.py:
Site: silverbell
Queued events for site silverbell
[DEBUG] 2017-09-02 08:54:26,326 | /home/tyler/frappe-bench/apps/frappe/frappe/utils/scheduler.py:
Site: silverbell
Queued events for site silverbell
[DEBUG] 2017-09-02 08:58:26,662 | /home/tyler/frappe-bench/apps/frappe/frappe/utils/scheduler.py:
Site: silverbell
Queued events for site silverbell
[DEBUG] 2017-09-02 09:02:27,011 | /home/tyler/frappe-bench/apps/frappe/frappe/utils/scheduler.py:
Site: silverbell
Queued events for site silverbell
[DEBUG] 2017-09-02 09:06:27,350 | /home/tyler/frappe-bench/apps/frappe/frappe/utils/scheduler.py:
Site: silverbell
Queued events for site silverbell
[DEBUG] 2017-09-02 09:10:27,685 | /home/tyler/frappe-bench/apps/frappe/frappe/utils/scheduler.py:
Site: silverbell
Queued events for site silverbell
[DEBUG] 2017-09-02 09:14:28,019 | /home/tyler/frappe-bench/apps/frappe/frappe/utils/scheduler.py:
Site: silverbell
Queued events for site silverbell
[DEBUG] 2017-09-02 09:18:28,356 | /home/tyler/frappe-bench/apps/frappe/frappe/utils/scheduler.py:
Site: silverbell
Queued events for site silverbell
[DEBUG] 2017-09-02 09:22:28,684 | /home/tyler/frappe-bench/apps/frappe/frappe/utils/scheduler.py:
Site: silverbell
Queued events for site silverbell
[DEBUG] 2017-09-02 09:26:29,010 | /home/tyler/frappe-bench/apps/frappe/frappe/utils/scheduler.py:
Site: silverbell
Queued events for site silverbell
[DEBUG] 2017-09-02 09:30:29,337 | /home/tyler/frappe-bench/apps/frappe/frappe/utils/scheduler.py:
Site: silverbell
Queued events for site silverbell
[DEBUG] 2017-09-02 09:34:29,672 | /home/tyler/frappe-bench/apps/frappe/frappe/utils/scheduler.py:
Site: silverbell
Queued events for site silverbell
[DEBUG] 2017-09-02 09:38:30,009 | /home/tyler/frappe-bench/apps/frappe/frappe/utils/scheduler.py:
Site: silverbell
Queued events for site silverbell
[DEBUG] 2017-09-02 09:42:30,344 | /home/tyler/frappe-bench/apps/frappe/frappe/utils/scheduler.py:
Site: silverbell
Queued events for site silverbell
[DEBUG] 2017-09-02 09:46:30,672 | /home/tyler/frappe-bench/apps/frappe/frappe/utils/scheduler.py:
Site: silverbell
Queued events for site silverbell
[DEBUG] 2017-09-02 09:50:31,015 | /home/tyler/frappe-bench/apps/frappe/frappe/utils/scheduler.py:
Site: silverbell
Queued events for site silverbell
[DEBUG] 2017-09-02 09:54:31,351 | /home/tyler/frappe-bench/apps/frappe/frappe/utils/scheduler.py:
Site: silverbell
Queued events for site silverbell
[DEBUG] 2017-09-02 09:58:31,676 | /home/tyler/frappe-bench/apps/frappe/frappe/utils/scheduler.py:
Site: silverbell
Queued events for site silverbell
[DEBUG] 2017-09-02 10:02:32,026 | /home/tyler/frappe-bench/apps/frappe/frappe/utils/scheduler.py:
Site: silverbell
Queued events for site silverbell
[DEBUG] 2017-09-02 10:06:32,363 | /home/tyler/frappe-bench/apps/frappe/frappe/utils/scheduler.py:
Site: silverbell
Queued events for site silverbell
[DEBUG] 2017-09-02 10:10:32,689 | /home/tyler/frappe-bench/apps/frappe/frappe/utils/scheduler.py:
Site: silverbell
Queued events for site silverbell
[DEBUG] 2017-09-02 10:14:33,016 | /home/tyler/frappe-bench/apps/frappe/frappe/utils/scheduler.py:
Site: silverbell
Queued events for site silverbell
[DEBUG] 2017-09-02 10:18:33,345 | /home/tyler/frappe-bench/apps/frappe/frappe/utils/scheduler.py:
Site: silverbell
Queued events for site silverbell
[DEBUG] 2017-09-02 10:22:33,672 | /home/tyler/frappe-bench/apps/frappe/frappe/utils/scheduler.py:
Site: silverbell
Queued events for site silverbell
[DEBUG] 2017-09-02 10:26:34,016 | /home/tyler/frappe-bench/apps/frappe/frappe/utils/scheduler.py:
Site: silverbell
Queued events for site silverbell
[DEBUG] 2017-09-02 10:30:34,343 | /home/tyler/frappe-bench/apps/frappe/frappe/utils/scheduler.py:
Site: silverbell
Queued events for site silverbell
[DEBUG] 2017-09-02 10:34:34,678 | /home/tyler/frappe-bench/apps/frappe/frappe/utils/scheduler.py:
Site: silverbell
Queued events for site silverbell
[DEBUG] 2017-09-02 10:38:35,014 | /home/tyler/frappe-bench/apps/frappe/frappe/utils/scheduler.py:
Site: silverbell
Queued events for site silverbell
[DEBUG] 2017-09-02 10:42:35,340 | /home/tyler/frappe-bench/apps/frappe/frappe/utils/scheduler.py:
Site: silverbell
Queued events for site silverbell
[DEBUG] 2017-09-02 10:46:35,669 | /home/tyler/frappe-bench/apps/frappe/frappe/utils/scheduler.py:
Site: silverbell
Queued events for site silverbell
[DEBUG] 2017-09-02 10:50:35,996 | /home/tyler/frappe-bench/apps/frappe/frappe/utils/scheduler.py:
Site: silverbell
Queued events for site silverbell
[DEBUG] 2017-09-02 10:54:36,323 | /home/tyler/frappe-bench/apps/frappe/frappe/utils/scheduler.py:
Site: silverbell
Queued events for site silverbell
[DEBUG] 2017-09-02 10:58:36,640 | /home/tyler/frappe-bench/apps/frappe/frappe/utils/scheduler.py:
Site: silverbell
Queued events for site silverbell
[DEBUG] 2017-09-02 11:02:36,983 | /home/tyler/frappe-bench/apps/frappe/frappe/utils/scheduler.py:
Site: silverbell
Queued events for site silverbell
[DEBUG] 2017-09-02 11:06:37,319 | /home/tyler/frappe-bench/apps/frappe/frappe/utils/scheduler.py:
Site: silverbell
Queued events for site silverbell
[DEBUG] 2017-09-02 11:10:37,644 | /home/tyler/frappe-bench/apps/frappe/frappe/utils/scheduler.py:
Site: silverbell
Queued events for site silverbell
[DEBUG] 2017-09-02 11:14:37,988 | /home/tyler/frappe-bench/apps/frappe/frappe/utils/scheduler.py:
Site: silverbell
Queued events for site silverbell
[DEBUG] 2017-09-02 11:18:38,318 | /home/tyler/frappe-bench/apps/frappe/frappe/utils/scheduler.py:
Site: silverbell
Queued events for site silverbell
[DEBUG] 2017-09-02 11:22:38,703 | /home/tyler/frappe-bench/apps/frappe/frappe/utils/scheduler.py:
Site: silverbell
Queued events for site silverbell
[DEBUG] 2017-09-02 11:26:39,038 | /home/tyler/frappe-bench/apps/frappe/frappe/utils/scheduler.py:
Site: silverbell
Queued events for site silverbell
[DEBUG] 2017-09-02 11:30:39,365 | /home/tyler/frappe-bench/apps/frappe/frappe/utils/scheduler.py:
Site: silverbell
Queued events for site silverbell
[DEBUG] 2017-09-02 11:34:39,702 | /home/tyler/frappe-bench/apps/frappe/frappe/utils/scheduler.py:
Site: silverbell
Queued events for site silverbell
[DEBUG] 2017-09-02 11:38:40,037 | /home/tyler/frappe-bench/apps/frappe/frappe/utils/scheduler.py:
Site: silverbell
Queued events for site silverbell
[DEBUG] 2017-09-02 11:42:40,373 | /home/tyler/frappe-bench/apps/frappe/frappe/utils/scheduler.py:
Site: silverbell
Queued events for site silverbell
[DEBUG] 2017-09-02 11:46:40,701 | /home/tyler/frappe-bench/apps/frappe/frappe/utils/scheduler.py:
Site: silverbell
Queued events for site silverbell
[DEBUG] 2017-09-02 11:50:41,029 | /home/tyler/frappe-bench/apps/frappe/frappe/utils/scheduler.py:
Site: silverbell
Queued events for site silverbell
[DEBUG] 2017-09-02 11:54:41,363 | /home/tyler/frappe-bench/apps/frappe/frappe/utils/scheduler.py:
Site: silverbell
Queued events for site silverbell
[DEBUG] 2017-09-02 11:58:41,699 | /home/tyler/frappe-bench/apps/frappe/frappe/utils/scheduler.py:
Site: silverbell
Queued events for site silverbell
[DEBUG] 2017-09-02 12:02:42,062 | /home/tyler/frappe-bench/apps/frappe/frappe/utils/scheduler.py:
Site: silverbell
Queued events for site silverbell
[DEBUG] 2017-09-02 12:06:42,405 | /home/tyler/frappe-bench/apps/frappe/frappe/utils/scheduler.py:
Site: silverbell
Queued events for site silverbell
[DEBUG] 2017-09-02 12:10:42,739 | /home/tyler/frappe-bench/apps/frappe/frappe/utils/scheduler.py:
Site: silverbell
Queued events for site silverbell
[DEBUG] 2017-09-02 12:14:43,085 | /home/tyler/frappe-bench/apps/frappe/frappe/utils/scheduler.py:
Site: silverbell
Queued events for site silverbell
[DEBUG] 2017-09-02 12:18:43,421 | /home/tyler/frappe-bench/apps/frappe/frappe/utils/scheduler.py:
Site: silverbell
Queued events for site silverbell
[DEBUG] 2017-09-02 12:22:43,758 | /home/tyler/frappe-bench/apps/frappe/frappe/utils/scheduler.py:
Site: silverbell
Queued events for site silverbell
[DEBUG] 2017-09-02 12:26:44,092 | /home/tyler/frappe-bench/apps/frappe/frappe/utils/scheduler.py:
Site: silverbell
Queued events for site silverbell
[DEBUG] 2017-09-02 12:30:44,422 | /home/tyler/frappe-bench/apps/frappe/frappe/utils/scheduler.py:
Site: silverbell
Queued events for site silverbell
[DEBUG] 2017-09-02 12:34:44,748 | /home/tyler/frappe-bench/apps/frappe/frappe/utils/scheduler.py:
Site: silverbell
Queued events for site silverbell
[DEBUG] 2017-09-02 12:38:45,069 | /home/tyler/frappe-bench/apps/frappe/frappe/utils/scheduler.py:
Site: silverbell
Queued events for site silverbell
[DEBUG] 2017-09-02 12:42:45,396 | /home/tyler/frappe-bench/apps/frappe/frappe/utils/scheduler.py:
Site: silverbell
Queued events for site silverbell
[DEBUG] 2017-09-02 12:46:45,725 | /home/tyler/frappe-bench/apps/frappe/frappe/utils/scheduler.py:
Site: silverbell
Queued events for site silverbell
[DEBUG] 2017-09-02 12:50:46,052 | /home/tyler/frappe-bench/apps/frappe/frappe/utils/scheduler.py:
Site: silverbell
Queued events for site silverbell
[DEBUG] 2017-09-02 12:54:46,381 | /home/tyler/frappe-bench/apps/frappe/frappe/utils/scheduler.py:
Site: silverbell
Queued events for site silverbell
[DEBUG] 2017-09-02 12:58:46,711 | /home/tyler/frappe-bench/apps/frappe/frappe/utils/scheduler.py:
Site: silverbell
Queued events for site silverbell
[DEBUG] 2017-09-02 13:02:47,075 | /home/tyler/frappe-bench/apps/frappe/frappe/utils/scheduler.py:
Site: silverbell
Queued events for site silverbell
[DEBUG] 2017-09-02 13:06:47,397 | /home/tyler/frappe-bench/apps/frappe/frappe/utils/scheduler.py:
Site: silverbell
Queued events for site silverbell
[DEBUG] 2017-09-02 13:10:47,733 | /home/tyler/frappe-bench/apps/frappe/frappe/utils/scheduler.py:
Site: silverbell
Queued events for site silverbell
[DEBUG] 2017-09-02 13:14:48,069 | /home/tyler/frappe-bench/apps/frappe/frappe/utils/scheduler.py:
Site: silverbell
Queued events for site silverbell
[DEBUG] 2017-09-02 13:18:48,400 | /home/tyler/frappe-bench/apps/frappe/frappe/utils/scheduler.py:
Site: silverbell
Queued events for site silverbell
[DEBUG] 2017-09-02 13:22:48,727 | /home/tyler/frappe-bench/apps/frappe/frappe/utils/scheduler.py:
Site: silverbell
Queued events for site silverbell
[DEBUG] 2017-09-02 13:26:49,046 | /home/tyler/frappe-bench/apps/frappe/frappe/utils/scheduler.py:
Site: silverbell
Queued events for site silverbell
[DEBUG] 2017-09-02 13:30:49,364 | /home/tyler/frappe-bench/apps/frappe/frappe/utils/scheduler.py:
Site: silverbell
Queued events for site silverbell
[DEBUG] 2017-09-02 13:34:49,692 | /home/tyler/frappe-bench/apps/frappe/frappe/utils/scheduler.py:
Site: silverbell
Queued events for site silverbell
[DEBUG] 2017-09-02 13:38:50,028 | /home/tyler/frappe-bench/apps/frappe/frappe/utils/scheduler.py:
Site: silverbell
Queued events for site silverbell
[DEBUG] 2017-09-02 13:42:50,362 | /home/tyler/frappe-bench/apps/frappe/frappe/utils/scheduler.py:
Site: silverbell
Queued events for site silverbell
[DEBUG] 2017-09-02 13:46:50,700 | /home/tyler/frappe-bench/apps/frappe/frappe/utils/scheduler.py:
Site: silverbell
Queued events for site silverbell
[DEBUG] 2017-09-02 13:50:51,037 | /home/tyler/frappe-bench/apps/frappe/frappe/utils/scheduler.py:
Site: silverbell
Queued events for site silverbell
[DEBUG] 2017-09-02 13:54:51,354 | /home/tyler/frappe-bench/apps/frappe/frappe/utils/scheduler.py:
Site: silverbell
Queued events for site silverbell
[DEBUG] 2017-09-02 13:58:51,684 | /home/tyler/frappe-bench/apps/frappe/frappe/utils/scheduler.py:
Site: silverbell
Queued events for site silverbell
[DEBUG] 2017-09-02 14:02:52,045 | /home/tyler/frappe-bench/apps/frappe/frappe/utils/scheduler.py:
Site: silverbell
Queued events for site silverbell
[DEBUG] 2017-09-02 14:06:52,373 | /home/tyler/frappe-bench/apps/frappe/frappe/utils/scheduler.py:
Site: silverbell
Queued events for site silverbell
[DEBUG] 2017-09-02 14:10:52,700 | /home/tyler/frappe-bench/apps/frappe/frappe/utils/scheduler.py:
Site: silverbell
Queued events for site silverbell
[DEBUG] 2017-09-02 14:14:53,037 | /home/tyler/frappe-bench/apps/frappe/frappe/utils/scheduler.py:
Site: silverbell
Queued events for site silverbell
[DEBUG] 2017-09-02 14:18:53,371 | /home/tyler/frappe-bench/apps/frappe/frappe/utils/scheduler.py:
Site: silverbell
Queued events for site silverbell
[DEBUG] 2017-09-02 14:22:53,719 | /home/tyler/frappe-bench/apps/frappe/frappe/utils/scheduler.py:
Site: silverbell
Queued events for site silverbell
