[DEBUG] 2017-07-15 09:11:58,639 | /home/tyler/frappe-bench/apps/frappe/frappe/utils/scheduler.py:
Site: silverbell
Queued events for site silverbell
[ERROR] 2017-07-15 09:13:43,263 | /home/tyler/frappe-bench/apps/frappe/frappe/app.py:
Site: silverbell
Form Dict: {
 "args": "{\"egg_dict\":\"{\\\"Americauna\\\":6,\\\"Barred Rocks\\\":6,\\\"Rhode Island Reds\\\":0}\"}", 
 "cmd": "runserverobj", 
 "docs": "{\"at_enter_as_uom\":\"Dozen\",\"modified_by\":\"Administrator\",\"name\":\"Egg Collection\",\"parent\":null,\"destination_warehouse\":\"Finished Goods - AT\",\"collection_date\":\"2017-07-15T13:12:41.257Z\",\"creation\":\"2017-07-01 17:19:30.393058\",\"modified\":\"2017-07-15 09:12:46.441793\",\"doctype\":\"Egg Collection\",\"idx\":\"0\",\"parenttype\":null,\"batched_egg_yield\":12,\"at_enter_as_item\":\"Eggs-Dozen\",\"owner\":\"Administrator\",\"docstatus\":0,\"parentfield\":null,\"__last_sync_on\":\"2017-07-15T13:12:46.885Z\"}", 
 "egg_dict": "{\"Americauna\":6,\"Barred Rocks\":6,\"Rhode Island Reds\":0}", 
 "method": "collect_egg_yield"
}
Request Error
Traceback (most recent call last):
  File "/home/tyler/frappe-bench/apps/frappe/frappe/app.py", line 55, in application
    response = frappe.handler.handle()
  File "/home/tyler/frappe-bench/apps/frappe/frappe/handler.py", line 21, in handle
    data = execute_cmd(cmd)
  File "/home/tyler/frappe-bench/apps/frappe/frappe/handler.py", line 52, in execute_cmd
    return frappe.call(method, **frappe.form_dict)
  File "/home/tyler/frappe-bench/apps/frappe/frappe/__init__.py", line 907, in call
    return fn(*args, **newargs)
  File "/home/tyler/frappe-bench/apps/frappe/frappe/handler.py", line 80, in runserverobj
    frappe.desk.form.run_method.runserverobj(method, docs=docs, dt=dt, dn=dn, arg=arg, args=args)
  File "/home/tyler/frappe-bench/apps/frappe/frappe/desk/form/run_method.py", line 41, in runserverobj
    r = doc.run_method(method, **args)
  File "/home/tyler/frappe-bench/apps/frappe/frappe/model/document.py", line 666, in run_method
    out = Document.hook(fn)(self, *args, **kwargs)
  File "/home/tyler/frappe-bench/apps/frappe/frappe/model/document.py", line 892, in composer
    return composed(self, method, *args, **kwargs)
  File "/home/tyler/frappe-bench/apps/frappe/frappe/model/document.py", line 875, in runner
    add_to_return_value(self, fn(self, *args, **kwargs))
  File "/home/tyler/frappe-bench/apps/frappe/frappe/model/document.py", line 660, in <lambda>
    fn = lambda self, *args, **kwargs: getattr(self, method)(*args, **kwargs)
TypeError: collect_egg_yield() got an unexpected keyword argument 'egg_dict'
[ERROR] 2017-07-15 09:13:43,318 | /home/tyler/frappe-bench/apps/frappe/frappe/utils/error.py:
New Exception collected with id: 2017-07-15 09:13:43.263981-127.0.0.1-ac0
[DEBUG] 2017-07-15 09:15:59,038 | /home/tyler/frappe-bench/apps/frappe/frappe/utils/scheduler.py:
Site: silverbell
Queued events for site silverbell
[DEBUG] 2017-07-15 09:19:59,447 | /home/tyler/frappe-bench/apps/frappe/frappe/utils/scheduler.py:
Site: silverbell
Queued events for site silverbell
[ERROR] 2017-07-15 09:20:06,846 | /home/tyler/frappe-bench/apps/frappe/frappe/app.py:
Site: silverbell
Form Dict: {
 "args": "{\"egg_dict\":\"{\\\"Americauna\\\":6,\\\"Barred Rocks\\\":6,\\\"Rhode Island Reds\\\":6}\"}", 
 "cmd": "runserverobj", 
 "docs": "{\"at_enter_as_uom\":\"Dozen\",\"modified_by\":\"Administrator\",\"name\":\"Egg Collection\",\"parent\":null,\"destination_warehouse\":\"Finished Goods - AT\",\"collection_date\":\"2017-07-15T13:18:40.055Z\",\"creation\":\"2017-07-01 17:19:30.393058\",\"modified\":\"2017-07-15 09:19:12.880726\",\"doctype\":\"Egg Collection\",\"idx\":\"0\",\"parenttype\":null,\"batched_egg_yield\":18,\"at_enter_as_item\":\"Eggs-Dozen\",\"owner\":\"Administrator\",\"docstatus\":0,\"parentfield\":null,\"__last_sync_on\":\"2017-07-15T13:19:13.125Z\"}", 
 "egg_dict": "{\"Americauna\":6,\"Barred Rocks\":6,\"Rhode Island Reds\":6}", 
 "method": "collect_egg_yield"
}
Request Error
Traceback (most recent call last):
  File "/home/tyler/frappe-bench/apps/frappe/frappe/app.py", line 55, in application
    response = frappe.handler.handle()
  File "/home/tyler/frappe-bench/apps/frappe/frappe/handler.py", line 21, in handle
    data = execute_cmd(cmd)
  File "/home/tyler/frappe-bench/apps/frappe/frappe/handler.py", line 52, in execute_cmd
    return frappe.call(method, **frappe.form_dict)
  File "/home/tyler/frappe-bench/apps/frappe/frappe/__init__.py", line 907, in call
    return fn(*args, **newargs)
  File "/home/tyler/frappe-bench/apps/frappe/frappe/handler.py", line 80, in runserverobj
    frappe.desk.form.run_method.runserverobj(method, docs=docs, dt=dt, dn=dn, arg=arg, args=args)
  File "/home/tyler/frappe-bench/apps/frappe/frappe/desk/form/run_method.py", line 22, in runserverobj
    doc.check_if_latest()
  File "/home/tyler/frappe-bench/apps/frappe/frappe/model/document.py", line 517, in check_if_latest
    where doctype=%s and field='modified' for update''', self.doctype)
  File "/home/tyler/frappe-bench/apps/frappe/frappe/database.py", line 138, in sql
    self._cursor.execute(query, values)
  File "/home/tyler/frappe-bench/env/local/lib/python2.7/site-packages/MySQLdb/cursors.py", line 250, in execute
    self.errorhandler(self, exc, value)
  File "/home/tyler/frappe-bench/env/local/lib/python2.7/site-packages/MySQLdb/connections.py", line 42, in defaulterrorhandler
    raise errorvalue
OperationalError: (1213, 'Deadlock found when trying to get lock; try restarting transaction')
[ERROR] 2017-07-15 09:20:06,959 | /home/tyler/frappe-bench/apps/frappe/frappe/utils/error.py:
Could not take error snapshot: 'connection'
Traceback (most recent call last):
  File "/home/tyler/frappe-bench/apps/frappe/frappe/utils/error.py", line 36, in make_error_snapshot
    snapshot = get_snapshot(exception)
  File "/home/tyler/frappe-bench/apps/frappe/frappe/utils/error.py", line 81, in get_snapshot
    call = inspect.formatargvalues(args, varargs, varkw, locals, formatvalue=lambda value: '={}'.format(pydoc.text.repr(value)))
  File "/usr/lib/python2.7/inspect.py", line 888, in formatargvalues
    specs.append(strseq(args[i], convert, join))
  File "/usr/lib/python2.7/inspect.py", line 843, in strseq
    return convert(object)
  File "/usr/lib/python2.7/inspect.py", line 885, in convert
    return formatarg(name) + formatvalue(locals[name])
KeyError: 'connection'
[ERROR] 2017-07-15 09:20:18,391 | /home/tyler/frappe-bench/apps/frappe/frappe/app.py:
Site: silverbell
Form Dict: {
 "args": "{\"egg_dict\":\"{\\\"Americauna\\\":4,\\\"Barred Rocks\\\":4,\\\"Rhode Island Reds\\\":4}\"}", 
 "cmd": "runserverobj", 
 "docs": "{\"at_enter_as_uom\":\"Dozen\",\"modified_by\":\"Administrator\",\"name\":\"Egg Collection\",\"destination_warehouse\":\"Finished Goods - AT\",\"collection_date\":\"2017-07-15T13:20:12.467Z\",\"creation\":\"2017-07-01 17:19:30.393058\",\"modified\":\"2017-07-15 09:20:06.709018\",\"doctype\":\"Egg Collection\",\"idx\":\"0\",\"batched_egg_yield\":12,\"at_enter_as_item\":\"Eggs-Dozen\",\"owner\":\"Administrator\",\"docstatus\":0,\"__last_sync_on\":\"2017-07-15T13:20:12.679Z\",\"__unsaved\":1}", 
 "egg_dict": "{\"Americauna\":4,\"Barred Rocks\":4,\"Rhode Island Reds\":4}", 
 "method": "collect_egg_yield"
}
Request Error
Traceback (most recent call last):
  File "/home/tyler/frappe-bench/apps/frappe/frappe/app.py", line 55, in application
    response = frappe.handler.handle()
  File "/home/tyler/frappe-bench/apps/frappe/frappe/handler.py", line 21, in handle
    data = execute_cmd(cmd)
  File "/home/tyler/frappe-bench/apps/frappe/frappe/handler.py", line 52, in execute_cmd
    return frappe.call(method, **frappe.form_dict)
  File "/home/tyler/frappe-bench/apps/frappe/frappe/__init__.py", line 907, in call
    return fn(*args, **newargs)
  File "/home/tyler/frappe-bench/apps/frappe/frappe/handler.py", line 80, in runserverobj
    frappe.desk.form.run_method.runserverobj(method, docs=docs, dt=dt, dn=dn, arg=arg, args=args)
  File "/home/tyler/frappe-bench/apps/frappe/frappe/desk/form/run_method.py", line 41, in runserverobj
    r = doc.run_method(method, **args)
  File "/home/tyler/frappe-bench/apps/frappe/frappe/model/document.py", line 666, in run_method
    out = Document.hook(fn)(self, *args, **kwargs)
  File "/home/tyler/frappe-bench/apps/frappe/frappe/model/document.py", line 892, in composer
    return composed(self, method, *args, **kwargs)
  File "/home/tyler/frappe-bench/apps/frappe/frappe/model/document.py", line 875, in runner
    add_to_return_value(self, fn(self, *args, **kwargs))
  File "/home/tyler/frappe-bench/apps/frappe/frappe/model/document.py", line 660, in <lambda>
    fn = lambda self, *args, **kwargs: getattr(self, method)(*args, **kwargs)
  File "/home/tyler/frappe-bench/apps/at_livestock/at_livestock/livestock/doctype/egg_collection/egg_collection.py", line 25, in collect_egg_yield
    pass_to_stock(self, egg_dict)
NameError: global name 'pass_to_stock' is not defined
[ERROR] 2017-07-15 09:20:18,458 | /home/tyler/frappe-bench/apps/frappe/frappe/utils/error.py:
New Exception collected with id: 2017-07-15 09:20:18.392428-127.0.0.1-825
[ERROR] 2017-07-15 09:20:37,350 | /home/tyler/frappe-bench/apps/frappe/frappe/app.py:
Site: silverbell
Form Dict: {
 "args": "{\"egg_dict\":\"{\\\"Americauna\\\":4,\\\"Barred Rocks\\\":4,\\\"Rhode Island Reds\\\":4}\"}", 
 "cmd": "runserverobj", 
 "docs": "{\"at_enter_as_uom\":\"Dozen\",\"modified_by\":\"Administrator\",\"name\":\"Egg Collection\",\"destination_warehouse\":\"Finished Goods - AT\",\"collection_date\":\"2017-07-15T13:20:30.984Z\",\"creation\":\"2017-07-01 17:19:30.393058\",\"modified\":\"2017-07-15 09:20:18.387047\",\"doctype\":\"Egg Collection\",\"idx\":\"0\",\"batched_egg_yield\":12,\"at_enter_as_item\":\"Eggs-Dozen\",\"owner\":\"Administrator\",\"docstatus\":0,\"__last_sync_on\":\"2017-07-15T13:20:31.206Z\",\"__unsaved\":1}", 
 "egg_dict": "{\"Americauna\":4,\"Barred Rocks\":4,\"Rhode Island Reds\":4}", 
 "method": "collect_egg_yield"
}
Request Error
Traceback (most recent call last):
  File "/home/tyler/frappe-bench/apps/frappe/frappe/app.py", line 55, in application
    response = frappe.handler.handle()
  File "/home/tyler/frappe-bench/apps/frappe/frappe/handler.py", line 21, in handle
    data = execute_cmd(cmd)
  File "/home/tyler/frappe-bench/apps/frappe/frappe/handler.py", line 52, in execute_cmd
    return frappe.call(method, **frappe.form_dict)
  File "/home/tyler/frappe-bench/apps/frappe/frappe/__init__.py", line 907, in call
    return fn(*args, **newargs)
  File "/home/tyler/frappe-bench/apps/frappe/frappe/handler.py", line 80, in runserverobj
    frappe.desk.form.run_method.runserverobj(method, docs=docs, dt=dt, dn=dn, arg=arg, args=args)
  File "/home/tyler/frappe-bench/apps/frappe/frappe/desk/form/run_method.py", line 41, in runserverobj
    r = doc.run_method(method, **args)
  File "/home/tyler/frappe-bench/apps/frappe/frappe/model/document.py", line 666, in run_method
    out = Document.hook(fn)(self, *args, **kwargs)
  File "/home/tyler/frappe-bench/apps/frappe/frappe/model/document.py", line 892, in composer
    return composed(self, method, *args, **kwargs)
  File "/home/tyler/frappe-bench/apps/frappe/frappe/model/document.py", line 875, in runner
    add_to_return_value(self, fn(self, *args, **kwargs))
  File "/home/tyler/frappe-bench/apps/frappe/frappe/model/document.py", line 660, in <lambda>
    fn = lambda self, *args, **kwargs: getattr(self, method)(*args, **kwargs)
  File "/home/tyler/frappe-bench/apps/at_livestock/at_livestock/livestock/doctype/egg_collection/egg_collection.py", line 25, in collect_egg_yield
    self.pass_to_stock(self, egg_dict)
TypeError: pass_to_stock() takes exactly 1 argument (3 given)
[ERROR] 2017-07-15 09:20:37,418 | /home/tyler/frappe-bench/apps/frappe/frappe/utils/error.py:
New Exception collected with id: 2017-07-15 09:20:37.354673-127.0.0.1-0a4
[ERROR] 2017-07-15 09:21:27,093 | /home/tyler/frappe-bench/apps/frappe/frappe/app.py:
Site: silverbell
Form Dict: {
 "args": "{\"egg_dict\":\"{\\\"Americauna\\\":4,\\\"Barred Rocks\\\":4,\\\"Rhode Island Reds\\\":4}\"}", 
 "cmd": "runserverobj", 
 "docs": "{\"at_enter_as_uom\":\"Dozen\",\"modified_by\":\"Administrator\",\"name\":\"Egg Collection\",\"parent\":null,\"destination_warehouse\":\"Finished Goods - AT\",\"collection_date\":\"2017-07-15T13:20:30.984Z\",\"creation\":\"2017-07-01 17:19:30.393058\",\"modified\":\"2017-07-15 09:20:37.352366\",\"doctype\":\"Egg Collection\",\"idx\":\"0\",\"parenttype\":null,\"batched_egg_yield\":12,\"at_enter_as_item\":\"Eggs-Dozen\",\"owner\":\"Administrator\",\"docstatus\":0,\"parentfield\":null,\"__last_sync_on\":\"2017-07-15T13:20:37.772Z\"}", 
 "egg_dict": "{\"Americauna\":4,\"Barred Rocks\":4,\"Rhode Island Reds\":4}", 
 "method": "collect_egg_yield"
}
Request Error
Traceback (most recent call last):
  File "/home/tyler/frappe-bench/apps/frappe/frappe/app.py", line 55, in application
    response = frappe.handler.handle()
  File "/home/tyler/frappe-bench/apps/frappe/frappe/handler.py", line 21, in handle
    data = execute_cmd(cmd)
  File "/home/tyler/frappe-bench/apps/frappe/frappe/handler.py", line 52, in execute_cmd
    return frappe.call(method, **frappe.form_dict)
  File "/home/tyler/frappe-bench/apps/frappe/frappe/__init__.py", line 907, in call
    return fn(*args, **newargs)
  File "/home/tyler/frappe-bench/apps/frappe/frappe/handler.py", line 80, in runserverobj
    frappe.desk.form.run_method.runserverobj(method, docs=docs, dt=dt, dn=dn, arg=arg, args=args)
  File "/home/tyler/frappe-bench/apps/frappe/frappe/desk/form/run_method.py", line 41, in runserverobj
    r = doc.run_method(method, **args)
  File "/home/tyler/frappe-bench/apps/frappe/frappe/model/document.py", line 666, in run_method
    out = Document.hook(fn)(self, *args, **kwargs)
  File "/home/tyler/frappe-bench/apps/frappe/frappe/model/document.py", line 892, in composer
    return composed(self, method, *args, **kwargs)
  File "/home/tyler/frappe-bench/apps/frappe/frappe/model/document.py", line 875, in runner
    add_to_return_value(self, fn(self, *args, **kwargs))
  File "/home/tyler/frappe-bench/apps/frappe/frappe/model/document.py", line 660, in <lambda>
    fn = lambda self, *args, **kwargs: getattr(self, method)(*args, **kwargs)
  File "/home/tyler/frappe-bench/apps/at_livestock/at_livestock/livestock/doctype/egg_collection/egg_collection.py", line 25, in collect_egg_yield
    self.pass_to_stock(self)
TypeError: pass_to_stock() takes exactly 1 argument (2 given)
[ERROR] 2017-07-15 09:21:27,169 | /home/tyler/frappe-bench/apps/frappe/frappe/utils/error.py:
New Exception collected with id: 2017-07-15 09:21:27.113204-127.0.0.1-9da
[DEBUG] 2017-07-15 09:23:59,863 | /home/tyler/frappe-bench/apps/frappe/frappe/utils/scheduler.py:
Site: silverbell
Queued events for site silverbell
[DEBUG] 2017-07-15 09:28:00,219 | /home/tyler/frappe-bench/apps/frappe/frappe/utils/scheduler.py:
Site: silverbell
Queued events for site silverbell
[DEBUG] 2017-07-15 09:32:00,631 | /home/tyler/frappe-bench/apps/frappe/frappe/utils/scheduler.py:
Site: silverbell
Queued events for site silverbell
[DEBUG] 2017-07-15 09:36:01,054 | /home/tyler/frappe-bench/apps/frappe/frappe/utils/scheduler.py:
Site: silverbell
Queued events for site silverbell
[DEBUG] 2017-07-15 09:40:01,406 | /home/tyler/frappe-bench/apps/frappe/frappe/utils/scheduler.py:
Site: silverbell
Queued events for site silverbell
[DEBUG] 2017-07-15 09:44:01,802 | /home/tyler/frappe-bench/apps/frappe/frappe/utils/scheduler.py:
Site: silverbell
Queued events for site silverbell
[DEBUG] 2017-07-15 09:48:02,221 | /home/tyler/frappe-bench/apps/frappe/frappe/utils/scheduler.py:
Site: silverbell
Queued events for site silverbell
[DEBUG] 2017-07-15 09:52:02,649 | /home/tyler/frappe-bench/apps/frappe/frappe/utils/scheduler.py:
Site: silverbell
Queued events for site silverbell
[DEBUG] 2017-07-15 09:56:03,022 | /home/tyler/frappe-bench/apps/frappe/frappe/utils/scheduler.py:
Site: silverbell
Queued events for site silverbell
[DEBUG] 2017-07-15 10:00:03,404 | /home/tyler/frappe-bench/apps/frappe/frappe/utils/scheduler.py:
Site: silverbell
Queued events for site silverbell
[DEBUG] 2017-07-15 10:04:03,830 | /home/tyler/frappe-bench/apps/frappe/frappe/utils/scheduler.py:
Site: silverbell
Queued events for site silverbell
[DEBUG] 2017-07-15 10:08:04,266 | /home/tyler/frappe-bench/apps/frappe/frappe/utils/scheduler.py:
Site: silverbell
Queued events for site silverbell
[DEBUG] 2017-07-15 10:12:04,669 | /home/tyler/frappe-bench/apps/frappe/frappe/utils/scheduler.py:
Site: silverbell
Queued events for site silverbell
[ERROR] 2017-07-15 10:15:31,953 | /home/tyler/frappe-bench/apps/frappe/frappe/app.py:
Site: silverbell
Form Dict: {
 "args": "{\"egg_dict\":\"{\\\"Americauna\\\":5,\\\"Barred Rocks\\\":5,\\\"Rhode Island Reds\\\":5}\"}", 
 "cmd": "runserverobj", 
 "docs": "{\"at_enter_as_uom\":\"Dozen\",\"modified_by\":\"Administrator\",\"name\":\"Egg Collection\",\"destination_warehouse\":\"Finished Goods - AT\",\"collection_date\":\"2017-07-15T14:15:26.721Z\",\"creation\":\"2017-07-01 17:19:30.393058\",\"modified\":\"2017-07-15 09:26:09.795282\",\"doctype\":\"Egg Collection\",\"idx\":\"0\",\"batched_egg_yield\":15,\"at_enter_as_item\":\"Eggs-Dozen\",\"owner\":\"Administrator\",\"docstatus\":0,\"__last_sync_on\":\"2017-07-15T14:15:26.974Z\",\"__unsaved\":1}", 
 "egg_dict": "{\"Americauna\":5,\"Barred Rocks\":5,\"Rhode Island Reds\":5}", 
 "method": "collect_egg_yield"
}
Request Error
Traceback (most recent call last):
  File "/home/tyler/frappe-bench/apps/frappe/frappe/app.py", line 55, in application
    response = frappe.handler.handle()
  File "/home/tyler/frappe-bench/apps/frappe/frappe/handler.py", line 21, in handle
    data = execute_cmd(cmd)
  File "/home/tyler/frappe-bench/apps/frappe/frappe/handler.py", line 52, in execute_cmd
    return frappe.call(method, **frappe.form_dict)
  File "/home/tyler/frappe-bench/apps/frappe/frappe/__init__.py", line 907, in call
    return fn(*args, **newargs)
  File "/home/tyler/frappe-bench/apps/frappe/frappe/handler.py", line 80, in runserverobj
    frappe.desk.form.run_method.runserverobj(method, docs=docs, dt=dt, dn=dn, arg=arg, args=args)
  File "/home/tyler/frappe-bench/apps/frappe/frappe/desk/form/run_method.py", line 22, in runserverobj
    doc.check_if_latest()
  File "/home/tyler/frappe-bench/apps/frappe/frappe/model/document.py", line 517, in check_if_latest
    where doctype=%s and field='modified' for update''', self.doctype)
  File "/home/tyler/frappe-bench/apps/frappe/frappe/database.py", line 138, in sql
    self._cursor.execute(query, values)
  File "/home/tyler/frappe-bench/env/local/lib/python2.7/site-packages/MySQLdb/cursors.py", line 250, in execute
    self.errorhandler(self, exc, value)
  File "/home/tyler/frappe-bench/env/local/lib/python2.7/site-packages/MySQLdb/connections.py", line 42, in defaulterrorhandler
    raise errorvalue
OperationalError: (1213, 'Deadlock found when trying to get lock; try restarting transaction')
[ERROR] 2017-07-15 10:15:32,060 | /home/tyler/frappe-bench/apps/frappe/frappe/utils/error.py:
Could not take error snapshot: 'connection'
Traceback (most recent call last):
  File "/home/tyler/frappe-bench/apps/frappe/frappe/utils/error.py", line 36, in make_error_snapshot
    snapshot = get_snapshot(exception)
  File "/home/tyler/frappe-bench/apps/frappe/frappe/utils/error.py", line 81, in get_snapshot
    call = inspect.formatargvalues(args, varargs, varkw, locals, formatvalue=lambda value: '={}'.format(pydoc.text.repr(value)))
  File "/usr/lib/python2.7/inspect.py", line 888, in formatargvalues
    specs.append(strseq(args[i], convert, join))
  File "/usr/lib/python2.7/inspect.py", line 843, in strseq
    return convert(object)
  File "/usr/lib/python2.7/inspect.py", line 885, in convert
    return formatarg(name) + formatvalue(locals[name])
KeyError: 'connection'
[ERROR] 2017-07-15 10:15:44,144 | /home/tyler/frappe-bench/apps/frappe/frappe/app.py:
Site: silverbell
Form Dict: {
 "args": "{\"egg_dict\":\"{\\\"Americauna\\\":8,\\\"Barred Rocks\\\":8,\\\"Rhode Island Reds\\\":8}\"}", 
 "cmd": "runserverobj", 
 "docs": "{\"at_enter_as_uom\":\"Dozen\",\"modified_by\":\"Administrator\",\"name\":\"Egg Collection\",\"destination_warehouse\":\"Finished Goods - AT\",\"collection_date\":\"2017-07-15T14:15:38.181Z\",\"creation\":\"2017-07-01 17:19:30.393058\",\"modified\":\"2017-07-15 10:15:31.802104\",\"doctype\":\"Egg Collection\",\"idx\":\"0\",\"batched_egg_yield\":24,\"at_enter_as_item\":\"Eggs-Dozen\",\"owner\":\"Administrator\",\"docstatus\":0,\"__last_sync_on\":\"2017-07-15T14:15:38.434Z\",\"__unsaved\":1}", 
 "egg_dict": "{\"Americauna\":8,\"Barred Rocks\":8,\"Rhode Island Reds\":8}", 
 "method": "collect_egg_yield"
}
Request Error
Traceback (most recent call last):
  File "/home/tyler/frappe-bench/apps/frappe/frappe/app.py", line 55, in application
    response = frappe.handler.handle()
  File "/home/tyler/frappe-bench/apps/frappe/frappe/handler.py", line 21, in handle
    data = execute_cmd(cmd)
  File "/home/tyler/frappe-bench/apps/frappe/frappe/handler.py", line 52, in execute_cmd
    return frappe.call(method, **frappe.form_dict)
  File "/home/tyler/frappe-bench/apps/frappe/frappe/__init__.py", line 907, in call
    return fn(*args, **newargs)
  File "/home/tyler/frappe-bench/apps/frappe/frappe/handler.py", line 80, in runserverobj
    frappe.desk.form.run_method.runserverobj(method, docs=docs, dt=dt, dn=dn, arg=arg, args=args)
  File "/home/tyler/frappe-bench/apps/frappe/frappe/desk/form/run_method.py", line 41, in runserverobj
    r = doc.run_method(method, **args)
  File "/home/tyler/frappe-bench/apps/frappe/frappe/model/document.py", line 666, in run_method
    out = Document.hook(fn)(self, *args, **kwargs)
  File "/home/tyler/frappe-bench/apps/frappe/frappe/model/document.py", line 892, in composer
    return composed(self, method, *args, **kwargs)
  File "/home/tyler/frappe-bench/apps/frappe/frappe/model/document.py", line 875, in runner
    add_to_return_value(self, fn(self, *args, **kwargs))
  File "/home/tyler/frappe-bench/apps/frappe/frappe/model/document.py", line 660, in <lambda>
    fn = lambda self, *args, **kwargs: getattr(self, method)(*args, **kwargs)
  File "/home/tyler/frappe-bench/apps/at_livestock/at_livestock/livestock/doctype/egg_collection/egg_collection.py", line 23, in collect_egg_yield
    make_egg_detail(self, egg_dict)
NameError: global name 'make_egg_detail' is not defined
[ERROR] 2017-07-15 10:15:44,152 | /home/tyler/frappe-bench/apps/frappe/frappe/utils/error.py:
New Exception collected with id: 2017-07-15 10:15:44.146380-127.0.0.1-b80
[ERROR] 2017-07-15 10:15:59,066 | /home/tyler/frappe-bench/apps/frappe/frappe/app.py:
Site: silverbell
Form Dict: {
 "args": "{\"egg_dict\":\"{\\\"Americauna\\\":8,\\\"Barred Rocks\\\":8,\\\"Rhode Island Reds\\\":8}\"}", 
 "cmd": "runserverobj", 
 "docs": "{\"at_enter_as_uom\":\"Dozen\",\"modified_by\":\"Administrator\",\"name\":\"Egg Collection\",\"parent\":null,\"destination_warehouse\":\"Finished Goods - AT\",\"collection_date\":\"2017-07-15T14:15:38.181Z\",\"creation\":\"2017-07-01 17:19:30.393058\",\"modified\":\"2017-07-15 10:15:44.142084\",\"doctype\":\"Egg Collection\",\"idx\":\"0\",\"parenttype\":null,\"batched_egg_yield\":24,\"at_enter_as_item\":\"Eggs-Dozen\",\"owner\":\"Administrator\",\"docstatus\":0,\"parentfield\":null,\"__last_sync_on\":\"2017-07-15T14:15:44.557Z\"}", 
 "egg_dict": "{\"Americauna\":8,\"Barred Rocks\":8,\"Rhode Island Reds\":8}", 
 "method": "collect_egg_yield"
}
Request Error
Traceback (most recent call last):
  File "/home/tyler/frappe-bench/apps/frappe/frappe/app.py", line 55, in application
    response = frappe.handler.handle()
  File "/home/tyler/frappe-bench/apps/frappe/frappe/handler.py", line 21, in handle
    data = execute_cmd(cmd)
  File "/home/tyler/frappe-bench/apps/frappe/frappe/handler.py", line 52, in execute_cmd
    return frappe.call(method, **frappe.form_dict)
  File "/home/tyler/frappe-bench/apps/frappe/frappe/__init__.py", line 907, in call
    return fn(*args, **newargs)
  File "/home/tyler/frappe-bench/apps/frappe/frappe/handler.py", line 80, in runserverobj
    frappe.desk.form.run_method.runserverobj(method, docs=docs, dt=dt, dn=dn, arg=arg, args=args)
  File "/home/tyler/frappe-bench/apps/frappe/frappe/desk/form/run_method.py", line 41, in runserverobj
    r = doc.run_method(method, **args)
  File "/home/tyler/frappe-bench/apps/frappe/frappe/model/document.py", line 666, in run_method
    out = Document.hook(fn)(self, *args, **kwargs)
  File "/home/tyler/frappe-bench/apps/frappe/frappe/model/document.py", line 892, in composer
    return composed(self, method, *args, **kwargs)
  File "/home/tyler/frappe-bench/apps/frappe/frappe/model/document.py", line 875, in runner
    add_to_return_value(self, fn(self, *args, **kwargs))
  File "/home/tyler/frappe-bench/apps/frappe/frappe/model/document.py", line 660, in <lambda>
    fn = lambda self, *args, **kwargs: getattr(self, method)(*args, **kwargs)
  File "/home/tyler/frappe-bench/apps/at_livestock/at_livestock/livestock/doctype/egg_collection/egg_collection.py", line 23, in collect_egg_yield
    self.make_egg_detail(self, egg_dict)
TypeError: make_egg_detail() takes exactly 2 arguments (3 given)
[ERROR] 2017-07-15 10:15:59,120 | /home/tyler/frappe-bench/apps/frappe/frappe/utils/error.py:
New Exception collected with id: 2017-07-15 10:15:59.067262-127.0.0.1-d81
[DEBUG] 2017-07-15 10:16:05,037 | /home/tyler/frappe-bench/apps/frappe/frappe/utils/scheduler.py:
Site: silverbell
Queued events for site silverbell
[ERROR] 2017-07-15 10:16:17,662 | /home/tyler/frappe-bench/apps/frappe/frappe/app.py:
Site: silverbell
Form Dict: {
 "args": "{\"egg_dict\":\"{\\\"Americauna\\\":8,\\\"Barred Rocks\\\":8,\\\"Rhode Island Reds\\\":8}\"}", 
 "cmd": "runserverobj", 
 "docs": "{\"at_enter_as_uom\":\"Dozen\",\"modified_by\":\"Administrator\",\"name\":\"Egg Collection\",\"destination_warehouse\":\"Finished Goods - AT\",\"collection_date\":\"2017-07-15T14:16:13.315Z\",\"creation\":\"2017-07-01 17:19:30.393058\",\"modified\":\"2017-07-15 10:15:59.060991\",\"doctype\":\"Egg Collection\",\"idx\":\"0\",\"batched_egg_yield\":24,\"at_enter_as_item\":\"Eggs-Dozen\",\"owner\":\"Administrator\",\"docstatus\":0,\"__last_sync_on\":\"2017-07-15T14:16:13.587Z\",\"__unsaved\":1}", 
 "egg_dict": "{\"Americauna\":8,\"Barred Rocks\":8,\"Rhode Island Reds\":8}", 
 "method": "collect_egg_yield"
}
Request Error
Traceback (most recent call last):
  File "/home/tyler/frappe-bench/apps/frappe/frappe/app.py", line 55, in application
    response = frappe.handler.handle()
  File "/home/tyler/frappe-bench/apps/frappe/frappe/handler.py", line 21, in handle
    data = execute_cmd(cmd)
  File "/home/tyler/frappe-bench/apps/frappe/frappe/handler.py", line 52, in execute_cmd
    return frappe.call(method, **frappe.form_dict)
  File "/home/tyler/frappe-bench/apps/frappe/frappe/__init__.py", line 907, in call
    return fn(*args, **newargs)
  File "/home/tyler/frappe-bench/apps/frappe/frappe/handler.py", line 80, in runserverobj
    frappe.desk.form.run_method.runserverobj(method, docs=docs, dt=dt, dn=dn, arg=arg, args=args)
  File "/home/tyler/frappe-bench/apps/frappe/frappe/desk/form/run_method.py", line 22, in runserverobj
    doc.check_if_latest()
  File "/home/tyler/frappe-bench/apps/frappe/frappe/model/document.py", line 517, in check_if_latest
    where doctype=%s and field='modified' for update''', self.doctype)
  File "/home/tyler/frappe-bench/apps/frappe/frappe/database.py", line 138, in sql
    self._cursor.execute(query, values)
  File "/home/tyler/frappe-bench/env/local/lib/python2.7/site-packages/MySQLdb/cursors.py", line 250, in execute
    self.errorhandler(self, exc, value)
  File "/home/tyler/frappe-bench/env/local/lib/python2.7/site-packages/MySQLdb/connections.py", line 42, in defaulterrorhandler
    raise errorvalue
OperationalError: (1213, 'Deadlock found when trying to get lock; try restarting transaction')
[ERROR] 2017-07-15 10:16:17,763 | /home/tyler/frappe-bench/apps/frappe/frappe/utils/error.py:
Could not take error snapshot: 'connection'
Traceback (most recent call last):
  File "/home/tyler/frappe-bench/apps/frappe/frappe/utils/error.py", line 36, in make_error_snapshot
    snapshot = get_snapshot(exception)
  File "/home/tyler/frappe-bench/apps/frappe/frappe/utils/error.py", line 81, in get_snapshot
    call = inspect.formatargvalues(args, varargs, varkw, locals, formatvalue=lambda value: '={}'.format(pydoc.text.repr(value)))
  File "/usr/lib/python2.7/inspect.py", line 888, in formatargvalues
    specs.append(strseq(args[i], convert, join))
  File "/usr/lib/python2.7/inspect.py", line 843, in strseq
    return convert(object)
  File "/usr/lib/python2.7/inspect.py", line 885, in convert
    return formatarg(name) + formatvalue(locals[name])
KeyError: 'connection'
[ERROR] 2017-07-15 10:16:28,287 | /home/tyler/frappe-bench/apps/frappe/frappe/app.py:
Site: silverbell
Form Dict: {
 "args": "{\"egg_dict\":\"{\\\"Americauna\\\":8,\\\"Barred Rocks\\\":8,\\\"Rhode Island Reds\\\":8}\"}", 
 "cmd": "runserverobj", 
 "docs": "{\"at_enter_as_uom\":\"Dozen\",\"modified_by\":\"Administrator\",\"name\":\"Egg Collection\",\"destination_warehouse\":\"Finished Goods - AT\",\"collection_date\":\"2017-07-15T14:16:23.398Z\",\"creation\":\"2017-07-01 17:19:30.393058\",\"modified\":\"2017-07-15 10:16:17.475790\",\"doctype\":\"Egg Collection\",\"idx\":\"0\",\"batched_egg_yield\":24,\"at_enter_as_item\":\"Eggs-Dozen\",\"owner\":\"Administrator\",\"docstatus\":0,\"__last_sync_on\":\"2017-07-15T14:16:23.636Z\",\"__unsaved\":1}", 
 "egg_dict": "{\"Americauna\":8,\"Barred Rocks\":8,\"Rhode Island Reds\":8}", 
 "method": "collect_egg_yield"
}
Request Error
Traceback (most recent call last):
  File "/home/tyler/frappe-bench/apps/frappe/frappe/app.py", line 55, in application
    response = frappe.handler.handle()
  File "/home/tyler/frappe-bench/apps/frappe/frappe/handler.py", line 21, in handle
    data = execute_cmd(cmd)
  File "/home/tyler/frappe-bench/apps/frappe/frappe/handler.py", line 52, in execute_cmd
    return frappe.call(method, **frappe.form_dict)
  File "/home/tyler/frappe-bench/apps/frappe/frappe/__init__.py", line 907, in call
    return fn(*args, **newargs)
  File "/home/tyler/frappe-bench/apps/frappe/frappe/handler.py", line 80, in runserverobj
    frappe.desk.form.run_method.runserverobj(method, docs=docs, dt=dt, dn=dn, arg=arg, args=args)
  File "/home/tyler/frappe-bench/apps/frappe/frappe/desk/form/run_method.py", line 41, in runserverobj
    r = doc.run_method(method, **args)
  File "/home/tyler/frappe-bench/apps/frappe/frappe/model/document.py", line 666, in run_method
    out = Document.hook(fn)(self, *args, **kwargs)
  File "/home/tyler/frappe-bench/apps/frappe/frappe/model/document.py", line 892, in composer
    return composed(self, method, *args, **kwargs)
  File "/home/tyler/frappe-bench/apps/frappe/frappe/model/document.py", line 875, in runner
    add_to_return_value(self, fn(self, *args, **kwargs))
  File "/home/tyler/frappe-bench/apps/frappe/frappe/model/document.py", line 660, in <lambda>
    fn = lambda self, *args, **kwargs: getattr(self, method)(*args, **kwargs)
  File "/home/tyler/frappe-bench/apps/at_livestock/at_livestock/livestock/doctype/egg_collection/egg_collection.py", line 23, in collect_egg_yield
    self.make_egg_detail(egg_dict)
  File "/home/tyler/frappe-bench/apps/at_livestock/at_livestock/livestock/doctype/egg_collection/egg_collection.py", line 32, in make_egg_detail
    make_egg_detail.poultry_flock = collected_eggs[key]
NameError: global name 'key' is not defined
[ERROR] 2017-07-15 10:16:28,297 | /home/tyler/frappe-bench/apps/frappe/frappe/utils/error.py:
New Exception collected with id: 2017-07-15 10:16:28.287659-127.0.0.1-1f1
[ERROR] 2017-07-15 10:20:00,483 | /home/tyler/frappe-bench/apps/frappe/frappe/app.py:
Site: silverbell
Form Dict: {
 "args": "{\"egg_dict\":\"{\\\"Americauna\\\":8,\\\"Barred Rocks\\\":8,\\\"Rhode Island Reds\\\":8}\"}", 
 "cmd": "runserverobj", 
 "docs": "{\"at_enter_as_uom\":\"Dozen\",\"modified_by\":\"Administrator\",\"name\":\"Egg Collection\",\"parent\":null,\"destination_warehouse\":\"Finished Goods - AT\",\"collection_date\":\"2017-07-15T14:16:23.398Z\",\"creation\":\"2017-07-01 17:19:30.393058\",\"modified\":\"2017-07-15 10:16:28.190829\",\"doctype\":\"Egg Collection\",\"idx\":\"0\",\"parenttype\":null,\"batched_egg_yield\":24,\"at_enter_as_item\":\"Eggs-Dozen\",\"owner\":\"Administrator\",\"docstatus\":0,\"parentfield\":null,\"__last_sync_on\":\"2017-07-15T14:16:28.570Z\"}", 
 "egg_dict": "{\"Americauna\":8,\"Barred Rocks\":8,\"Rhode Island Reds\":8}", 
 "method": "collect_egg_yield"
}
Request Error
Traceback (most recent call last):
  File "/home/tyler/frappe-bench/apps/frappe/frappe/app.py", line 55, in application
    response = frappe.handler.handle()
  File "/home/tyler/frappe-bench/apps/frappe/frappe/handler.py", line 21, in handle
    data = execute_cmd(cmd)
  File "/home/tyler/frappe-bench/apps/frappe/frappe/handler.py", line 52, in execute_cmd
    return frappe.call(method, **frappe.form_dict)
  File "/home/tyler/frappe-bench/apps/frappe/frappe/__init__.py", line 907, in call
    return fn(*args, **newargs)
  File "/home/tyler/frappe-bench/apps/frappe/frappe/handler.py", line 80, in runserverobj
    frappe.desk.form.run_method.runserverobj(method, docs=docs, dt=dt, dn=dn, arg=arg, args=args)
  File "/home/tyler/frappe-bench/apps/frappe/frappe/desk/form/run_method.py", line 41, in runserverobj
    r = doc.run_method(method, **args)
  File "/home/tyler/frappe-bench/apps/frappe/frappe/model/document.py", line 666, in run_method
    out = Document.hook(fn)(self, *args, **kwargs)
  File "/home/tyler/frappe-bench/apps/frappe/frappe/model/document.py", line 892, in composer
    return composed(self, method, *args, **kwargs)
  File "/home/tyler/frappe-bench/apps/frappe/frappe/model/document.py", line 875, in runner
    add_to_return_value(self, fn(self, *args, **kwargs))
  File "/home/tyler/frappe-bench/apps/frappe/frappe/model/document.py", line 660, in <lambda>
    fn = lambda self, *args, **kwargs: getattr(self, method)(*args, **kwargs)
  File "/home/tyler/frappe-bench/apps/at_livestock/at_livestock/livestock/doctype/egg_collection/egg_collection.py", line 27, in collect_egg_yield
    frappe.msgprint(str(collected_eggs),"Egg Collection Records Saved")
NameError: global name 'collected_eggs' is not defined
[ERROR] 2017-07-15 10:20:00,542 | /home/tyler/frappe-bench/apps/frappe/frappe/utils/error.py:
New Exception collected with id: 2017-07-15 10:20:00.491538-127.0.0.1-8f5
[DEBUG] 2017-07-15 10:20:05,471 | /home/tyler/frappe-bench/apps/frappe/frappe/utils/scheduler.py:
Site: silverbell
Queued events for site silverbell
[ERROR] 2017-07-15 10:20:31,884 | /home/tyler/frappe-bench/apps/frappe/frappe/app.py:
Site: silverbell
Form Dict: {
 "args": "{\"egg_dict\":\"{\\\"Americauna\\\":8,\\\"Barred Rocks\\\":8,\\\"Rhode Island Reds\\\":8}\"}", 
 "cmd": "runserverobj", 
 "docs": "{\"at_enter_as_uom\":\"Dozen\",\"modified_by\":\"Administrator\",\"name\":\"Egg Collection\",\"parent\":null,\"destination_warehouse\":\"Finished Goods - AT\",\"collection_date\":\"2017-07-15T14:16:23.398Z\",\"creation\":\"2017-07-01 17:19:30.393058\",\"modified\":\"2017-07-15 10:16:28.190829\",\"doctype\":\"Egg Collection\",\"idx\":\"0\",\"parenttype\":null,\"batched_egg_yield\":24,\"at_enter_as_item\":\"Eggs-Dozen\",\"owner\":\"Administrator\",\"docstatus\":0,\"parentfield\":null,\"__last_sync_on\":\"2017-07-15T14:16:28.570Z\"}", 
 "egg_dict": "{\"Americauna\":8,\"Barred Rocks\":8,\"Rhode Island Reds\":8}", 
 "method": "collect_egg_yield"
}
Request Error
Traceback (most recent call last):
  File "/home/tyler/frappe-bench/apps/frappe/frappe/app.py", line 55, in application
    response = frappe.handler.handle()
  File "/home/tyler/frappe-bench/apps/frappe/frappe/handler.py", line 21, in handle
    data = execute_cmd(cmd)
  File "/home/tyler/frappe-bench/apps/frappe/frappe/handler.py", line 52, in execute_cmd
    return frappe.call(method, **frappe.form_dict)
  File "/home/tyler/frappe-bench/apps/frappe/frappe/__init__.py", line 907, in call
    return fn(*args, **newargs)
  File "/home/tyler/frappe-bench/apps/frappe/frappe/handler.py", line 80, in runserverobj
    frappe.desk.form.run_method.runserverobj(method, docs=docs, dt=dt, dn=dn, arg=arg, args=args)
  File "/home/tyler/frappe-bench/apps/frappe/frappe/desk/form/run_method.py", line 41, in runserverobj
    r = doc.run_method(method, **args)
  File "/home/tyler/frappe-bench/apps/frappe/frappe/model/document.py", line 666, in run_method
    out = Document.hook(fn)(self, *args, **kwargs)
  File "/home/tyler/frappe-bench/apps/frappe/frappe/model/document.py", line 892, in composer
    return composed(self, method, *args, **kwargs)
  File "/home/tyler/frappe-bench/apps/frappe/frappe/model/document.py", line 875, in runner
    add_to_return_value(self, fn(self, *args, **kwargs))
  File "/home/tyler/frappe-bench/apps/frappe/frappe/model/document.py", line 660, in <lambda>
    fn = lambda self, *args, **kwargs: getattr(self, method)(*args, **kwargs)
  File "/home/tyler/frappe-bench/apps/at_livestock/at_livestock/livestock/doctype/egg_collection/egg_collection.py", line 23, in collect_egg_yield
    self.make_egg_detail(egg_dict)
  File "/home/tyler/frappe-bench/apps/at_livestock/at_livestock/livestock/doctype/egg_collection/egg_collection.py", line 31, in make_egg_detail
    print self.collected_eggs
AttributeError: 'EggCollection' object has no attribute 'collected_eggs'
[ERROR] 2017-07-15 10:20:31,938 | /home/tyler/frappe-bench/apps/frappe/frappe/utils/error.py:
New Exception collected with id: 2017-07-15 10:20:31.884635-127.0.0.1-d10
[ERROR] 2017-07-15 10:20:51,918 | /home/tyler/frappe-bench/apps/frappe/frappe/app.py:
Site: silverbell
Form Dict: {
 "args": "{\"egg_dict\":\"{\\\"Americauna\\\":8,\\\"Barred Rocks\\\":8,\\\"Rhode Island Reds\\\":8}\"}", 
 "cmd": "runserverobj", 
 "docs": "{\"at_enter_as_uom\":\"Dozen\",\"modified_by\":\"Administrator\",\"name\":\"Egg Collection\",\"parent\":null,\"destination_warehouse\":\"Finished Goods - AT\",\"collection_date\":\"2017-07-15T14:16:23.398Z\",\"creation\":\"2017-07-01 17:19:30.393058\",\"modified\":\"2017-07-15 10:20:31.875726\",\"doctype\":\"Egg Collection\",\"idx\":\"0\",\"parenttype\":null,\"batched_egg_yield\":24,\"at_enter_as_item\":\"Eggs-Dozen\",\"owner\":\"Administrator\",\"docstatus\":0,\"parentfield\":null,\"__last_sync_on\":\"2017-07-15T14:20:32.184Z\"}", 
 "egg_dict": "{\"Americauna\":8,\"Barred Rocks\":8,\"Rhode Island Reds\":8}", 
 "method": "collect_egg_yield"
}
Request Error
Traceback (most recent call last):
  File "/home/tyler/frappe-bench/apps/frappe/frappe/app.py", line 55, in application
    response = frappe.handler.handle()
  File "/home/tyler/frappe-bench/apps/frappe/frappe/handler.py", line 21, in handle
    data = execute_cmd(cmd)
  File "/home/tyler/frappe-bench/apps/frappe/frappe/handler.py", line 52, in execute_cmd
    return frappe.call(method, **frappe.form_dict)
  File "/home/tyler/frappe-bench/apps/frappe/frappe/__init__.py", line 907, in call
    return fn(*args, **newargs)
  File "/home/tyler/frappe-bench/apps/frappe/frappe/handler.py", line 80, in runserverobj
    frappe.desk.form.run_method.runserverobj(method, docs=docs, dt=dt, dn=dn, arg=arg, args=args)
  File "/home/tyler/frappe-bench/apps/frappe/frappe/desk/form/run_method.py", line 41, in runserverobj
    r = doc.run_method(method, **args)
  File "/home/tyler/frappe-bench/apps/frappe/frappe/model/document.py", line 666, in run_method
    out = Document.hook(fn)(self, *args, **kwargs)
  File "/home/tyler/frappe-bench/apps/frappe/frappe/model/document.py", line 892, in composer
    return composed(self, method, *args, **kwargs)
  File "/home/tyler/frappe-bench/apps/frappe/frappe/model/document.py", line 875, in runner
    add_to_return_value(self, fn(self, *args, **kwargs))
  File "/home/tyler/frappe-bench/apps/frappe/frappe/model/document.py", line 660, in <lambda>
    fn = lambda self, *args, **kwargs: getattr(self, method)(*args, **kwargs)
  File "/home/tyler/frappe-bench/apps/at_livestock/at_livestock/livestock/doctype/egg_collection/egg_collection.py", line 27, in collect_egg_yield
    frappe.msgprint(str(collected_eggs),"Egg Collection Records Saved")
NameError: global name 'collected_eggs' is not defined
[ERROR] 2017-07-15 10:20:52,001 | /home/tyler/frappe-bench/apps/frappe/frappe/utils/error.py:
New Exception collected with id: 2017-07-15 10:20:51.919702-127.0.0.1-fb7
[ERROR] 2017-07-15 10:21:15,242 | /home/tyler/frappe-bench/apps/frappe/frappe/app.py:
Site: silverbell
Form Dict: {
 "args": "{\"egg_dict\":\"{\\\"Americauna\\\":8,\\\"Barred Rocks\\\":8,\\\"Rhode Island Reds\\\":8}\"}", 
 "cmd": "runserverobj", 
 "docs": "{\"at_enter_as_uom\":\"Dozen\",\"modified_by\":\"Administrator\",\"name\":\"Egg Collection\",\"parent\":null,\"destination_warehouse\":\"Finished Goods - AT\",\"collection_date\":\"2017-07-15T14:16:23.398Z\",\"creation\":\"2017-07-01 17:19:30.393058\",\"modified\":\"2017-07-15 10:20:51.817600\",\"doctype\":\"Egg Collection\",\"idx\":\"0\",\"parenttype\":null,\"batched_egg_yield\":24,\"at_enter_as_item\":\"Eggs-Dozen\",\"owner\":\"Administrator\",\"docstatus\":0,\"parentfield\":null,\"__last_sync_on\":\"2017-07-15T14:20:52.419Z\"}", 
 "egg_dict": "{\"Americauna\":8,\"Barred Rocks\":8,\"Rhode Island Reds\":8}", 
 "method": "collect_egg_yield"
}
Request Error
Traceback (most recent call last):
  File "/home/tyler/frappe-bench/apps/frappe/frappe/app.py", line 55, in application
    response = frappe.handler.handle()
  File "/home/tyler/frappe-bench/apps/frappe/frappe/handler.py", line 21, in handle
    data = execute_cmd(cmd)
  File "/home/tyler/frappe-bench/apps/frappe/frappe/handler.py", line 52, in execute_cmd
    return frappe.call(method, **frappe.form_dict)
  File "/home/tyler/frappe-bench/apps/frappe/frappe/__init__.py", line 907, in call
    return fn(*args, **newargs)
  File "/home/tyler/frappe-bench/apps/frappe/frappe/handler.py", line 80, in runserverobj
    frappe.desk.form.run_method.runserverobj(method, docs=docs, dt=dt, dn=dn, arg=arg, args=args)
  File "/home/tyler/frappe-bench/apps/frappe/frappe/desk/form/run_method.py", line 41, in runserverobj
    r = doc.run_method(method, **args)
  File "/home/tyler/frappe-bench/apps/frappe/frappe/model/document.py", line 666, in run_method
    out = Document.hook(fn)(self, *args, **kwargs)
  File "/home/tyler/frappe-bench/apps/frappe/frappe/model/document.py", line 892, in composer
    return composed(self, method, *args, **kwargs)
  File "/home/tyler/frappe-bench/apps/frappe/frappe/model/document.py", line 875, in runner
    add_to_return_value(self, fn(self, *args, **kwargs))
  File "/home/tyler/frappe-bench/apps/frappe/frappe/model/document.py", line 660, in <lambda>
    fn = lambda self, *args, **kwargs: getattr(self, method)(*args, **kwargs)
  File "/home/tyler/frappe-bench/apps/at_livestock/at_livestock/livestock/doctype/egg_collection/egg_collection.py", line 27, in collect_egg_yield
    frappe.msgprint(str(collected_eggs),"Egg Collection Records Saved")
NameError: global name 'collected_eggs' is not defined
[ERROR] 2017-07-15 10:21:15,309 | /home/tyler/frappe-bench/apps/frappe/frappe/utils/error.py:
New Exception collected with id: 2017-07-15 10:21:15.243478-127.0.0.1-b98
[ERROR] 2017-07-15 10:21:34,732 | /home/tyler/frappe-bench/apps/frappe/frappe/app.py:
Site: silverbell
Form Dict: {
 "args": "{\"egg_dict\":\"{\\\"Americauna\\\":8,\\\"Barred Rocks\\\":8,\\\"Rhode Island Reds\\\":8}\"}", 
 "cmd": "runserverobj", 
 "docs": "{\"at_enter_as_uom\":\"Dozen\",\"modified_by\":\"Administrator\",\"name\":\"Egg Collection\",\"destination_warehouse\":\"Finished Goods - AT\",\"collection_date\":\"2017-07-15T14:21:29.303Z\",\"creation\":\"2017-07-01 17:19:30.393058\",\"modified\":\"2017-07-15 10:21:15.125245\",\"doctype\":\"Egg Collection\",\"idx\":\"0\",\"batched_egg_yield\":24,\"at_enter_as_item\":\"Eggs-Dozen\",\"owner\":\"Administrator\",\"docstatus\":0,\"__last_sync_on\":\"2017-07-15T14:21:29.520Z\",\"__unsaved\":1}", 
 "egg_dict": "{\"Americauna\":8,\"Barred Rocks\":8,\"Rhode Island Reds\":8}", 
 "method": "collect_egg_yield"
}
Request Error
Traceback (most recent call last):
  File "/home/tyler/frappe-bench/apps/frappe/frappe/app.py", line 55, in application
    response = frappe.handler.handle()
  File "/home/tyler/frappe-bench/apps/frappe/frappe/handler.py", line 21, in handle
    data = execute_cmd(cmd)
  File "/home/tyler/frappe-bench/apps/frappe/frappe/handler.py", line 52, in execute_cmd
    return frappe.call(method, **frappe.form_dict)
  File "/home/tyler/frappe-bench/apps/frappe/frappe/__init__.py", line 907, in call
    return fn(*args, **newargs)
  File "/home/tyler/frappe-bench/apps/frappe/frappe/handler.py", line 80, in runserverobj
    frappe.desk.form.run_method.runserverobj(method, docs=docs, dt=dt, dn=dn, arg=arg, args=args)
  File "/home/tyler/frappe-bench/apps/frappe/frappe/desk/form/run_method.py", line 41, in runserverobj
    r = doc.run_method(method, **args)
  File "/home/tyler/frappe-bench/apps/frappe/frappe/model/document.py", line 666, in run_method
    out = Document.hook(fn)(self, *args, **kwargs)
  File "/home/tyler/frappe-bench/apps/frappe/frappe/model/document.py", line 892, in composer
    return composed(self, method, *args, **kwargs)
  File "/home/tyler/frappe-bench/apps/frappe/frappe/model/document.py", line 875, in runner
    add_to_return_value(self, fn(self, *args, **kwargs))
  File "/home/tyler/frappe-bench/apps/frappe/frappe/model/document.py", line 660, in <lambda>
    fn = lambda self, *args, **kwargs: getattr(self, method)(*args, **kwargs)
  File "/home/tyler/frappe-bench/apps/at_livestock/at_livestock/livestock/doctype/egg_collection/egg_collection.py", line 27, in collect_egg_yield
    frappe.msgprint(str(collected_eggs),"Egg Collection Records Saved")
NameError: global name 'collected_eggs' is not defined
[ERROR] 2017-07-15 10:21:34,808 | /home/tyler/frappe-bench/apps/frappe/frappe/utils/error.py:
New Exception collected with id: 2017-07-15 10:21:34.733524-127.0.0.1-8fa
[ERROR] 2017-07-15 10:21:51,416 | /home/tyler/frappe-bench/apps/frappe/frappe/app.py:
Site: silverbell
Form Dict: {
 "args": "{\"egg_dict\":\"{\\\"Americauna\\\":8,\\\"Barred Rocks\\\":8,\\\"Rhode Island Reds\\\":8}\"}", 
 "cmd": "runserverobj", 
 "docs": "{\"at_enter_as_uom\":\"Dozen\",\"modified_by\":\"Administrator\",\"name\":\"Egg Collection\",\"parent\":null,\"destination_warehouse\":\"Finished Goods - AT\",\"collection_date\":\"2017-07-15T14:21:29.303Z\",\"creation\":\"2017-07-01 17:19:30.393058\",\"modified\":\"2017-07-15 10:21:34.650253\",\"doctype\":\"Egg Collection\",\"idx\":\"0\",\"parenttype\":null,\"batched_egg_yield\":24,\"at_enter_as_item\":\"Eggs-Dozen\",\"owner\":\"Administrator\",\"docstatus\":0,\"parentfield\":null,\"__last_sync_on\":\"2017-07-15T14:21:35.057Z\"}", 
 "egg_dict": "{\"Americauna\":8,\"Barred Rocks\":8,\"Rhode Island Reds\":8}", 
 "method": "collect_egg_yield"
}
Request Error
Traceback (most recent call last):
  File "/home/tyler/frappe-bench/apps/frappe/frappe/app.py", line 55, in application
    response = frappe.handler.handle()
  File "/home/tyler/frappe-bench/apps/frappe/frappe/handler.py", line 21, in handle
    data = execute_cmd(cmd)
  File "/home/tyler/frappe-bench/apps/frappe/frappe/handler.py", line 52, in execute_cmd
    return frappe.call(method, **frappe.form_dict)
  File "/home/tyler/frappe-bench/apps/frappe/frappe/__init__.py", line 907, in call
    return fn(*args, **newargs)
  File "/home/tyler/frappe-bench/apps/frappe/frappe/handler.py", line 80, in runserverobj
    frappe.desk.form.run_method.runserverobj(method, docs=docs, dt=dt, dn=dn, arg=arg, args=args)
  File "/home/tyler/frappe-bench/apps/frappe/frappe/desk/form/run_method.py", line 22, in runserverobj
    doc.check_if_latest()
  File "/home/tyler/frappe-bench/apps/frappe/frappe/model/document.py", line 517, in check_if_latest
    where doctype=%s and field='modified' for update''', self.doctype)
  File "/home/tyler/frappe-bench/apps/frappe/frappe/database.py", line 138, in sql
    self._cursor.execute(query, values)
  File "/home/tyler/frappe-bench/env/local/lib/python2.7/site-packages/MySQLdb/cursors.py", line 250, in execute
    self.errorhandler(self, exc, value)
  File "/home/tyler/frappe-bench/env/local/lib/python2.7/site-packages/MySQLdb/connections.py", line 42, in defaulterrorhandler
    raise errorvalue
OperationalError: (1213, 'Deadlock found when trying to get lock; try restarting transaction')
[ERROR] 2017-07-15 10:21:51,500 | /home/tyler/frappe-bench/apps/frappe/frappe/utils/error.py:
Could not take error snapshot: 'connection'
Traceback (most recent call last):
  File "/home/tyler/frappe-bench/apps/frappe/frappe/utils/error.py", line 36, in make_error_snapshot
    snapshot = get_snapshot(exception)
  File "/home/tyler/frappe-bench/apps/frappe/frappe/utils/error.py", line 81, in get_snapshot
    call = inspect.formatargvalues(args, varargs, varkw, locals, formatvalue=lambda value: '={}'.format(pydoc.text.repr(value)))
  File "/usr/lib/python2.7/inspect.py", line 888, in formatargvalues
    specs.append(strseq(args[i], convert, join))
  File "/usr/lib/python2.7/inspect.py", line 843, in strseq
    return convert(object)
  File "/usr/lib/python2.7/inspect.py", line 885, in convert
    return formatarg(name) + formatvalue(locals[name])
KeyError: 'connection'
[DEBUG] 2017-07-15 10:24:05,919 | /home/tyler/frappe-bench/apps/frappe/frappe/utils/scheduler.py:
Site: silverbell
Queued events for site silverbell
[DEBUG] 2017-07-15 10:28:06,259 | /home/tyler/frappe-bench/apps/frappe/frappe/utils/scheduler.py:
Site: silverbell
Queued events for site silverbell
[ERROR] 2017-07-15 10:29:02,557 | /home/tyler/frappe-bench/apps/frappe/frappe/app.py:
Site: silverbell
Form Dict: {
 "args": "{\"egg_dict\":\"{\\\"Americauna\\\":8,\\\"Barred Rocks\\\":8,\\\"Rhode Island Reds\\\":8}\"}", 
 "cmd": "runserverobj", 
 "docs": "{\"at_enter_as_uom\":\"Dozen\",\"modified_by\":\"Administrator\",\"name\":\"Egg Collection\",\"parent\":null,\"destination_warehouse\":\"Finished Goods - AT\",\"collection_date\":\"2017-07-15T14:21:56.085Z\",\"creation\":\"2017-07-01 17:19:30.393058\",\"modified\":\"2017-07-15 10:23:35.923224\",\"doctype\":\"Egg Collection\",\"idx\":\"0\",\"parenttype\":null,\"batched_egg_yield\":24,\"at_enter_as_item\":\"Eggs-Dozen\",\"owner\":\"Administrator\",\"docstatus\":0,\"parentfield\":null,\"__last_sync_on\":\"2017-07-15T14:23:36.402Z\"}", 
 "egg_dict": "{\"Americauna\":8,\"Barred Rocks\":8,\"Rhode Island Reds\":8}", 
 "method": "collect_egg_yield"
}
Request Error
Traceback (most recent call last):
  File "/home/tyler/frappe-bench/apps/frappe/frappe/app.py", line 55, in application
    response = frappe.handler.handle()
  File "/home/tyler/frappe-bench/apps/frappe/frappe/handler.py", line 21, in handle
    data = execute_cmd(cmd)
  File "/home/tyler/frappe-bench/apps/frappe/frappe/handler.py", line 52, in execute_cmd
    return frappe.call(method, **frappe.form_dict)
  File "/home/tyler/frappe-bench/apps/frappe/frappe/__init__.py", line 907, in call
    return fn(*args, **newargs)
  File "/home/tyler/frappe-bench/apps/frappe/frappe/handler.py", line 80, in runserverobj
    frappe.desk.form.run_method.runserverobj(method, docs=docs, dt=dt, dn=dn, arg=arg, args=args)
  File "/home/tyler/frappe-bench/apps/frappe/frappe/desk/form/run_method.py", line 22, in runserverobj
    doc.check_if_latest()
  File "/home/tyler/frappe-bench/apps/frappe/frappe/model/document.py", line 517, in check_if_latest
    where doctype=%s and field='modified' for update''', self.doctype)
  File "/home/tyler/frappe-bench/apps/frappe/frappe/database.py", line 138, in sql
    self._cursor.execute(query, values)
  File "/home/tyler/frappe-bench/env/local/lib/python2.7/site-packages/MySQLdb/cursors.py", line 250, in execute
    self.errorhandler(self, exc, value)
  File "/home/tyler/frappe-bench/env/local/lib/python2.7/site-packages/MySQLdb/connections.py", line 42, in defaulterrorhandler
    raise errorvalue
OperationalError: (1213, 'Deadlock found when trying to get lock; try restarting transaction')
[ERROR] 2017-07-15 10:29:02,654 | /home/tyler/frappe-bench/apps/frappe/frappe/utils/error.py:
Could not take error snapshot: 'connection'
Traceback (most recent call last):
  File "/home/tyler/frappe-bench/apps/frappe/frappe/utils/error.py", line 36, in make_error_snapshot
    snapshot = get_snapshot(exception)
  File "/home/tyler/frappe-bench/apps/frappe/frappe/utils/error.py", line 81, in get_snapshot
    call = inspect.formatargvalues(args, varargs, varkw, locals, formatvalue=lambda value: '={}'.format(pydoc.text.repr(value)))
  File "/usr/lib/python2.7/inspect.py", line 888, in formatargvalues
    specs.append(strseq(args[i], convert, join))
  File "/usr/lib/python2.7/inspect.py", line 843, in strseq
    return convert(object)
  File "/usr/lib/python2.7/inspect.py", line 885, in convert
    return formatarg(name) + formatvalue(locals[name])
KeyError: 'connection'
[ERROR] 2017-07-15 10:29:12,655 | /home/tyler/frappe-bench/apps/frappe/frappe/app.py:
Site: silverbell
Form Dict: {
 "args": "{\"egg_dict\":\"{\\\"Americauna\\\":8,\\\"Barred Rocks\\\":8,\\\"Rhode Island Reds\\\":8}\"}", 
 "cmd": "runserverobj", 
 "docs": "{\"at_enter_as_uom\":\"Dozen\",\"modified_by\":\"Administrator\",\"name\":\"Egg Collection\",\"destination_warehouse\":\"Finished Goods - AT\",\"collection_date\":\"2017-07-15T14:29:08.221Z\",\"creation\":\"2017-07-01 17:19:30.393058\",\"modified\":\"2017-07-15 10:29:02.394542\",\"doctype\":\"Egg Collection\",\"idx\":\"0\",\"batched_egg_yield\":24,\"at_enter_as_item\":\"Eggs-Dozen\",\"owner\":\"Administrator\",\"docstatus\":0,\"__last_sync_on\":\"2017-07-15T14:29:08.429Z\",\"__unsaved\":1}", 
 "egg_dict": "{\"Americauna\":8,\"Barred Rocks\":8,\"Rhode Island Reds\":8}", 
 "method": "collect_egg_yield"
}
Request Error
Traceback (most recent call last):
  File "/home/tyler/frappe-bench/apps/frappe/frappe/app.py", line 55, in application
    response = frappe.handler.handle()
  File "/home/tyler/frappe-bench/apps/frappe/frappe/handler.py", line 21, in handle
    data = execute_cmd(cmd)
  File "/home/tyler/frappe-bench/apps/frappe/frappe/handler.py", line 52, in execute_cmd
    return frappe.call(method, **frappe.form_dict)
  File "/home/tyler/frappe-bench/apps/frappe/frappe/__init__.py", line 907, in call
    return fn(*args, **newargs)
  File "/home/tyler/frappe-bench/apps/frappe/frappe/handler.py", line 80, in runserverobj
    frappe.desk.form.run_method.runserverobj(method, docs=docs, dt=dt, dn=dn, arg=arg, args=args)
  File "/home/tyler/frappe-bench/apps/frappe/frappe/desk/form/run_method.py", line 41, in runserverobj
    r = doc.run_method(method, **args)
  File "/home/tyler/frappe-bench/apps/frappe/frappe/model/document.py", line 666, in run_method
    out = Document.hook(fn)(self, *args, **kwargs)
  File "/home/tyler/frappe-bench/apps/frappe/frappe/model/document.py", line 892, in composer
    return composed(self, method, *args, **kwargs)
  File "/home/tyler/frappe-bench/apps/frappe/frappe/model/document.py", line 875, in runner
    add_to_return_value(self, fn(self, *args, **kwargs))
  File "/home/tyler/frappe-bench/apps/frappe/frappe/model/document.py", line 660, in <lambda>
    fn = lambda self, *args, **kwargs: getattr(self, method)(*args, **kwargs)
  File "/home/tyler/frappe-bench/apps/at_livestock/at_livestock/livestock/doctype/egg_collection/egg_collection.py", line 23, in collect_egg_yield
    self.make_egg_detail(egg_dict.keys(0), egg_dict.values(0))
AttributeError: 'unicode' object has no attribute 'keys'
[ERROR] 2017-07-15 10:29:12,726 | /home/tyler/frappe-bench/apps/frappe/frappe/utils/error.py:
New Exception collected with id: 2017-07-15 10:29:12.655701-127.0.0.1-314
[ERROR] 2017-07-15 10:32:00,618 | /home/tyler/frappe-bench/apps/frappe/frappe/app.py:
Site: silverbell
Form Dict: {
 "args": "{\"egg_dict\":\"{\\\"Americauna\\\":5,\\\"Barred Rocks\\\":5,\\\"Rhode Island Reds\\\":5}\"}", 
 "cmd": "runserverobj", 
 "docs": "{\"at_enter_as_uom\":\"Dozen\",\"modified_by\":\"Administrator\",\"name\":\"Egg Collection\",\"destination_warehouse\":\"Finished Goods - AT\",\"collection_date\":\"2017-07-15T14:31:55.787Z\",\"creation\":\"2017-07-01 17:19:30.393058\",\"modified\":\"2017-07-15 10:29:12.659582\",\"doctype\":\"Egg Collection\",\"idx\":\"0\",\"batched_egg_yield\":15,\"at_enter_as_item\":\"Eggs-Dozen\",\"owner\":\"Administrator\",\"docstatus\":0,\"__last_sync_on\":\"2017-07-15T14:31:56.010Z\",\"__unsaved\":1}", 
 "egg_dict": "{\"Americauna\":5,\"Barred Rocks\":5,\"Rhode Island Reds\":5}", 
 "method": "collect_egg_yield"
}
Request Error
Traceback (most recent call last):
  File "/home/tyler/frappe-bench/apps/frappe/frappe/app.py", line 55, in application
    response = frappe.handler.handle()
  File "/home/tyler/frappe-bench/apps/frappe/frappe/handler.py", line 21, in handle
    data = execute_cmd(cmd)
  File "/home/tyler/frappe-bench/apps/frappe/frappe/handler.py", line 52, in execute_cmd
    return frappe.call(method, **frappe.form_dict)
  File "/home/tyler/frappe-bench/apps/frappe/frappe/__init__.py", line 907, in call
    return fn(*args, **newargs)
  File "/home/tyler/frappe-bench/apps/frappe/frappe/handler.py", line 80, in runserverobj
    frappe.desk.form.run_method.runserverobj(method, docs=docs, dt=dt, dn=dn, arg=arg, args=args)
  File "/home/tyler/frappe-bench/apps/frappe/frappe/desk/form/run_method.py", line 41, in runserverobj
    r = doc.run_method(method, **args)
  File "/home/tyler/frappe-bench/apps/frappe/frappe/model/document.py", line 666, in run_method
    out = Document.hook(fn)(self, *args, **kwargs)
  File "/home/tyler/frappe-bench/apps/frappe/frappe/model/document.py", line 892, in composer
    return composed(self, method, *args, **kwargs)
  File "/home/tyler/frappe-bench/apps/frappe/frappe/model/document.py", line 875, in runner
    add_to_return_value(self, fn(self, *args, **kwargs))
  File "/home/tyler/frappe-bench/apps/frappe/frappe/model/document.py", line 660, in <lambda>
    fn = lambda self, *args, **kwargs: getattr(self, method)(*args, **kwargs)
  File "/home/tyler/frappe-bench/apps/at_livestock/at_livestock/livestock/doctype/egg_collection/egg_collection.py", line 23, in collect_egg_yield
    self.make_egg_detail(egg_dict)
TypeError: make_egg_detail() takes exactly 3 arguments (2 given)
[ERROR] 2017-07-15 10:32:00,683 | /home/tyler/frappe-bench/apps/frappe/frappe/utils/error.py:
New Exception collected with id: 2017-07-15 10:32:00.623983-127.0.0.1-124
[DEBUG] 2017-07-15 10:32:06,569 | /home/tyler/frappe-bench/apps/frappe/frappe/utils/scheduler.py:
Site: silverbell
Queued events for site silverbell
[ERROR] 2017-07-15 10:32:11,976 | /home/tyler/frappe-bench/apps/frappe/frappe/app.py:
Site: silverbell
Form Dict: {
 "args": "{\"egg_dict\":\"{\\\"Americauna\\\":5,\\\"Barred Rocks\\\":5,\\\"Rhode Island Reds\\\":5}\"}", 
 "cmd": "runserverobj", 
 "docs": "{\"at_enter_as_uom\":\"Dozen\",\"modified_by\":\"Administrator\",\"name\":\"Egg Collection\",\"parent\":null,\"destination_warehouse\":\"Finished Goods - AT\",\"collection_date\":\"2017-07-15T14:31:55.787Z\",\"creation\":\"2017-07-01 17:19:30.393058\",\"modified\":\"2017-07-15 10:32:00.614699\",\"doctype\":\"Egg Collection\",\"idx\":\"0\",\"parenttype\":null,\"batched_egg_yield\":15,\"at_enter_as_item\":\"Eggs-Dozen\",\"owner\":\"Administrator\",\"docstatus\":0,\"parentfield\":null,\"__last_sync_on\":\"2017-07-15T14:32:01.012Z\"}", 
 "egg_dict": "{\"Americauna\":5,\"Barred Rocks\":5,\"Rhode Island Reds\":5}", 
 "method": "collect_egg_yield"
}
Request Error
Traceback (most recent call last):
  File "/home/tyler/frappe-bench/apps/frappe/frappe/app.py", line 55, in application
    response = frappe.handler.handle()
  File "/home/tyler/frappe-bench/apps/frappe/frappe/handler.py", line 21, in handle
    data = execute_cmd(cmd)
  File "/home/tyler/frappe-bench/apps/frappe/frappe/handler.py", line 52, in execute_cmd
    return frappe.call(method, **frappe.form_dict)
  File "/home/tyler/frappe-bench/apps/frappe/frappe/__init__.py", line 907, in call
    return fn(*args, **newargs)
  File "/home/tyler/frappe-bench/apps/frappe/frappe/handler.py", line 80, in runserverobj
    frappe.desk.form.run_method.runserverobj(method, docs=docs, dt=dt, dn=dn, arg=arg, args=args)
  File "/home/tyler/frappe-bench/apps/frappe/frappe/desk/form/run_method.py", line 22, in runserverobj
    doc.check_if_latest()
  File "/home/tyler/frappe-bench/apps/frappe/frappe/model/document.py", line 517, in check_if_latest
    where doctype=%s and field='modified' for update''', self.doctype)
  File "/home/tyler/frappe-bench/apps/frappe/frappe/database.py", line 138, in sql
    self._cursor.execute(query, values)
  File "/home/tyler/frappe-bench/env/local/lib/python2.7/site-packages/MySQLdb/cursors.py", line 250, in execute
    self.errorhandler(self, exc, value)
  File "/home/tyler/frappe-bench/env/local/lib/python2.7/site-packages/MySQLdb/connections.py", line 42, in defaulterrorhandler
    raise errorvalue
OperationalError: (1213, 'Deadlock found when trying to get lock; try restarting transaction')
[ERROR] 2017-07-15 10:32:12,073 | /home/tyler/frappe-bench/apps/frappe/frappe/utils/error.py:
Could not take error snapshot: 'connection'
Traceback (most recent call last):
  File "/home/tyler/frappe-bench/apps/frappe/frappe/utils/error.py", line 36, in make_error_snapshot
    snapshot = get_snapshot(exception)
  File "/home/tyler/frappe-bench/apps/frappe/frappe/utils/error.py", line 81, in get_snapshot
    call = inspect.formatargvalues(args, varargs, varkw, locals, formatvalue=lambda value: '={}'.format(pydoc.text.repr(value)))
  File "/usr/lib/python2.7/inspect.py", line 888, in formatargvalues
    specs.append(strseq(args[i], convert, join))
  File "/usr/lib/python2.7/inspect.py", line 843, in strseq
    return convert(object)
  File "/usr/lib/python2.7/inspect.py", line 885, in convert
    return formatarg(name) + formatvalue(locals[name])
KeyError: 'connection'
[ERROR] 2017-07-15 10:32:22,228 | /home/tyler/frappe-bench/apps/frappe/frappe/app.py:
Site: silverbell
Form Dict: {
 "args": "{\"egg_dict\":\"{\\\"Americauna\\\":9,\\\"Barred Rocks\\\":9,\\\"Rhode Island Reds\\\":9}\"}", 
 "cmd": "runserverobj", 
 "docs": "{\"at_enter_as_uom\":\"Dozen\",\"modified_by\":\"Administrator\",\"name\":\"Egg Collection\",\"destination_warehouse\":\"Finished Goods - AT\",\"collection_date\":\"2017-07-15T14:32:17.371Z\",\"creation\":\"2017-07-01 17:19:30.393058\",\"modified\":\"2017-07-15 10:32:11.835223\",\"doctype\":\"Egg Collection\",\"idx\":\"0\",\"batched_egg_yield\":27,\"at_enter_as_item\":\"Eggs-Dozen\",\"owner\":\"Administrator\",\"docstatus\":0,\"__last_sync_on\":\"2017-07-15T14:32:17.634Z\",\"__unsaved\":1}", 
 "egg_dict": "{\"Americauna\":9,\"Barred Rocks\":9,\"Rhode Island Reds\":9}", 
 "method": "collect_egg_yield"
}
Request Error
Traceback (most recent call last):
  File "/home/tyler/frappe-bench/apps/frappe/frappe/app.py", line 55, in application
    response = frappe.handler.handle()
  File "/home/tyler/frappe-bench/apps/frappe/frappe/handler.py", line 21, in handle
    data = execute_cmd(cmd)
  File "/home/tyler/frappe-bench/apps/frappe/frappe/handler.py", line 52, in execute_cmd
    return frappe.call(method, **frappe.form_dict)
  File "/home/tyler/frappe-bench/apps/frappe/frappe/__init__.py", line 907, in call
    return fn(*args, **newargs)
  File "/home/tyler/frappe-bench/apps/frappe/frappe/handler.py", line 80, in runserverobj
    frappe.desk.form.run_method.runserverobj(method, docs=docs, dt=dt, dn=dn, arg=arg, args=args)
  File "/home/tyler/frappe-bench/apps/frappe/frappe/desk/form/run_method.py", line 41, in runserverobj
    r = doc.run_method(method, **args)
  File "/home/tyler/frappe-bench/apps/frappe/frappe/model/document.py", line 666, in run_method
    out = Document.hook(fn)(self, *args, **kwargs)
  File "/home/tyler/frappe-bench/apps/frappe/frappe/model/document.py", line 892, in composer
    return composed(self, method, *args, **kwargs)
  File "/home/tyler/frappe-bench/apps/frappe/frappe/model/document.py", line 875, in runner
    add_to_return_value(self, fn(self, *args, **kwargs))
  File "/home/tyler/frappe-bench/apps/frappe/frappe/model/document.py", line 660, in <lambda>
    fn = lambda self, *args, **kwargs: getattr(self, method)(*args, **kwargs)
  File "/home/tyler/frappe-bench/apps/at_livestock/at_livestock/livestock/doctype/egg_collection/egg_collection.py", line 23, in collect_egg_yield
    self.make_egg_detail(egg_dict)
  File "/home/tyler/frappe-bench/apps/at_livestock/at_livestock/livestock/doctype/egg_collection/egg_collection.py", line 33, in make_egg_detail
    make_egg_detail.poultry_flock = egg_dict["Americauna"]
TypeError: string indices must be integers
[ERROR] 2017-07-15 10:32:22,297 | /home/tyler/frappe-bench/apps/frappe/frappe/utils/error.py:
New Exception collected with id: 2017-07-15 10:32:22.229054-127.0.0.1-3f9
[ERROR] 2017-07-15 10:32:42,305 | /home/tyler/frappe-bench/apps/frappe/frappe/app.py:
Site: silverbell
Form Dict: {
 "args": "{\"egg_dict\":\"{\\\"Americauna\\\":9,\\\"Barred Rocks\\\":9,\\\"Rhode Island Reds\\\":9}\"}", 
 "cmd": "runserverobj", 
 "docs": "{\"at_enter_as_uom\":\"Dozen\",\"modified_by\":\"Administrator\",\"name\":\"Egg Collection\",\"parent\":null,\"destination_warehouse\":\"Finished Goods - AT\",\"collection_date\":\"2017-07-15T14:32:17.371Z\",\"creation\":\"2017-07-01 17:19:30.393058\",\"modified\":\"2017-07-15 10:32:22.192264\",\"doctype\":\"Egg Collection\",\"idx\":\"0\",\"parenttype\":null,\"batched_egg_yield\":27,\"at_enter_as_item\":\"Eggs-Dozen\",\"owner\":\"Administrator\",\"docstatus\":0,\"parentfield\":null,\"__last_sync_on\":\"2017-07-15T14:32:22.778Z\"}", 
 "egg_dict": "{\"Americauna\":9,\"Barred Rocks\":9,\"Rhode Island Reds\":9}", 
 "method": "collect_egg_yield"
}
Request Error
Traceback (most recent call last):
  File "/home/tyler/frappe-bench/apps/frappe/frappe/app.py", line 55, in application
    response = frappe.handler.handle()
  File "/home/tyler/frappe-bench/apps/frappe/frappe/handler.py", line 21, in handle
    data = execute_cmd(cmd)
  File "/home/tyler/frappe-bench/apps/frappe/frappe/handler.py", line 52, in execute_cmd
    return frappe.call(method, **frappe.form_dict)
  File "/home/tyler/frappe-bench/apps/frappe/frappe/__init__.py", line 907, in call
    return fn(*args, **newargs)
  File "/home/tyler/frappe-bench/apps/frappe/frappe/handler.py", line 80, in runserverobj
    frappe.desk.form.run_method.runserverobj(method, docs=docs, dt=dt, dn=dn, arg=arg, args=args)
  File "/home/tyler/frappe-bench/apps/frappe/frappe/desk/form/run_method.py", line 41, in runserverobj
    r = doc.run_method(method, **args)
  File "/home/tyler/frappe-bench/apps/frappe/frappe/model/document.py", line 666, in run_method
    out = Document.hook(fn)(self, *args, **kwargs)
  File "/home/tyler/frappe-bench/apps/frappe/frappe/model/document.py", line 892, in composer
    return composed(self, method, *args, **kwargs)
  File "/home/tyler/frappe-bench/apps/frappe/frappe/model/document.py", line 875, in runner
    add_to_return_value(self, fn(self, *args, **kwargs))
  File "/home/tyler/frappe-bench/apps/frappe/frappe/model/document.py", line 660, in <lambda>
    fn = lambda self, *args, **kwargs: getattr(self, method)(*args, **kwargs)
  File "/home/tyler/frappe-bench/apps/at_livestock/at_livestock/livestock/doctype/egg_collection/egg_collection.py", line 23, in collect_egg_yield
    self.make_egg_detail(egg_dict)
  File "/home/tyler/frappe-bench/apps/at_livestock/at_livestock/livestock/doctype/egg_collection/egg_collection.py", line 34, in make_egg_detail
    make_egg_detail.egg_yield = egg_dict[0].value
AttributeError: 'unicode' object has no attribute 'value'
[ERROR] 2017-07-15 10:32:42,367 | /home/tyler/frappe-bench/apps/frappe/frappe/utils/error.py:
New Exception collected with id: 2017-07-15 10:32:42.308361-127.0.0.1-4e8
[ERROR] 2017-07-15 10:33:48,292 | /home/tyler/frappe-bench/apps/frappe/frappe/app.py:
Site: silverbell
Form Dict: {
 "args": "{\"egg_dict\":\"{\\\"Americauna\\\":9,\\\"Barred Rocks\\\":9,\\\"Rhode Island Reds\\\":9}\"}", 
 "cmd": "runserverobj", 
 "docs": "{\"at_enter_as_uom\":\"Dozen\",\"modified_by\":\"Administrator\",\"name\":\"Egg Collection\",\"parent\":null,\"destination_warehouse\":\"Finished Goods - AT\",\"collection_date\":\"2017-07-15T14:32:17.371Z\",\"creation\":\"2017-07-01 17:19:30.393058\",\"modified\":\"2017-07-15 10:32:56.459852\",\"doctype\":\"Egg Collection\",\"idx\":\"0\",\"parenttype\":null,\"batched_egg_yield\":27,\"at_enter_as_item\":\"Eggs-Dozen\",\"owner\":\"Administrator\",\"docstatus\":0,\"parentfield\":null,\"__last_sync_on\":\"2017-07-15T14:32:56.896Z\"}", 
 "egg_dict": "{\"Americauna\":9,\"Barred Rocks\":9,\"Rhode Island Reds\":9}", 
 "method": "collect_egg_yield"
}
Request Error
Traceback (most recent call last):
  File "/home/tyler/frappe-bench/apps/frappe/frappe/app.py", line 55, in application
    response = frappe.handler.handle()
  File "/home/tyler/frappe-bench/apps/frappe/frappe/handler.py", line 21, in handle
    data = execute_cmd(cmd)
  File "/home/tyler/frappe-bench/apps/frappe/frappe/handler.py", line 52, in execute_cmd
    return frappe.call(method, **frappe.form_dict)
  File "/home/tyler/frappe-bench/apps/frappe/frappe/__init__.py", line 907, in call
    return fn(*args, **newargs)
  File "/home/tyler/frappe-bench/apps/frappe/frappe/handler.py", line 80, in runserverobj
    frappe.desk.form.run_method.runserverobj(method, docs=docs, dt=dt, dn=dn, arg=arg, args=args)
  File "/home/tyler/frappe-bench/apps/frappe/frappe/desk/form/run_method.py", line 41, in runserverobj
    r = doc.run_method(method, **args)
  File "/home/tyler/frappe-bench/apps/frappe/frappe/model/document.py", line 666, in run_method
    out = Document.hook(fn)(self, *args, **kwargs)
  File "/home/tyler/frappe-bench/apps/frappe/frappe/model/document.py", line 892, in composer
    return composed(self, method, *args, **kwargs)
  File "/home/tyler/frappe-bench/apps/frappe/frappe/model/document.py", line 875, in runner
    add_to_return_value(self, fn(self, *args, **kwargs))
  File "/home/tyler/frappe-bench/apps/frappe/frappe/model/document.py", line 660, in <lambda>
    fn = lambda self, *args, **kwargs: getattr(self, method)(*args, **kwargs)
  File "/home/tyler/frappe-bench/apps/at_livestock/at_livestock/livestock/doctype/egg_collection/egg_collection.py", line 23, in collect_egg_yield
    collected_eggs = JSON.loads(egg_dict)
NameError: global name 'JSON' is not defined
[ERROR] 2017-07-15 10:33:48,345 | /home/tyler/frappe-bench/apps/frappe/frappe/utils/error.py:
New Exception collected with id: 2017-07-15 10:33:48.293039-127.0.0.1-896
[ERROR] 2017-07-15 10:34:11,862 | /home/tyler/frappe-bench/apps/frappe/frappe/app.py:
Site: silverbell
Form Dict: {
 "args": "{\"egg_dict\":\"{\\\"Americauna\\\":3,\\\"Barred Rocks\\\":3,\\\"Rhode Island Reds\\\":3}\"}", 
 "cmd": "runserverobj", 
 "docs": "{\"at_enter_as_uom\":\"Dozen\",\"modified_by\":\"Administrator\",\"name\":\"Egg Collection\",\"destination_warehouse\":\"Finished Goods - AT\",\"collection_date\":\"2017-07-15T14:34:04.797Z\",\"creation\":\"2017-07-01 17:19:30.393058\",\"modified\":\"2017-07-15 10:33:48.289960\",\"doctype\":\"Egg Collection\",\"idx\":\"0\",\"batched_egg_yield\":9,\"at_enter_as_item\":\"Eggs-Dozen\",\"owner\":\"Administrator\",\"docstatus\":0,\"__last_sync_on\":\"2017-07-15T14:34:05.028Z\",\"__unsaved\":1}", 
 "egg_dict": "{\"Americauna\":3,\"Barred Rocks\":3,\"Rhode Island Reds\":3}", 
 "method": "collect_egg_yield"
}
Request Error
Traceback (most recent call last):
  File "/home/tyler/frappe-bench/apps/frappe/frappe/app.py", line 55, in application
    response = frappe.handler.handle()
  File "/home/tyler/frappe-bench/apps/frappe/frappe/handler.py", line 21, in handle
    data = execute_cmd(cmd)
  File "/home/tyler/frappe-bench/apps/frappe/frappe/handler.py", line 52, in execute_cmd
    return frappe.call(method, **frappe.form_dict)
  File "/home/tyler/frappe-bench/apps/frappe/frappe/__init__.py", line 907, in call
    return fn(*args, **newargs)
  File "/home/tyler/frappe-bench/apps/frappe/frappe/handler.py", line 80, in runserverobj
    frappe.desk.form.run_method.runserverobj(method, docs=docs, dt=dt, dn=dn, arg=arg, args=args)
  File "/home/tyler/frappe-bench/apps/frappe/frappe/desk/form/run_method.py", line 41, in runserverobj
    r = doc.run_method(method, **args)
  File "/home/tyler/frappe-bench/apps/frappe/frappe/model/document.py", line 666, in run_method
    out = Document.hook(fn)(self, *args, **kwargs)
  File "/home/tyler/frappe-bench/apps/frappe/frappe/model/document.py", line 892, in composer
    return composed(self, method, *args, **kwargs)
  File "/home/tyler/frappe-bench/apps/frappe/frappe/model/document.py", line 875, in runner
    add_to_return_value(self, fn(self, *args, **kwargs))
  File "/home/tyler/frappe-bench/apps/frappe/frappe/model/document.py", line 660, in <lambda>
    fn = lambda self, *args, **kwargs: getattr(self, method)(*args, **kwargs)
  File "/home/tyler/frappe-bench/apps/at_livestock/at_livestock/livestock/doctype/egg_collection/egg_collection.py", line 24, in collect_egg_yield
    self.make_egg_detail(collected_eggs)
  File "/home/tyler/frappe-bench/apps/at_livestock/at_livestock/livestock/doctype/egg_collection/egg_collection.py", line 34, in make_egg_detail
    make_egg_detail.poultry_flock = egg_dict[0]
KeyError: 0
[ERROR] 2017-07-15 10:34:11,928 | /home/tyler/frappe-bench/apps/frappe/frappe/utils/error.py:
New Exception collected with id: 2017-07-15 10:34:11.864356-127.0.0.1-25e
[ERROR] 2017-07-15 10:34:59,607 | /home/tyler/frappe-bench/apps/frappe/frappe/app.py:
Site: silverbell
Form Dict: {
 "args": "{\"egg_dict\":\"{\\\"Americauna\\\":1,\\\"Barred Rocks\\\":1,\\\"Rhode Island Reds\\\":1}\"}", 
 "cmd": "runserverobj", 
 "docs": "{\"at_enter_as_uom\":\"Dozen\",\"modified_by\":\"Administrator\",\"name\":\"Egg Collection\",\"destination_warehouse\":\"Finished Goods - AT\",\"collection_date\":\"2017-07-15T14:34:53.610Z\",\"creation\":\"2017-07-01 17:19:30.393058\",\"modified\":\"2017-07-15 10:34:11.824808\",\"doctype\":\"Egg Collection\",\"idx\":\"0\",\"batched_egg_yield\":3,\"at_enter_as_item\":\"Eggs-Dozen\",\"owner\":\"Administrator\",\"docstatus\":0,\"__last_sync_on\":\"2017-07-15T14:34:53.839Z\",\"__unsaved\":1}", 
 "egg_dict": "{\"Americauna\":1,\"Barred Rocks\":1,\"Rhode Island Reds\":1}", 
 "method": "collect_egg_yield"
}
Request Error
Traceback (most recent call last):
  File "/home/tyler/frappe-bench/apps/frappe/frappe/app.py", line 55, in application
    response = frappe.handler.handle()
  File "/home/tyler/frappe-bench/apps/frappe/frappe/handler.py", line 21, in handle
    data = execute_cmd(cmd)
  File "/home/tyler/frappe-bench/apps/frappe/frappe/handler.py", line 52, in execute_cmd
    return frappe.call(method, **frappe.form_dict)
  File "/home/tyler/frappe-bench/apps/frappe/frappe/__init__.py", line 907, in call
    return fn(*args, **newargs)
  File "/home/tyler/frappe-bench/apps/frappe/frappe/handler.py", line 80, in runserverobj
    frappe.desk.form.run_method.runserverobj(method, docs=docs, dt=dt, dn=dn, arg=arg, args=args)
  File "/home/tyler/frappe-bench/apps/frappe/frappe/desk/form/run_method.py", line 41, in runserverobj
    r = doc.run_method(method, **args)
  File "/home/tyler/frappe-bench/apps/frappe/frappe/model/document.py", line 666, in run_method
    out = Document.hook(fn)(self, *args, **kwargs)
  File "/home/tyler/frappe-bench/apps/frappe/frappe/model/document.py", line 892, in composer
    return composed(self, method, *args, **kwargs)
  File "/home/tyler/frappe-bench/apps/frappe/frappe/model/document.py", line 875, in runner
    add_to_return_value(self, fn(self, *args, **kwargs))
  File "/home/tyler/frappe-bench/apps/frappe/frappe/model/document.py", line 660, in <lambda>
    fn = lambda self, *args, **kwargs: getattr(self, method)(*args, **kwargs)
  File "/home/tyler/frappe-bench/apps/at_livestock/at_livestock/livestock/doctype/egg_collection/egg_collection.py", line 24, in collect_egg_yield
    self.make_egg_detail(collected_eggs)
  File "/home/tyler/frappe-bench/apps/at_livestock/at_livestock/livestock/doctype/egg_collection/egg_collection.py", line 37, in make_egg_detail
    make_egg_detail.save()
  File "/home/tyler/frappe-bench/apps/frappe/frappe/model/document.py", line 230, in save
    return self._save(*args, **kwargs)
  File "/home/tyler/frappe-bench/apps/frappe/frappe/model/document.py", line 253, in _save
    self.insert()
  File "/home/tyler/frappe-bench/apps/frappe/frappe/model/document.py", line 193, in insert
    self._validate()
  File "/home/tyler/frappe-bench/apps/frappe/frappe/model/document.py", line 400, in _validate
    self._validate_links()
  File "/home/tyler/frappe-bench/apps/frappe/frappe/model/document.py", line 625, in _validate_links
    invalid_links, cancelled_links = self.get_invalid_links()
  File "/home/tyler/frappe-bench/apps/frappe/frappe/model/base_document.py", line 485, in get_invalid_links
    'name', cache=True))
  File "/home/tyler/frappe-bench/apps/frappe/frappe/database.py", line 413, in get_value
    order_by, cache=cache)
  File "/home/tyler/frappe-bench/apps/frappe/frappe/database.py", line 457, in get_values
    out = self._get_values_from_table(fields, filters, doctype, as_dict, debug, order_by, update)
  File "/home/tyler/frappe-bench/apps/frappe/frappe/database.py", line 588, in _get_values_from_table
    conditions, order_by), values, as_dict=as_dict, debug=debug, update=update)
  File "/home/tyler/frappe-bench/apps/frappe/frappe/database.py", line 138, in sql
    self._cursor.execute(query, values)
  File "/home/tyler/frappe-bench/env/local/lib/python2.7/site-packages/MySQLdb/cursors.py", line 250, in execute
    self.errorhandler(self, exc, value)
  File "/home/tyler/frappe-bench/env/local/lib/python2.7/site-packages/MySQLdb/connections.py", line 42, in defaulterrorhandler
    raise errorvalue
OperationalError: (1054, "Unknown column 'Rhode Island Reds' in 'where clause'")
[ERROR] 2017-07-15 10:34:59,664 | /home/tyler/frappe-bench/apps/frappe/frappe/utils/error.py:
Could not take error snapshot: 'connection'
Traceback (most recent call last):
  File "/home/tyler/frappe-bench/apps/frappe/frappe/utils/error.py", line 36, in make_error_snapshot
    snapshot = get_snapshot(exception)
  File "/home/tyler/frappe-bench/apps/frappe/frappe/utils/error.py", line 81, in get_snapshot
    call = inspect.formatargvalues(args, varargs, varkw, locals, formatvalue=lambda value: '={}'.format(pydoc.text.repr(value)))
  File "/usr/lib/python2.7/inspect.py", line 888, in formatargvalues
    specs.append(strseq(args[i], convert, join))
  File "/usr/lib/python2.7/inspect.py", line 843, in strseq
    return convert(object)
  File "/usr/lib/python2.7/inspect.py", line 885, in convert
    return formatarg(name) + formatvalue(locals[name])
KeyError: 'connection'
[DEBUG] 2017-07-15 10:36:07,036 | /home/tyler/frappe-bench/apps/frappe/frappe/utils/scheduler.py:
Site: silverbell
Queued events for site silverbell
[DEBUG] 2017-07-15 10:40:07,489 | /home/tyler/frappe-bench/apps/frappe/frappe/utils/scheduler.py:
Site: silverbell
Queued events for site silverbell
[DEBUG] 2017-07-15 10:44:07,848 | /home/tyler/frappe-bench/apps/frappe/frappe/utils/scheduler.py:
Site: silverbell
Queued events for site silverbell
[DEBUG] 2017-07-15 10:48:08,205 | /home/tyler/frappe-bench/apps/frappe/frappe/utils/scheduler.py:
Site: silverbell
Queued events for site silverbell
[DEBUG] 2017-07-15 10:52:08,627 | /home/tyler/frappe-bench/apps/frappe/frappe/utils/scheduler.py:
Site: silverbell
Queued events for site silverbell
[ERROR] 2017-07-15 10:54:38,320 | /home/tyler/frappe-bench/apps/frappe/frappe/app.py:
Site: silverbell
Form Dict: {
 "args": "{\"egg_dict\":\"{\\\"Americauna\\\":5,\\\"Barred Rocks\\\":5,\\\"Rhode Island Reds\\\":5}\"}", 
 "cmd": "runserverobj", 
 "docs": "{\"at_enter_as_uom\":\"Dozen\",\"modified_by\":\"Administrator\",\"name\":\"Egg Collection\",\"parent\":null,\"destination_warehouse\":\"Finished Goods - AT\",\"collection_date\":\"2017-07-15T14:39:32.649Z\",\"creation\":\"2017-07-01 17:19:30.393058\",\"modified\":\"2017-07-15 10:41:29.789959\",\"doctype\":\"Egg Collection\",\"idx\":\"0\",\"parenttype\":null,\"batched_egg_yield\":15,\"at_enter_as_item\":\"Eggs-Dozen\",\"owner\":\"Administrator\",\"docstatus\":0,\"parentfield\":null,\"__last_sync_on\":\"2017-07-15T14:41:30.007Z\"}", 
 "egg_dict": "{\"Americauna\":5,\"Barred Rocks\":5,\"Rhode Island Reds\":5}", 
 "method": "collect_egg_yield"
}
Request Error
Traceback (most recent call last):
  File "/home/tyler/frappe-bench/apps/frappe/frappe/app.py", line 55, in application
    response = frappe.handler.handle()
  File "/home/tyler/frappe-bench/apps/frappe/frappe/handler.py", line 21, in handle
    data = execute_cmd(cmd)
  File "/home/tyler/frappe-bench/apps/frappe/frappe/handler.py", line 52, in execute_cmd
    return frappe.call(method, **frappe.form_dict)
  File "/home/tyler/frappe-bench/apps/frappe/frappe/__init__.py", line 907, in call
    return fn(*args, **newargs)
  File "/home/tyler/frappe-bench/apps/frappe/frappe/handler.py", line 80, in runserverobj
    frappe.desk.form.run_method.runserverobj(method, docs=docs, dt=dt, dn=dn, arg=arg, args=args)
  File "/home/tyler/frappe-bench/apps/frappe/frappe/desk/form/run_method.py", line 22, in runserverobj
    doc.check_if_latest()
  File "/home/tyler/frappe-bench/apps/frappe/frappe/model/document.py", line 517, in check_if_latest
    where doctype=%s and field='modified' for update''', self.doctype)
  File "/home/tyler/frappe-bench/apps/frappe/frappe/database.py", line 138, in sql
    self._cursor.execute(query, values)
  File "/home/tyler/frappe-bench/env/local/lib/python2.7/site-packages/MySQLdb/cursors.py", line 250, in execute
    self.errorhandler(self, exc, value)
  File "/home/tyler/frappe-bench/env/local/lib/python2.7/site-packages/MySQLdb/connections.py", line 42, in defaulterrorhandler
    raise errorvalue
OperationalError: (1213, 'Deadlock found when trying to get lock; try restarting transaction')
[ERROR] 2017-07-15 10:54:38,365 | /home/tyler/frappe-bench/apps/frappe/frappe/utils/error.py:
Could not take error snapshot: 'connection'
Traceback (most recent call last):
  File "/home/tyler/frappe-bench/apps/frappe/frappe/utils/error.py", line 36, in make_error_snapshot
    snapshot = get_snapshot(exception)
  File "/home/tyler/frappe-bench/apps/frappe/frappe/utils/error.py", line 81, in get_snapshot
    call = inspect.formatargvalues(args, varargs, varkw, locals, formatvalue=lambda value: '={}'.format(pydoc.text.repr(value)))
  File "/usr/lib/python2.7/inspect.py", line 888, in formatargvalues
    specs.append(strseq(args[i], convert, join))
  File "/usr/lib/python2.7/inspect.py", line 843, in strseq
    return convert(object)
  File "/usr/lib/python2.7/inspect.py", line 885, in convert
    return formatarg(name) + formatvalue(locals[name])
KeyError: 'connection'
[ERROR] 2017-07-15 10:55:59,102 | /home/tyler/frappe-bench/apps/frappe/frappe/app.py:
Site: silverbell
Form Dict: {
 "args": "{\"egg_dict\":\"{\\\"Americauna\\\":6,\\\"Barred Rocks\\\":6,\\\"Rhode Island Reds\\\":6}\"}", 
 "cmd": "runserverobj", 
 "docs": "{\"at_enter_as_uom\":\"Dozen\",\"modified_by\":\"Administrator\",\"name\":\"Egg Collection\",\"parent\":null,\"destination_warehouse\":\"Finished Goods - AT\",\"collection_date\":\"2017-07-15T14:54:43.070Z\",\"creation\":\"2017-07-01 17:19:30.393058\",\"modified\":\"2017-07-15 10:54:47.831343\",\"doctype\":\"Egg Collection\",\"idx\":\"0\",\"parenttype\":null,\"batched_egg_yield\":18,\"at_enter_as_item\":\"Eggs-Dozen\",\"owner\":\"Administrator\",\"docstatus\":0,\"parentfield\":null,\"__last_sync_on\":\"2017-07-15T14:54:48.161Z\"}", 
 "egg_dict": "{\"Americauna\":6,\"Barred Rocks\":6,\"Rhode Island Reds\":6}", 
 "method": "collect_egg_yield"
}
Request Error
Traceback (most recent call last):
  File "/home/tyler/frappe-bench/apps/frappe/frappe/app.py", line 55, in application
    response = frappe.handler.handle()
  File "/home/tyler/frappe-bench/apps/frappe/frappe/handler.py", line 21, in handle
    data = execute_cmd(cmd)
  File "/home/tyler/frappe-bench/apps/frappe/frappe/handler.py", line 52, in execute_cmd
    return frappe.call(method, **frappe.form_dict)
  File "/home/tyler/frappe-bench/apps/frappe/frappe/__init__.py", line 907, in call
    return fn(*args, **newargs)
  File "/home/tyler/frappe-bench/apps/frappe/frappe/handler.py", line 80, in runserverobj
    frappe.desk.form.run_method.runserverobj(method, docs=docs, dt=dt, dn=dn, arg=arg, args=args)
  File "/home/tyler/frappe-bench/apps/frappe/frappe/desk/form/run_method.py", line 41, in runserverobj
    r = doc.run_method(method, **args)
  File "/home/tyler/frappe-bench/apps/frappe/frappe/model/document.py", line 666, in run_method
    out = Document.hook(fn)(self, *args, **kwargs)
  File "/home/tyler/frappe-bench/apps/frappe/frappe/model/document.py", line 892, in composer
    return composed(self, method, *args, **kwargs)
  File "/home/tyler/frappe-bench/apps/frappe/frappe/model/document.py", line 875, in runner
    add_to_return_value(self, fn(self, *args, **kwargs))
  File "/home/tyler/frappe-bench/apps/frappe/frappe/model/document.py", line 660, in <lambda>
    fn = lambda self, *args, **kwargs: getattr(self, method)(*args, **kwargs)
  File "/home/tyler/frappe-bench/apps/at_livestock/at_livestock/livestock/doctype/egg_collection/egg_collection.py", line 24, in collect_egg_yield
    self.make_egg_detail(collected_eggs)
  File "/home/tyler/frappe-bench/apps/at_livestock/at_livestock/livestock/doctype/egg_collection/egg_collection.py", line 38, in make_egg_detail
    make_egg_detail.save()
  File "/home/tyler/frappe-bench/apps/frappe/frappe/model/document.py", line 230, in save
    return self._save(*args, **kwargs)
  File "/home/tyler/frappe-bench/apps/frappe/frappe/model/document.py", line 253, in _save
    self.insert()
  File "/home/tyler/frappe-bench/apps/frappe/frappe/model/document.py", line 193, in insert
    self._validate()
  File "/home/tyler/frappe-bench/apps/frappe/frappe/model/document.py", line 400, in _validate
    self._validate_links()
  File "/home/tyler/frappe-bench/apps/frappe/frappe/model/document.py", line 625, in _validate_links
    invalid_links, cancelled_links = self.get_invalid_links()
  File "/home/tyler/frappe-bench/apps/frappe/frappe/model/base_document.py", line 485, in get_invalid_links
    'name', cache=True))
  File "/home/tyler/frappe-bench/apps/frappe/frappe/database.py", line 413, in get_value
    order_by, cache=cache)
  File "/home/tyler/frappe-bench/apps/frappe/frappe/database.py", line 457, in get_values
    out = self._get_values_from_table(fields, filters, doctype, as_dict, debug, order_by, update)
  File "/home/tyler/frappe-bench/apps/frappe/frappe/database.py", line 588, in _get_values_from_table
    conditions, order_by), values, as_dict=as_dict, debug=debug, update=update)
  File "/home/tyler/frappe-bench/apps/frappe/frappe/database.py", line 138, in sql
    self._cursor.execute(query, values)
  File "/home/tyler/frappe-bench/env/local/lib/python2.7/site-packages/MySQLdb/cursors.py", line 250, in execute
    self.errorhandler(self, exc, value)
  File "/home/tyler/frappe-bench/env/local/lib/python2.7/site-packages/MySQLdb/connections.py", line 42, in defaulterrorhandler
    raise errorvalue
OperationalError: (1054, "Unknown column 'Rhode Island Reds' in 'where clause'")
[ERROR] 2017-07-15 10:55:59,150 | /home/tyler/frappe-bench/apps/frappe/frappe/utils/error.py:
Could not take error snapshot: 'connection'
Traceback (most recent call last):
  File "/home/tyler/frappe-bench/apps/frappe/frappe/utils/error.py", line 36, in make_error_snapshot
    snapshot = get_snapshot(exception)
  File "/home/tyler/frappe-bench/apps/frappe/frappe/utils/error.py", line 81, in get_snapshot
    call = inspect.formatargvalues(args, varargs, varkw, locals, formatvalue=lambda value: '={}'.format(pydoc.text.repr(value)))
  File "/usr/lib/python2.7/inspect.py", line 888, in formatargvalues
    specs.append(strseq(args[i], convert, join))
  File "/usr/lib/python2.7/inspect.py", line 843, in strseq
    return convert(object)
  File "/usr/lib/python2.7/inspect.py", line 885, in convert
    return formatarg(name) + formatvalue(locals[name])
KeyError: 'connection'
[DEBUG] 2017-07-15 10:56:09,103 | /home/tyler/frappe-bench/apps/frappe/frappe/utils/scheduler.py:
Site: silverbell
Queued events for site silverbell
[DEBUG] 2017-07-15 11:00:09,540 | /home/tyler/frappe-bench/apps/frappe/frappe/utils/scheduler.py:
Site: silverbell
Queued events for site silverbell
[DEBUG] 2017-07-15 11:04:09,949 | /home/tyler/frappe-bench/apps/frappe/frappe/utils/scheduler.py:
Site: silverbell
Queued events for site silverbell
[ERROR] 2017-07-15 11:06:49,762 | /home/tyler/frappe-bench/apps/frappe/frappe/app.py:
Site: silverbell
Form Dict: {
 "args": "{\"egg_dict\":\"{\\\"Americauna\\\":6,\\\"Barred Rocks\\\":6,\\\"Rhode Island Reds\\\":6}\"}", 
 "cmd": "runserverobj", 
 "docs": "{\"at_enter_as_uom\":\"Dozen\",\"modified_by\":\"Administrator\",\"name\":\"Egg Collection\",\"parent\":null,\"destination_warehouse\":\"Finished Goods - AT\",\"collection_date\":\"2017-07-15T14:54:43.070Z\",\"creation\":\"2017-07-01 17:19:30.393058\",\"modified\":\"2017-07-15 10:56:55.611723\",\"doctype\":\"Egg Collection\",\"idx\":\"0\",\"parenttype\":null,\"batched_egg_yield\":18,\"at_enter_as_item\":\"Eggs-Dozen\",\"owner\":\"Administrator\",\"docstatus\":0,\"parentfield\":null,\"__last_sync_on\":\"2017-07-15T14:56:56.360Z\"}", 
 "egg_dict": "{\"Americauna\":6,\"Barred Rocks\":6,\"Rhode Island Reds\":6}", 
 "method": "collect_egg_yield"
}
Request Error
Traceback (most recent call last):
  File "/home/tyler/frappe-bench/apps/frappe/frappe/app.py", line 55, in application
    response = frappe.handler.handle()
  File "/home/tyler/frappe-bench/apps/frappe/frappe/handler.py", line 21, in handle
    data = execute_cmd(cmd)
  File "/home/tyler/frappe-bench/apps/frappe/frappe/handler.py", line 52, in execute_cmd
    return frappe.call(method, **frappe.form_dict)
  File "/home/tyler/frappe-bench/apps/frappe/frappe/__init__.py", line 907, in call
    return fn(*args, **newargs)
  File "/home/tyler/frappe-bench/apps/frappe/frappe/handler.py", line 80, in runserverobj
    frappe.desk.form.run_method.runserverobj(method, docs=docs, dt=dt, dn=dn, arg=arg, args=args)
  File "/home/tyler/frappe-bench/apps/frappe/frappe/desk/form/run_method.py", line 41, in runserverobj
    r = doc.run_method(method, **args)
  File "/home/tyler/frappe-bench/apps/frappe/frappe/model/document.py", line 666, in run_method
    out = Document.hook(fn)(self, *args, **kwargs)
  File "/home/tyler/frappe-bench/apps/frappe/frappe/model/document.py", line 892, in composer
    return composed(self, method, *args, **kwargs)
  File "/home/tyler/frappe-bench/apps/frappe/frappe/model/document.py", line 875, in runner
    add_to_return_value(self, fn(self, *args, **kwargs))
  File "/home/tyler/frappe-bench/apps/frappe/frappe/model/document.py", line 660, in <lambda>
    fn = lambda self, *args, **kwargs: getattr(self, method)(*args, **kwargs)
  File "/home/tyler/frappe-bench/apps/at_livestock/at_livestock/livestock/doctype/egg_collection/egg_collection.py", line 24, in collect_egg_yield
    self.make_egg_detail(collected_eggs.keys[0], collected_eggs.values[0])
TypeError: 'builtin_function_or_method' object has no attribute '__getitem__'
[ERROR] 2017-07-15 11:06:49,814 | /home/tyler/frappe-bench/apps/frappe/frappe/utils/error.py:
New Exception collected with id: 2017-07-15 11:06:49.763687-127.0.0.1-345
[DEBUG] 2017-07-15 11:08:10,424 | /home/tyler/frappe-bench/apps/frappe/frappe/utils/scheduler.py:
Site: silverbell
Queued events for site silverbell
[DEBUG] 2017-07-15 11:12:10,852 | /home/tyler/frappe-bench/apps/frappe/frappe/utils/scheduler.py:
Site: silverbell
Queued events for site silverbell
[DEBUG] 2017-07-15 11:16:11,213 | /home/tyler/frappe-bench/apps/frappe/frappe/utils/scheduler.py:
Site: silverbell
Queued events for site silverbell
[DEBUG] 2017-07-15 11:20:11,588 | /home/tyler/frappe-bench/apps/frappe/frappe/utils/scheduler.py:
Site: silverbell
Queued events for site silverbell
[DEBUG] 2017-07-15 11:24:11,906 | /home/tyler/frappe-bench/apps/frappe/frappe/utils/scheduler.py:
Site: silverbell
Queued events for site silverbell
[DEBUG] 2017-07-15 11:28:12,248 | /home/tyler/frappe-bench/apps/frappe/frappe/utils/scheduler.py:
Site: silverbell
Queued events for site silverbell
[ERROR] 2017-07-15 11:31:28,186 | /home/tyler/frappe-bench/apps/frappe/frappe/app.py:
Site: silverbell
Form Dict: {
 "args": "{\"egg_dict\":\"{\\\"Americauna\\\":2,\\\"Barred Rocks\\\":2,\\\"Rhode Island Reds\\\":2}\"}", 
 "cmd": "runserverobj", 
 "docs": "{\"at_enter_as_uom\":\"Dozen\",\"modified_by\":\"Administrator\",\"name\":\"Egg Collection\",\"destination_warehouse\":\"Finished Goods - AT\",\"collection_date\":\"2017-07-15T15:31:08.967Z\",\"creation\":\"2017-07-01 17:19:30.393058\",\"modified\":\"2017-07-15 11:06:49.759054\",\"doctype\":\"Egg Collection\",\"idx\":\"0\",\"batched_egg_yield\":6,\"at_enter_as_item\":\"Eggs-Dozen\",\"owner\":\"Administrator\",\"docstatus\":0,\"__last_sync_on\":\"2017-07-15T15:31:09.181Z\",\"__unsaved\":1}", 
 "egg_dict": "{\"Americauna\":2,\"Barred Rocks\":2,\"Rhode Island Reds\":2}", 
 "method": "collect_egg_yield"
}
Request Error
Traceback (most recent call last):
  File "/home/tyler/frappe-bench/apps/frappe/frappe/app.py", line 55, in application
    response = frappe.handler.handle()
  File "/home/tyler/frappe-bench/apps/frappe/frappe/handler.py", line 21, in handle
    data = execute_cmd(cmd)
  File "/home/tyler/frappe-bench/apps/frappe/frappe/handler.py", line 52, in execute_cmd
    return frappe.call(method, **frappe.form_dict)
  File "/home/tyler/frappe-bench/apps/frappe/frappe/__init__.py", line 907, in call
    return fn(*args, **newargs)
  File "/home/tyler/frappe-bench/apps/frappe/frappe/handler.py", line 80, in runserverobj
    frappe.desk.form.run_method.runserverobj(method, docs=docs, dt=dt, dn=dn, arg=arg, args=args)
  File "/home/tyler/frappe-bench/apps/frappe/frappe/desk/form/run_method.py", line 41, in runserverobj
    r = doc.run_method(method, **args)
  File "/home/tyler/frappe-bench/apps/frappe/frappe/model/document.py", line 666, in run_method
    out = Document.hook(fn)(self, *args, **kwargs)
  File "/home/tyler/frappe-bench/apps/frappe/frappe/model/document.py", line 892, in composer
    return composed(self, method, *args, **kwargs)
  File "/home/tyler/frappe-bench/apps/frappe/frappe/model/document.py", line 875, in runner
    add_to_return_value(self, fn(self, *args, **kwargs))
  File "/home/tyler/frappe-bench/apps/frappe/frappe/model/document.py", line 660, in <lambda>
    fn = lambda self, *args, **kwargs: getattr(self, method)(*args, **kwargs)
  File "/home/tyler/frappe-bench/apps/at_livestock/at_livestock/livestock/doctype/egg_collection/egg_collection.py", line 24, in collect_egg_yield
    self.make_egg_detail(collected_eggs.keys[0], collected_eggs.values[0])
TypeError: 'builtin_function_or_method' object has no attribute '__getitem__'
[ERROR] 2017-07-15 11:31:28,282 | /home/tyler/frappe-bench/apps/frappe/frappe/utils/error.py:
New Exception collected with id: 2017-07-15 11:31:28.188757-127.0.0.1-7e2
[DEBUG] 2017-07-15 11:32:12,598 | /home/tyler/frappe-bench/apps/frappe/frappe/utils/scheduler.py:
Site: silverbell
Queued events for site silverbell
[DEBUG] 2017-07-15 11:36:12,968 | /home/tyler/frappe-bench/apps/frappe/frappe/utils/scheduler.py:
Site: silverbell
Queued events for site silverbell
[DEBUG] 2017-07-15 11:40:13,395 | /home/tyler/frappe-bench/apps/frappe/frappe/utils/scheduler.py:
Site: silverbell
Queued events for site silverbell
[DEBUG] 2017-07-15 11:44:13,846 | /home/tyler/frappe-bench/apps/frappe/frappe/utils/scheduler.py:
Site: silverbell
Queued events for site silverbell
[DEBUG] 2017-07-15 11:48:14,214 | /home/tyler/frappe-bench/apps/frappe/frappe/utils/scheduler.py:
Site: silverbell
Queued events for site silverbell
[DEBUG] 2017-07-15 11:52:14,591 | /home/tyler/frappe-bench/apps/frappe/frappe/utils/scheduler.py:
Site: silverbell
Queued events for site silverbell
[DEBUG] 2017-07-15 11:56:14,935 | /home/tyler/frappe-bench/apps/frappe/frappe/utils/scheduler.py:
Site: silverbell
Queued events for site silverbell
[DEBUG] 2017-07-15 12:00:15,446 | /home/tyler/frappe-bench/apps/frappe/frappe/utils/scheduler.py:
Site: silverbell
Queued events for site silverbell
[DEBUG] 2017-07-15 12:04:15,866 | /home/tyler/frappe-bench/apps/frappe/frappe/utils/scheduler.py:
Site: silverbell
Queued events for site silverbell
[DEBUG] 2017-07-15 12:08:16,307 | /home/tyler/frappe-bench/apps/frappe/frappe/utils/scheduler.py:
Site: silverbell
Queued events for site silverbell
[DEBUG] 2017-07-15 12:12:16,667 | /home/tyler/frappe-bench/apps/frappe/frappe/utils/scheduler.py:
Site: silverbell
Queued events for site silverbell
[DEBUG] 2017-07-15 12:16:17,051 | /home/tyler/frappe-bench/apps/frappe/frappe/utils/scheduler.py:
Site: silverbell
Queued events for site silverbell
[DEBUG] 2017-07-15 12:20:17,427 | /home/tyler/frappe-bench/apps/frappe/frappe/utils/scheduler.py:
Site: silverbell
Queued events for site silverbell
[DEBUG] 2017-07-15 12:24:17,805 | /home/tyler/frappe-bench/apps/frappe/frappe/utils/scheduler.py:
Site: silverbell
Queued events for site silverbell
[DEBUG] 2017-07-15 12:28:18,171 | /home/tyler/frappe-bench/apps/frappe/frappe/utils/scheduler.py:
Site: silverbell
Queued events for site silverbell
[DEBUG] 2017-07-15 12:32:18,556 | /home/tyler/frappe-bench/apps/frappe/frappe/utils/scheduler.py:
Site: silverbell
Queued events for site silverbell
[DEBUG] 2017-07-15 12:36:18,942 | /home/tyler/frappe-bench/apps/frappe/frappe/utils/scheduler.py:
Site: silverbell
Queued events for site silverbell
[DEBUG] 2017-07-15 12:40:19,308 | /home/tyler/frappe-bench/apps/frappe/frappe/utils/scheduler.py:
Site: silverbell
Queued events for site silverbell
[DEBUG] 2017-07-15 12:44:19,674 | /home/tyler/frappe-bench/apps/frappe/frappe/utils/scheduler.py:
Site: silverbell
Queued events for site silverbell
[DEBUG] 2017-07-15 12:48:20,048 | /home/tyler/frappe-bench/apps/frappe/frappe/utils/scheduler.py:
Site: silverbell
Queued events for site silverbell
[DEBUG] 2017-07-15 12:52:20,489 | /home/tyler/frappe-bench/apps/frappe/frappe/utils/scheduler.py:
Site: silverbell
Queued events for site silverbell
[DEBUG] 2017-07-15 12:56:20,916 | /home/tyler/frappe-bench/apps/frappe/frappe/utils/scheduler.py:
Site: silverbell
Queued events for site silverbell
[DEBUG] 2017-07-15 13:00:21,312 | /home/tyler/frappe-bench/apps/frappe/frappe/utils/scheduler.py:
Site: silverbell
Queued events for site silverbell
[DEBUG] 2017-07-15 13:04:21,688 | /home/tyler/frappe-bench/apps/frappe/frappe/utils/scheduler.py:
Site: silverbell
Queued events for site silverbell
[DEBUG] 2017-07-15 13:08:22,329 | /home/tyler/frappe-bench/apps/frappe/frappe/utils/scheduler.py:
Site: silverbell
Queued events for site silverbell
[DEBUG] 2017-07-15 13:12:22,761 | /home/tyler/frappe-bench/apps/frappe/frappe/utils/scheduler.py:
Site: silverbell
Queued events for site silverbell
[DEBUG] 2017-07-15 13:16:23,203 | /home/tyler/frappe-bench/apps/frappe/frappe/utils/scheduler.py:
Site: silverbell
Queued events for site silverbell
