[ERROR] 2017-09-02 21:18:46,492 | /home/tyler/frappe-bench/apps/frappe/frappe/app.py:
Site: silverbell
Form Dict: {
 "args": "{\"ddf_list_length\":\"3\"}", 
 "cmd": "runserverobj", 
 "ddf_list_length": "3", 
 "docs": "{\"modified_by\":\"Administrator\",\"name\":\"Dynamic Docfield Loading\",\"parent\":null,\"creation\":\"2017-08-30 20:21:08.483161\",\"modified\":\"2017-09-02 21:11:46.056820\",\"doctype\":\"Dynamic Docfield Loading\",\"idx\":\"0\",\"parenttype\":null,\"owner\":\"Administrator\",\"docstatus\":0,\"parentfield\":null,\"__last_sync_on\":\"2017-09-03T01:11:46.235Z\"}", 
 "method": "handle_ddf_inputs"
}
Request Error
Traceback (most recent call last):
  File "/home/tyler/frappe-bench/apps/frappe/frappe/app.py", line 55, in application
    response = frappe.handler.handle()
  File "/home/tyler/frappe-bench/apps/frappe/frappe/handler.py", line 21, in handle
    data = execute_cmd(cmd)
  File "/home/tyler/frappe-bench/apps/frappe/frappe/handler.py", line 52, in execute_cmd
    return frappe.call(method, **frappe.form_dict)
  File "/home/tyler/frappe-bench/apps/frappe/frappe/__init__.py", line 907, in call
    return fn(*args, **newargs)
  File "/home/tyler/frappe-bench/apps/frappe/frappe/handler.py", line 80, in runserverobj
    frappe.desk.form.run_method.runserverobj(method, docs=docs, dt=dt, dn=dn, arg=arg, args=args)
  File "/home/tyler/frappe-bench/apps/frappe/frappe/desk/form/run_method.py", line 41, in runserverobj
    r = doc.run_method(method, **args)
  File "/home/tyler/frappe-bench/apps/frappe/frappe/model/document.py", line 666, in run_method
    out = Document.hook(fn)(self, *args, **kwargs)
  File "/home/tyler/frappe-bench/apps/frappe/frappe/model/document.py", line 892, in composer
    return composed(self, method, *args, **kwargs)
  File "/home/tyler/frappe-bench/apps/frappe/frappe/model/document.py", line 875, in runner
    add_to_return_value(self, fn(self, *args, **kwargs))
  File "/home/tyler/frappe-bench/apps/frappe/frappe/model/document.py", line 660, in <lambda>
    fn = lambda self, *args, **kwargs: getattr(self, method)(*args, **kwargs)
  File "/home/tyler/frappe-bench/apps/at_livestock/at_livestock/livestock/doctype/dynamic_docfield_loading/dynamic_docfield_loading.py", line 24, in handle_ddf_inputs
    frappe.msgprint(str(self.__bases__))               #self.ddf_list_0))
AttributeError: 'DynamicDocfieldLoading' object has no attribute '__bases__'
[ERROR] 2017-09-02 21:18:46,626 | /home/tyler/frappe-bench/apps/frappe/frappe/utils/error.py:
New Exception collected with id: 2017-09-02 21:18:46.581318-127.0.0.1-32c
[ERROR] 2017-09-02 21:19:07,526 | /home/tyler/frappe-bench/apps/frappe/frappe/app.py:
Site: silverbell
Form Dict: {
 "args": "{\"ddf_list_length\":\"3\"}", 
 "cmd": "runserverobj", 
 "ddf_list_length": "3", 
 "docs": "{\"modified_by\":\"Administrator\",\"name\":\"Dynamic Docfield Loading\",\"parent\":null,\"creation\":\"2017-08-30 20:21:08.483161\",\"modified\":\"2017-09-02 21:18:46.489691\",\"doctype\":\"Dynamic Docfield Loading\",\"idx\":\"0\",\"parenttype\":null,\"owner\":\"Administrator\",\"docstatus\":0,\"parentfield\":null,\"__last_sync_on\":\"2017-09-03T01:18:46.935Z\"}", 
 "method": "handle_ddf_inputs"
}
Request Error
Traceback (most recent call last):
  File "/home/tyler/frappe-bench/apps/frappe/frappe/app.py", line 55, in application
    response = frappe.handler.handle()
  File "/home/tyler/frappe-bench/apps/frappe/frappe/handler.py", line 21, in handle
    data = execute_cmd(cmd)
  File "/home/tyler/frappe-bench/apps/frappe/frappe/handler.py", line 52, in execute_cmd
    return frappe.call(method, **frappe.form_dict)
  File "/home/tyler/frappe-bench/apps/frappe/frappe/__init__.py", line 907, in call
    return fn(*args, **newargs)
  File "/home/tyler/frappe-bench/apps/frappe/frappe/handler.py", line 80, in runserverobj
    frappe.desk.form.run_method.runserverobj(method, docs=docs, dt=dt, dn=dn, arg=arg, args=args)
  File "/home/tyler/frappe-bench/apps/frappe/frappe/desk/form/run_method.py", line 22, in runserverobj
    doc.check_if_latest()
  File "/home/tyler/frappe-bench/apps/frappe/frappe/model/document.py", line 517, in check_if_latest
    where doctype=%s and field='modified' for update''', self.doctype)
  File "/home/tyler/frappe-bench/apps/frappe/frappe/database.py", line 138, in sql
    self._cursor.execute(query, values)
  File "/home/tyler/frappe-bench/env/local/lib/python2.7/site-packages/MySQLdb/cursors.py", line 250, in execute
    self.errorhandler(self, exc, value)
  File "/home/tyler/frappe-bench/env/local/lib/python2.7/site-packages/MySQLdb/connections.py", line 42, in defaulterrorhandler
    raise errorvalue
OperationalError: (1213, 'Deadlock found when trying to get lock; try restarting transaction')
[ERROR] 2017-09-02 21:19:07,644 | /home/tyler/frappe-bench/apps/frappe/frappe/utils/error.py:
Could not take error snapshot: 'connection'
Traceback (most recent call last):
  File "/home/tyler/frappe-bench/apps/frappe/frappe/utils/error.py", line 36, in make_error_snapshot
    snapshot = get_snapshot(exception)
  File "/home/tyler/frappe-bench/apps/frappe/frappe/utils/error.py", line 81, in get_snapshot
    call = inspect.formatargvalues(args, varargs, varkw, locals, formatvalue=lambda value: '={}'.format(pydoc.text.repr(value)))
  File "/usr/lib/python2.7/inspect.py", line 888, in formatargvalues
    specs.append(strseq(args[i], convert, join))
  File "/usr/lib/python2.7/inspect.py", line 843, in strseq
    return convert(object)
  File "/usr/lib/python2.7/inspect.py", line 885, in convert
    return formatarg(name) + formatvalue(locals[name])
KeyError: 'connection'
[ERROR] 2017-09-02 21:19:38,099 | /home/tyler/frappe-bench/apps/frappe/frappe/app.py:
Site: silverbell
Form Dict: {
 "args": "{\"ddf_list_length\":\"3\"}", 
 "cmd": "runserverobj", 
 "ddf_list_length": "3", 
 "docs": "{\"modified_by\":\"Administrator\",\"name\":\"Dynamic Docfield Loading\",\"parent\":null,\"creation\":\"2017-08-30 20:21:08.483161\",\"modified\":\"2017-09-02 21:19:15.241931\",\"doctype\":\"Dynamic Docfield Loading\",\"idx\":\"0\",\"parenttype\":null,\"owner\":\"Administrator\",\"docstatus\":0,\"parentfield\":null,\"__last_sync_on\":\"2017-09-03T01:19:15.624Z\"}", 
 "method": "handle_ddf_inputs"
}
Request Error
Traceback (most recent call last):
  File "/home/tyler/frappe-bench/apps/frappe/frappe/app.py", line 55, in application
    response = frappe.handler.handle()
  File "/home/tyler/frappe-bench/apps/frappe/frappe/handler.py", line 21, in handle
    data = execute_cmd(cmd)
  File "/home/tyler/frappe-bench/apps/frappe/frappe/handler.py", line 52, in execute_cmd
    return frappe.call(method, **frappe.form_dict)
  File "/home/tyler/frappe-bench/apps/frappe/frappe/__init__.py", line 907, in call
    return fn(*args, **newargs)
  File "/home/tyler/frappe-bench/apps/frappe/frappe/handler.py", line 80, in runserverobj
    frappe.desk.form.run_method.runserverobj(method, docs=docs, dt=dt, dn=dn, arg=arg, args=args)
  File "/home/tyler/frappe-bench/apps/frappe/frappe/desk/form/run_method.py", line 41, in runserverobj
    r = doc.run_method(method, **args)
  File "/home/tyler/frappe-bench/apps/frappe/frappe/model/document.py", line 666, in run_method
    out = Document.hook(fn)(self, *args, **kwargs)
  File "/home/tyler/frappe-bench/apps/frappe/frappe/model/document.py", line 892, in composer
    return composed(self, method, *args, **kwargs)
  File "/home/tyler/frappe-bench/apps/frappe/frappe/model/document.py", line 875, in runner
    add_to_return_value(self, fn(self, *args, **kwargs))
  File "/home/tyler/frappe-bench/apps/frappe/frappe/model/document.py", line 660, in <lambda>
    fn = lambda self, *args, **kwargs: getattr(self, method)(*args, **kwargs)
  File "/home/tyler/frappe-bench/apps/at_livestock/at_livestock/livestock/doctype/dynamic_docfield_loading/dynamic_docfield_loading.py", line 24, in handle_ddf_inputs
    frappe.msgprint(DynamicDocfieldLoading.__bases__)               #self.ddf_list_0))
  File "/home/tyler/frappe-bench/apps/frappe/frappe/__init__.py", line 305, in msgprint
    message_log.append(json.dumps(out))
  File "/usr/lib/python2.7/json/__init__.py", line 244, in dumps
    return _default_encoder.encode(obj)
  File "/usr/lib/python2.7/json/encoder.py", line 207, in encode
    chunks = self.iterencode(o, _one_shot=True)
  File "/usr/lib/python2.7/json/encoder.py", line 270, in iterencode
    return _iterencode(o, 0)
  File "/usr/lib/python2.7/json/encoder.py", line 184, in default
    raise TypeError(repr(o) + " is not JSON serializable")
TypeError: <class 'frappe.model.document.Document'> is not JSON serializable
[ERROR] 2017-09-02 21:19:38,158 | /home/tyler/frappe-bench/apps/frappe/frappe/utils/error.py:
New Exception collected with id: 2017-09-02 21:19:38.099995-127.0.0.1-d36
[ERROR] 2017-09-02 21:20:25,438 | /home/tyler/frappe-bench/apps/frappe/frappe/app.py:
Site: silverbell
Form Dict: {
 "args": "{\"ddf_list_length\":\"3\"}", 
 "cmd": "runserverobj", 
 "ddf_list_length": "3", 
 "docs": "{\"modified_by\":\"Administrator\",\"name\":\"Dynamic Docfield Loading\",\"parent\":null,\"creation\":\"2017-08-30 20:21:08.483161\",\"modified\":\"2017-09-02 21:19:38.070720\",\"doctype\":\"Dynamic Docfield Loading\",\"idx\":\"0\",\"parenttype\":null,\"owner\":\"Administrator\",\"docstatus\":0,\"parentfield\":null,\"__last_sync_on\":\"2017-09-03T01:19:38.386Z\"}", 
 "method": "handle_ddf_inputs"
}
Request Error
Traceback (most recent call last):
  File "/home/tyler/frappe-bench/apps/frappe/frappe/app.py", line 55, in application
    response = frappe.handler.handle()
  File "/home/tyler/frappe-bench/apps/frappe/frappe/handler.py", line 21, in handle
    data = execute_cmd(cmd)
  File "/home/tyler/frappe-bench/apps/frappe/frappe/handler.py", line 52, in execute_cmd
    return frappe.call(method, **frappe.form_dict)
  File "/home/tyler/frappe-bench/apps/frappe/frappe/__init__.py", line 907, in call
    return fn(*args, **newargs)
  File "/home/tyler/frappe-bench/apps/frappe/frappe/handler.py", line 80, in runserverobj
    frappe.desk.form.run_method.runserverobj(method, docs=docs, dt=dt, dn=dn, arg=arg, args=args)
  File "/home/tyler/frappe-bench/apps/frappe/frappe/desk/form/run_method.py", line 41, in runserverobj
    r = doc.run_method(method, **args)
  File "/home/tyler/frappe-bench/apps/frappe/frappe/model/document.py", line 666, in run_method
    out = Document.hook(fn)(self, *args, **kwargs)
  File "/home/tyler/frappe-bench/apps/frappe/frappe/model/document.py", line 892, in composer
    return composed(self, method, *args, **kwargs)
  File "/home/tyler/frappe-bench/apps/frappe/frappe/model/document.py", line 875, in runner
    add_to_return_value(self, fn(self, *args, **kwargs))
  File "/home/tyler/frappe-bench/apps/frappe/frappe/model/document.py", line 660, in <lambda>
    fn = lambda self, *args, **kwargs: getattr(self, method)(*args, **kwargs)
  File "/home/tyler/frappe-bench/apps/at_livestock/at_livestock/livestock/doctype/dynamic_docfield_loading/dynamic_docfield_loading.py", line 24, in handle_ddf_inputs
    frappe.msgprint(Document.__bases__)               #self.ddf_list_0))
  File "/home/tyler/frappe-bench/apps/frappe/frappe/__init__.py", line 305, in msgprint
    message_log.append(json.dumps(out))
  File "/usr/lib/python2.7/json/__init__.py", line 244, in dumps
    return _default_encoder.encode(obj)
  File "/usr/lib/python2.7/json/encoder.py", line 207, in encode
    chunks = self.iterencode(o, _one_shot=True)
  File "/usr/lib/python2.7/json/encoder.py", line 270, in iterencode
    return _iterencode(o, 0)
  File "/usr/lib/python2.7/json/encoder.py", line 184, in default
    raise TypeError(repr(o) + " is not JSON serializable")
TypeError: <class 'frappe.model.base_document.BaseDocument'> is not JSON serializable
[ERROR] 2017-09-02 21:20:25,499 | /home/tyler/frappe-bench/apps/frappe/frappe/utils/error.py:
New Exception collected with id: 2017-09-02 21:20:25.440633-127.0.0.1-58d
[ERROR] 2017-09-02 21:21:19,171 | /home/tyler/frappe-bench/apps/frappe/frappe/app.py:
Site: silverbell
Form Dict: {
 "action": "Save", 
 "cmd": "frappe.desk.form.save.savedocs", 
 "doc": "{\"modified_by\":\"Administrator\",\"name\":\"Dynamic Docfield Loading\",\"parent\":null,\"creation\":\"2017-08-30 20:21:08.483161\",\"modified\":\"2017-09-02 21:20:42.431621\",\"doctype\":\"Dynamic Docfield Loading\",\"idx\":\"0\",\"parenttype\":null,\"owner\":\"Administrator\",\"docstatus\":0,\"parentfield\":null,\"__last_sync_on\":\"2017-09-03T01:20:42.853Z\"}"
}
Request Error
Traceback (most recent call last):
  File "/home/tyler/frappe-bench/apps/frappe/frappe/app.py", line 55, in application
    response = frappe.handler.handle()
  File "/home/tyler/frappe-bench/apps/frappe/frappe/handler.py", line 21, in handle
    data = execute_cmd(cmd)
  File "/home/tyler/frappe-bench/apps/frappe/frappe/handler.py", line 52, in execute_cmd
    return frappe.call(method, **frappe.form_dict)
  File "/home/tyler/frappe-bench/apps/frappe/frappe/__init__.py", line 907, in call
    return fn(*args, **newargs)
  File "/home/tyler/frappe-bench/apps/frappe/frappe/desk/form/save.py", line 12, in savedocs
    doc = frappe.get_doc(json.loads(doc))
  File "/home/tyler/frappe-bench/apps/frappe/frappe/__init__.py", line 606, in get_doc
    return frappe.model.document.get_doc(arg1, arg2)
  File "/home/tyler/frappe-bench/apps/frappe/frappe/model/document.py", line 49, in get_doc
    controller = get_controller(doctype)
  File "/home/tyler/frappe-bench/apps/frappe/frappe/model/base_document.py", line 35, in get_controller
    module = load_doctype_module(doctype, module_name)
  File "/home/tyler/frappe-bench/apps/frappe/frappe/modules/utils.py", line 182, in load_doctype_module
    doctype_python_modules[key] = frappe.get_module(module_name)
  File "/home/tyler/frappe-bench/apps/frappe/frappe/__init__.py", line 672, in get_module
    return importlib.import_module(modulename)
  File "/usr/lib/python2.7/importlib/__init__.py", line 37, in import_module
    __import__(name)
  File "/home/tyler/frappe-bench/apps/at_livestock/at_livestock/livestock/doctype/dynamic_docfield_loading/dynamic_docfield_loading.py", line 27
    frappe.msgprint(self.ddf_list_0))
                                    ^
SyntaxError: invalid syntax
[ERROR] 2017-09-02 21:21:19,181 | /home/tyler/frappe-bench/apps/frappe/frappe/app.py:
Site: silverbell
Form Dict: {
 "args": "{\"ddf_list_length\":\"3\"}", 
 "cmd": "runserverobj", 
 "ddf_list_length": "3", 
 "docs": "{\"modified_by\":\"Administrator\",\"name\":\"Dynamic Docfield Loading\",\"parent\":null,\"creation\":\"2017-08-30 20:21:08.483161\",\"modified\":\"2017-09-02 21:20:42.431621\",\"doctype\":\"Dynamic Docfield Loading\",\"idx\":\"0\",\"parenttype\":null,\"owner\":\"Administrator\",\"docstatus\":0,\"parentfield\":null,\"__last_sync_on\":\"2017-09-03T01:20:42.853Z\"}", 
 "method": "handle_ddf_inputs"
}
Request Error
Traceback (most recent call last):
  File "/home/tyler/frappe-bench/apps/frappe/frappe/app.py", line 55, in application
    response = frappe.handler.handle()
  File "/home/tyler/frappe-bench/apps/frappe/frappe/handler.py", line 21, in handle
    data = execute_cmd(cmd)
  File "/home/tyler/frappe-bench/apps/frappe/frappe/handler.py", line 52, in execute_cmd
    return frappe.call(method, **frappe.form_dict)
  File "/home/tyler/frappe-bench/apps/frappe/frappe/__init__.py", line 907, in call
    return fn(*args, **newargs)
  File "/home/tyler/frappe-bench/apps/frappe/frappe/handler.py", line 80, in runserverobj
    frappe.desk.form.run_method.runserverobj(method, docs=docs, dt=dt, dn=dn, arg=arg, args=args)
  File "/home/tyler/frappe-bench/apps/frappe/frappe/desk/form/run_method.py", line 20, in runserverobj
    doc = frappe.get_doc(json.loads(docs))
  File "/home/tyler/frappe-bench/apps/frappe/frappe/__init__.py", line 606, in get_doc
    return frappe.model.document.get_doc(arg1, arg2)
  File "/home/tyler/frappe-bench/apps/frappe/frappe/model/document.py", line 49, in get_doc
    controller = get_controller(doctype)
  File "/home/tyler/frappe-bench/apps/frappe/frappe/model/base_document.py", line 35, in get_controller
    module = load_doctype_module(doctype, module_name)
  File "/home/tyler/frappe-bench/apps/frappe/frappe/modules/utils.py", line 182, in load_doctype_module
    doctype_python_modules[key] = frappe.get_module(module_name)
  File "/home/tyler/frappe-bench/apps/frappe/frappe/__init__.py", line 672, in get_module
    return importlib.import_module(modulename)
  File "/usr/lib/python2.7/importlib/__init__.py", line 37, in import_module
    __import__(name)
  File "/home/tyler/frappe-bench/apps/at_livestock/at_livestock/livestock/doctype/dynamic_docfield_loading/dynamic_docfield_loading.py", line 27
    frappe.msgprint(self.ddf_list_0))
                                    ^
SyntaxError: invalid syntax
[ERROR] 2017-09-02 21:21:19,272 | /home/tyler/frappe-bench/apps/frappe/frappe/utils/error.py:
New Exception collected with id: 2017-09-02 21:21:19.182395-127.0.0.1-8eb
[ERROR] 2017-09-02 21:21:19,276 | /home/tyler/frappe-bench/apps/frappe/frappe/utils/error.py:
New Exception collected with id: 2017-09-02 21:21:19.172534-127.0.0.1-b7a
[ERROR] 2017-09-02 21:21:31,673 | /home/tyler/frappe-bench/apps/frappe/frappe/app.py:
Site: silverbell
Form Dict: {
 "action": "Save", 
 "cmd": "frappe.desk.form.save.savedocs", 
 "doc": "{\"modified_by\":\"Administrator\",\"name\":\"Dynamic Docfield Loading\",\"parent\":null,\"creation\":\"2017-08-30 20:21:08.483161\",\"modified\":\"2017-09-02 21:20:42.431621\",\"doctype\":\"Dynamic Docfield Loading\",\"idx\":\"0\",\"parenttype\":null,\"owner\":\"Administrator\",\"docstatus\":0,\"parentfield\":null,\"__last_sync_on\":\"2017-09-03T01:20:42.853Z\"}"
}
Request Error
Traceback (most recent call last):
  File "/home/tyler/frappe-bench/apps/frappe/frappe/app.py", line 55, in application
    response = frappe.handler.handle()
  File "/home/tyler/frappe-bench/apps/frappe/frappe/handler.py", line 21, in handle
    data = execute_cmd(cmd)
  File "/home/tyler/frappe-bench/apps/frappe/frappe/handler.py", line 52, in execute_cmd
    return frappe.call(method, **frappe.form_dict)
  File "/home/tyler/frappe-bench/apps/frappe/frappe/__init__.py", line 907, in call
    return fn(*args, **newargs)
  File "/home/tyler/frappe-bench/apps/frappe/frappe/desk/form/save.py", line 22, in savedocs
    doc.save()
  File "/home/tyler/frappe-bench/apps/frappe/frappe/model/document.py", line 230, in save
    return self._save(*args, **kwargs)
  File "/home/tyler/frappe-bench/apps/frappe/frappe/model/document.py", line 263, in _save
    self.run_before_save_methods()
  File "/home/tyler/frappe-bench/apps/frappe/frappe/model/document.py", line 772, in run_before_save_methods
    self.run_method("validate")
  File "/home/tyler/frappe-bench/apps/frappe/frappe/model/document.py", line 666, in run_method
    out = Document.hook(fn)(self, *args, **kwargs)
  File "/home/tyler/frappe-bench/apps/frappe/frappe/model/document.py", line 892, in composer
    return composed(self, method, *args, **kwargs)
  File "/home/tyler/frappe-bench/apps/frappe/frappe/model/document.py", line 875, in runner
    add_to_return_value(self, fn(self, *args, **kwargs))
  File "/home/tyler/frappe-bench/apps/frappe/frappe/model/document.py", line 660, in <lambda>
    fn = lambda self, *args, **kwargs: getattr(self, method)(*args, **kwargs)
  File "/home/tyler/frappe-bench/apps/at_livestock/at_livestock/livestock/doctype/dynamic_docfield_loading/dynamic_docfield_loading.py", line 27, in validate
    frappe.msgprint(str(self.ddf_list_0))
AttributeError: 'DynamicDocfieldLoading' object has no attribute 'ddf_list_0'
[ERROR] 2017-09-02 21:21:31,748 | /home/tyler/frappe-bench/apps/frappe/frappe/utils/error.py:
New Exception collected with id: 2017-09-02 21:21:31.675013-127.0.0.1-c9d
[ERROR] 2017-09-02 21:21:31,755 | /home/tyler/frappe-bench/apps/frappe/frappe/app.py:
Site: silverbell
Form Dict: {
 "args": "{\"ddf_list_length\":\"3\"}", 
 "cmd": "runserverobj", 
 "ddf_list_length": "3", 
 "docs": "{\"modified_by\":\"Administrator\",\"name\":\"Dynamic Docfield Loading\",\"parent\":null,\"creation\":\"2017-08-30 20:21:08.483161\",\"modified\":\"2017-09-02 21:20:42.431621\",\"doctype\":\"Dynamic Docfield Loading\",\"idx\":\"0\",\"parenttype\":null,\"owner\":\"Administrator\",\"docstatus\":0,\"parentfield\":null,\"__last_sync_on\":\"2017-09-03T01:20:42.853Z\"}", 
 "method": "handle_ddf_inputs"
}
Request Error
Traceback (most recent call last):
  File "/home/tyler/frappe-bench/apps/frappe/frappe/app.py", line 55, in application
    response = frappe.handler.handle()
  File "/home/tyler/frappe-bench/apps/frappe/frappe/handler.py", line 21, in handle
    data = execute_cmd(cmd)
  File "/home/tyler/frappe-bench/apps/frappe/frappe/handler.py", line 52, in execute_cmd
    return frappe.call(method, **frappe.form_dict)
  File "/home/tyler/frappe-bench/apps/frappe/frappe/__init__.py", line 907, in call
    return fn(*args, **newargs)
  File "/home/tyler/frappe-bench/apps/frappe/frappe/handler.py", line 80, in runserverobj
    frappe.desk.form.run_method.runserverobj(method, docs=docs, dt=dt, dn=dn, arg=arg, args=args)
  File "/home/tyler/frappe-bench/apps/frappe/frappe/desk/form/run_method.py", line 41, in runserverobj
    r = doc.run_method(method, **args)
  File "/home/tyler/frappe-bench/apps/frappe/frappe/model/document.py", line 666, in run_method
    out = Document.hook(fn)(self, *args, **kwargs)
  File "/home/tyler/frappe-bench/apps/frappe/frappe/model/document.py", line 892, in composer
    return composed(self, method, *args, **kwargs)
  File "/home/tyler/frappe-bench/apps/frappe/frappe/model/document.py", line 875, in runner
    add_to_return_value(self, fn(self, *args, **kwargs))
  File "/home/tyler/frappe-bench/apps/frappe/frappe/model/document.py", line 660, in <lambda>
    fn = lambda self, *args, **kwargs: getattr(self, method)(*args, **kwargs)
  File "/home/tyler/frappe-bench/apps/at_livestock/at_livestock/livestock/doctype/dynamic_docfield_loading/dynamic_docfield_loading.py", line 23, in handle_ddf_inputs
    Document.setattr(self, "ddf_list_" +str(i), '5')
AttributeError: type object 'Document' has no attribute 'setattr'
[ERROR] 2017-09-02 21:21:31,764 | /home/tyler/frappe-bench/apps/frappe/frappe/utils/error.py:
New Exception collected with id: 2017-09-02 21:21:31.757253-127.0.0.1-cad
[ERROR] 2017-09-02 21:23:44,950 | /home/tyler/frappe-bench/apps/frappe/frappe/app.py:
Site: silverbell
Form Dict: {
 "args": "{\"ddf_list_length\":\"3\"}", 
 "cmd": "runserverobj", 
 "ddf_list_length": "3", 
 "docs": "{\"modified_by\":\"Administrator\",\"name\":\"Dynamic Docfield Loading\",\"parent\":null,\"creation\":\"2017-08-30 20:21:08.483161\",\"modified\":\"2017-09-02 21:20:42.431621\",\"doctype\":\"Dynamic Docfield Loading\",\"idx\":\"0\",\"parenttype\":null,\"owner\":\"Administrator\",\"docstatus\":0,\"parentfield\":null,\"__last_sync_on\":\"2017-09-03T01:20:42.853Z\"}", 
 "method": "handle_ddf_inputs"
}
Request Error
Traceback (most recent call last):
  File "/home/tyler/frappe-bench/apps/frappe/frappe/app.py", line 55, in application
    response = frappe.handler.handle()
  File "/home/tyler/frappe-bench/apps/frappe/frappe/handler.py", line 21, in handle
    data = execute_cmd(cmd)
  File "/home/tyler/frappe-bench/apps/frappe/frappe/handler.py", line 52, in execute_cmd
    return frappe.call(method, **frappe.form_dict)
  File "/home/tyler/frappe-bench/apps/frappe/frappe/__init__.py", line 907, in call
    return fn(*args, **newargs)
  File "/home/tyler/frappe-bench/apps/frappe/frappe/handler.py", line 80, in runserverobj
    frappe.desk.form.run_method.runserverobj(method, docs=docs, dt=dt, dn=dn, arg=arg, args=args)
  File "/home/tyler/frappe-bench/apps/frappe/frappe/desk/form/run_method.py", line 41, in runserverobj
    r = doc.run_method(method, **args)
  File "/home/tyler/frappe-bench/apps/frappe/frappe/model/document.py", line 666, in run_method
    out = Document.hook(fn)(self, *args, **kwargs)
  File "/home/tyler/frappe-bench/apps/frappe/frappe/model/document.py", line 892, in composer
    return composed(self, method, *args, **kwargs)
  File "/home/tyler/frappe-bench/apps/frappe/frappe/model/document.py", line 875, in runner
    add_to_return_value(self, fn(self, *args, **kwargs))
  File "/home/tyler/frappe-bench/apps/frappe/frappe/model/document.py", line 660, in <lambda>
    fn = lambda self, *args, **kwargs: getattr(self, method)(*args, **kwargs)
  File "/home/tyler/frappe-bench/apps/at_livestock/at_livestock/livestock/doctype/dynamic_docfield_loading/dynamic_docfield_loading.py", line 23, in handle_ddf_inputs
    super(setattr(self, "ddf_list_" +str(i), None))
TypeError: super() argument 1 must be type, not None
[ERROR] 2017-09-02 21:23:45,013 | /home/tyler/frappe-bench/apps/frappe/frappe/utils/error.py:
New Exception collected with id: 2017-09-02 21:23:44.951031-127.0.0.1-9aa
[ERROR] 2017-09-02 21:23:45,079 | /home/tyler/frappe-bench/apps/frappe/frappe/app.py:
Site: silverbell
Form Dict: {
 "action": "Save", 
 "cmd": "frappe.desk.form.save.savedocs", 
 "doc": "{\"modified_by\":\"Administrator\",\"name\":\"Dynamic Docfield Loading\",\"parent\":null,\"creation\":\"2017-08-30 20:21:08.483161\",\"modified\":\"2017-09-02 21:20:42.431621\",\"doctype\":\"Dynamic Docfield Loading\",\"idx\":\"0\",\"parenttype\":null,\"owner\":\"Administrator\",\"docstatus\":0,\"parentfield\":null,\"__last_sync_on\":\"2017-09-03T01:20:42.853Z\"}"
}
Request Error
Traceback (most recent call last):
  File "/home/tyler/frappe-bench/apps/frappe/frappe/app.py", line 55, in application
    response = frappe.handler.handle()
  File "/home/tyler/frappe-bench/apps/frappe/frappe/handler.py", line 21, in handle
    data = execute_cmd(cmd)
  File "/home/tyler/frappe-bench/apps/frappe/frappe/handler.py", line 52, in execute_cmd
    return frappe.call(method, **frappe.form_dict)
  File "/home/tyler/frappe-bench/apps/frappe/frappe/__init__.py", line 907, in call
    return fn(*args, **newargs)
  File "/home/tyler/frappe-bench/apps/frappe/frappe/desk/form/save.py", line 22, in savedocs
    doc.save()
  File "/home/tyler/frappe-bench/apps/frappe/frappe/model/document.py", line 230, in save
    return self._save(*args, **kwargs)
  File "/home/tyler/frappe-bench/apps/frappe/frappe/model/document.py", line 263, in _save
    self.run_before_save_methods()
  File "/home/tyler/frappe-bench/apps/frappe/frappe/model/document.py", line 772, in run_before_save_methods
    self.run_method("validate")
  File "/home/tyler/frappe-bench/apps/frappe/frappe/model/document.py", line 666, in run_method
    out = Document.hook(fn)(self, *args, **kwargs)
  File "/home/tyler/frappe-bench/apps/frappe/frappe/model/document.py", line 892, in composer
    return composed(self, method, *args, **kwargs)
  File "/home/tyler/frappe-bench/apps/frappe/frappe/model/document.py", line 875, in runner
    add_to_return_value(self, fn(self, *args, **kwargs))
  File "/home/tyler/frappe-bench/apps/frappe/frappe/model/document.py", line 660, in <lambda>
    fn = lambda self, *args, **kwargs: getattr(self, method)(*args, **kwargs)
  File "/home/tyler/frappe-bench/apps/at_livestock/at_livestock/livestock/doctype/dynamic_docfield_loading/dynamic_docfield_loading.py", line 27, in validate
    frappe.msgprint(str(self.ddf_list_0))
AttributeError: 'DynamicDocfieldLoading' object has no attribute 'ddf_list_0'
[ERROR] 2017-09-02 21:23:45,084 | /home/tyler/frappe-bench/apps/frappe/frappe/utils/error.py:
New Exception collected with id: 2017-09-02 21:23:45.079702-127.0.0.1-688
[ERROR] 2017-09-02 21:25:08,880 | /home/tyler/frappe-bench/apps/frappe/frappe/app.py:
Site: silverbell
Form Dict: {
 "action": "Save", 
 "cmd": "frappe.desk.form.save.savedocs", 
 "doc": "{\"modified_by\":\"Administrator\",\"name\":\"Dynamic Docfield Loading\",\"parent\":null,\"creation\":\"2017-08-30 20:21:08.483161\",\"modified\":\"2017-09-02 21:20:42.431621\",\"doctype\":\"Dynamic Docfield Loading\",\"idx\":\"0\",\"parenttype\":null,\"owner\":\"Administrator\",\"docstatus\":0,\"parentfield\":null,\"__last_sync_on\":\"2017-09-03T01:20:42.853Z\"}"
}
Request Error
Traceback (most recent call last):
  File "/home/tyler/frappe-bench/apps/frappe/frappe/app.py", line 55, in application
    response = frappe.handler.handle()
  File "/home/tyler/frappe-bench/apps/frappe/frappe/handler.py", line 21, in handle
    data = execute_cmd(cmd)
  File "/home/tyler/frappe-bench/apps/frappe/frappe/handler.py", line 52, in execute_cmd
    return frappe.call(method, **frappe.form_dict)
  File "/home/tyler/frappe-bench/apps/frappe/frappe/__init__.py", line 907, in call
    return fn(*args, **newargs)
  File "/home/tyler/frappe-bench/apps/frappe/frappe/desk/form/save.py", line 22, in savedocs
    doc.save()
  File "/home/tyler/frappe-bench/apps/frappe/frappe/model/document.py", line 230, in save
    return self._save(*args, **kwargs)
  File "/home/tyler/frappe-bench/apps/frappe/frappe/model/document.py", line 263, in _save
    self.run_before_save_methods()
  File "/home/tyler/frappe-bench/apps/frappe/frappe/model/document.py", line 772, in run_before_save_methods
    self.run_method("validate")
  File "/home/tyler/frappe-bench/apps/frappe/frappe/model/document.py", line 666, in run_method
    out = Document.hook(fn)(self, *args, **kwargs)
  File "/home/tyler/frappe-bench/apps/frappe/frappe/model/document.py", line 892, in composer
    return composed(self, method, *args, **kwargs)
  File "/home/tyler/frappe-bench/apps/frappe/frappe/model/document.py", line 875, in runner
    add_to_return_value(self, fn(self, *args, **kwargs))
  File "/home/tyler/frappe-bench/apps/frappe/frappe/model/document.py", line 660, in <lambda>
    fn = lambda self, *args, **kwargs: getattr(self, method)(*args, **kwargs)
  File "/home/tyler/frappe-bench/apps/at_livestock/at_livestock/livestock/doctype/dynamic_docfield_loading/dynamic_docfield_loading.py", line 23, in validate
    for i in range(0, ddf_list_length):
NameError: global name 'ddf_list_length' is not defined
[ERROR] 2017-09-02 21:25:08,951 | /home/tyler/frappe-bench/apps/frappe/frappe/utils/error.py:
New Exception collected with id: 2017-09-02 21:25:08.881026-127.0.0.1-419
[ERROR] 2017-09-02 21:25:51,746 | /home/tyler/frappe-bench/apps/frappe/frappe/app.py:
Site: silverbell
Form Dict: {
 "action": "Save", 
 "cmd": "frappe.desk.form.save.savedocs", 
 "doc": "{\"modified_by\":\"Administrator\",\"name\":\"Dynamic Docfield Loading\",\"creation\":\"2017-08-30 20:21:08.483161\",\"modified\":\"2017-09-02 21:20:42.431621\",\"doctype\":\"Dynamic Docfield Loading\",\"idx\":\"0\",\"owner\":\"Administrator\",\"docstatus\":0,\"__last_sync_on\":\"2017-09-03T01:25:08.836Z\"}"
}
Request Error
Traceback (most recent call last):
  File "/home/tyler/frappe-bench/apps/frappe/frappe/app.py", line 55, in application
    response = frappe.handler.handle()
  File "/home/tyler/frappe-bench/apps/frappe/frappe/handler.py", line 21, in handle
    data = execute_cmd(cmd)
  File "/home/tyler/frappe-bench/apps/frappe/frappe/handler.py", line 52, in execute_cmd
    return frappe.call(method, **frappe.form_dict)
  File "/home/tyler/frappe-bench/apps/frappe/frappe/__init__.py", line 907, in call
    return fn(*args, **newargs)
  File "/home/tyler/frappe-bench/apps/frappe/frappe/desk/form/save.py", line 22, in savedocs
    doc.save()
  File "/home/tyler/frappe-bench/apps/frappe/frappe/model/document.py", line 230, in save
    return self._save(*args, **kwargs)
  File "/home/tyler/frappe-bench/apps/frappe/frappe/model/document.py", line 263, in _save
    self.run_before_save_methods()
  File "/home/tyler/frappe-bench/apps/frappe/frappe/model/document.py", line 772, in run_before_save_methods
    self.run_method("validate")
  File "/home/tyler/frappe-bench/apps/frappe/frappe/model/document.py", line 666, in run_method
    out = Document.hook(fn)(self, *args, **kwargs)
  File "/home/tyler/frappe-bench/apps/frappe/frappe/model/document.py", line 892, in composer
    return composed(self, method, *args, **kwargs)
  File "/home/tyler/frappe-bench/apps/frappe/frappe/model/document.py", line 875, in runner
    add_to_return_value(self, fn(self, *args, **kwargs))
  File "/home/tyler/frappe-bench/apps/frappe/frappe/model/document.py", line 660, in <lambda>
    fn = lambda self, *args, **kwargs: getattr(self, method)(*args, **kwargs)
  File "/home/tyler/frappe-bench/apps/at_livestock/at_livestock/livestock/doctype/dynamic_docfield_loading/dynamic_docfield_loading.py", line 25, in validate
    frappe.msgprint(str(self.ddf_list_0))
AttributeError: 'DynamicDocfieldLoading' object has no attribute 'ddf_list_0'
[ERROR] 2017-09-02 21:25:51,816 | /home/tyler/frappe-bench/apps/frappe/frappe/utils/error.py:
New Exception collected with id: 2017-09-02 21:25:51.746788-127.0.0.1-9d1
[ERROR] 2017-09-02 21:26:48,833 | /home/tyler/frappe-bench/apps/frappe/frappe/app.py:
Site: silverbell
Form Dict: {
 "action": "Save", 
 "cmd": "frappe.desk.form.save.savedocs", 
 "doc": "{\"modified_by\":\"Administrator\",\"name\":\"Dynamic Docfield Loading\",\"creation\":\"2017-08-30 20:21:08.483161\",\"modified\":\"2017-09-02 21:20:42.431621\",\"doctype\":\"Dynamic Docfield Loading\",\"idx\":\"0\",\"owner\":\"Administrator\",\"docstatus\":0,\"__last_sync_on\":\"2017-09-03T01:25:51.710Z\"}"
}
Request Error
Traceback (most recent call last):
  File "/home/tyler/frappe-bench/apps/frappe/frappe/app.py", line 55, in application
    response = frappe.handler.handle()
  File "/home/tyler/frappe-bench/apps/frappe/frappe/handler.py", line 21, in handle
    data = execute_cmd(cmd)
  File "/home/tyler/frappe-bench/apps/frappe/frappe/handler.py", line 52, in execute_cmd
    return frappe.call(method, **frappe.form_dict)
  File "/home/tyler/frappe-bench/apps/frappe/frappe/__init__.py", line 907, in call
    return fn(*args, **newargs)
  File "/home/tyler/frappe-bench/apps/frappe/frappe/desk/form/save.py", line 22, in savedocs
    doc.save()
  File "/home/tyler/frappe-bench/apps/frappe/frappe/model/document.py", line 230, in save
    return self._save(*args, **kwargs)
  File "/home/tyler/frappe-bench/apps/frappe/frappe/model/document.py", line 263, in _save
    self.run_before_save_methods()
  File "/home/tyler/frappe-bench/apps/frappe/frappe/model/document.py", line 772, in run_before_save_methods
    self.run_method("validate")
  File "/home/tyler/frappe-bench/apps/frappe/frappe/model/document.py", line 666, in run_method
    out = Document.hook(fn)(self, *args, **kwargs)
  File "/home/tyler/frappe-bench/apps/frappe/frappe/model/document.py", line 892, in composer
    return composed(self, method, *args, **kwargs)
  File "/home/tyler/frappe-bench/apps/frappe/frappe/model/document.py", line 875, in runner
    add_to_return_value(self, fn(self, *args, **kwargs))
  File "/home/tyler/frappe-bench/apps/frappe/frappe/model/document.py", line 660, in <lambda>
    fn = lambda self, *args, **kwargs: getattr(self, method)(*args, **kwargs)
  File "/home/tyler/frappe-bench/apps/at_livestock/at_livestock/livestock/doctype/dynamic_docfield_loading/dynamic_docfield_loading.py", line 25, in validate
    frappe.msgprint(str(self.ddf_list_0))
AttributeError: 'DynamicDocfieldLoading' object has no attribute 'ddf_list_0'
[ERROR] 2017-09-02 21:26:48,885 | /home/tyler/frappe-bench/apps/frappe/frappe/utils/error.py:
New Exception collected with id: 2017-09-02 21:26:48.834692-127.0.0.1-09e
[ERROR] 2017-09-02 21:26:48,889 | /home/tyler/frappe-bench/apps/frappe/frappe/app.py:
Site: silverbell
Form Dict: {
 "args": "{\"ddf_list_length\":\"3\"}", 
 "cmd": "runserverobj", 
 "ddf_list_length": "3", 
 "docs": "{\"modified_by\":\"Administrator\",\"name\":\"Dynamic Docfield Loading\",\"creation\":\"2017-08-30 20:21:08.483161\",\"modified\":\"2017-09-02 21:20:42.431621\",\"doctype\":\"Dynamic Docfield Loading\",\"idx\":\"0\",\"owner\":\"Administrator\",\"docstatus\":0,\"__last_sync_on\":\"2017-09-03T01:25:51.710Z\"}", 
 "method": "handle_ddf_inputs"
}
Request Error
Traceback (most recent call last):
  File "/home/tyler/frappe-bench/apps/frappe/frappe/app.py", line 55, in application
    response = frappe.handler.handle()
  File "/home/tyler/frappe-bench/apps/frappe/frappe/handler.py", line 21, in handle
    data = execute_cmd(cmd)
  File "/home/tyler/frappe-bench/apps/frappe/frappe/handler.py", line 52, in execute_cmd
    return frappe.call(method, **frappe.form_dict)
  File "/home/tyler/frappe-bench/apps/frappe/frappe/__init__.py", line 907, in call
    return fn(*args, **newargs)
  File "/home/tyler/frappe-bench/apps/frappe/frappe/handler.py", line 80, in runserverobj
    frappe.desk.form.run_method.runserverobj(method, docs=docs, dt=dt, dn=dn, arg=arg, args=args)
  File "/home/tyler/frappe-bench/apps/frappe/frappe/desk/form/run_method.py", line 41, in runserverobj
    r = doc.run_method(method, **args)
  File "/home/tyler/frappe-bench/apps/frappe/frappe/model/document.py", line 666, in run_method
    out = Document.hook(fn)(self, *args, **kwargs)
  File "/home/tyler/frappe-bench/apps/frappe/frappe/model/document.py", line 892, in composer
    return composed(self, method, *args, **kwargs)
  File "/home/tyler/frappe-bench/apps/frappe/frappe/model/document.py", line 875, in runner
    add_to_return_value(self, fn(self, *args, **kwargs))
  File "/home/tyler/frappe-bench/apps/frappe/frappe/model/document.py", line 660, in <lambda>
    fn = lambda self, *args, **kwargs: getattr(self, method)(*args, **kwargs)
  File "/home/tyler/frappe-bench/apps/at_livestock/at_livestock/livestock/doctype/dynamic_docfield_loading/dynamic_docfield_loading.py", line 22, in handle_ddf_inputs
    frappe.msgprint(str(self.ddf_list_0))
AttributeError: 'DynamicDocfieldLoading' object has no attribute 'ddf_list_0'
[ERROR] 2017-09-02 21:26:48,901 | /home/tyler/frappe-bench/apps/frappe/frappe/utils/error.py:
New Exception collected with id: 2017-09-02 21:26:48.890281-127.0.0.1-20d
[ERROR] 2017-09-02 21:27:07,679 | /home/tyler/frappe-bench/apps/frappe/frappe/app.py:
Site: silverbell
Form Dict: {
 "args": "{\"ddf_list_length\":\"3\"}", 
 "cmd": "runserverobj", 
 "ddf_list_length": "3", 
 "docs": "{\"modified_by\":\"Administrator\",\"name\":\"Dynamic Docfield Loading\",\"creation\":\"2017-08-30 20:21:08.483161\",\"modified\":\"2017-09-02 21:20:42.431621\",\"doctype\":\"Dynamic Docfield Loading\",\"idx\":\"0\",\"owner\":\"Administrator\",\"docstatus\":0,\"__last_sync_on\":\"2017-09-03T01:27:03.354Z\"}", 
 "method": "handle_ddf_inputs"
}
Request Error
Traceback (most recent call last):
  File "/home/tyler/frappe-bench/apps/frappe/frappe/app.py", line 55, in application
    response = frappe.handler.handle()
  File "/home/tyler/frappe-bench/apps/frappe/frappe/handler.py", line 21, in handle
    data = execute_cmd(cmd)
  File "/home/tyler/frappe-bench/apps/frappe/frappe/handler.py", line 52, in execute_cmd
    return frappe.call(method, **frappe.form_dict)
  File "/home/tyler/frappe-bench/apps/frappe/frappe/__init__.py", line 907, in call
    return fn(*args, **newargs)
  File "/home/tyler/frappe-bench/apps/frappe/frappe/handler.py", line 80, in runserverobj
    frappe.desk.form.run_method.runserverobj(method, docs=docs, dt=dt, dn=dn, arg=arg, args=args)
  File "/home/tyler/frappe-bench/apps/frappe/frappe/desk/form/run_method.py", line 41, in runserverobj
    r = doc.run_method(method, **args)
  File "/home/tyler/frappe-bench/apps/frappe/frappe/model/document.py", line 666, in run_method
    out = Document.hook(fn)(self, *args, **kwargs)
  File "/home/tyler/frappe-bench/apps/frappe/frappe/model/document.py", line 892, in composer
    return composed(self, method, *args, **kwargs)
  File "/home/tyler/frappe-bench/apps/frappe/frappe/model/document.py", line 875, in runner
    add_to_return_value(self, fn(self, *args, **kwargs))
  File "/home/tyler/frappe-bench/apps/frappe/frappe/model/document.py", line 660, in <lambda>
    fn = lambda self, *args, **kwargs: getattr(self, method)(*args, **kwargs)
  File "/home/tyler/frappe-bench/apps/at_livestock/at_livestock/livestock/doctype/dynamic_docfield_loading/dynamic_docfield_loading.py", line 22, in handle_ddf_inputs
    frappe.msgprint(str(self.ddf_list_0))
AttributeError: 'DynamicDocfieldLoading' object has no attribute 'ddf_list_0'
[ERROR] 2017-09-02 21:27:07,748 | /home/tyler/frappe-bench/apps/frappe/frappe/utils/error.py:
New Exception collected with id: 2017-09-02 21:27:07.680889-127.0.0.1-910
[ERROR] 2017-09-02 21:27:07,800 | /home/tyler/frappe-bench/apps/frappe/frappe/app.py:
Site: silverbell
Form Dict: {
 "action": "Save", 
 "cmd": "frappe.desk.form.save.savedocs", 
 "doc": "{\"modified_by\":\"Administrator\",\"name\":\"Dynamic Docfield Loading\",\"creation\":\"2017-08-30 20:21:08.483161\",\"modified\":\"2017-09-02 21:20:42.431621\",\"doctype\":\"Dynamic Docfield Loading\",\"idx\":\"0\",\"owner\":\"Administrator\",\"docstatus\":0,\"__last_sync_on\":\"2017-09-03T01:27:03.354Z\"}"
}
Request Error
Traceback (most recent call last):
  File "/home/tyler/frappe-bench/apps/frappe/frappe/app.py", line 55, in application
    response = frappe.handler.handle()
  File "/home/tyler/frappe-bench/apps/frappe/frappe/handler.py", line 21, in handle
    data = execute_cmd(cmd)
  File "/home/tyler/frappe-bench/apps/frappe/frappe/handler.py", line 52, in execute_cmd
    return frappe.call(method, **frappe.form_dict)
  File "/home/tyler/frappe-bench/apps/frappe/frappe/__init__.py", line 907, in call
    return fn(*args, **newargs)
  File "/home/tyler/frappe-bench/apps/frappe/frappe/desk/form/save.py", line 22, in savedocs
    doc.save()
  File "/home/tyler/frappe-bench/apps/frappe/frappe/model/document.py", line 230, in save
    return self._save(*args, **kwargs)
  File "/home/tyler/frappe-bench/apps/frappe/frappe/model/document.py", line 263, in _save
    self.run_before_save_methods()
  File "/home/tyler/frappe-bench/apps/frappe/frappe/model/document.py", line 772, in run_before_save_methods
    self.run_method("validate")
  File "/home/tyler/frappe-bench/apps/frappe/frappe/model/document.py", line 666, in run_method
    out = Document.hook(fn)(self, *args, **kwargs)
  File "/home/tyler/frappe-bench/apps/frappe/frappe/model/document.py", line 892, in composer
    return composed(self, method, *args, **kwargs)
  File "/home/tyler/frappe-bench/apps/frappe/frappe/model/document.py", line 875, in runner
    add_to_return_value(self, fn(self, *args, **kwargs))
  File "/home/tyler/frappe-bench/apps/frappe/frappe/model/document.py", line 660, in <lambda>
    fn = lambda self, *args, **kwargs: getattr(self, method)(*args, **kwargs)
  File "/home/tyler/frappe-bench/apps/at_livestock/at_livestock/livestock/doctype/dynamic_docfield_loading/dynamic_docfield_loading.py", line 25, in validate
    frappe.msgprint(str(self.ddf_list_0))
AttributeError: 'DynamicDocfieldLoading' object has no attribute 'ddf_list_0'
[ERROR] 2017-09-02 21:27:07,820 | /home/tyler/frappe-bench/apps/frappe/frappe/utils/error.py:
New Exception collected with id: 2017-09-02 21:27:07.800781-127.0.0.1-683
[ERROR] 2017-09-02 21:27:26,938 | /home/tyler/frappe-bench/apps/frappe/frappe/app.py:
Site: silverbell
Form Dict: {
 "args": "{\"ddf_list_length\":\"3\"}", 
 "cmd": "runserverobj", 
 "ddf_list_length": "3", 
 "docs": "{\"modified_by\":\"Administrator\",\"name\":\"Dynamic Docfield Loading\",\"creation\":\"2017-08-30 20:21:08.483161\",\"modified\":\"2017-09-02 21:20:42.431621\",\"doctype\":\"Dynamic Docfield Loading\",\"idx\":\"0\",\"owner\":\"Administrator\",\"docstatus\":0,\"__last_sync_on\":\"2017-09-03T01:27:03.354Z\"}", 
 "method": "handle_ddf_inputs"
}
Request Error
Traceback (most recent call last):
  File "/home/tyler/frappe-bench/apps/frappe/frappe/app.py", line 55, in application
    response = frappe.handler.handle()
  File "/home/tyler/frappe-bench/apps/frappe/frappe/handler.py", line 21, in handle
    data = execute_cmd(cmd)
  File "/home/tyler/frappe-bench/apps/frappe/frappe/handler.py", line 52, in execute_cmd
    return frappe.call(method, **frappe.form_dict)
  File "/home/tyler/frappe-bench/apps/frappe/frappe/__init__.py", line 907, in call
    return fn(*args, **newargs)
  File "/home/tyler/frappe-bench/apps/frappe/frappe/handler.py", line 80, in runserverobj
    frappe.desk.form.run_method.runserverobj(method, docs=docs, dt=dt, dn=dn, arg=arg, args=args)
  File "/home/tyler/frappe-bench/apps/frappe/frappe/desk/form/run_method.py", line 22, in runserverobj
    doc.check_if_latest()
  File "/home/tyler/frappe-bench/apps/frappe/frappe/model/document.py", line 517, in check_if_latest
    where doctype=%s and field='modified' for update''', self.doctype)
  File "/home/tyler/frappe-bench/apps/frappe/frappe/database.py", line 138, in sql
    self._cursor.execute(query, values)
  File "/home/tyler/frappe-bench/env/local/lib/python2.7/site-packages/MySQLdb/cursors.py", line 250, in execute
    self.errorhandler(self, exc, value)
  File "/home/tyler/frappe-bench/env/local/lib/python2.7/site-packages/MySQLdb/connections.py", line 42, in defaulterrorhandler
    raise errorvalue
OperationalError: (1213, 'Deadlock found when trying to get lock; try restarting transaction')
[ERROR] 2017-09-02 21:27:27,071 | /home/tyler/frappe-bench/apps/frappe/frappe/utils/error.py:
Could not take error snapshot: 'connection'
Traceback (most recent call last):
  File "/home/tyler/frappe-bench/apps/frappe/frappe/utils/error.py", line 36, in make_error_snapshot
    snapshot = get_snapshot(exception)
  File "/home/tyler/frappe-bench/apps/frappe/frappe/utils/error.py", line 81, in get_snapshot
    call = inspect.formatargvalues(args, varargs, varkw, locals, formatvalue=lambda value: '={}'.format(pydoc.text.repr(value)))
  File "/usr/lib/python2.7/inspect.py", line 888, in formatargvalues
    specs.append(strseq(args[i], convert, join))
  File "/usr/lib/python2.7/inspect.py", line 843, in strseq
    return convert(object)
  File "/usr/lib/python2.7/inspect.py", line 885, in convert
    return formatarg(name) + formatvalue(locals[name])
KeyError: 'connection'
[ERROR] 2017-09-02 21:27:37,254 | /home/tyler/frappe-bench/apps/frappe/frappe/app.py:
Site: silverbell
Form Dict: {
 "args": "{\"ddf_list_length\":\"3\"}", 
 "cmd": "runserverobj", 
 "ddf_list_length": "3", 
 "docs": "{\"modified_by\":\"Administrator\",\"name\":\"Dynamic Docfield Loading\",\"creation\":\"2017-08-30 20:21:08.483161\",\"modified\":\"2017-09-02 21:27:26.857426\",\"doctype\":\"Dynamic Docfield Loading\",\"idx\":\"0\",\"owner\":\"Administrator\",\"docstatus\":0,\"__last_sync_on\":\"2017-09-03T01:27:33.267Z\"}", 
 "method": "handle_ddf_inputs"
}
Request Error
Traceback (most recent call last):
  File "/home/tyler/frappe-bench/apps/frappe/frappe/app.py", line 55, in application
    response = frappe.handler.handle()
  File "/home/tyler/frappe-bench/apps/frappe/frappe/handler.py", line 21, in handle
    data = execute_cmd(cmd)
  File "/home/tyler/frappe-bench/apps/frappe/frappe/handler.py", line 52, in execute_cmd
    return frappe.call(method, **frappe.form_dict)
  File "/home/tyler/frappe-bench/apps/frappe/frappe/__init__.py", line 907, in call
    return fn(*args, **newargs)
  File "/home/tyler/frappe-bench/apps/frappe/frappe/handler.py", line 80, in runserverobj
    frappe.desk.form.run_method.runserverobj(method, docs=docs, dt=dt, dn=dn, arg=arg, args=args)
  File "/home/tyler/frappe-bench/apps/frappe/frappe/desk/form/run_method.py", line 41, in runserverobj
    r = doc.run_method(method, **args)
  File "/home/tyler/frappe-bench/apps/frappe/frappe/model/document.py", line 666, in run_method
    out = Document.hook(fn)(self, *args, **kwargs)
  File "/home/tyler/frappe-bench/apps/frappe/frappe/model/document.py", line 892, in composer
    return composed(self, method, *args, **kwargs)
  File "/home/tyler/frappe-bench/apps/frappe/frappe/model/document.py", line 875, in runner
    add_to_return_value(self, fn(self, *args, **kwargs))
  File "/home/tyler/frappe-bench/apps/frappe/frappe/model/document.py", line 660, in <lambda>
    fn = lambda self, *args, **kwargs: getattr(self, method)(*args, **kwargs)
  File "/home/tyler/frappe-bench/apps/at_livestock/at_livestock/livestock/doctype/dynamic_docfield_loading/dynamic_docfield_loading.py", line 22, in handle_ddf_inputs
    frappe.msgprint(str(self.ddf_list_0))
AttributeError: 'DynamicDocfieldLoading' object has no attribute 'ddf_list_0'
[ERROR] 2017-09-02 21:27:37,340 | /home/tyler/frappe-bench/apps/frappe/frappe/utils/error.py:
New Exception collected with id: 2017-09-02 21:27:37.254889-127.0.0.1-646
[ERROR] 2017-09-02 21:28:08,094 | /home/tyler/frappe-bench/apps/frappe/frappe/app.py:
Site: silverbell
Form Dict: {
 "args": "{\"ddf_list_length\":\"3\"}", 
 "cmd": "runserverobj", 
 "ddf_list_length": "3", 
 "docs": "{\"modified_by\":\"Administrator\",\"name\":\"Dynamic Docfield Loading\",\"parent\":null,\"creation\":\"2017-08-30 20:21:08.483161\",\"modified\":\"2017-09-02 21:27:37.278568\",\"doctype\":\"Dynamic Docfield Loading\",\"idx\":\"0\",\"parenttype\":null,\"owner\":\"Administrator\",\"docstatus\":0,\"parentfield\":null,\"__last_sync_on\":\"2017-09-03T01:27:37.584Z\"}", 
 "method": "handle_ddf_inputs"
}
Request Error
Traceback (most recent call last):
  File "/home/tyler/frappe-bench/apps/frappe/frappe/app.py", line 55, in application
    response = frappe.handler.handle()
  File "/home/tyler/frappe-bench/apps/frappe/frappe/handler.py", line 21, in handle
    data = execute_cmd(cmd)
  File "/home/tyler/frappe-bench/apps/frappe/frappe/handler.py", line 52, in execute_cmd
    return frappe.call(method, **frappe.form_dict)
  File "/home/tyler/frappe-bench/apps/frappe/frappe/__init__.py", line 907, in call
    return fn(*args, **newargs)
  File "/home/tyler/frappe-bench/apps/frappe/frappe/handler.py", line 80, in runserverobj
    frappe.desk.form.run_method.runserverobj(method, docs=docs, dt=dt, dn=dn, arg=arg, args=args)
  File "/home/tyler/frappe-bench/apps/frappe/frappe/desk/form/run_method.py", line 22, in runserverobj
    doc.check_if_latest()
  File "/home/tyler/frappe-bench/apps/frappe/frappe/model/document.py", line 517, in check_if_latest
    where doctype=%s and field='modified' for update''', self.doctype)
  File "/home/tyler/frappe-bench/apps/frappe/frappe/database.py", line 138, in sql
    self._cursor.execute(query, values)
  File "/home/tyler/frappe-bench/env/local/lib/python2.7/site-packages/MySQLdb/cursors.py", line 250, in execute
    self.errorhandler(self, exc, value)
  File "/home/tyler/frappe-bench/env/local/lib/python2.7/site-packages/MySQLdb/connections.py", line 42, in defaulterrorhandler
    raise errorvalue
OperationalError: (1213, 'Deadlock found when trying to get lock; try restarting transaction')
[ERROR] 2017-09-02 21:28:08,218 | /home/tyler/frappe-bench/apps/frappe/frappe/utils/error.py:
Could not take error snapshot: 'connection'
Traceback (most recent call last):
  File "/home/tyler/frappe-bench/apps/frappe/frappe/utils/error.py", line 36, in make_error_snapshot
    snapshot = get_snapshot(exception)
  File "/home/tyler/frappe-bench/apps/frappe/frappe/utils/error.py", line 81, in get_snapshot
    call = inspect.formatargvalues(args, varargs, varkw, locals, formatvalue=lambda value: '={}'.format(pydoc.text.repr(value)))
  File "/usr/lib/python2.7/inspect.py", line 888, in formatargvalues
    specs.append(strseq(args[i], convert, join))
  File "/usr/lib/python2.7/inspect.py", line 843, in strseq
    return convert(object)
  File "/usr/lib/python2.7/inspect.py", line 885, in convert
    return formatarg(name) + formatvalue(locals[name])
KeyError: 'connection'
[ERROR] 2017-09-02 21:28:20,417 | /home/tyler/frappe-bench/apps/frappe/frappe/app.py:
Site: silverbell
Form Dict: {
 "args": "{\"ddf_list_length\":\"3\"}", 
 "cmd": "runserverobj", 
 "ddf_list_length": "3", 
 "docs": "{\"modified_by\":\"Administrator\",\"name\":\"Dynamic Docfield Loading\",\"creation\":\"2017-08-30 20:21:08.483161\",\"modified\":\"2017-09-02 21:28:08.015830\",\"doctype\":\"Dynamic Docfield Loading\",\"idx\":\"0\",\"owner\":\"Administrator\",\"docstatus\":0,\"__last_sync_on\":\"2017-09-03T01:28:14.395Z\"}", 
 "method": "handle_ddf_inputs"
}
Request Error
Traceback (most recent call last):
  File "/home/tyler/frappe-bench/apps/frappe/frappe/app.py", line 55, in application
    response = frappe.handler.handle()
  File "/home/tyler/frappe-bench/apps/frappe/frappe/handler.py", line 21, in handle
    data = execute_cmd(cmd)
  File "/home/tyler/frappe-bench/apps/frappe/frappe/handler.py", line 52, in execute_cmd
    return frappe.call(method, **frappe.form_dict)
  File "/home/tyler/frappe-bench/apps/frappe/frappe/__init__.py", line 907, in call
    return fn(*args, **newargs)
  File "/home/tyler/frappe-bench/apps/frappe/frappe/handler.py", line 80, in runserverobj
    frappe.desk.form.run_method.runserverobj(method, docs=docs, dt=dt, dn=dn, arg=arg, args=args)
  File "/home/tyler/frappe-bench/apps/frappe/frappe/desk/form/run_method.py", line 41, in runserverobj
    r = doc.run_method(method, **args)
  File "/home/tyler/frappe-bench/apps/frappe/frappe/model/document.py", line 666, in run_method
    out = Document.hook(fn)(self, *args, **kwargs)
  File "/home/tyler/frappe-bench/apps/frappe/frappe/model/document.py", line 892, in composer
    return composed(self, method, *args, **kwargs)
  File "/home/tyler/frappe-bench/apps/frappe/frappe/model/document.py", line 875, in runner
    add_to_return_value(self, fn(self, *args, **kwargs))
  File "/home/tyler/frappe-bench/apps/frappe/frappe/model/document.py", line 660, in <lambda>
    fn = lambda self, *args, **kwargs: getattr(self, method)(*args, **kwargs)
  File "/home/tyler/frappe-bench/apps/at_livestock/at_livestock/livestock/doctype/dynamic_docfield_loading/dynamic_docfield_loading.py", line 22, in handle_ddf_inputs
    frappe.msgprint(str(self.ddf_list_0))
AttributeError: 'DynamicDocfieldLoading' object has no attribute 'ddf_list_0'
[ERROR] 2017-09-02 21:28:20,492 | /home/tyler/frappe-bench/apps/frappe/frappe/utils/error.py:
New Exception collected with id: 2017-09-02 21:28:20.418608-127.0.0.1-a3c
[ERROR] 2017-09-02 21:28:54,996 | /home/tyler/frappe-bench/apps/frappe/frappe/app.py:
Site: silverbell
Form Dict: {
 "args": "{\"ddf_list_length\":\"3\"}", 
 "cmd": "runserverobj", 
 "ddf_list_length": "3", 
 "docs": "{\"modified_by\":\"Administrator\",\"name\":\"Dynamic Docfield Loading\",\"creation\":\"2017-08-30 20:21:08.483161\",\"modified\":\"2017-09-02 21:28:20.426790\",\"doctype\":\"Dynamic Docfield Loading\",\"idx\":\"0\",\"owner\":\"Administrator\",\"docstatus\":0,\"__last_sync_on\":\"2017-09-03T01:28:49.942Z\"}", 
 "method": "handle_ddf_inputs"
}
Request Error
Traceback (most recent call last):
  File "/home/tyler/frappe-bench/apps/frappe/frappe/app.py", line 55, in application
    response = frappe.handler.handle()
  File "/home/tyler/frappe-bench/apps/frappe/frappe/handler.py", line 21, in handle
    data = execute_cmd(cmd)
  File "/home/tyler/frappe-bench/apps/frappe/frappe/handler.py", line 52, in execute_cmd
    return frappe.call(method, **frappe.form_dict)
  File "/home/tyler/frappe-bench/apps/frappe/frappe/__init__.py", line 907, in call
    return fn(*args, **newargs)
  File "/home/tyler/frappe-bench/apps/frappe/frappe/handler.py", line 80, in runserverobj
    frappe.desk.form.run_method.runserverobj(method, docs=docs, dt=dt, dn=dn, arg=arg, args=args)
  File "/home/tyler/frappe-bench/apps/frappe/frappe/desk/form/run_method.py", line 41, in runserverobj
    r = doc.run_method(method, **args)
  File "/home/tyler/frappe-bench/apps/frappe/frappe/model/document.py", line 666, in run_method
    out = Document.hook(fn)(self, *args, **kwargs)
  File "/home/tyler/frappe-bench/apps/frappe/frappe/model/document.py", line 892, in composer
    return composed(self, method, *args, **kwargs)
  File "/home/tyler/frappe-bench/apps/frappe/frappe/model/document.py", line 875, in runner
    add_to_return_value(self, fn(self, *args, **kwargs))
  File "/home/tyler/frappe-bench/apps/frappe/frappe/model/document.py", line 660, in <lambda>
    fn = lambda self, *args, **kwargs: getattr(self, method)(*args, **kwargs)
  File "/home/tyler/frappe-bench/apps/at_livestock/at_livestock/livestock/doctype/dynamic_docfield_loading/dynamic_docfield_loading.py", line 22, in handle_ddf_inputs
    frappe.msgprint(str(ddf_list_0))
NameError: global name 'ddf_list_0' is not defined
[ERROR] 2017-09-02 21:28:55,065 | /home/tyler/frappe-bench/apps/frappe/frappe/utils/error.py:
New Exception collected with id: 2017-09-02 21:28:54.996639-127.0.0.1-02f
[ERROR] 2017-09-02 21:29:23,488 | /home/tyler/frappe-bench/apps/frappe/frappe/app.py:
Site: silverbell
Form Dict: {
 "args": "{\"ddf_list_length\":\"3\"}", 
 "cmd": "runserverobj", 
 "ddf_list_length": "3", 
 "docs": "{\"modified_by\":\"Administrator\",\"name\":\"Dynamic Docfield Loading\",\"parent\":null,\"creation\":\"2017-08-30 20:21:08.483161\",\"modified\":\"2017-09-02 21:28:54.992805\",\"doctype\":\"Dynamic Docfield Loading\",\"idx\":\"0\",\"parenttype\":null,\"owner\":\"Administrator\",\"docstatus\":0,\"parentfield\":null,\"__last_sync_on\":\"2017-09-03T01:28:55.335Z\"}", 
 "method": "handle_ddf_inputs"
}
Request Error
Traceback (most recent call last):
  File "/home/tyler/frappe-bench/apps/frappe/frappe/app.py", line 55, in application
    response = frappe.handler.handle()
  File "/home/tyler/frappe-bench/apps/frappe/frappe/handler.py", line 21, in handle
    data = execute_cmd(cmd)
  File "/home/tyler/frappe-bench/apps/frappe/frappe/handler.py", line 52, in execute_cmd
    return frappe.call(method, **frappe.form_dict)
  File "/home/tyler/frappe-bench/apps/frappe/frappe/__init__.py", line 907, in call
    return fn(*args, **newargs)
  File "/home/tyler/frappe-bench/apps/frappe/frappe/handler.py", line 80, in runserverobj
    frappe.desk.form.run_method.runserverobj(method, docs=docs, dt=dt, dn=dn, arg=arg, args=args)
  File "/home/tyler/frappe-bench/apps/frappe/frappe/desk/form/run_method.py", line 41, in runserverobj
    r = doc.run_method(method, **args)
  File "/home/tyler/frappe-bench/apps/frappe/frappe/model/document.py", line 666, in run_method
    out = Document.hook(fn)(self, *args, **kwargs)
  File "/home/tyler/frappe-bench/apps/frappe/frappe/model/document.py", line 892, in composer
    return composed(self, method, *args, **kwargs)
  File "/home/tyler/frappe-bench/apps/frappe/frappe/model/document.py", line 875, in runner
    add_to_return_value(self, fn(self, *args, **kwargs))
  File "/home/tyler/frappe-bench/apps/frappe/frappe/model/document.py", line 660, in <lambda>
    fn = lambda self, *args, **kwargs: getattr(self, method)(*args, **kwargs)
  File "/home/tyler/frappe-bench/apps/at_livestock/at_livestock/livestock/doctype/dynamic_docfield_loading/dynamic_docfield_loading.py", line 22, in handle_ddf_inputs
    frappe.msgprint(str(ddf_list_0))
NameError: global name 'ddf_list_0' is not defined
[ERROR] 2017-09-02 21:29:23,556 | /home/tyler/frappe-bench/apps/frappe/frappe/utils/error.py:
New Exception collected with id: 2017-09-02 21:29:23.490529-127.0.0.1-571
