{
 "auto_update": false, 
 "background_workers": 1, 
 "file_watcher_port": 6787, 
 "frappe_user": "tyler", 
 "gunicorn_workers": 4, 
 "rebase_on_pull": false, 
 "redis_cache": "redis://localhost:13000", 
 "redis_queue": "redis://localhost:11000", 
 "redis_socketio": "redis://localhost:12000", 
 "restart_supervisor_on_update": false, 
 "serve_default_site": true, 
 "shallow_clone": true, 
 "socketio_port": 9000, 
 "update_bench_on_update": true, 
 "webserver_port": 8000
}